Dec 24 05:59:53 CONTAINER ID   NAME        CPU %     MEM USAGE / LIMIT     MEM %     NET I/O       BLOCK I/O       PIDS
Dec 24 05:59:53 175a7162e018   portainer   0.09%     16.98MiB / 15.66GiB   0.11%     12.3kB / 0B   58.3MB / 16MB   7
Dec 24 05:59:53                --          0.00%     0B / 0B               0.00%     0B / 0B       0B / 0B         0
Dec 24 05:59:57 CONTAINER ID   NAME                    CPU %     MEM USAGE / LIMIT     MEM %     NET I/O       BLOCK I/O       PIDS
Dec 24 05:59:57 70fde173a7f1   prov_aic_janusgraph_1   236.64%   676MiB / 15.66GiB     4.21%     4.9kB / 0B    0B / 233kB      21
Dec 24 05:59:57 175a7162e018   portainer               0.00%     16.98MiB / 15.66GiB   0.11%     12.3kB / 0B   58.3MB / 16MB   7
Dec 24 06:00:01 CONTAINER ID   NAME                    CPU %     MEM USAGE / LIMIT     MEM %     NET I/O       BLOCK I/O       PIDS
Dec 24 06:00:01 70fde173a7f1   prov_aic_janusgraph_1   292.05%   742MiB / 15.66GiB     4.63%     6.46kB / 0B   0B / 233kB      22
Dec 24 06:00:01 175a7162e018   portainer               0.00%     16.98MiB / 15.66GiB   0.11%     12.3kB / 0B   58.3MB / 16MB   7
Dec 24 06:00:04 CONTAINER ID   NAME                    CPU %     MEM USAGE / LIMIT     MEM %     NET I/O       BLOCK I/O       PIDS
Dec 24 06:00:04 70fde173a7f1   prov_aic_janusgraph_1   182.09%   130.7MiB / 15.66GiB   0.82%     6.76kB / 0B   0B / 332kB      16
Dec 24 06:00:04 175a7162e018   portainer               0.11%     16.98MiB / 15.66GiB   0.11%     12.3kB / 0B   58.3MB / 16MB   7
Dec 24 06:00:07 CONTAINER ID   NAME                    CPU %     MEM USAGE / LIMIT     MEM %     NET I/O       BLOCK I/O       PIDS
Dec 24 06:00:07 70fde173a7f1   prov_aic_janusgraph_1   305.57%   692.5MiB / 15.66GiB   4.32%     6.76kB / 0B   0B / 332kB      21
Dec 24 06:00:07 175a7162e018   portainer               0.00%     16.98MiB / 15.66GiB   0.11%     12.3kB / 0B   58.3MB / 16MB   7
Dec 24 06:00:10 CONTAINER ID   NAME                    CPU %     MEM USAGE / LIMIT     MEM %     NET I/O       BLOCK I/O       PIDS
Dec 24 06:00:10 70fde173a7f1   prov_aic_janusgraph_1   191.69%   722.8MiB / 15.66GiB   4.51%     6.92kB / 0B   0B / 332kB      22
Dec 24 06:00:10 175a7162e018   portainer               0.00%     16.98MiB / 15.66GiB   0.11%     12.4kB / 0B   58.3MB / 16MB   7
Dec 24 06:00:14 CONTAINER ID   NAME                    CPU %     MEM USAGE / LIMIT     MEM %     NET I/O       BLOCK I/O       PIDS
Dec 24 06:00:14 70fde173a7f1   prov_aic_janusgraph_1   0.32%     715.9MiB / 15.66GiB   4.46%     7.13kB / 0B   0B / 332kB      22
Dec 24 06:00:14 175a7162e018   portainer               1.66%     17.01MiB / 15.66GiB   0.11%     12.4kB / 0B   58.3MB / 16MB   7
Dec 24 06:00:18 CONTAINER ID   NAME                    CPU %     MEM USAGE / LIMIT     MEM %     NET I/O       BLOCK I/O       PIDS
Dec 24 06:00:18 70fde173a7f1   prov_aic_janusgraph_1   0.09%     715.9MiB / 15.66GiB   4.46%     7.13kB / 0B   0B / 332kB      22
Dec 24 06:00:18 175a7162e018   portainer               0.00%     17.01MiB / 15.66GiB   0.11%     12.4kB / 0B   58.3MB / 16MB   7
Dec 24 06:00:20 CONTAINER ID   NAME                    CPU %     MEM USAGE / LIMIT     MEM %     NET I/O       BLOCK I/O       PIDS
Dec 24 06:00:20 70fde173a7f1   prov_aic_janusgraph_1   0.09%     715.9MiB / 15.66GiB   4.46%     7.13kB / 0B   0B / 332kB      22
Dec 24 06:00:20 175a7162e018   portainer               0.00%     17.01MiB / 15.66GiB   0.11%     12.4kB / 0B   58.3MB / 16MB   7
Dec 24 06:00:24 CONTAINER ID   NAME                    CPU %     MEM USAGE / LIMIT     MEM %     NET I/O       BLOCK I/O       PIDS
Dec 24 06:00:24 70fde173a7f1   prov_aic_janusgraph_1   0.10%     715.9MiB / 15.66GiB   4.46%     7.2kB / 0B    0B / 332kB      22
Dec 24 06:00:24 175a7162e018   portainer               0.11%     17.01MiB / 15.66GiB   0.11%     12.4kB / 0B   58.3MB / 16MB   7
Dec 24 06:00:27 CONTAINER ID   NAME                    CPU %     MEM USAGE / LIMIT     MEM %     NET I/O       BLOCK I/O       PIDS
Dec 24 06:00:27 70fde173a7f1   prov_aic_janusgraph_1   0.11%     715.9MiB / 15.66GiB   4.46%     7.5kB / 0B    0B / 332kB      22
Dec 24 06:00:27 175a7162e018   portainer               0.00%     17.01MiB / 15.66GiB   0.11%     12.4kB / 0B   58.3MB / 16MB   7
Dec 24 06:00:31 CONTAINER ID   NAME                    CPU %     MEM USAGE / LIMIT     MEM %     NET I/O       BLOCK I/O       PIDS
Dec 24 06:00:31 70fde173a7f1   prov_aic_janusgraph_1   0.10%     715.9MiB / 15.66GiB   4.46%     7.5kB / 0B    0B / 332kB      22
Dec 24 06:00:31 175a7162e018   portainer               0.00%     17.01MiB / 15.66GiB   0.11%     12.4kB / 0B   58.3MB / 16MB   7
Dec 24 06:00:35 CONTAINER ID   NAME                    CPU %     MEM USAGE / LIMIT     MEM %     NET I/O         BLOCK I/O       PIDS
Dec 24 06:00:35 70fde173a7f1   prov_aic_janusgraph_1   18.64%    720.1MiB / 15.66GiB   4.49%     8.47kB / 712B   0B / 332kB      24
Dec 24 06:00:35 175a7162e018   portainer               0.02%     17.01MiB / 15.66GiB   0.11%     12.4kB / 0B     58.3MB / 16MB   7
Dec 24 06:00:38 CONTAINER ID   NAME                    CPU %     MEM USAGE / LIMIT     MEM %     NET I/O          BLOCK I/O       PIDS
Dec 24 06:00:38 70fde173a7f1   prov_aic_janusgraph_1   34.87%    731.4MiB / 15.66GiB   4.56%     14.6kB / 4.4kB   0B / 332kB      44
Dec 24 06:00:38 175a7162e018   portainer               0.01%     17.01MiB / 15.66GiB   0.11%     12.4kB / 0B      58.3MB / 16MB   7
Dec 24 06:00:42 CONTAINER ID   NAME                    CPU %     MEM USAGE / LIMIT     MEM %     NET I/O         BLOCK I/O       PIDS
Dec 24 06:00:42 70fde173a7f1   prov_aic_janusgraph_1   134.38%   733.3MiB / 15.66GiB   4.57%     300kB / 137kB   0B / 332kB      54
Dec 24 06:00:42 175a7162e018   portainer               0.00%     17.01MiB / 15.66GiB   0.11%     12.4kB / 0B     58.3MB / 16MB   7
Dec 24 06:00:46 CONTAINER ID   NAME                    CPU %     MEM USAGE / LIMIT     MEM %     NET I/O         BLOCK I/O       PIDS
Dec 24 06:00:46 70fde173a7f1   prov_aic_janusgraph_1   90.37%    737.4MiB / 15.66GiB   4.60%     492kB / 227kB   0B / 332kB      54
Dec 24 06:00:46 175a7162e018   portainer               0.00%     17.02MiB / 15.66GiB   0.11%     12.4kB / 0B     58.3MB / 16MB   7
Dec 24 06:00:49 CONTAINER ID   NAME                    CPU %     MEM USAGE / LIMIT     MEM %     NET I/O         BLOCK I/O       PIDS
Dec 24 06:00:49 70fde173a7f1   prov_aic_janusgraph_1   123.79%   736.5MiB / 15.66GiB   4.59%     618kB / 285kB   0B / 332kB      54
Dec 24 06:00:49 175a7162e018   portainer               0.02%     17.02MiB / 15.66GiB   0.11%     12.4kB / 0B     58.3MB / 16MB   7
Dec 24 06:00:53 CONTAINER ID   NAME                    CPU %     MEM USAGE / LIMIT     MEM %     NET I/O         BLOCK I/O       PIDS
Dec 24 06:00:53 70fde173a7f1   prov_aic_janusgraph_1   0.12%     743.9MiB / 15.66GiB   4.64%     697kB / 322kB   0B / 332kB      54
Dec 24 06:00:53 175a7162e018   portainer               0.00%     17.02MiB / 15.66GiB   0.11%     12.4kB / 0B     58.3MB / 16MB   7
Dec 24 06:00:56 CONTAINER ID   NAME                    CPU %     MEM USAGE / LIMIT     MEM %     NET I/O         BLOCK I/O       PIDS
Dec 24 06:00:56 70fde173a7f1   prov_aic_janusgraph_1   61.99%    745MiB / 15.66GiB     4.64%     938kB / 435kB   0B / 332kB      54
Dec 24 06:00:56 175a7162e018   portainer               0.00%     17.03MiB / 15.66GiB   0.11%     12.4kB / 0B     58.3MB / 16MB   7
Dec 24 06:01:00 CONTAINER ID   NAME                    CPU %     MEM USAGE / LIMIT     MEM %     NET I/O          BLOCK I/O       PIDS
Dec 24 06:01:00 70fde173a7f1   prov_aic_janusgraph_1   39.65%    745.5MiB / 15.66GiB   4.65%     1.14MB / 531kB   0B / 332kB      54
Dec 24 06:01:00 175a7162e018   portainer               0.00%     17.03MiB / 15.66GiB   0.11%     12.4kB / 0B      58.3MB / 16MB   7
Dec 24 06:01:04 CONTAINER ID   NAME                    CPU %     MEM USAGE / LIMIT     MEM %     NET I/O          BLOCK I/O       PIDS
Dec 24 06:01:04 70fde173a7f1   prov_aic_janusgraph_1   49.11%    745.5MiB / 15.66GiB   4.65%     1.29MB / 598kB   0B / 332kB      54
Dec 24 06:01:04 175a7162e018   portainer               0.02%     17.03MiB / 15.66GiB   0.11%     12.4kB / 0B      58.3MB / 16MB   7
Dec 24 06:01:07 CONTAINER ID   NAME                    CPU %     MEM USAGE / LIMIT     MEM %     NET I/O          BLOCK I/O       PIDS
Dec 24 06:01:07 70fde173a7f1   prov_aic_janusgraph_1   0.23%     745.6MiB / 15.66GiB   4.65%     1.35MB / 626kB   0B / 332kB      54
Dec 24 06:01:07 175a7162e018   portainer               0.00%     17.03MiB / 15.66GiB   0.11%     12.4kB / 0B      58.3MB / 16MB   7
Dec 24 06:01:11 CONTAINER ID   NAME                    CPU %     MEM USAGE / LIMIT     MEM %     NET I/O          BLOCK I/O       PIDS
Dec 24 06:01:11 70fde173a7f1   prov_aic_janusgraph_1   5.10%     759.9MiB / 15.66GiB   4.74%     1.56MB / 727kB   0B / 332kB      54
Dec 24 06:01:11 175a7162e018   portainer               0.00%     17.03MiB / 15.66GiB   0.11%     12.4kB / 0B      58.3MB / 16MB   7
Dec 24 06:01:14 CONTAINER ID   NAME                    CPU %     MEM USAGE / LIMIT     MEM %     NET I/O          BLOCK I/O       PIDS
Dec 24 06:01:14 70fde173a7f1   prov_aic_janusgraph_1   48.59%    760.1MiB / 15.66GiB   4.74%     1.69MB / 786kB   0B / 332kB      54
Dec 24 06:01:14 175a7162e018   portainer               0.00%     17.03MiB / 15.66GiB   0.11%     12.4kB / 0B      58.3MB / 16MB   7
Dec 24 06:01:18 CONTAINER ID   NAME                    CPU %     MEM USAGE / LIMIT     MEM %     NET I/O         BLOCK I/O       PIDS
Dec 24 06:01:18 70fde173a7f1   prov_aic_janusgraph_1   31.22%    763.5MiB / 15.66GiB   4.76%     1.8MB / 837kB   0B / 332kB      54
Dec 24 06:01:18 175a7162e018   portainer               0.00%     17.03MiB / 15.66GiB   0.11%     12.4kB / 0B     58.3MB / 16MB   7
Dec 24 06:01:22 CONTAINER ID   NAME                    CPU %     MEM USAGE / LIMIT     MEM %     NET I/O          BLOCK I/O       PIDS
Dec 24 06:01:22 70fde173a7f1   prov_aic_janusgraph_1   2.58%     763.7MiB / 15.66GiB   4.76%     1.97MB / 918kB   0B / 332kB      54
Dec 24 06:01:22 175a7162e018   portainer               0.00%     17.03MiB / 15.66GiB   0.11%     12.4kB / 0B      58.3MB / 16MB   7
Dec 24 06:01:25 CONTAINER ID   NAME                    CPU %     MEM USAGE / LIMIT     MEM %     NET I/O           BLOCK I/O       PIDS
Dec 24 06:01:25 70fde173a7f1   prov_aic_janusgraph_1   1.59%     763.9MiB / 15.66GiB   4.76%     2.17MB / 1.01MB   0B / 332kB      54
Dec 24 06:01:25 175a7162e018   portainer               0.00%     17.03MiB / 15.66GiB   0.11%     12.4kB / 0B       58.3MB / 16MB   7
Dec 24 06:01:29 CONTAINER ID   NAME                    CPU %     MEM USAGE / LIMIT     MEM %     NET I/O          BLOCK I/O       PIDS
Dec 24 06:01:29 70fde173a7f1   prov_aic_janusgraph_1   27.06%    764MiB / 15.66GiB     4.76%     2.36MB / 1.1MB   0B / 332kB      54
Dec 24 06:01:29 175a7162e018   portainer               0.01%     17.03MiB / 15.66GiB   0.11%     12.4kB / 0B      58.3MB / 16MB   7
Dec 24 06:01:32 CONTAINER ID   NAME                    CPU %     MEM USAGE / LIMIT     MEM %     NET I/O          BLOCK I/O       PIDS
Dec 24 06:01:32 70fde173a7f1   prov_aic_janusgraph_1   0.10%     763.9MiB / 15.66GiB   4.76%     2.37MB / 1.1MB   0B / 332kB      54
Dec 24 06:01:32 175a7162e018   portainer               0.00%     17.03MiB / 15.66GiB   0.11%     12.4kB / 0B      58.3MB / 16MB   7
Dec 24 06:01:36 CONTAINER ID   NAME                    CPU %     MEM USAGE / LIMIT     MEM %     NET I/O          BLOCK I/O       PIDS
Dec 24 06:01:36 70fde173a7f1   prov_aic_janusgraph_1   0.26%     764.1MiB / 15.66GiB   4.76%     2.57MB / 1.2MB   0B / 332kB      54
Dec 24 06:01:36 175a7162e018   portainer               0.00%     17.03MiB / 15.66GiB   0.11%     12.4kB / 0B      58.3MB / 16MB   7
Dec 24 06:01:40 CONTAINER ID   NAME                    CPU %     MEM USAGE / LIMIT     MEM %     NET I/O           BLOCK I/O       PIDS
Dec 24 06:01:40 70fde173a7f1   prov_aic_janusgraph_1   41.29%    764.1MiB / 15.66GiB   4.76%     2.78MB / 1.29MB   0B / 332kB      54
Dec 24 06:01:40 175a7162e018   portainer               0.00%     17.03MiB / 15.66GiB   0.11%     12.4kB / 0B       58.3MB / 16MB   7
Dec 24 06:01:43 CONTAINER ID   NAME                    CPU %     MEM USAGE / LIMIT     MEM %     NET I/O           BLOCK I/O       PIDS
Dec 24 06:01:43 70fde173a7f1   prov_aic_janusgraph_1   37.71%    764.1MiB / 15.66GiB   4.76%     2.98MB / 1.39MB   0B / 332kB      54
Dec 24 06:01:43 175a7162e018   portainer               0.00%     17.03MiB / 15.66GiB   0.11%     12.4kB / 0B       58.3MB / 16MB   7
Dec 24 06:01:47 CONTAINER ID   NAME                    CPU %     MEM USAGE / LIMIT     MEM %     NET I/O           BLOCK I/O       PIDS
Dec 24 06:01:47 70fde173a7f1   prov_aic_janusgraph_1   0.11%     764.1MiB / 15.66GiB   4.76%     2.98MB / 1.39MB   0B / 332kB      54
Dec 24 06:01:47 175a7162e018   portainer               0.00%     17.04MiB / 15.66GiB   0.11%     12.4kB / 0B       58.3MB / 16MB   7
Dec 24 06:01:50 CONTAINER ID   NAME                    CPU %     MEM USAGE / LIMIT     MEM %     NET I/O          BLOCK I/O       PIDS
Dec 24 06:01:50 70fde173a7f1   prov_aic_janusgraph_1   0.13%     764.1MiB / 15.66GiB   4.76%     3.22MB / 1.5MB   0B / 332kB      54
Dec 24 06:01:50 175a7162e018   portainer               0.00%     17.04MiB / 15.66GiB   0.11%     12.4kB / 0B      58.3MB / 16MB   7
Dec 24 06:01:54 CONTAINER ID   NAME                    CPU %     MEM USAGE / LIMIT     MEM %     NET I/O           BLOCK I/O       PIDS
Dec 24 06:01:54 70fde173a7f1   prov_aic_janusgraph_1   3.99%     766.4MiB / 15.66GiB   4.78%     3.41MB / 1.59MB   0B / 332kB      54
Dec 24 06:01:54 175a7162e018   portainer               0.10%     17.04MiB / 15.66GiB   0.11%     12.4kB / 0B       58.3MB / 16MB   7
Dec 24 06:01:58 CONTAINER ID   NAME                    CPU %     MEM USAGE / LIMIT     MEM %     NET I/O           BLOCK I/O       PIDS
Dec 24 06:01:58 70fde173a7f1   prov_aic_janusgraph_1   0.09%     766.4MiB / 15.66GiB   4.78%     3.41MB / 1.59MB   0B / 332kB      54
Dec 24 06:01:58 175a7162e018   portainer               0.02%     17.04MiB / 15.66GiB   0.11%     12.4kB / 0B       58.3MB / 16MB   7
Dec 24 06:02:01 CONTAINER ID   NAME                    CPU %     MEM USAGE / LIMIT     MEM %     NET I/O           BLOCK I/O       PIDS
Dec 24 06:02:01 70fde173a7f1   prov_aic_janusgraph_1   2.26%     766.4MiB / 15.66GiB   4.78%     3.62MB / 1.68MB   0B / 332kB      54
Dec 24 06:02:01 175a7162e018   portainer               0.00%     17.04MiB / 15.66GiB   0.11%     12.4kB / 0B       58.3MB / 16MB   7
Dec 24 06:02:05 CONTAINER ID   NAME                    CPU %     MEM USAGE / LIMIT     MEM %     NET I/O           BLOCK I/O       PIDS
Dec 24 06:02:05 70fde173a7f1   prov_aic_janusgraph_1   0.09%     766.4MiB / 15.66GiB   4.78%     3.82MB / 1.78MB   0B / 332kB      54
Dec 24 06:02:05 175a7162e018   portainer               0.09%     17.04MiB / 15.66GiB   0.11%     12.4kB / 0B       58.3MB / 16MB   7
Dec 24 06:02:08 CONTAINER ID   NAME                    CPU %     MEM USAGE / LIMIT     MEM %     NET I/O           BLOCK I/O       PIDS
Dec 24 06:02:08 70fde173a7f1   prov_aic_janusgraph_1   5.04%     766.4MiB / 15.66GiB   4.78%     4.01MB / 1.87MB   0B / 332kB      54
Dec 24 06:02:08 175a7162e018   portainer               0.00%     17.04MiB / 15.66GiB   0.11%     12.4kB / 0B       58.3MB / 16MB   7
Dec 24 06:02:12 CONTAINER ID   NAME                    CPU %     MEM USAGE / LIMIT     MEM %     NET I/O           BLOCK I/O       PIDS
Dec 24 06:02:12 70fde173a7f1   prov_aic_janusgraph_1   0.24%     766.4MiB / 15.66GiB   4.78%     4.02MB / 1.88MB   0B / 332kB      54
Dec 24 06:02:12 175a7162e018   portainer               0.00%     17.04MiB / 15.66GiB   0.11%     12.4kB / 0B       58.3MB / 16MB   7
Dec 24 06:02:15 CONTAINER ID   NAME                    CPU %     MEM USAGE / LIMIT     MEM %     NET I/O           BLOCK I/O       PIDS
Dec 24 06:02:15 70fde173a7f1   prov_aic_janusgraph_1   1.91%     786.4MiB / 15.66GiB   4.90%     4.25MB / 1.98MB   0B / 332kB      54
Dec 24 06:02:15 175a7162e018   portainer               0.00%     17.04MiB / 15.66GiB   0.11%     12.4kB / 0B       58.3MB / 16MB   7
Dec 24 06:02:19 CONTAINER ID   NAME                    CPU %     MEM USAGE / LIMIT     MEM %     NET I/O           BLOCK I/O       PIDS
Dec 24 06:02:19 70fde173a7f1   prov_aic_janusgraph_1   2.44%     824.5MiB / 15.66GiB   5.14%     4.43MB / 2.07MB   0B / 332kB      54
Dec 24 06:02:19 175a7162e018   portainer               1.77%     16.61MiB / 15.66GiB   0.10%     12.4kB / 0B       58.3MB / 16MB   7
Dec 24 06:02:23 CONTAINER ID   NAME                    CPU %     MEM USAGE / LIMIT     MEM %     NET I/O           BLOCK I/O       PIDS
Dec 24 06:02:23 70fde173a7f1   prov_aic_janusgraph_1   13.49%    832.6MiB / 15.66GiB   5.19%     4.52MB / 2.11MB   0B / 332kB      54
Dec 24 06:02:23 175a7162e018   portainer               0.02%     16.61MiB / 15.66GiB   0.10%     12.4kB / 0B       58.3MB / 16MB   7
Dec 24 06:02:26 CONTAINER ID   NAME                    CPU %     MEM USAGE / LIMIT     MEM %     NET I/O           BLOCK I/O       PIDS
Dec 24 06:02:26 70fde173a7f1   prov_aic_janusgraph_1   0.14%     862.6MiB / 15.66GiB   5.38%     4.66MB / 2.17MB   0B / 332kB      54
Dec 24 06:02:26 175a7162e018   portainer               0.00%     16.61MiB / 15.66GiB   0.10%     12.4kB / 0B       58.3MB / 16MB   7
Dec 24 06:02:30 CONTAINER ID   NAME                    CPU %     MEM USAGE / LIMIT     MEM %     NET I/O           BLOCK I/O       PIDS
Dec 24 06:02:30 70fde173a7f1   prov_aic_janusgraph_1   0.11%     878.6MiB / 15.66GiB   5.48%     4.84MB / 2.26MB   0B / 332kB      54
Dec 24 06:02:30 175a7162e018   portainer               0.00%     16.61MiB / 15.66GiB   0.10%     12.4kB / 0B       58.3MB / 16MB   7
Dec 24 06:02:33 CONTAINER ID   NAME                    CPU %     MEM USAGE / LIMIT     MEM %     NET I/O           BLOCK I/O       PIDS
Dec 24 06:02:33 70fde173a7f1   prov_aic_janusgraph_1   2.49%     878.6MiB / 15.66GiB   5.48%     5.11MB / 2.38MB   0B / 332kB      54
Dec 24 06:02:33 175a7162e018   portainer               0.00%     16.61MiB / 15.66GiB   0.10%     12.4kB / 0B       58.3MB / 16MB   7
Dec 24 06:02:37 CONTAINER ID   NAME                    CPU %     MEM USAGE / LIMIT     MEM %     NET I/O           BLOCK I/O       PIDS
Dec 24 06:02:37 70fde173a7f1   prov_aic_janusgraph_1   2.37%     878.6MiB / 15.66GiB   5.48%     5.12MB / 2.39MB   0B / 332kB      54
Dec 24 06:02:37 175a7162e018   portainer               0.00%     16.61MiB / 15.66GiB   0.10%     12.4kB / 0B       58.3MB / 16MB   7
Dec 24 06:02:41 CONTAINER ID   NAME                    CPU %     MEM USAGE / LIMIT     MEM %     NET I/O           BLOCK I/O       PIDS
Dec 24 06:02:41 70fde173a7f1   prov_aic_janusgraph_1   2.39%     878.6MiB / 15.66GiB   5.48%     5.29MB / 2.47MB   0B / 332kB      54
Dec 24 06:02:41 175a7162e018   portainer               0.00%     16.61MiB / 15.66GiB   0.10%     12.4kB / 0B       58.3MB / 16MB   7
Dec 24 06:02:44 CONTAINER ID   NAME                    CPU %     MEM USAGE / LIMIT     MEM %     NET I/O           BLOCK I/O       PIDS
Dec 24 06:02:44 70fde173a7f1   prov_aic_janusgraph_1   0.11%     878.6MiB / 15.66GiB   5.48%     5.52MB / 2.57MB   0B / 332kB      54
Dec 24 06:02:44 175a7162e018   portainer               0.07%     16.61MiB / 15.66GiB   0.10%     12.4kB / 0B       58.3MB / 16MB   7
Dec 24 06:02:48 CONTAINER ID   NAME                    CPU %     MEM USAGE / LIMIT     MEM %     NET I/O           BLOCK I/O       PIDS
Dec 24 06:02:48 70fde173a7f1   prov_aic_janusgraph_1   1.51%     878.6MiB / 15.66GiB   5.48%     5.68MB / 2.65MB   0B / 332kB      54
Dec 24 06:02:48 175a7162e018   portainer               0.00%     16.61MiB / 15.66GiB   0.10%     12.4kB / 0B       58.3MB / 16MB   7
Dec 24 06:02:51 CONTAINER ID   NAME                    CPU %     MEM USAGE / LIMIT     MEM %     NET I/O           BLOCK I/O       PIDS
Dec 24 06:02:51 70fde173a7f1   prov_aic_janusgraph_1   30.20%    878.6MiB / 15.66GiB   5.48%     5.86MB / 2.73MB   0B / 332kB      54
Dec 24 06:02:51 175a7162e018   portainer               0.00%     16.61MiB / 15.66GiB   0.10%     12.4kB / 0B       58.3MB / 16MB   7
Dec 24 06:02:55 CONTAINER ID   NAME                    CPU %     MEM USAGE / LIMIT     MEM %     NET I/O           BLOCK I/O       PIDS
Dec 24 06:02:55 70fde173a7f1   prov_aic_janusgraph_1   0.12%     878.6MiB / 15.66GiB   5.48%     5.94MB / 2.77MB   0B / 332kB      54
Dec 24 06:02:55 175a7162e018   portainer               0.00%     16.61MiB / 15.66GiB   0.10%     12.4kB / 0B       58.3MB / 16MB   7
Dec 24 06:02:59 CONTAINER ID   NAME                    CPU %     MEM USAGE / LIMIT     MEM %     NET I/O           BLOCK I/O       PIDS
Dec 24 06:02:59 70fde173a7f1   prov_aic_janusgraph_1   1.46%     878.6MiB / 15.66GiB   5.48%     6.11MB / 2.85MB   0B / 332kB      54
Dec 24 06:02:59 175a7162e018   portainer               0.00%     16.61MiB / 15.66GiB   0.10%     12.4kB / 0B       58.3MB / 16MB   7
Dec 24 06:03:02 CONTAINER ID   NAME                    CPU %     MEM USAGE / LIMIT     MEM %     NET I/O           BLOCK I/O       PIDS
Dec 24 06:03:02 70fde173a7f1   prov_aic_janusgraph_1   14.24%    878.7MiB / 15.66GiB   5.48%     6.35MB / 2.96MB   0B / 332kB      54
Dec 24 06:03:02 175a7162e018   portainer               0.00%     16.61MiB / 15.66GiB   0.10%     12.4kB / 0B       58.3MB / 16MB   7
Dec 24 06:03:06 CONTAINER ID   NAME                    CPU %     MEM USAGE / LIMIT     MEM %     NET I/O           BLOCK I/O       PIDS
Dec 24 06:03:06 70fde173a7f1   prov_aic_janusgraph_1   8.70%     878.8MiB / 15.66GiB   5.48%     6.41MB / 2.99MB   0B / 332kB      54
Dec 24 06:03:06 175a7162e018   portainer               0.00%     16.61MiB / 15.66GiB   0.10%     12.4kB / 0B       58.3MB / 16MB   7
Dec 24 06:03:09 CONTAINER ID   NAME                    CPU %     MEM USAGE / LIMIT     MEM %     NET I/O           BLOCK I/O       PIDS
Dec 24 06:03:09 70fde173a7f1   prov_aic_janusgraph_1   0.32%     878.8MiB / 15.66GiB   5.48%     6.58MB / 3.07MB   0B / 332kB      54
Dec 24 06:03:09 175a7162e018   portainer               0.01%     16.61MiB / 15.66GiB   0.10%     12.4kB / 0B       58.3MB / 16MB   7
Dec 24 06:03:13 CONTAINER ID   NAME                    CPU %     MEM USAGE / LIMIT     MEM %     NET I/O           BLOCK I/O       PIDS
Dec 24 06:03:13 70fde173a7f1   prov_aic_janusgraph_1   5.36%     878.8MiB / 15.66GiB   5.48%     6.73MB / 3.13MB   0B / 332kB      54
Dec 24 06:03:13 175a7162e018   portainer               0.10%     16.61MiB / 15.66GiB   0.10%     12.4kB / 0B       58.3MB / 16MB   7
Dec 24 06:03:17 CONTAINER ID   NAME                    CPU %     MEM USAGE / LIMIT     MEM %     NET I/O           BLOCK I/O       PIDS
Dec 24 06:03:17 70fde173a7f1   prov_aic_janusgraph_1   32.91%    878.8MiB / 15.66GiB   5.48%     6.98MB / 3.25MB   0B / 332kB      54
Dec 24 06:03:17 175a7162e018   portainer               0.00%     16.61MiB / 15.66GiB   0.10%     12.4kB / 0B       58.3MB / 16MB   7
Dec 24 06:03:20 CONTAINER ID   NAME                    CPU %     MEM USAGE / LIMIT     MEM %     NET I/O           BLOCK I/O       PIDS
Dec 24 06:03:20 70fde173a7f1   prov_aic_janusgraph_1   0.11%     878.8MiB / 15.66GiB   5.48%     6.99MB / 3.26MB   0B / 332kB      54
Dec 24 06:03:20 175a7162e018   portainer               0.00%     16.61MiB / 15.66GiB   0.10%     12.4kB / 0B       58.3MB / 16MB   7
Dec 24 06:03:24 CONTAINER ID   NAME                    CPU %     MEM USAGE / LIMIT     MEM %     NET I/O           BLOCK I/O       PIDS
Dec 24 06:03:24 70fde173a7f1   prov_aic_janusgraph_1   0.11%     878.8MiB / 15.66GiB   5.48%     7.13MB / 3.32MB   0B / 332kB      54
Dec 24 06:03:24 175a7162e018   portainer               0.02%     16.61MiB / 15.66GiB   0.10%     12.4kB / 0B       58.3MB / 16MB   7
Dec 24 06:03:27 CONTAINER ID   NAME                    CPU %     MEM USAGE / LIMIT     MEM %     NET I/O           BLOCK I/O       PIDS
Dec 24 06:03:27 70fde173a7f1   prov_aic_janusgraph_1   2.66%     878.8MiB / 15.66GiB   5.48%     7.39MB / 3.44MB   0B / 332kB      54
Dec 24 06:03:27 175a7162e018   portainer               0.00%     16.61MiB / 15.66GiB   0.10%     12.4kB / 0B       58.3MB / 16MB   7
Dec 24 06:03:31 CONTAINER ID   NAME                    CPU %     MEM USAGE / LIMIT     MEM %     NET I/O           BLOCK I/O       PIDS
Dec 24 06:03:31 70fde173a7f1   prov_aic_janusgraph_1   25.27%    878.8MiB / 15.66GiB   5.48%     7.56MB / 3.52MB   0B / 332kB      54
Dec 24 06:03:31 175a7162e018   portainer               0.00%     16.61MiB / 15.66GiB   0.10%     12.4kB / 0B       58.3MB / 16MB   7
Dec 24 06:03:35 CONTAINER ID   NAME                    CPU %     MEM USAGE / LIMIT     MEM %     NET I/O           BLOCK I/O         PIDS
Dec 24 06:03:35 70fde173a7f1   prov_aic_janusgraph_1   0.11%     878.8MiB / 15.66GiB   5.48%     7.57MB / 3.53MB   0B / 332kB        54
Dec 24 06:03:35 175a7162e018   portainer               1.13%     16.94MiB / 15.66GiB   0.11%     12.4kB / 0B       58.3MB / 16.1MB   7
Dec 24 06:03:37 CONTAINER ID   NAME                    CPU %     MEM USAGE / LIMIT     MEM %     NET I/O           BLOCK I/O         PIDS
Dec 24 06:03:37 70fde173a7f1   prov_aic_janusgraph_1   2.51%     879MiB / 15.66GiB     5.48%     7.81MB / 3.64MB   0B / 332kB        54
Dec 24 06:03:37 175a7162e018   portainer               0.00%     16.94MiB / 15.66GiB   0.11%     12.4kB / 0B       58.3MB / 16.1MB   7
Dec 24 06:03:41 CONTAINER ID   NAME                    CPU %     MEM USAGE / LIMIT     MEM %     NET I/O           BLOCK I/O         PIDS
Dec 24 06:03:41 70fde173a7f1   prov_aic_janusgraph_1   20.90%    878.9MiB / 15.66GiB   5.48%     7.95MB / 3.71MB   0B / 332kB        54
Dec 24 06:03:41 175a7162e018   portainer               0.00%     16.94MiB / 15.66GiB   0.11%     12.4kB / 0B       58.3MB / 16.1MB   7
Dec 24 06:03:44 CONTAINER ID   NAME                    CPU %     MEM USAGE / LIMIT     MEM %     NET I/O           BLOCK I/O         PIDS
Dec 24 06:03:44 70fde173a7f1   prov_aic_janusgraph_1   0.29%     878.9MiB / 15.66GiB   5.48%     7.96MB / 3.71MB   0B / 332kB        54
Dec 24 06:03:44 175a7162e018   portainer               0.09%     16.94MiB / 15.66GiB   0.11%     12.4kB / 0B       58.3MB / 16.1MB   7
Dec 24 06:03:48 CONTAINER ID   NAME                    CPU %     MEM USAGE / LIMIT     MEM %     NET I/O           BLOCK I/O         PIDS
Dec 24 06:03:48 70fde173a7f1   prov_aic_janusgraph_1   2.11%     878.9MiB / 15.66GiB   5.48%     8.22MB / 3.83MB   0B / 332kB        54
Dec 24 06:03:48 175a7162e018   portainer               0.00%     16.94MiB / 15.66GiB   0.11%     12.4kB / 0B       58.3MB / 16.1MB   7
Dec 24 06:03:51 CONTAINER ID   NAME                    CPU %     MEM USAGE / LIMIT     MEM %     NET I/O          BLOCK I/O         PIDS
Dec 24 06:03:51 70fde173a7f1   prov_aic_janusgraph_1   1.59%     878.9MiB / 15.66GiB   5.48%     8.36MB / 3.9MB   0B / 332kB        54
Dec 24 06:03:51 175a7162e018   portainer               0.00%     16.94MiB / 15.66GiB   0.11%     12.4kB / 0B      58.3MB / 16.1MB   7
Dec 24 06:03:55 CONTAINER ID   NAME                    CPU %     MEM USAGE / LIMIT     MEM %     NET I/O           BLOCK I/O         PIDS
Dec 24 06:03:55 70fde173a7f1   prov_aic_janusgraph_1   20.10%    878.9MiB / 15.66GiB   5.48%     8.51MB / 3.96MB   0B / 332kB        54
Dec 24 06:03:55 175a7162e018   portainer               0.00%     16.94MiB / 15.66GiB   0.11%     12.4kB / 0B       58.3MB / 16.1MB   7
Dec 24 06:03:59 CONTAINER ID   NAME                    CPU %     MEM USAGE / LIMIT     MEM %     NET I/O           BLOCK I/O         PIDS
Dec 24 06:03:59 70fde173a7f1   prov_aic_janusgraph_1   0.10%     878.9MiB / 15.66GiB   5.48%     8.63MB / 4.02MB   0B / 332kB        54
Dec 24 06:03:59 175a7162e018   portainer               0.02%     16.94MiB / 15.66GiB   0.11%     12.4kB / 0B       58.3MB / 16.1MB   7
Dec 24 06:04:02 CONTAINER ID   NAME                    CPU %     MEM USAGE / LIMIT     MEM %     NET I/O           BLOCK I/O         PIDS
Dec 24 06:04:02 70fde173a7f1   prov_aic_janusgraph_1   0.11%     878.9MiB / 15.66GiB   5.48%     8.86MB / 4.13MB   0B / 332kB        54
Dec 24 06:04:02 175a7162e018   portainer               0.00%     16.94MiB / 15.66GiB   0.11%     12.4kB / 0B       58.3MB / 16.1MB   7
Dec 24 06:04:06 CONTAINER ID   NAME                    CPU %     MEM USAGE / LIMIT     MEM %     NET I/O           BLOCK I/O         PIDS
Dec 24 06:04:06 70fde173a7f1   prov_aic_janusgraph_1   15.51%    878.9MiB / 15.66GiB   5.48%     8.98MB / 4.18MB   0B / 332kB        54
Dec 24 06:04:06 175a7162e018   portainer               0.00%     16.94MiB / 15.66GiB   0.11%     12.4kB / 0B       58.3MB / 16.1MB   7
Dec 24 06:04:09 CONTAINER ID   NAME                    CPU %     MEM USAGE / LIMIT     MEM %     NET I/O          BLOCK I/O         PIDS
Dec 24 06:04:09 70fde173a7f1   prov_aic_janusgraph_1   3.42%     878.9MiB / 15.66GiB   5.48%     9.01MB / 4.2MB   0B / 332kB        54
Dec 24 06:04:09 175a7162e018   portainer               0.02%     16.94MiB / 15.66GiB   0.11%     12.4kB / 0B      58.3MB / 16.1MB   7
Dec 24 06:04:12 CONTAINER ID   NAME                    CPU %     MEM USAGE / LIMIT     MEM %     NET I/O           BLOCK I/O         PIDS
Dec 24 06:04:12 70fde173a7f1   prov_aic_janusgraph_1   0.10%     878.9MiB / 15.66GiB   5.48%     9.26MB / 4.31MB   0B / 332kB        54
Dec 24 06:04:12 175a7162e018   portainer               0.00%     16.94MiB / 15.66GiB   0.11%     12.4kB / 0B       58.3MB / 16.1MB   7
Dec 24 06:04:16 CONTAINER ID   NAME                    CPU %     MEM USAGE / LIMIT     MEM %     NET I/O           BLOCK I/O         PIDS
Dec 24 06:04:16 70fde173a7f1   prov_aic_janusgraph_1   18.31%    878.9MiB / 15.66GiB   5.48%     9.37MB / 4.37MB   0B / 332kB        54
Dec 24 06:04:16 175a7162e018   portainer               0.00%     16.94MiB / 15.66GiB   0.11%     12.4kB / 0B       58.3MB / 16.1MB   7
Dec 24 06:04:19 CONTAINER ID   NAME                    CPU %     MEM USAGE / LIMIT     MEM %     NET I/O           BLOCK I/O         PIDS
Dec 24 06:04:19 70fde173a7f1   prov_aic_janusgraph_1   2.32%     878.9MiB / 15.66GiB   5.48%     9.41MB / 4.39MB   0B / 332kB        54
Dec 24 06:04:19 175a7162e018   portainer               0.00%     16.97MiB / 15.66GiB   0.11%     12.4kB / 0B       58.3MB / 16.1MB   7
Dec 24 06:04:23 CONTAINER ID   NAME                    CPU %     MEM USAGE / LIMIT     MEM %     NET I/O           BLOCK I/O         PIDS
Dec 24 06:04:23 70fde173a7f1   prov_aic_janusgraph_1   0.31%     878.9MiB / 15.66GiB   5.48%     9.68MB / 4.51MB   0B / 332kB        54
Dec 24 06:04:23 175a7162e018   portainer               0.00%     16.97MiB / 15.66GiB   0.11%     12.4kB / 0B       58.3MB / 16.1MB   7
Dec 24 06:04:26 CONTAINER ID   NAME                    CPU %     MEM USAGE / LIMIT     MEM %     NET I/O           BLOCK I/O         PIDS
Dec 24 06:04:26 70fde173a7f1   prov_aic_janusgraph_1   0.31%     878.9MiB / 15.66GiB   5.48%     9.81MB / 4.57MB   0B / 332kB        54
Dec 24 06:04:26 175a7162e018   portainer               0.00%     16.97MiB / 15.66GiB   0.11%     12.4kB / 0B       58.3MB / 16.1MB   7
