elapsedWallClockMillis,totalMemoryBytes
20,4033472
1249,9965392
2295,10427640
3357,10744192
4419,10885896
5484,11015776
6569,11144640
7677,11272608
8772,11404704
9798,11551944
10821,11693728
11852,11707680
12882,13362936
13936,13543424
14988,13712896
16081,13885320
17120,14042624
18156,14210424
19255,14370920
20344,14544072
21411,14706784
22498,16319472
23569,16936352
24680,17096896
25762,17178176
26855,17350024
27976,17521600
29101,17690392
30162,17848920
31232,18018920
32319,18182984
33421,18241080
33466,18241896
