
Batch, Params, start (ms), end (ms), diff (ms), V/ms, ms/V
1, EXP 1,  1613078257027, 1613078267566, 10539, 0.094886, 10, 
2, EXP 1,  1613078267580, 1613078274386, 6806, 0.146929, 6, 
3, EXP 1,  1613078274397, 1613078280452, 6055, 0.165153, 6, 
4, EXP 1,  1613078280463, 1613078286220, 5757, 0.173702, 5, 
5, EXP 1,  1613078286232, 1613078292019, 5787, 0.172801, 5, 
6, EXP 1,  1613078292031, 1613078297556, 5525, 0.180995, 5, 
7, EXP 1,  1613078297568, 1613078303027, 5459, 0.183184, 5, 
8, EXP 1,  1613078303039, 1613078308352, 5313, 0.188218, 5, 
9, EXP 1,  1613078308364, 1613078313715, 5351, 0.186881, 5, 
10, EXP 1,  1613078313726, 1613078318949, 5223, 0.191461, 5, 
Total runtime, 61,sec
