elapsedWallClockMillis,totalMemoryBytes
10,1217648
1115,1616424
2128,1616152
3140,1617160
4153,1616816
5168,1610496
6182,1611792
7194,1612624
8209,1613832
9224,1613136
10239,1611688
11256,1612352
12274,1612944
13289,1613104
14302,1613600
15316,1613160
16329,1613936
17341,1614128
18355,1615712
19372,1614328
20389,1614296
21401,1615440
22416,1615632
23429,1615840
24441,1615512
25453,1612872
26470,1615448
27486,1613616
28497,1615000
29508,1615360
30522,1613320
31536,1614000
32550,1613472
33562,1613504
34569,1612048
35581,1613776
36593,1614424
37609,1613288
38622,1615032
39638,1612896
40652,1613760
41664,1614968
42680,1614584
43697,1614648
44717,1614408
45728,1615080
46741,1617072
47750,1617280
48765,1616600
49778,1616064
50791,1616624
51804,1617272
52817,1617872
53831,1617968
54843,1616288
55859,1616688
56873,1615552
57888,1617072
58895,1615616
59908,1617720
60921,1617184
61934,1618248
62949,1619448
63961,1612640
64978,1614848
65993,1615848
67007,1617856
68021,1617120
69034,1615168
70050,1616264
71062,1615232
72074,1614352
73084,1616576
74097,1615440
75109,1614376
76123,1616640
77137,1614848
78150,1615912
79161,1615144
80179,1615984
81193,1615048
82208,1615600
83221,1616704
84244,1613544
85256,1617112
86274,1617304
87293,1616912
88309,1617552
89321,1615152
90337,1615440
91353,1616152
92365,1616352
93380,1614016
94390,1616048
95405,1617144
96417,1615760
97433,1616760
98446,1614600
99460,1614800
100483,1617600
101497,1617664
102511,1618440
103525,1615176
104533,1616504
105551,1618304
106562,1617848
107575,1617744
108589,1617328
109600,1617680
110613,1618368
111626,1618192
112640,1618640
113652,1617024
114666,1619592
115686,1618480
116698,1617544
117723,1619608
118736,1616600
119747,1618720
120763,1618960
121777,1619680
122789,1615920
123805,1618440
124817,1618024
125830,1618552
126845,1619464
127861,1616568
128882,1618712
129896,1618896
130911,1617384
131922,1619136
132945,1617088
133961,1618240
134972,1618800
135986,1620416
137000,1619848
138010,1618120
139021,1617456
140034,1619256
141046,1620632
142065,1621160
143079,1619608
144090,1618864
145104,1619736
146118,1619632
147133,1620416
148149,1617592
149166,1618864
150180,1619632
151193,1619168
152203,1614888
153221,1619584
154235,1620656
155250,1619944
156265,1619928
157278,1616512
158295,1619136
159304,1618552
160318,1620008
161331,1618544
162344,1618504
163357,1620168
164373,1620576
165385,1619912
166399,1619760
167414,1619816
168439,1618736
169453,1620256
170471,1617592
171480,1620584
172495,1618560
173507,1617552
174520,1618376
175535,1618944
176549,1618904
177564,1619816
178577,1621912
179597,1620296
180609,1621424
181625,1615344
182635,1616336
183655,1618000
184666,1618800
185680,1618712
186696,1614888
187718,1621784
188733,1616200
189754,1617552
190769,1619432
191782,1617472
192791,1618912
193806,1617360
194820,1618680
195836,1618432
196848,1618032
197873,1619480
198886,1621960
199900,1622016
200925,1617232
201950,1619496
202964,1617848
203982,1618496
204995,1615720
206009,1620224
207024,1621752
208035,1623184
209049,1616600
210064,1618992
211075,1617408
212087,1618824
213100,1618856
214115,1619920
215131,1622544
216147,1622352
217178,1618616
218193,1618416
219211,1619144
220225,1619800
221238,1619248
222249,1620312
223264,1621896
224278,1622048
225289,1616040
226307,1618752
227321,1618776
228333,1618544
229348,1617856
230363,1616872
231385,1621584
232401,1623344
233417,1616848
234433,1618704
235447,1618856
236461,1618272
237478,1618856
238489,1620992
239504,1617128
240517,1622400
241526,1616208
242536,1616848
243554,1618464
244564,1618000
245577,1618680
246593,1620656
247605,1621352
248614,1621456
249631,1617472
250642,1617600
251654,1618744
252668,1618896
253681,1615152
254695,1618856
255709,1622752
256731,1622424
257743,1614632
258765,1616768
259780,1617024
260805,1618912
261820,1619344
262833,1620928
263847,1621568
264867,1622448
265881,1618032
266895,1617216
267907,1617840
268920,1619320
269933,1618008
270960,1621888
271974,1622640
272985,1622544
274010,1623320
275026,1617480
276047,1615456
277063,1618368
278079,1617352
279089,1618648
280114,1622264
281126,1621032
282138,1616840
283152,1617408
284165,1618232
285178,1618024
286191,1618944
287214,1616176
288228,1623248
289246,1620448
290260,1619520
291269,1618216
292289,1617152
293303,1618192
294312,1617680
295323,1617264
296345,1621896
297360,1623600
298378,1617600
299394,1617536
300416,1618328
301433,1617024
302454,1617280
303468,1620312
304482,1617912
305498,1622176
306514,1622880
307527,1617736
308542,1617688
309554,1618488
310565,1618616
311573,1617920
312590,1619920
313604,1621600
314618,1617624
315635,1617608
316649,1619352
317661,1618136
318675,1619408
319699,1619976
320712,1621880
321728,1622976
322741,1622832
323762,1616544
324775,1616680
325789,1617392
326801,1619488
327819,1617000
328833,1622624
329848,1622816
330858,1616472
331873,1616800
332897,1618296
333909,1619216
334924,1618696
335933,1620320
336945,1621712
337962,1623456
338977,1621064
339994,1618024
341009,1615992
342025,1618048
343039,1619128
344050,1617680
345066,1621456
346082,1623440
347095,1617184
348111,1617408
349125,1618088
350140,1618216
351152,1617312
352165,1616936
353177,1621760
354195,1623456
355209,1621472
356224,1616616
357241,1618272
358255,1619032
359272,1619008
360283,1619016
361294,1621824
362307,1623808
363320,1617040
364338,1617360
365352,1618296
366365,1619152
367376,1617232
368394,1621944
369406,1620384
370422,1622000
371436,1615512
372460,1617696
373471,1617280
374485,1618160
375498,1618776
376515,1620400
377528,1622576
378543,1619912
379563,1618544
380573,1619112
381593,1618608
382606,1617344
383492,1611632
