elapsedWallClockMillis,totalMemoryBytes
9,1221456
1099,1616088
2111,1615632
3124,1615288
4136,1616528
5149,1607784
6162,1611928
7180,1613064
8195,1613336
9209,1611520
10227,1612048
11244,1613728
12260,1612576
13275,1612520
14287,1615288
15298,1612680
16312,1612896
17327,1614432
18341,1614488
19355,1612528
20367,1610952
21380,1614360
22391,1615128
23406,1613800
24421,1615920
25433,1614120
26447,1614568
27458,1613360
28470,1614488
29484,1613632
30496,1611912
31509,1613624
32523,1615072
33540,1616144
34555,1612536
35574,1613448
36585,1613624
37604,1614056
38616,1615160
39634,1614144
40650,1614384
41663,1615352
42673,1615352
43687,1617448
44702,1614872
45719,1614112
46731,1616560
47743,1616152
48753,1616368
49771,1615112
50779,1615712
51789,1615896
52799,1615136
53814,1612392
54822,1615544
55832,1614968
56847,1614056
57856,1614528
58866,1616696
59881,1614432
60895,1616312
61910,1616696
62925,1616216
63939,1612360
64951,1615936
65963,1617392
66976,1614368
67991,1616568
69001,1614296
70015,1616448
71030,1616792
72046,1617096
73057,1617168
74071,1614768
75083,1616152
76096,1617432
77112,1616848
78121,1618464
79132,1615920
80144,1616960
81159,1618328
82173,1615480
83187,1618248
84200,1616128
85215,1617360
86235,1616048
87250,1617912
88264,1616912
89277,1616136
90289,1617600
91303,1617688
92316,1617576
93328,1613496
94338,1612008
95352,1616760
96374,1616256
97390,1615368
98415,1615600
99426,1616616
100439,1619544
101453,1619016
102462,1620424
103475,1617440
104490,1618528
105502,1618048
106515,1618112
107531,1619720
108554,1619600
109568,1619064
110583,1618016
111596,1621704
112608,1621352
113630,1616344
114644,1616192
115656,1617224
116669,1619440
117680,1618984
118695,1618792
119709,1619000
120721,1618120
121744,1620360
122759,1616480
123774,1616744
124791,1617272
125809,1615960
126822,1619224
127833,1616248
128843,1618000
129858,1619656
130870,1619736
131888,1619464
132910,1614720
133924,1618216
134940,1617040
135954,1615688
136972,1618376
137982,1617760
138995,1618528
140010,1619736
141022,1618728
142034,1620544
143047,1617824
144069,1618168
145083,1617448
146097,1618736
147118,1618944
148129,1619112
149139,1620424
150155,1621112
151167,1622320
152178,1614608
153193,1616544
154205,1617352
155216,1617200
156232,1618008
157252,1615536
158275,1617744
159291,1617912
160314,1618624
161331,1618888
162354,1615432
163373,1615800
164387,1616944
165402,1619568
166417,1619384
167429,1616376
168438,1616352
169462,1616616
170475,1618152
171496,1617824
172511,1618344
173526,1620224
174549,1619240
175563,1619384
176580,1619760
177596,1617672
178605,1617472
179631,1617240
180643,1618688
181662,1615200
182675,1618096
183692,1619064
184709,1619520
185736,1618512
186744,1617344
187759,1616928
188769,1618752
189782,1618632
190796,1618424
191809,1617024
192817,1617712
193832,1618416
194843,1618512
195859,1619184
196873,1615392
197892,1617704
198908,1619928
199919,1618296
200936,1619016
201949,1618080
202971,1619760
203984,1620320
205000,1618904
206015,1620640
207029,1618264
208043,1617800
209060,1618648
210071,1619536
211083,1618464
212112,1618768
213126,1619624
214138,1617504
215152,1620808
216168,1616784
217181,1618728
218200,1622152
219215,1621144
220233,1620304
221247,1617344
222270,1618232
223282,1617328
224298,1617432
225320,1618360
226334,1617040
227356,1617912
228371,1616304
229393,1617264
230407,1619312
231427,1617656
232442,1621728
233464,1622184
234482,1622472
235506,1621848
236518,1618112
237534,1617712
238560,1618904
239574,1620240
240592,1618624
241607,1617720
242624,1621768
243638,1622336
244659,1622440
245674,1615720
246692,1615648
247707,1618816
248726,1618984
249738,1616648
250757,1620624
251774,1622448
252789,1622672
253803,1622424
254828,1622888
255842,1617216
256856,1617048
257879,1618320
258892,1618648
259920,1618184
260936,1619416
261949,1620184
262965,1617632
263978,1621272
264995,1615248
266008,1618000
267024,1619744
268036,1617992
269055,1617544
270069,1615968
271083,1618048
272113,1617088
273127,1618448
274149,1618280
275160,1619456
276175,1621128
277198,1620272
278209,1619632
279223,1622120
279661,1611440
