elapsedWallClockMillis,totalMemoryBytes
8,1218688
1113,1615600
2123,1617352
3139,1617552
4154,1617480
5164,1610192
6176,1610832
7190,1613064
8200,1613440
9211,1613440
10218,1612264
11226,1613960
12242,1612216
13249,1613232
14264,1615040
15274,1613160
16281,1613648
17289,1614752
18299,1614088
19307,1614456
20317,1614488
21327,1615456
22333,1613272
23342,1611656
24355,1613168
25363,1613192
26372,1614920
27382,1614200
28390,1613528
29401,1612080
30410,1614912
31421,1615024
32428,1612328
33440,1615768
34450,1616200
35458,1613328
36470,1614488
37478,1614088
38492,1614688
39504,1612544
40514,1614968
41525,1616280
42535,1616280
43547,1615960
44555,1614408
45568,1615960
46579,1617224
47587,1615624
48597,1615320
49617,1615264
50627,1616016
51650,1616688
52661,1616960
53669,1617024
54678,1614160
55687,1615856
56694,1615264
57704,1615168
58714,1617016
59725,1615904
60736,1617096
61746,1616440
62754,1615720
63763,1615552
64773,1614968
65789,1616512
66804,1616568
67812,1616296
68825,1611832
69834,1615624
70845,1616408
71853,1616224
72873,1618072
73881,1614536
74893,1615088
75904,1616904
76922,1617536
77935,1616224
78945,1615680
79957,1616968
80967,1618072
81976,1616664
82988,1616448
83997,1616320
85014,1617448
86024,1616384
87044,1618632
88053,1616792
89065,1617272
90074,1617720
91084,1617768
92093,1619064
93104,1619368
94116,1616496
95127,1615480
96141,1616016
97155,1617488
98165,1615816
99174,1612736
100182,1617968
101190,1617112
102200,1617928
103208,1613248
104221,1616272
105232,1617064
106244,1617192
107253,1618408
108266,1614616
109280,1615048
110296,1618624
111306,1619192
112320,1618560
113329,1615800
114341,1615624
115350,1614688
116360,1615792
117373,1616240
118387,1616248
119402,1616400
120412,1618424
121423,1618360
122435,1619648
123447,1616512
124455,1617768
125467,1613096
126478,1618936
127492,1618264
128501,1618144
129510,1618560
130520,1619208
131542,1619408
132550,1620992
133564,1616536
134579,1619400
135591,1618064
136605,1618824
137618,1616376
138629,1616120
139646,1619120
140660,1619840
141669,1619880
142684,1617064
143694,1618200
144704,1617936
145714,1619080
146723,1616904
147739,1617360
148749,1620008
149758,1619544
150766,1622056
151778,1622992
152787,1616080
153801,1616064
154809,1616944
155822,1617792
156829,1619928
157844,1617248
158858,1617400
159866,1617624
160878,1618896
161890,1618072
162899,1616104
163910,1617936
164923,1617936
165934,1619480
166943,1614816
167958,1618216
168970,1616600
169979,1618352
170996,1618656
172010,1617376
173025,1619936
174041,1621568
175055,1618928
176073,1620720
177082,1615472
178097,1616160
179106,1617568
180116,1618216
181128,1618056
182139,1616128
183150,1617664
184157,1618584
185169,1616112
186178,1620568
187190,1616048
188199,1617568
189214,1617048
190225,1618960
191237,1619744
192247,1616864
193258,1618728
194269,1619256
195280,1619176
196300,1620048
197314,1618440
198326,1616488
199341,1619744
200354,1619344
201367,1616824
202377,1619096
203385,1616776
204401,1619440
205413,1620256
206424,1615816
207439,1615768
208447,1619136
209457,1618200
210469,1618488
211488,1619104
212501,1620456
213519,1621408
214530,1618888
215543,1619840
216555,1620680
217570,1619536
218578,1619496
219589,1622072
220604,1619288
221614,1616816
222632,1618488
223646,1618488
224660,1618168
225669,1618896
226684,1617752
227697,1618000
228716,1618664
229732,1619352
230741,1617520
231755,1619584
232772,1621832
233786,1618728
234796,1621624
235812,1616256
236821,1617400
237835,1618744
238847,1619032
239858,1619248
240868,1620248
241881,1620848
242888,1620896
243901,1620784
244911,1622704
245924,1617512
246938,1618280
247958,1619480
248969,1617960
249984,1620088
250995,1620280
252013,1622384
253023,1620296
254041,1620584
255051,1622304
256061,1616224
257072,1617584
258090,1615336
259103,1619504
260114,1616336
261122,1618816
262133,1620568
263146,1622112
264156,1621792
265170,1617496
266180,1618800
267190,1619528
268203,1618808
269215,1619720
270223,1616624
271231,1618120
272247,1619360
273258,1617176
274269,1618272
275277,1619472
276295,1621456
277307,1617768
278322,1617568
279330,1621968
279702,1611688
