elapsedWallClockMillis,totalMemoryBytes
11,1217504
1133,1616152
2149,1617016
3156,1617408
4177,1618024
5185,1610040
6199,1612904
7214,1612368
8222,1610784
9235,1613208
10248,1610104
11258,1611664
12272,1612328
13284,1611696
14301,1613584
15315,1612744
16330,1612776
17344,1614344
18359,1614960
19370,1613856
20388,1611976
21400,1614776
22408,1615152
23416,1613312
24427,1614520
25442,1613160
26452,1615056
27462,1614832
28476,1615360
29487,1614544
30497,1616736
31513,1616840
32523,1615360
33534,1618096
34554,1610504
35568,1615056
36591,1616144
37607,1617432
38622,1613872
39632,1612968
40645,1613808
41661,1615608
42671,1616920
43681,1616136
44692,1614064
45700,1615976
46708,1614864
47723,1616208
48733,1615952
49744,1614736
50758,1615984
51769,1616416
52782,1617016
53798,1617464
54809,1614896
55817,1615000
56831,1616312
57842,1615760
58855,1617472
59874,1614960
60890,1615664
61899,1615112
62912,1616072
63923,1612808
64938,1614872
65953,1616720
66970,1616928
67982,1616400
68999,1615016
70007,1615248
71023,1616624
72034,1615432
73047,1615928
74061,1615856
75074,1617864
76088,1617568
77101,1616784
78117,1617664
79132,1614072
80155,1616024
81172,1616832
82190,1617960
83199,1617048
84214,1615240
85223,1613440
86235,1615848
87250,1615824
88267,1614752
89282,1616064
90294,1616600
91312,1618672
92327,1615960
93339,1610792
94348,1616832
95363,1615680
96374,1617560
97398,1616288
98413,1615744
99423,1615392
100434,1617920
101447,1617992
102456,1619552
103238,1611688
