elapsedWallClockMillis,totalMemoryBytes
18,1228704
1106,1615880
2114,1616448
3124,1616904
4135,1615560
5147,1611072
6160,1611744
7176,1611856
8188,1612360
9202,1612744
10211,1611120
11219,1612232
12235,1612120
13250,1610304
14260,1612632
15271,1611944
16283,1611240
17295,1612936
18312,1613536
19327,1612584
20338,1614752
21354,1613176
22366,1614248
23384,1614560
24398,1613768
25409,1614304
26426,1613752
27440,1613560
28456,1613816
29479,1614376
30494,1614696
31505,1612264
32519,1615256
33530,1615576
34547,1611816
35561,1613544
36574,1615632
37591,1614464
38603,1615984
39615,1613568
40627,1615168
41644,1615448
42658,1615968
43670,1615392
44689,1615664
45702,1615720
46713,1616688
47727,1616184
48743,1616472
49758,1615232
50775,1616136
51790,1616176
52804,1617008
53818,1616784
54831,1615512
55843,1617192
56856,1614880
57868,1617528
58882,1619872
59893,1615328
60907,1614528
61923,1615528
62935,1616128
63949,1611712
64967,1616000
65979,1615896
66992,1615384
68011,1616584
69023,1614944
70039,1616072
71053,1615360
72067,1615288
73090,1617240
74101,1613744
75114,1616488
76127,1614296
77138,1615336
78149,1616320
79165,1614584
80174,1616136
81186,1617184
82201,1616592
83210,1618984
84223,1615192
85236,1615168
86249,1614672
87259,1615320
88271,1616304
89280,1614952
90292,1616312
91304,1616360
92316,1616728
93328,1612040
94343,1616216
95354,1615144
96373,1615616
97387,1616576
98399,1615536
99410,1615872
100421,1615728
101435,1617392
102452,1618768
103469,1618008
104483,1617712
105505,1618856
106523,1618024
107539,1617984
108558,1616760
109572,1617264
110583,1617424
111598,1618376
112612,1617048
113628,1615152
114643,1619072
115656,1617264
116674,1619608
117691,1620488
118703,1620040
119716,1619184
120728,1617472
121743,1618528
122753,1614208
123782,1616408
124797,1618504
125813,1618248
126827,1618888
127841,1616408
128863,1617616
129879,1619000
130895,1619168
131909,1620680
132931,1615352
133947,1618888
134975,1615360
135987,1619496
137000,1619896
138012,1618072
139026,1617392
140040,1619712
141063,1618496
142077,1619536
143088,1617776
144101,1617760
145112,1617328
146127,1619096
147145,1618624
148162,1617096
149173,1618144
150196,1619752
151208,1619056
152216,1615216
153230,1616568
154243,1618584
155259,1618640
156272,1618384
157287,1617232
158297,1618616
159312,1616304
160327,1618560
161338,1619304
162352,1614360
163367,1616520
164383,1619408
165398,1620008
166412,1618600
167427,1618456
168441,1619088
169455,1619848
170474,1617592
171487,1621352
172498,1618688
173513,1618816
174526,1619280
175543,1620816
176557,1620624
177571,1615936
178592,1615992
179609,1615464
180632,1618584
181648,1617496
182668,1620816
183683,1618312
184696,1618744
185707,1619984
186719,1619664
187730,1618464
188743,1621960
189760,1621672
190775,1619224
191797,1616424
192805,1618984
193819,1619064
194831,1617632
195854,1619616
196864,1621768
197878,1619600
198904,1622128
199921,1621816
200945,1617808
201962,1617448
202980,1617528
203991,1619344
205014,1617008
206027,1619304
207039,1621512
208050,1621816
209065,1623608
210076,1623208
211086,1617808
212102,1617016
213112,1617264
214124,1619544
215137,1620536
216146,1617336
217159,1617632
218170,1620696
219184,1618768
220199,1620176
221210,1619488
222230,1621272
223246,1620344
224256,1620888
225271,1622384
226284,1616552
227299,1618448
228315,1617752
229331,1618440
230341,1620320
231353,1616552
232373,1621504
233389,1620224
234407,1620656
235422,1616240
236431,1619320
237446,1617736
238475,1618624
239490,1617056
240505,1617520
241518,1617688
242544,1617888
243557,1618984
244577,1619080
245593,1617640
246616,1621504
247629,1621040
248644,1620784
249667,1621376
250683,1618024
251699,1619792
252717,1619344
253730,1618504
254756,1620880
255769,1618736
256781,1618600
257794,1619272
258817,1618752
259835,1614728
260845,1619568
261867,1621064
262879,1622648
263891,1620552
264907,1616168
265929,1620496
266947,1618968
267959,1619312
268973,1619784
269985,1617040
271003,1618160
272023,1617560
273042,1617960
274061,1618432
275078,1619400
276095,1619536
277112,1617712
278126,1619344
279144,1619128
280159,1616560
281168,1618768
282182,1619272
283197,1620104
284216,1621088
285231,1618360
286256,1619104
287268,1619272
288288,1618256
289300,1616240
290317,1619936
291332,1621920
292347,1620376
293358,1621384
294385,1616320
295406,1618176
296419,1617560
297435,1619456
298453,1619200
299465,1616600
300482,1617648
301499,1617888
302517,1619752
303535,1619784
304552,1619808
305567,1619832
306583,1620168
307594,1621384
308611,1620608
309626,1617560
310636,1618936
311649,1618392
312661,1620904
313677,1620896
314695,1619272
315717,1617576
316731,1617496
317753,1619152
318769,1616752
319783,1620472
320806,1621728
321819,1615584
322841,1621000
323854,1615392
324867,1619552
325878,1619608
326903,1619840
327913,1618592
328922,1616896
329935,1618272
330946,1618096
331958,1619480
332981,1620040
333995,1619752
335020,1620424
336037,1621216
337058,1620704
338069,1619016
339092,1615928
340108,1619872
341123,1619248
342146,1619560
343159,1619904
344174,1618760
345188,1617264
346200,1619464
347221,1619216
348236,1617784
349256,1617616
350271,1619472
351297,1622200
352312,1619496
353327,1618312
354339,1619448
355355,1619400
356364,1620584
357387,1617544
358399,1617392
359415,1618808
360430,1617832
361451,1620672
362471,1620096
363484,1620224
364499,1620320
365511,1616336
366538,1621000
367555,1621424
368573,1617264
369588,1616432
370602,1616152
371615,1620320
372627,1615080
373641,1619320
374655,1618048
375668,1619288
376688,1619744
377702,1616616
378720,1620576
379731,1621480
380741,1620856
381749,1621680
382764,1618128
383778,1618440
384790,1617600
385814,1619712
386832,1620288
387846,1618192
388858,1617416
389883,1617056
390896,1618472
391918,1619624
392929,1620296
393941,1620096
394953,1621688
395966,1622456
396986,1618712
397999,1618888
399028,1619080
400046,1618344
401059,1621072
402071,1614424
403095,1617720
404111,1617000
405127,1619128
406140,1618576
407153,1617016
408180,1619352
409204,1617752
410218,1619960
411231,1618648
412247,1617632
413267,1619248
414280,1620472
415301,1619560
416311,1619224
417329,1617936
418342,1616264
419363,1619272
420375,1618672
421393,1619512
422406,1620216
423431,1621360
424444,1620896
425469,1621272
426484,1621536
427497,1618472
428517,1619536
429532,1619560
430554,1620336
431568,1617032
432585,1615896
433602,1617312
434629,1620192
435643,1619296
436661,1619184
437674,1619760
438689,1621048
439700,1622240
440710,1620688
441729,1618312
442741,1617840
443752,1619432
444763,1617608
445775,1620056
446786,1614920
447802,1617728
448817,1618928
449827,1619832
450845,1620016
451860,1617880
452886,1621424
453898,1620640
454913,1620888
455929,1621136
456943,1618272
457952,1618712
458966,1618168
459979,1619896
460993,1617160
462016,1616880
463030,1617176
464053,1619464
465067,1618552
466088,1619728
467099,1617744
468128,1619248
469143,1620992
470160,1621152
471173,1617608
472188,1618056
473205,1618808
474224,1616072
475241,1617528
476256,1618904
477271,1619752
478287,1620664
479301,1619384
480326,1619608
481341,1616704
482354,1620352
483368,1621312
484383,1621376
485395,1614440
486411,1616680
487426,1620176
488439,1617856
489455,1619632
490477,1617800
491490,1619048
492511,1618440
493528,1619080
494551,1619128
495563,1616368
496579,1619128
497589,1619808
498602,1621272
499616,1619336
500633,1618184
501652,1619072
502664,1618752
503684,1620496
504701,1619568
505724,1615056
506736,1618632
507753,1618000
508765,1619088
509781,1616912
510795,1618824
511815,1618696
512827,1621272
513844,1620640
514859,1614864
515877,1616424
516900,1619008
517915,1619352
518928,1620112
519947,1616672
520961,1613832
521982,1617072
522996,1619896
524026,1618472
525046,1618136
526071,1620808
527087,1622024
528105,1619104
529124,1621296
530142,1618376
531156,1619464
532173,1619440
533182,1619160
534205,1617784
535215,1618520
536227,1618624
537253,1619024
538269,1620016
539289,1620272
540303,1618496
541315,1620904
542327,1621080
543339,1621584
544354,1616008
545371,1617680
546384,1617392
547404,1618880
548418,1619936
549440,1615840
550457,1616168
551477,1618296
552489,1620480
553515,1619144
554526,1615488
555540,1620672
556555,1620000
557568,1621472
558578,1621344
559590,1619304
560616,1618816
561629,1617720
562654,1620136
563671,1619176
564684,1617376
565711,1616808
566719,1619048
567737,1619200
568748,1613928
569768,1620328
570781,1620704
571798,1622600
572811,1621776
573824,1616600
574847,1617800
575863,1619704
576890,1616336
577903,1619920
578916,1617824
579947,1618808
580962,1618032
581987,1619344
583003,1618664
584021,1617744
585036,1618608
586053,1619016
587067,1618872
588091,1621976
589106,1618392
590119,1619376
591143,1618936
592164,1620536
593179,1620072
594196,1618696
595227,1616544
596243,1619896
597264,1619928
598276,1617352
599288,1619592
600305,1616456
601317,1621272
602327,1621808
603339,1614128
604355,1618528
605373,1618744
606387,1617176
607400,1620040
608411,1616160
609436,1617664
610450,1618872
611468,1618832
612485,1618864
613501,1619168
614514,1619512
615530,1620280
616555,1615120
617570,1621288
618588,1618600
619611,1618256
620631,1618056
621652,1619432
622664,1620168
623675,1617992
624693,1619264
625717,1618496
626730,1619240
627756,1618912
628768,1619728
629783,1620608
630803,1621408
631817,1621704
632832,1617848
633858,1618344
634869,1618176
635884,1619240
636903,1619184
637918,1617384
638941,1619584
639953,1619112
640967,1620648
641983,1619496
643005,1619024
644018,1619576
645031,1617312
646059,1620760
647075,1621272
648085,1613160
649097,1618808
650117,1617352
651132,1619392
652157,1615048
653171,1619216
654193,1616736
655205,1620096
656214,1618608
657230,1618584
658237,1619240
659251,1621896
660268,1621496
661278,1619464
662291,1615696
663300,1617968
664310,1615168
665324,1618160
666351,1618744
667364,1617416
668379,1619640
669392,1618264
670416,1617992
671431,1619744
672444,1619200
673457,1619632
674482,1620696
675500,1620088
676513,1621696
677528,1617240
678549,1617928
679565,1618040
680579,1620344
681599,1614032
682616,1620584
683629,1618840
684663,1620464
685674,1617624
686692,1619104
687718,1620224
688731,1620592
689757,1621504
690772,1620960
691787,1618072
692802,1619944
693818,1618552
694831,1619904
695855,1620152
696867,1618256
697892,1618192
698903,1618608
699918,1619584
700945,1619904
701957,1620800
702970,1620096
703993,1620816
705010,1621696
706035,1621192
707050,1616808
708071,1620432
709085,1619816
710098,1620480
711111,1615848
712138,1616832
713155,1618744
714179,1619272
715194,1616920
716208,1618976
717225,1618616
718237,1620872
719260,1622896
720274,1620600
721290,1617632
722312,1618744
723328,1618520
724351,1620480
725362,1619392
726387,1619520
727402,1617288
728421,1617448
729436,1620280
730451,1620960
731464,1617840
732478,1620016
733497,1622800
734509,1622552
735532,1616264
736544,1618552
737558,1620592
738572,1619336
739599,1621552
740616,1617912
741644,1618672
742661,1619112
743687,1617328
744701,1619272
745715,1618408
746735,1620040
747751,1622360
748781,1622768
749792,1621680
750174,1611952
