elapsedWallClockMillis,totalMemoryBytes
15,1217664
1116,1616080
2129,1616816
3144,1617488
4157,1617016
5170,1608544
6185,1613248
7200,1613320
8211,1610016
9229,1614304
10244,1611176
11254,1611824
12268,1612224
13281,1613296
14296,1615176
15311,1611776
16326,1613952
17339,1615064
18357,1614672
19371,1613856
20385,1613672
21399,1614880
22416,1614712
23431,1614992
24441,1615216
25455,1613408
26466,1614296
27479,1614160
28494,1615376
29508,1614480
30532,1614352
31547,1615664
32558,1614168
33578,1616024
34590,1612592
35602,1613600
36614,1613608
37625,1614800
38637,1614288
39650,1614072
40667,1615216
41682,1615840
42697,1616024
43710,1616368
44723,1615624
45737,1616056
46757,1617000
47772,1618064
48786,1615560
49800,1614696
50812,1616424
51838,1617176
52859,1616016
53872,1615368
54885,1614264
55896,1615592
56909,1615520
57921,1614576
58939,1616072
59953,1616576
60962,1617232
61972,1615688
62983,1617376
63997,1613464
65007,1616896
66015,1616544
67025,1615816
68037,1616952
69048,1614504
70061,1616952
71078,1616032
72093,1617544
73105,1615056
74118,1615952
75133,1617104
76146,1616976
77169,1617504
78181,1618248
79197,1614984
80208,1616080
81220,1616952
82234,1617536
83249,1619232
84265,1616600
85280,1614312
86293,1614912
87308,1618720
88321,1615552
89336,1616616
90351,1614488
91365,1618600
92376,1619512
93390,1613184
94406,1614056
95420,1616144
96433,1615904
97449,1614768
98458,1616208
99477,1614976
100492,1619208
101505,1620040
102520,1618416
103538,1617368
104550,1619016
105568,1619712
106579,1617840
107588,1620856
108602,1617144
109613,1620176
110633,1619664
111649,1620472
112663,1620272
113686,1618320
114700,1618168
115714,1618800
116728,1619320
117741,1619560
118762,1618816
119778,1619560
120801,1619976
121813,1620632
122826,1615744
123844,1616528
124856,1616680
125879,1618848
126891,1620608
127912,1618480
128927,1616872
129938,1620464
130959,1619624
131974,1619704
132991,1615888
134002,1617616
135017,1617440
136025,1618568
137042,1618128
138056,1617312
139070,1616680
140081,1618472
141098,1619792
142111,1621360
143132,1617584
144145,1618352
145175,1617456
146189,1619136
147210,1619072
148225,1619344
149234,1621120
150249,1619152
151260,1621184
152273,1615944
153295,1616048
154307,1616104
155332,1618392
156346,1618080
157359,1617720
158377,1615632
159396,1618360
160414,1617336
161425,1618824
162445,1617016
163460,1618648
164477,1619520
165490,1618824
166508,1620152
167519,1616272
168539,1618216
169552,1617952
170574,1619144
171589,1619944
172608,1617392
173620,1620496
174648,1618672
175663,1620064
176680,1620944
177696,1618000
178713,1617264
179730,1618480
180750,1617032
181768,1615960
182790,1616816
183805,1617168
184832,1616848
185848,1618440
186862,1617520
187877,1617672
188903,1618280
189917,1618216
190934,1617752
191954,1619000
192969,1619200
193982,1616568
194995,1619040
196016,1619944
197024,1618736
198041,1616880
199057,1620400
200069,1615632
201080,1617944
202090,1618016
203099,1619264
204112,1619032
205125,1618656
206141,1615768
207152,1617224
208165,1617432
209185,1620064
210199,1617376
211214,1617096
212224,1617792
213248,1621136
214263,1615696
215274,1621936
216286,1619024
217305,1621056
218319,1621408
219342,1622432
220358,1621368
221381,1616792
222397,1618384
223420,1616752
224432,1619360
225448,1618688
226464,1616824
227481,1616008
228498,1619792
229514,1618664
230531,1619304
231547,1619496
232566,1623328
233581,1622080
234597,1622832
235606,1615424
236620,1618960
237630,1617320
238645,1618568
239655,1619440
240675,1619736
241695,1619696
242707,1617880
243721,1622672
244742,1616104
245757,1617408
246769,1616384
247784,1619584
248798,1618496
249813,1619504
250828,1622560
251841,1622096
252859,1620264
253873,1620976
254893,1622800
255908,1618504
256924,1617000
257939,1618824
258953,1618904
259964,1618904
260985,1620352
262000,1621920
263012,1622296
264021,1619408
265041,1616456
266054,1619016
267068,1619392
268085,1617416
269099,1617872
270114,1615144
271130,1615752
272141,1618416
273156,1619488
274170,1619304
275182,1620504
276201,1620232
277210,1619744
278231,1622472
279244,1619352
279681,1611688
