elapsedWallClockMillis,totalMemoryBytes
16,1218856
1106,1616072
2117,1616752
3124,1617536
4134,1618032
5143,1610360
6154,1612312
7168,1608152
8182,1612656
9194,1612992
10202,1610432
11214,1612240
12231,1612672
13241,1613024
14253,1613848
15262,1611032
16269,1614592
17296,1613904
18303,1613944
19318,1615456
20331,1614720
21346,1614520
22359,1614192
23371,1616184
24384,1616944
25400,1615624
26415,1614792
27425,1615360
28438,1615376
29457,1615512
30472,1613704
31484,1612776
32492,1613456
33508,1615432
34521,1612792
35538,1613472
36552,1614760
37560,1614112
38570,1616168
39579,1612072
40591,1613432
41601,1611696
42622,1615032
43633,1615736
44641,1614432
45648,1615696
46657,1615768
47668,1615768
48683,1617312
49697,1615776
50707,1616696
51715,1617640
52727,1616168
53736,1618456
54749,1615560
55759,1615688
56772,1614616
57782,1617080
58790,1616808
59797,1617872
60806,1618704
61820,1619056
62830,1619696
63839,1619584
64861,1616792
65875,1615200
66885,1615536
67899,1617184
68912,1613720
69920,1616528
70932,1614240
71942,1614984
72962,1617248
73971,1614624
74981,1616344
75992,1617016
77007,1615624
78019,1617784
79032,1615440
80052,1616984
81064,1615456
82076,1617104
83086,1616024
84095,1615360
85106,1616912
86119,1617552
87129,1616672
88139,1618424
89159,1615552
90174,1615336
91187,1615520
92197,1617176
93207,1616656
94217,1616312
95231,1615440
96244,1616648
97264,1615736
98271,1612752
99282,1616328
100297,1618544
101310,1616752
102319,1617440
103336,1617256
104348,1619640
105360,1618384
106375,1619544
107389,1619392
108403,1616680
109417,1618392
110424,1618576
111433,1618504
112442,1617728
113459,1617768
114473,1618264
115491,1617640
116501,1618200
117513,1619808
118534,1617904
119545,1618744
120556,1617064
121574,1618800
122587,1619616
123597,1617432
124611,1617392
125625,1617832
126639,1619456
127649,1612808
128659,1618520
129673,1616888
130686,1619184
131701,1617952
132712,1616184
133720,1619504
134733,1619040
135750,1621064
136765,1619328
137774,1617256
138786,1618904
139799,1619184
140809,1617552
141827,1620232
142842,1618024
143857,1619312
144870,1619584
145879,1618696
146889,1619776
147899,1618072
148907,1618032
149926,1619200
150934,1617496
151949,1619816
152957,1618408
153969,1619192
154986,1620424
155994,1620992
157008,1622440
158018,1619296
159025,1620432
160038,1618144
161053,1620216
162065,1616368
163082,1620120
164088,1615096
165099,1619296
166128,1619376
167137,1617816
168146,1618272
169156,1619824
170167,1619464
171188,1620712
172202,1616592
173214,1618064
174222,1616552
175235,1616296
176251,1619784
177263,1621280
178278,1621136
179298,1623296
180305,1621464
181316,1620104
182331,1617192
183350,1617688
184363,1619632
185376,1614960
186396,1619528
187406,1622600
188417,1617056
189437,1618280
190452,1617888
191463,1617968
192477,1616848
193490,1615872
194502,1618976
195521,1618768
196535,1617688
197546,1619816
198562,1622320
199578,1622816
200593,1617760
201603,1618360
202624,1618200
203638,1619304
204652,1618624
205668,1622128
206681,1620528
207693,1622528
208707,1623240
209726,1616912
210738,1615672
211751,1619696
212762,1618392
213772,1618216
214787,1619600
215797,1622424
216808,1618944
217822,1616488
218831,1619624
219852,1618880
220867,1618600
221879,1620248
222895,1620584
223907,1621864
224923,1622144
225938,1617128
226950,1618528
227961,1616536
228975,1618072
229987,1617264
231000,1622688
232014,1622984
233027,1617624
234038,1616664
235051,1617944
236075,1617584
237089,1619776
238106,1619496
239119,1621464
240132,1622408
241151,1623096
242168,1617760
243183,1616784
244195,1618160
245211,1617816
246223,1620064
247236,1621184
248250,1621272
249264,1617496
250273,1618448
251297,1618184
252306,1618352
253319,1618952
254337,1622344
255352,1622712
256373,1624328
257387,1622512
258401,1617288
259426,1617032
260440,1619368
261450,1618240
262473,1617512
263487,1621144
264500,1619256
265513,1616792
266528,1617624
267549,1618488
268563,1617984
269569,1612088
270586,1621080
271601,1621832
272625,1623000
273637,1614960
274649,1617744
275666,1615864
276679,1618096
277693,1619232
278712,1618568
279724,1620768
280738,1623888
281746,1617296
282769,1616408
283783,1618288
284792,1619768
285801,1616016
286820,1622152
287834,1621192
288853,1623048
289863,1616072
290873,1618024
291888,1615832
292903,1619088
293917,1619016
294936,1619848
295952,1622392
296966,1623256
297987,1617600
299003,1616888
300016,1618912
301027,1619560
302040,1617856
303050,1622472
304071,1622384
305085,1622880
306100,1616888
307111,1617608
308125,1618544
309137,1618432
310151,1619880
311170,1619608
312182,1622200
313195,1615288
314208,1616656
315231,1617816
316244,1618784
317262,1619088
318280,1619536
319292,1621208
320306,1622568
321318,1621808
322332,1615264
323347,1617664
324362,1616088
325377,1618296
326389,1618432
327407,1621016
328420,1622160
329435,1615864
330448,1618288
331464,1617744
332474,1617920
333491,1617688
334506,1620648
335518,1622976
336530,1620280
337543,1621744
338565,1616792
339579,1618216
340592,1619360
341608,1616624
342622,1617984
343635,1621952
344650,1622208
345672,1616344
346689,1617552
347703,1616136
348727,1616704
349740,1618544
350755,1620088
351776,1622928
352788,1621624
353805,1615400
354820,1616280
355832,1617472
356843,1617824
357860,1619744
358875,1617112
359891,1622008
360902,1622720
361914,1614824
362924,1616344
363935,1616936
364949,1617888
365962,1619360
366977,1620544
367991,1621776
369004,1624144
370014,1622184
371037,1615888
372051,1617416
373064,1618304
374095,1619824
375110,1618752
376124,1621208
377147,1622960
378160,1616024
379176,1616760
380190,1617192
381203,1616960
382213,1619760
382738,1611704
