elapsedWallClockMillis,totalMemoryBytes
12,1216512
1107,1615880
2124,1617168
3137,1618552
4152,1617032
5165,1609592
6179,1611856
7195,1611176
8209,1610864
9218,1612368
10228,1610600
11240,1611936
12254,1611624
13267,1612992
14282,1610576
15297,1612928
16310,1613320
17323,1615584
18336,1613272
19349,1615984
20363,1615384
21380,1615312
22396,1616720
23409,1616720
24425,1616312
25438,1616200
26455,1614680
27471,1617376
28484,1617432
29498,1617432
30509,1614472
31524,1616000
32536,1616200
33552,1615424
34564,1615392
35581,1617136
36592,1617072
37608,1616728
38620,1617328
39631,1614504
40649,1617168
41661,1617416
42674,1617832
43688,1617696
44699,1614040
45707,1616176
46714,1617104
47730,1617184
48743,1615920
49755,1614376
50765,1614688
51778,1614888
52793,1615568
53814,1615888
54824,1614504
55837,1615368
56850,1615552
57866,1615944
58880,1613616
59895,1616360
60907,1617568
61920,1616472
62932,1616280
63946,1613184
64959,1615136
65976,1615632
66986,1616336
68001,1614448
69013,1613928
70025,1616256
71044,1616888
72066,1616976
73083,1615784
74099,1614832
75112,1614832
76124,1616584
77140,1616344
78149,1616400
79162,1614456
80177,1616184
81190,1615592
82210,1613736
83218,1616480
84233,1615128
85245,1616080
86261,1616464
87279,1616792
88290,1614064
89308,1616552
90321,1613392
91329,1618616
92350,1617552
93364,1613048
94383,1614232
95396,1614752
96408,1616624
97425,1615824
98440,1614312
99453,1614352
100465,1617336
101479,1617472
102493,1617656
103506,1616192
104522,1617856
105535,1617664
106546,1617608
107565,1618864
108578,1616128
109590,1618256
110606,1618168
111618,1618800
112633,1618416
113649,1618568
114663,1616784
115678,1618872
116695,1617648
117716,1619288
118728,1619248
119741,1618424
120753,1620256
121768,1620000
122788,1615184
123800,1617504
124817,1618656
125829,1619432
126838,1619616
127849,1616312
128867,1617712
129879,1617896
130897,1618280
131906,1618400
132917,1616696
133931,1619232
134948,1619656
135955,1619904
136974,1619544
137982,1616616
139000,1617976
140013,1618192
141022,1620168
142032,1618272
143048,1618416
144063,1618664
145076,1619224
146093,1619296
147107,1618576
148119,1618496
149131,1617920
150145,1619872
151164,1619376
152177,1615008
153193,1618800
154210,1617792
155219,1618992
156238,1619432
157250,1615320
158265,1616952
159278,1617976
160289,1620008
161305,1618544
162318,1617384
163336,1618328
164347,1618176
165361,1618824
166373,1619144
167387,1617600
168399,1617888
169420,1619560
170439,1620160
171449,1618288
172466,1616056
173483,1618976
174494,1619360
175505,1619416
176517,1620144
177530,1618072
178546,1620784
179560,1619408
180573,1620416
181585,1614424
182601,1617320
183615,1618208
184628,1619968
185641,1619168
186656,1617128
187669,1618968
188678,1620248
189692,1620928
190711,1622000
191727,1617072
192744,1618720
193759,1618584
194772,1618936
195793,1619848
196804,1617912
197821,1619352
198840,1618976
199855,1620624
200871,1620768
201880,1618080
202887,1616912
203900,1619592
204912,1619312
205931,1619048
206945,1616904
207966,1620920
208981,1622320
209994,1623416
211009,1615016
212019,1619408
213027,1619512
214046,1620600
215061,1620736
216083,1619352
217102,1623080
218118,1613744
219132,1620632
220150,1620960
221164,1620864
222187,1619224
223199,1618792
224212,1621888
225225,1620736
226240,1622224
227254,1621952
228264,1617688
229278,1618216
230290,1620344
231302,1620720
232313,1621160
233325,1620784
234342,1620968
235356,1623392
236369,1621096
237383,1617712
238397,1619904
239409,1620352
240424,1620712
241446,1619616
242461,1620048
243485,1621512
244501,1618496
245523,1619344
246530,1613272
247543,1620312
248554,1619872
249568,1621072
250582,1621344
251594,1617216
252606,1621048
253625,1621760
254640,1621504
255653,1621120
256673,1616208
257698,1620000
258716,1619792
259736,1620928
260748,1620776
261764,1618808
262775,1619632
263791,1620256
264803,1621008
265815,1620664
266834,1620152
267849,1619256
268869,1620688
269883,1621008
270895,1621192
271907,1620552
272917,1620008
273929,1620560
274940,1623336
275959,1613656
276968,1615528
277978,1619200
279004,1619784
280013,1620064
281026,1617448
282037,1618856
283049,1618872
284057,1622072
285074,1620336
286087,1617720
287099,1620856
288118,1617968
289134,1619832
290157,1622280
291175,1619880
292188,1618768
293201,1618488
294223,1621832
295239,1622160
296257,1619168
297267,1620320
298281,1619144
299294,1621296
300309,1616856
301321,1619560
302337,1619296
303355,1620192
304370,1620744
305381,1613472
306396,1619008
307419,1622776
308433,1619144
309456,1620184
310474,1617504
311488,1617680
312501,1617928
313518,1620824
314531,1621712
315552,1619560
316568,1619696
317590,1620448
318605,1621048
319622,1620952
320635,1620888
321654,1620400
322667,1620904
323680,1620632
324690,1621936
325702,1616816
326710,1617504
327731,1617248
328743,1619728
329755,1621216
330777,1617984
331790,1621256
332806,1617600
333821,1620408
334836,1618184
335846,1619872
336856,1622168
337864,1620560
338881,1622416
339893,1616816
340907,1618936
341921,1616608
342935,1620472
343949,1620120
344970,1618752
345982,1617936
347005,1619384
348016,1621336
349031,1620920
350051,1619536
351069,1621408
352087,1621000
353101,1621384
354123,1621608
355135,1617752
356158,1617632
357167,1619904
358181,1619544
359193,1618616
360221,1618880
361233,1618800
362252,1619264
363263,1621528
364281,1614280
365301,1620200
366314,1620512
367325,1620280
368351,1620528
369364,1618752
370382,1620216
371397,1619376
372414,1620432
373428,1618784
374455,1618872
375467,1619568
376491,1619584
377509,1621592
378529,1620216
379545,1614664
380568,1621200
381585,1621912
382597,1621176
383610,1622576
384630,1619632
385645,1619520
386656,1618632
387667,1620464
388679,1620072
389694,1619088
390709,1620336
391723,1619952
392744,1620512
393757,1617936
394770,1617632
395787,1622712
396801,1621680
397820,1622688
398832,1616944
399844,1619456
400853,1619032
401867,1621040
402880,1620192
403888,1618568
404895,1616672
405912,1619312
406922,1620456
407943,1621256
408957,1619256
409967,1620456
410977,1620728
411994,1621416
413009,1622032
414023,1618264
415038,1618488
416062,1619392
417074,1620528
418094,1620152
419110,1620496
420123,1616520
421148,1619928
422160,1619488
423175,1611488
424190,1621152
425201,1622712
426213,1621560
427222,1621896
428237,1615096
429254,1620896
430266,1620608
431281,1619968
432293,1620152
433317,1618232
434330,1618384
435341,1618920
436356,1621232
437374,1620536
438388,1620184
439413,1620912
440428,1621632
441441,1621880
442459,1621192
443473,1619560
444497,1617688
445509,1619984
446533,1619496
447541,1615592
448557,1619432
449569,1616440
450596,1618168
451610,1619712
452627,1618424
453638,1619920
454658,1621112
455670,1621280
456683,1622072
457695,1617992
458711,1618864
459723,1619496
460739,1620648
461749,1620552
462767,1617824
463780,1619152
464798,1620424
465812,1622240
466830,1620016
467842,1617232
468860,1621312
469870,1620728
470899,1621432
471910,1621584
472923,1617120
473935,1619872
474947,1619360
475961,1620240
476975,1617912
477988,1619480
479004,1619952
480028,1620488
481048,1618496
482062,1618552
483089,1620560
484096,1619936
485107,1621144
486118,1622128
487132,1616664
488145,1618664
489158,1620680
490171,1619984
491188,1617264
492201,1617280
493218,1618712
494231,1620472
495255,1619720
496266,1619520
497281,1619096
498293,1617240
499317,1621264
500333,1621624
501348,1622752
502369,1617688
503385,1618608
504407,1618280
505422,1618720
506440,1617608
507454,1619304
508472,1621360
509485,1619832
510503,1619272
511515,1619168
512530,1617400
513545,1621568
514568,1621424
515579,1622488
516592,1617536
517613,1620808
518626,1619880
519646,1619184
520659,1619736
521674,1619528
522689,1620040
523703,1620296
524715,1620048
525726,1620760
526738,1615256
527747,1621000
528761,1618672
529774,1622392
530783,1621504
531796,1619096
532808,1619752
533819,1619808
534830,1618544
535842,1616456
536856,1616256
537867,1620504
538881,1620224
539898,1620784
540913,1619104
541926,1619040
542940,1618512
543955,1621752
544970,1622072
545981,1619624
546993,1617864
548007,1619832
549021,1619752
550043,1618216
551060,1618792
552082,1619400
553096,1620744
554108,1620640
555127,1621256
556139,1616032
557153,1617120
558174,1620320
559187,1622136
560203,1622304
561211,1619792
562236,1620088
563253,1618992
564265,1618736
565280,1614520
566292,1619480
567318,1620032
568331,1619784
569346,1619952
570361,1619176
571380,1618416
572395,1621072
573411,1621168
574423,1621752
575434,1618536
576449,1620488
577472,1617904
578487,1620712
579509,1619792
580526,1617992
581544,1620368
582558,1618984
583580,1621696
584589,1621304
585613,1620560
586627,1619944
587639,1617608
588649,1619232
589666,1621784
590677,1618432
591693,1619592
592710,1620120
593724,1621112
594749,1617240
595760,1619712
596776,1619416
597790,1619432
598809,1621056
599825,1618688
600835,1619872
601849,1621888
602867,1621040
603883,1621744
604897,1618008
605909,1619752
606925,1618976
607941,1619264
608954,1620328
609969,1618920
610978,1620168
611991,1620232
613003,1618512
614019,1619080
615033,1619992
616046,1619936
617060,1622496
618070,1621432
619086,1622304
620101,1619560
621117,1619640
622134,1620168
623145,1621000
624169,1619104
625183,1616944
626208,1618768
627218,1618448
628234,1621376
629251,1615824
630270,1620752
631281,1621696
632303,1620048
633315,1622832
634328,1617848
635345,1619560
636356,1618400
637376,1620168
638393,1620120
639422,1618976
640434,1618992
641461,1620480
642476,1614384
643500,1622040
644517,1617976
645529,1621240
646547,1621632
647561,1620800
648580,1614392
649593,1619104
650606,1618160
651627,1618848
652642,1620920
653664,1618360
654675,1619456
655686,1618864
656703,1619216
657711,1619208
658723,1618952
659738,1619312
660759,1622136
661773,1621032
662788,1621208
663798,1616832
664813,1619232
665829,1618000
666841,1619136
667865,1619728
668878,1618880
669908,1619616
670923,1619496
671942,1621504
672956,1621032
673968,1620584
674984,1620208
676006,1621992
677022,1621448
678039,1617656
679053,1619640
680076,1618968
681089,1618704
682105,1620304
683119,1617856
684133,1618296
685146,1618552
686159,1618824
687175,1621160
688192,1618480
689203,1621200
690216,1619648
691230,1622728
692244,1622248
693257,1615872
694271,1619336
695293,1620072
696307,1619440
697322,1620536
698339,1620416
699362,1621072
700376,1621240
701391,1620336
702411,1619784
703423,1620128
704439,1620728
705460,1619184
706474,1621848
707483,1617440
708492,1620016
709510,1619248
710522,1621536
711541,1620336
712553,1618232
713576,1619768
714591,1618288
715608,1621176
716619,1620304
717636,1619144
718654,1620744
719666,1622768
720680,1620680
721695,1622832
722708,1618248
723721,1619232
724740,1618928
725766,1621416
726778,1617824
727787,1619224
728802,1619608
729830,1620632
730851,1620808
731862,1621088
732875,1620776
733899,1623088
734913,1621968
735931,1622472
736945,1616288
737974,1619568
738989,1619512
740011,1621672
741025,1621048
742041,1619216
743062,1619104
744078,1619688
745093,1619648
746115,1620976
747128,1620776
748149,1621312
749170,1622416
750194,1620504
751205,1622416
752218,1618304
753229,1619320
754245,1619216
755269,1618448
756284,1619704
757304,1619320
758312,1620064
759330,1619128
760345,1621840
761357,1616064
762373,1620576
763383,1622432
764397,1620456
765409,1620752
766201,1612032
