Dec 23 22:36:18 CONTAINER ID   NAME        CPU %     MEM USAGE / LIMIT     MEM %     NET I/O       BLOCK I/O         PIDS
Dec 23 22:36:18 175a7162e018   portainer   0.02%     16.73MiB / 15.66GiB   0.10%     9.42kB / 0B   58.1MB / 2.68MB   7
Dec 23 22:36:18                --          0.00%     0B / 0B               0.00%     0B / 0B       0B / 0B           0
Dec 23 22:36:21 CONTAINER ID   NAME                    CPU %     MEM USAGE / LIMIT     MEM %     NET I/O       BLOCK I/O         PIDS
Dec 23 22:36:21 55e236894b7d   base_aic_janusgraph_1   242.09%   671MiB / 15.66GiB     4.18%     5.6kB / 0B    0B / 233kB        21
Dec 23 22:36:21 175a7162e018   portainer               0.00%     16.73MiB / 15.66GiB   0.10%     9.42kB / 0B   58.1MB / 2.68MB   7
Dec 23 22:36:25 CONTAINER ID   NAME                    CPU %     MEM USAGE / LIMIT     MEM %     NET I/O       BLOCK I/O         PIDS
Dec 23 22:36:25 55e236894b7d   base_aic_janusgraph_1   318.08%   715.5MiB / 15.66GiB   4.46%     6.46kB / 0B   0B / 233kB        22
Dec 23 22:36:25 175a7162e018   portainer               0.00%     16.73MiB / 15.66GiB   0.10%     9.42kB / 0B   58.1MB / 2.68MB   7
Dec 23 22:36:29 CONTAINER ID   NAME                    CPU %     MEM USAGE / LIMIT     MEM %     NET I/O       BLOCK I/O         PIDS
Dec 23 22:36:29 55e236894b7d   base_aic_janusgraph_1   0.14%     759.3MiB / 15.66GiB   4.73%     6.76kB / 0B   0B / 233kB        23
Dec 23 22:36:29 175a7162e018   portainer               2.12%     16.23MiB / 15.66GiB   0.10%     9.42kB / 0B   58.1MB / 2.68MB   7
Dec 23 22:36:32 CONTAINER ID   NAME                    CPU %     MEM USAGE / LIMIT     MEM %     NET I/O       BLOCK I/O         PIDS
Dec 23 22:36:32 55e236894b7d   base_aic_janusgraph_1   289.28%   618MiB / 15.66GiB     3.85%     6.83kB / 0B   0B / 332kB        21
Dec 23 22:36:32 175a7162e018   portainer               0.00%     16.23MiB / 15.66GiB   0.10%     9.42kB / 0B   58.1MB / 2.68MB   7
Dec 23 22:36:36 CONTAINER ID   NAME                    CPU %     MEM USAGE / LIMIT     MEM %     NET I/O       BLOCK I/O         PIDS
Dec 23 22:36:36 55e236894b7d   base_aic_janusgraph_1   0.09%     717.3MiB / 15.66GiB   4.47%     7.13kB / 0B   0B / 332kB        22
Dec 23 22:36:36 175a7162e018   portainer               0.00%     16.23MiB / 15.66GiB   0.10%     9.42kB / 0B   58.1MB / 2.68MB   7
Dec 23 22:36:39 CONTAINER ID   NAME                    CPU %     MEM USAGE / LIMIT     MEM %     NET I/O       BLOCK I/O         PIDS
Dec 23 22:36:39 55e236894b7d   base_aic_janusgraph_1   0.38%     707.7MiB / 15.66GiB   4.41%     7.13kB / 0B   0B / 332kB        22
Dec 23 22:36:39 175a7162e018   portainer               0.00%     16.23MiB / 15.66GiB   0.10%     9.42kB / 0B   58.1MB / 2.68MB   7
Dec 23 22:36:43 CONTAINER ID   NAME                    CPU %     MEM USAGE / LIMIT     MEM %     NET I/O       BLOCK I/O         PIDS
Dec 23 22:36:43 55e236894b7d   base_aic_janusgraph_1   0.10%     707.7MiB / 15.66GiB   4.41%     7.13kB / 0B   0B / 332kB        22
Dec 23 22:36:43 175a7162e018   portainer               0.00%     16.23MiB / 15.66GiB   0.10%     9.42kB / 0B   58.1MB / 2.68MB   7
Dec 23 22:36:46 CONTAINER ID   NAME                    CPU %     MEM USAGE / LIMIT     MEM %     NET I/O       BLOCK I/O         PIDS
Dec 23 22:36:46 55e236894b7d   base_aic_janusgraph_1   0.09%     707.7MiB / 15.66GiB   4.41%     7.2kB / 0B    0B / 332kB        22
Dec 23 22:36:46 175a7162e018   portainer               0.00%     16.23MiB / 15.66GiB   0.10%     9.42kB / 0B   58.1MB / 2.68MB   7
Dec 23 22:36:50 CONTAINER ID   NAME                    CPU %     MEM USAGE / LIMIT     MEM %     NET I/O       BLOCK I/O         PIDS
Dec 23 22:36:50 55e236894b7d   base_aic_janusgraph_1   0.26%     707.7MiB / 15.66GiB   4.41%     7.29kB / 0B   0B / 332kB        22
Dec 23 22:36:50 175a7162e018   portainer               0.00%     16.23MiB / 15.66GiB   0.10%     9.72kB / 0B   58.1MB / 2.68MB   7
Dec 23 22:36:53 CONTAINER ID   NAME                    CPU %     MEM USAGE / LIMIT     MEM %     NET I/O       BLOCK I/O         PIDS
Dec 23 22:36:53 55e236894b7d   base_aic_janusgraph_1   0.09%     707.7MiB / 15.66GiB   4.41%     7.5kB / 0B    0B / 332kB        22
Dec 23 22:36:53 175a7162e018   portainer               0.02%     16.23MiB / 15.66GiB   0.10%     9.72kB / 0B   58.1MB / 2.68MB   7
Dec 23 22:36:56 CONTAINER ID   NAME                    CPU %     MEM USAGE / LIMIT     MEM %     NET I/O       BLOCK I/O         PIDS
Dec 23 22:36:56 55e236894b7d   base_aic_janusgraph_1   0.18%     707.7MiB / 15.66GiB   4.41%     7.5kB / 0B    0B / 332kB        22
Dec 23 22:36:56 175a7162e018   portainer               0.00%     16.23MiB / 15.66GiB   0.10%     9.72kB / 0B   58.1MB / 2.68MB   7
Dec 23 22:37:00 CONTAINER ID   NAME                    CPU %     MEM USAGE / LIMIT     MEM %     NET I/O       BLOCK I/O         PIDS
Dec 23 22:37:00 55e236894b7d   base_aic_janusgraph_1   0.18%     707.7MiB / 15.66GiB   4.41%     7.5kB / 0B    0B / 332kB        22
Dec 23 22:37:00 175a7162e018   portainer               0.00%     16.23MiB / 15.66GiB   0.10%     9.72kB / 0B   58.1MB / 2.68MB   7
Dec 23 22:37:03 CONTAINER ID   NAME                    CPU %     MEM USAGE / LIMIT     MEM %     NET I/O       BLOCK I/O         PIDS
Dec 23 22:37:03 55e236894b7d   base_aic_janusgraph_1   0.10%     707.7MiB / 15.66GiB   4.41%     7.5kB / 0B    0B / 332kB        22
Dec 23 22:37:03 175a7162e018   portainer               0.00%     16.23MiB / 15.66GiB   0.10%     9.72kB / 0B   58.1MB / 2.68MB   7
Dec 23 22:37:07 CONTAINER ID   NAME                    CPU %     MEM USAGE / LIMIT     MEM %     NET I/O       BLOCK I/O         PIDS
Dec 23 22:37:07 55e236894b7d   base_aic_janusgraph_1   0.10%     707.7MiB / 15.66GiB   4.41%     7.5kB / 0B    0B / 332kB        22
Dec 23 22:37:07 175a7162e018   portainer               0.00%     16.23MiB / 15.66GiB   0.10%     9.72kB / 0B   58.1MB / 2.68MB   7
Dec 23 22:37:11 CONTAINER ID   NAME                    CPU %     MEM USAGE / LIMIT     MEM %     NET I/O       BLOCK I/O         PIDS
Dec 23 22:37:11 55e236894b7d   base_aic_janusgraph_1   0.27%     707.7MiB / 15.66GiB   4.41%     7.5kB / 0B    0B / 332kB        22
Dec 23 22:37:11 175a7162e018   portainer               0.00%     16.23MiB / 15.66GiB   0.10%     9.72kB / 0B   58.1MB / 2.68MB   7
Dec 23 22:37:14 CONTAINER ID   NAME                    CPU %     MEM USAGE / LIMIT     MEM %     NET I/O       BLOCK I/O         PIDS
Dec 23 22:37:14 55e236894b7d   base_aic_janusgraph_1   0.09%     707.7MiB / 15.66GiB   4.41%     7.5kB / 0B    0B / 332kB        22
Dec 23 22:37:14 175a7162e018   portainer               0.00%     16.23MiB / 15.66GiB   0.10%     9.72kB / 0B   58.1MB / 2.68MB   7
Dec 23 22:37:18 CONTAINER ID   NAME                    CPU %     MEM USAGE / LIMIT     MEM %     NET I/O       BLOCK I/O         PIDS
Dec 23 22:37:18 55e236894b7d   base_aic_janusgraph_1   0.11%     707.7MiB / 15.66GiB   4.41%     7.5kB / 0B    0B / 332kB        22
Dec 23 22:37:18 175a7162e018   portainer               0.00%     16.23MiB / 15.66GiB   0.10%     9.72kB / 0B   58.1MB / 2.68MB   7
Dec 23 22:37:21 CONTAINER ID   NAME                    CPU %     MEM USAGE / LIMIT     MEM %     NET I/O       BLOCK I/O         PIDS
Dec 23 22:37:21 55e236894b7d   base_aic_janusgraph_1   0.10%     707.7MiB / 15.66GiB   4.41%     7.66kB / 0B   0B / 332kB        22
Dec 23 22:37:21 175a7162e018   portainer               0.00%     16.23MiB / 15.66GiB   0.10%     9.72kB / 0B   58.1MB / 2.68MB   7
Dec 23 22:37:25 CONTAINER ID   NAME                    CPU %     MEM USAGE / LIMIT     MEM %     NET I/O       BLOCK I/O         PIDS
Dec 23 22:37:25 55e236894b7d   base_aic_janusgraph_1   0.19%     707.7MiB / 15.66GiB   4.41%     7.87kB / 0B   0B / 332kB        22
Dec 23 22:37:25 175a7162e018   portainer               0.00%     16.23MiB / 15.66GiB   0.10%     9.72kB / 0B   58.1MB / 2.68MB   7
Dec 23 22:37:29 CONTAINER ID   NAME                    CPU %     MEM USAGE / LIMIT     MEM %     NET I/O       BLOCK I/O         PIDS
Dec 23 22:37:29 55e236894b7d   base_aic_janusgraph_1   0.11%     707.7MiB / 15.66GiB   4.41%     7.87kB / 0B   0B / 332kB        22
Dec 23 22:37:29 175a7162e018   portainer               0.00%     16.23MiB / 15.66GiB   0.10%     9.72kB / 0B   58.1MB / 2.68MB   7
Dec 23 22:37:32 CONTAINER ID   NAME                    CPU %     MEM USAGE / LIMIT     MEM %     NET I/O       BLOCK I/O         PIDS
Dec 23 22:37:32 55e236894b7d   base_aic_janusgraph_1   0.11%     707.7MiB / 15.66GiB   4.41%     7.87kB / 0B   0B / 332kB        22
Dec 23 22:37:32 175a7162e018   portainer               0.00%     16.23MiB / 15.66GiB   0.10%     9.72kB / 0B   58.1MB / 2.68MB   7
Dec 23 22:37:36 CONTAINER ID   NAME                    CPU %     MEM USAGE / LIMIT     MEM %     NET I/O       BLOCK I/O         PIDS
Dec 23 22:37:36 55e236894b7d   base_aic_janusgraph_1   0.10%     707.7MiB / 15.66GiB   4.41%     7.87kB / 0B   0B / 332kB        22
Dec 23 22:37:36 175a7162e018   portainer               0.00%     16.23MiB / 15.66GiB   0.10%     9.72kB / 0B   58.1MB / 2.68MB   7
Dec 23 22:37:39 CONTAINER ID   NAME                    CPU %     MEM USAGE / LIMIT     MEM %     NET I/O       BLOCK I/O         PIDS
Dec 23 22:37:39 55e236894b7d   base_aic_janusgraph_1   0.11%     707.7MiB / 15.66GiB   4.41%     7.87kB / 0B   0B / 332kB        22
Dec 23 22:37:39 175a7162e018   portainer               0.00%     16.23MiB / 15.66GiB   0.10%     9.72kB / 0B   58.1MB / 2.68MB   7
Dec 23 22:37:43 CONTAINER ID   NAME                    CPU %     MEM USAGE / LIMIT     MEM %     NET I/O       BLOCK I/O         PIDS
Dec 23 22:37:43 55e236894b7d   base_aic_janusgraph_1   0.10%     707.7MiB / 15.66GiB   4.41%     7.87kB / 0B   0B / 332kB        22
Dec 23 22:37:43 175a7162e018   portainer               0.00%     16.23MiB / 15.66GiB   0.10%     9.72kB / 0B   58.1MB / 2.68MB   7
Dec 23 22:37:47 CONTAINER ID   NAME                    CPU %     MEM USAGE / LIMIT     MEM %     NET I/O       BLOCK I/O         PIDS
Dec 23 22:37:47 55e236894b7d   base_aic_janusgraph_1   0.11%     707.7MiB / 15.66GiB   4.41%     7.87kB / 0B   0B / 332kB        22
Dec 23 22:37:47 175a7162e018   portainer               0.00%     16.23MiB / 15.66GiB   0.10%     9.72kB / 0B   58.1MB / 2.68MB   7
Dec 23 22:37:50 CONTAINER ID   NAME                    CPU %     MEM USAGE / LIMIT     MEM %     NET I/O       BLOCK I/O         PIDS
Dec 23 22:37:50 55e236894b7d   base_aic_janusgraph_1   0.19%     707.7MiB / 15.66GiB   4.41%     7.87kB / 0B   0B / 332kB        22
Dec 23 22:37:50 175a7162e018   portainer               0.00%     16.23MiB / 15.66GiB   0.10%     9.72kB / 0B   58.1MB / 2.68MB   7
Dec 23 22:37:54 CONTAINER ID   NAME                    CPU %     MEM USAGE / LIMIT     MEM %     NET I/O       BLOCK I/O         PIDS
Dec 23 22:37:54 55e236894b7d   base_aic_janusgraph_1   0.10%     707.7MiB / 15.66GiB   4.41%     7.87kB / 0B   0B / 332kB        22
Dec 23 22:37:54 175a7162e018   portainer               0.00%     16.24MiB / 15.66GiB   0.10%     9.72kB / 0B   58.1MB / 2.68MB   7
Dec 23 22:37:57 CONTAINER ID   NAME                    CPU %     MEM USAGE / LIMIT     MEM %     NET I/O       BLOCK I/O         PIDS
Dec 23 22:37:57 55e236894b7d   base_aic_janusgraph_1   0.11%     707.7MiB / 15.66GiB   4.41%     7.87kB / 0B   0B / 332kB        22
Dec 23 22:37:57 175a7162e018   portainer               0.00%     16.24MiB / 15.66GiB   0.10%     9.72kB / 0B   58.1MB / 2.68MB   7
Dec 23 22:38:01 CONTAINER ID   NAME                    CPU %     MEM USAGE / LIMIT     MEM %     NET I/O       BLOCK I/O         PIDS
Dec 23 22:38:01 55e236894b7d   base_aic_janusgraph_1   0.19%     707.7MiB / 15.66GiB   4.41%     7.87kB / 0B   0B / 332kB        22
Dec 23 22:38:01 175a7162e018   portainer               0.00%     16.24MiB / 15.66GiB   0.10%     9.72kB / 0B   58.1MB / 2.68MB   7
Dec 23 22:38:05 CONTAINER ID   NAME                    CPU %     MEM USAGE / LIMIT     MEM %     NET I/O       BLOCK I/O         PIDS
Dec 23 22:38:05 55e236894b7d   base_aic_janusgraph_1   0.10%     707.7MiB / 15.66GiB   4.41%     7.87kB / 0B   0B / 332kB        22
Dec 23 22:38:05 175a7162e018   portainer               0.09%     16.24MiB / 15.66GiB   0.10%     9.72kB / 0B   58.1MB / 2.68MB   7
Dec 23 22:38:08 CONTAINER ID   NAME                    CPU %     MEM USAGE / LIMIT     MEM %     NET I/O       BLOCK I/O         PIDS
Dec 23 22:38:08 55e236894b7d   base_aic_janusgraph_1   0.10%     707.7MiB / 15.66GiB   4.41%     7.87kB / 0B   0B / 332kB        22
Dec 23 22:38:08 175a7162e018   portainer               0.02%     16.24MiB / 15.66GiB   0.10%     9.72kB / 0B   58.1MB / 2.68MB   7
Dec 23 22:38:12 CONTAINER ID   NAME                    CPU %     MEM USAGE / LIMIT     MEM %     NET I/O       BLOCK I/O         PIDS
Dec 23 22:38:12 55e236894b7d   base_aic_janusgraph_1   0.10%     707.7MiB / 15.66GiB   4.41%     7.87kB / 0B   0B / 332kB        22
Dec 23 22:38:12 175a7162e018   portainer               0.00%     16.24MiB / 15.66GiB   0.10%     9.72kB / 0B   58.1MB / 2.68MB   7
Dec 23 22:38:15 CONTAINER ID   NAME                    CPU %     MEM USAGE / LIMIT     MEM %     NET I/O       BLOCK I/O         PIDS
Dec 23 22:38:15 55e236894b7d   base_aic_janusgraph_1   0.27%     707.7MiB / 15.66GiB   4.41%     7.87kB / 0B   0B / 332kB        22
Dec 23 22:38:15 175a7162e018   portainer               0.00%     16.24MiB / 15.66GiB   0.10%     9.72kB / 0B   58.1MB / 2.68MB   7
Dec 23 22:38:19 CONTAINER ID   NAME                    CPU %     MEM USAGE / LIMIT     MEM %     NET I/O       BLOCK I/O         PIDS
Dec 23 22:38:19 55e236894b7d   base_aic_janusgraph_1   0.11%     707.7MiB / 15.66GiB   4.41%     7.94kB / 0B   0B / 332kB        22
Dec 23 22:38:19 175a7162e018   portainer               0.02%     16.24MiB / 15.66GiB   0.10%     9.72kB / 0B   58.1MB / 2.68MB   7
Dec 23 22:38:23 CONTAINER ID   NAME                    CPU %     MEM USAGE / LIMIT     MEM %     NET I/O       BLOCK I/O         PIDS
Dec 23 22:38:23 55e236894b7d   base_aic_janusgraph_1   0.10%     707.7MiB / 15.66GiB   4.41%     7.94kB / 0B   0B / 332kB        22
Dec 23 22:38:23 175a7162e018   portainer               0.00%     16.24MiB / 15.66GiB   0.10%     9.72kB / 0B   58.1MB / 2.68MB   7
Dec 23 22:38:26 CONTAINER ID   NAME                    CPU %     MEM USAGE / LIMIT     MEM %     NET I/O       BLOCK I/O         PIDS
Dec 23 22:38:26 55e236894b7d   base_aic_janusgraph_1   0.12%     707.7MiB / 15.66GiB   4.41%     8.03kB / 0B   0B / 332kB        22
Dec 23 22:38:26 175a7162e018   portainer               0.00%     16.24MiB / 15.66GiB   0.10%     9.72kB / 0B   58.1MB / 2.68MB   7
Dec 23 22:38:30 CONTAINER ID   NAME                    CPU %     MEM USAGE / LIMIT     MEM %     NET I/O       BLOCK I/O         PIDS
Dec 23 22:38:30 55e236894b7d   base_aic_janusgraph_1   0.11%     707.7MiB / 15.66GiB   4.41%     8.24kB / 0B   0B / 332kB        22
Dec 23 22:38:30 175a7162e018   portainer               0.00%     16.23MiB / 15.66GiB   0.10%     9.72kB / 0B   58.1MB / 2.68MB   7
Dec 23 22:38:33 CONTAINER ID   NAME                    CPU %     MEM USAGE / LIMIT     MEM %     NET I/O       BLOCK I/O         PIDS
Dec 23 22:38:33 55e236894b7d   base_aic_janusgraph_1   0.11%     707.7MiB / 15.66GiB   4.41%     8.24kB / 0B   0B / 332kB        22
Dec 23 22:38:33 175a7162e018   portainer               0.00%     16.23MiB / 15.66GiB   0.10%     9.72kB / 0B   58.1MB / 2.68MB   7
Dec 23 22:38:37 CONTAINER ID   NAME                    CPU %     MEM USAGE / LIMIT     MEM %     NET I/O       BLOCK I/O         PIDS
Dec 23 22:38:37 55e236894b7d   base_aic_janusgraph_1   0.10%     707.7MiB / 15.66GiB   4.41%     8.24kB / 0B   0B / 332kB        22
Dec 23 22:38:37 175a7162e018   portainer               0.00%     16.68MiB / 15.66GiB   0.10%     9.72kB / 0B   58.1MB / 2.83MB   7
Dec 23 22:38:40 CONTAINER ID   NAME                    CPU %     MEM USAGE / LIMIT     MEM %     NET I/O       BLOCK I/O         PIDS
Dec 23 22:38:40 55e236894b7d   base_aic_janusgraph_1   0.19%     707.7MiB / 15.66GiB   4.41%     8.24kB / 0B   0B / 332kB        22
Dec 23 22:38:40 175a7162e018   portainer               0.00%     16.68MiB / 15.66GiB   0.10%     9.72kB / 0B   58.1MB / 2.83MB   7
Dec 23 22:38:44 CONTAINER ID   NAME                    CPU %     MEM USAGE / LIMIT     MEM %     NET I/O       BLOCK I/O         PIDS
Dec 23 22:38:44 55e236894b7d   base_aic_janusgraph_1   0.09%     707.7MiB / 15.66GiB   4.41%     8.24kB / 0B   0B / 332kB        22
Dec 23 22:38:44 175a7162e018   portainer               0.00%     16.69MiB / 15.66GiB   0.10%     9.72kB / 0B   58.1MB / 2.83MB   7
Dec 23 22:38:48 CONTAINER ID   NAME                    CPU %     MEM USAGE / LIMIT     MEM %     NET I/O       BLOCK I/O         PIDS
Dec 23 22:38:48 55e236894b7d   base_aic_janusgraph_1   0.10%     707.7MiB / 15.66GiB   4.41%     8.24kB / 0B   0B / 332kB        22
Dec 23 22:38:48 175a7162e018   portainer               0.00%     16.69MiB / 15.66GiB   0.10%     9.72kB / 0B   58.1MB / 2.83MB   7
Dec 23 22:38:51 CONTAINER ID   NAME                    CPU %     MEM USAGE / LIMIT     MEM %     NET I/O       BLOCK I/O         PIDS
Dec 23 22:38:51 55e236894b7d   base_aic_janusgraph_1   0.11%     707.7MiB / 15.66GiB   4.41%     8.24kB / 0B   0B / 332kB        22
Dec 23 22:38:51 175a7162e018   portainer               0.00%     16.69MiB / 15.66GiB   0.10%     9.72kB / 0B   58.1MB / 2.83MB   7
Dec 23 22:38:55 CONTAINER ID   NAME                    CPU %     MEM USAGE / LIMIT     MEM %     NET I/O       BLOCK I/O         PIDS
Dec 23 22:38:55 55e236894b7d   base_aic_janusgraph_1   0.10%     707.7MiB / 15.66GiB   4.41%     8.24kB / 0B   0B / 332kB        22
Dec 23 22:38:55 175a7162e018   portainer               0.00%     16.69MiB / 15.66GiB   0.10%     9.72kB / 0B   58.1MB / 2.83MB   7
Dec 23 22:38:58 CONTAINER ID   NAME                    CPU %     MEM USAGE / LIMIT     MEM %     NET I/O       BLOCK I/O         PIDS
Dec 23 22:38:58 55e236894b7d   base_aic_janusgraph_1   0.11%     707.7MiB / 15.66GiB   4.41%     8.24kB / 0B   0B / 332kB        22
Dec 23 22:38:58 175a7162e018   portainer               0.02%     16.69MiB / 15.66GiB   0.10%     9.72kB / 0B   58.1MB / 2.83MB   7
Dec 23 22:39:02 CONTAINER ID   NAME                    CPU %     MEM USAGE / LIMIT     MEM %     NET I/O       BLOCK I/O         PIDS
Dec 23 22:39:02 55e236894b7d   base_aic_janusgraph_1   0.10%     707.7MiB / 15.66GiB   4.41%     8.24kB / 0B   0B / 332kB        22
Dec 23 22:39:02 175a7162e018   portainer               0.00%     16.69MiB / 15.66GiB   0.10%     9.72kB / 0B   58.1MB / 2.83MB   7
Dec 23 22:39:06 CONTAINER ID   NAME                    CPU %     MEM USAGE / LIMIT     MEM %     NET I/O       BLOCK I/O         PIDS
Dec 23 22:39:06 55e236894b7d   base_aic_janusgraph_1   0.19%     707.7MiB / 15.66GiB   4.41%     8.24kB / 0B   0B / 332kB        22
Dec 23 22:39:06 175a7162e018   portainer               0.00%     16.69MiB / 15.66GiB   0.10%     9.72kB / 0B   58.1MB / 2.83MB   7
Dec 23 22:39:08 CONTAINER ID   NAME                    CPU %     MEM USAGE / LIMIT     MEM %     NET I/O       BLOCK I/O         PIDS
Dec 23 22:39:08 55e236894b7d   base_aic_janusgraph_1   0.10%     707.7MiB / 15.66GiB   4.41%     8.24kB / 0B   0B / 332kB        22
Dec 23 22:39:08 175a7162e018   portainer               0.02%     16.69MiB / 15.66GiB   0.10%     9.72kB / 0B   58.1MB / 2.83MB   7
Dec 23 22:39:12 CONTAINER ID   NAME                    CPU %     MEM USAGE / LIMIT     MEM %     NET I/O       BLOCK I/O         PIDS
Dec 23 22:39:12 55e236894b7d   base_aic_janusgraph_1   0.09%     707.7MiB / 15.66GiB   4.41%     8.24kB / 0B   0B / 332kB        22
Dec 23 22:39:12 175a7162e018   portainer               0.00%     16.69MiB / 15.66GiB   0.10%     9.72kB / 0B   58.1MB / 2.83MB   7
Dec 23 22:39:15 CONTAINER ID   NAME                    CPU %     MEM USAGE / LIMIT     MEM %     NET I/O       BLOCK I/O         PIDS
Dec 23 22:39:15 55e236894b7d   base_aic_janusgraph_1   0.11%     707.7MiB / 15.66GiB   4.41%     8.24kB / 0B   0B / 332kB        22
Dec 23 22:39:15 175a7162e018   portainer               0.00%     16.69MiB / 15.66GiB   0.10%     9.72kB / 0B   58.1MB / 2.83MB   7
Dec 23 22:39:19 CONTAINER ID   NAME                    CPU %     MEM USAGE / LIMIT     MEM %     NET I/O       BLOCK I/O         PIDS
Dec 23 22:39:19 55e236894b7d   base_aic_janusgraph_1   0.12%     707.7MiB / 15.66GiB   4.41%     8.24kB / 0B   0B / 332kB        22
Dec 23 22:39:19 175a7162e018   portainer               0.03%     16.69MiB / 15.66GiB   0.10%     9.72kB / 0B   58.1MB / 2.83MB   7
Dec 23 22:39:23 CONTAINER ID   NAME                    CPU %     MEM USAGE / LIMIT     MEM %     NET I/O       BLOCK I/O         PIDS
Dec 23 22:39:23 55e236894b7d   base_aic_janusgraph_1   0.09%     707.7MiB / 15.66GiB   4.41%     8.24kB / 0B   0B / 332kB        22
Dec 23 22:39:23 175a7162e018   portainer               0.00%     16.69MiB / 15.66GiB   0.10%     9.72kB / 0B   58.1MB / 2.83MB   7
Dec 23 22:39:26 CONTAINER ID   NAME                    CPU %     MEM USAGE / LIMIT     MEM %     NET I/O       BLOCK I/O         PIDS
Dec 23 22:39:26 55e236894b7d   base_aic_janusgraph_1   0.10%     707.7MiB / 15.66GiB   4.41%     8.24kB / 0B   0B / 332kB        22
Dec 23 22:39:26 175a7162e018   portainer               0.00%     16.69MiB / 15.66GiB   0.10%     9.72kB / 0B   58.1MB / 2.83MB   7
