Dec 23 22:39:39 CONTAINER ID   NAME        CPU %     MEM USAGE / LIMIT     MEM %     NET I/O       BLOCK I/O         PIDS
Dec 23 22:39:39 175a7162e018   portainer   0.00%     16.69MiB / 15.66GiB   0.10%     9.72kB / 0B   58.1MB / 2.83MB   7
Dec 23 22:39:39                --          0.00%     0B / 0B               0.00%     0B / 0B       0B / 0B           0
Dec 23 22:39:42 CONTAINER ID   NAME                    CPU %     MEM USAGE / LIMIT     MEM %     NET I/O       BLOCK I/O         PIDS
Dec 23 22:39:42 56013081df84   base_aic_janusgraph_1   249.80%   673.3MiB / 15.66GiB   4.20%     5.34kB / 0B   0B / 233kB        21
Dec 23 22:39:42 175a7162e018   portainer               0.00%     16.69MiB / 15.66GiB   0.10%     9.72kB / 0B   58.1MB / 2.83MB   7
Dec 23 22:39:46 CONTAINER ID   NAME                    CPU %     MEM USAGE / LIMIT     MEM %     NET I/O       BLOCK I/O         PIDS
Dec 23 22:39:46 56013081df84   base_aic_janusgraph_1   262.39%   748.1MiB / 15.66GiB   4.66%     6.61kB / 0B   0B / 233kB        23
Dec 23 22:39:46 175a7162e018   portainer               0.00%     16.69MiB / 15.66GiB   0.10%     9.72kB / 0B   58.1MB / 2.83MB   7
Dec 23 22:39:50 CONTAINER ID   NAME                    CPU %     MEM USAGE / LIMIT     MEM %     NET I/O       BLOCK I/O         PIDS
Dec 23 22:39:50 56013081df84   base_aic_janusgraph_1   141.40%   104.8MiB / 15.66GiB   0.65%     6.83kB / 0B   0B / 332kB        16
Dec 23 22:39:50 175a7162e018   portainer               0.01%     16.69MiB / 15.66GiB   0.10%     9.72kB / 0B   58.1MB / 2.83MB   7
Dec 23 22:39:53 CONTAINER ID   NAME                    CPU %     MEM USAGE / LIMIT     MEM %     NET I/O       BLOCK I/O         PIDS
Dec 23 22:39:53 56013081df84   base_aic_janusgraph_1   258.50%   711.4MiB / 15.66GiB   4.44%     6.9kB / 0B    0B / 332kB        21
Dec 23 22:39:53 175a7162e018   portainer               0.00%     16.69MiB / 15.66GiB   0.10%     9.72kB / 0B   58.1MB / 2.83MB   7
Dec 23 22:39:57 CONTAINER ID   NAME                    CPU %     MEM USAGE / LIMIT     MEM %     NET I/O       BLOCK I/O         PIDS
Dec 23 22:39:57 56013081df84   base_aic_janusgraph_1   0.10%     729.3MiB / 15.66GiB   4.55%     7.2kB / 0B    0B / 332kB        22
Dec 23 22:39:57 175a7162e018   portainer               0.00%     16.69MiB / 15.66GiB   0.10%     9.72kB / 0B   58.1MB / 2.83MB   7
Dec 23 22:40:00 CONTAINER ID   NAME                    CPU %     MEM USAGE / LIMIT     MEM %     NET I/O       BLOCK I/O         PIDS
Dec 23 22:40:00 56013081df84   base_aic_janusgraph_1   0.10%     726.2MiB / 15.66GiB   4.53%     7.2kB / 0B    0B / 332kB        22
Dec 23 22:40:00 175a7162e018   portainer               0.00%     16.69MiB / 15.66GiB   0.10%     9.72kB / 0B   58.1MB / 2.83MB   7
Dec 23 22:40:04 CONTAINER ID   NAME                    CPU %     MEM USAGE / LIMIT     MEM %     NET I/O       BLOCK I/O         PIDS
Dec 23 22:40:04 56013081df84   base_aic_janusgraph_1   0.09%     726.2MiB / 15.66GiB   4.53%     7.2kB / 0B    0B / 332kB        22
Dec 23 22:40:04 175a7162e018   portainer               0.12%     16.69MiB / 15.66GiB   0.10%     9.72kB / 0B   58.1MB / 2.83MB   7
Dec 23 22:40:07 CONTAINER ID   NAME                    CPU %     MEM USAGE / LIMIT     MEM %     NET I/O       BLOCK I/O         PIDS
Dec 23 22:40:07 56013081df84   base_aic_janusgraph_1   0.10%     726.2MiB / 15.66GiB   4.53%     7.2kB / 0B    0B / 332kB        22
Dec 23 22:40:07 175a7162e018   portainer               0.00%     16.69MiB / 15.66GiB   0.10%     9.72kB / 0B   58.1MB / 2.83MB   7
Dec 23 22:40:11 CONTAINER ID   NAME                    CPU %     MEM USAGE / LIMIT     MEM %     NET I/O       BLOCK I/O         PIDS
Dec 23 22:40:11 56013081df84   base_aic_janusgraph_1   0.10%     726.2MiB / 15.66GiB   4.53%     7.36kB / 0B   0B / 332kB        22
Dec 23 22:40:11 175a7162e018   portainer               0.00%     16.69MiB / 15.66GiB   0.10%     9.72kB / 0B   58.1MB / 2.83MB   7
Dec 23 22:40:15 CONTAINER ID   NAME                    CPU %     MEM USAGE / LIMIT     MEM %     NET I/O       BLOCK I/O         PIDS
Dec 23 22:40:15 56013081df84   base_aic_janusgraph_1   0.11%     726.2MiB / 15.66GiB   4.53%     7.57kB / 0B   0B / 332kB        22
Dec 23 22:40:15 175a7162e018   portainer               0.10%     16.7MiB / 15.66GiB    0.10%     9.72kB / 0B   58.1MB / 2.83MB   7
Dec 23 22:40:18 CONTAINER ID   NAME                    CPU %     MEM USAGE / LIMIT     MEM %     NET I/O       BLOCK I/O         PIDS
Dec 23 22:40:18 56013081df84   base_aic_janusgraph_1   0.09%     726.2MiB / 15.66GiB   4.53%     7.57kB / 0B   0B / 332kB        22
Dec 23 22:40:18 175a7162e018   portainer               0.03%     16.7MiB / 15.66GiB    0.10%     9.72kB / 0B   58.1MB / 2.83MB   7
Dec 23 22:40:22 CONTAINER ID   NAME                    CPU %     MEM USAGE / LIMIT     MEM %     NET I/O       BLOCK I/O         PIDS
Dec 23 22:40:22 56013081df84   base_aic_janusgraph_1   0.09%     726.2MiB / 15.66GiB   4.53%     7.57kB / 0B   0B / 332kB        22
Dec 23 22:40:22 175a7162e018   portainer               0.00%     16.7MiB / 15.66GiB    0.10%     9.72kB / 0B   58.1MB / 2.83MB   7
Dec 23 22:40:25 CONTAINER ID   NAME                    CPU %     MEM USAGE / LIMIT     MEM %     NET I/O       BLOCK I/O         PIDS
Dec 23 22:40:25 56013081df84   base_aic_janusgraph_1   0.10%     726.2MiB / 15.66GiB   4.53%     7.57kB / 0B   0B / 332kB        22
Dec 23 22:40:25 175a7162e018   portainer               0.00%     16.71MiB / 15.66GiB   0.10%     9.72kB / 0B   58.1MB / 2.83MB   7
Dec 23 22:40:29 CONTAINER ID   NAME                    CPU %     MEM USAGE / LIMIT     MEM %     NET I/O       BLOCK I/O         PIDS
Dec 23 22:40:29 56013081df84   base_aic_janusgraph_1   0.11%     726.2MiB / 15.66GiB   4.53%     7.57kB / 0B   0B / 332kB        22
Dec 23 22:40:29 175a7162e018   portainer               0.01%     16.71MiB / 15.66GiB   0.10%     9.72kB / 0B   58.1MB / 2.83MB   7
Dec 23 22:40:33 CONTAINER ID   NAME                    CPU %     MEM USAGE / LIMIT     MEM %     NET I/O       BLOCK I/O         PIDS
Dec 23 22:40:33 56013081df84   base_aic_janusgraph_1   0.18%     726.2MiB / 15.66GiB   4.53%     7.57kB / 0B   0B / 332kB        22
Dec 23 22:40:33 175a7162e018   portainer               1.46%     16.77MiB / 15.66GiB   0.10%     9.72kB / 0B   58.1MB / 2.83MB   7
Dec 23 22:40:36 CONTAINER ID   NAME                    CPU %     MEM USAGE / LIMIT     MEM %     NET I/O       BLOCK I/O         PIDS
Dec 23 22:40:36 56013081df84   base_aic_janusgraph_1   0.10%     726.2MiB / 15.66GiB   4.53%     7.57kB / 0B   0B / 332kB        22
Dec 23 22:40:36 175a7162e018   portainer               0.00%     16.77MiB / 15.66GiB   0.10%     9.72kB / 0B   58.1MB / 2.83MB   7
Dec 23 22:40:40 CONTAINER ID   NAME                    CPU %     MEM USAGE / LIMIT     MEM %     NET I/O       BLOCK I/O         PIDS
Dec 23 22:40:40 56013081df84   base_aic_janusgraph_1   0.10%     726.2MiB / 15.66GiB   4.53%     7.57kB / 0B   0B / 332kB        22
Dec 23 22:40:40 175a7162e018   portainer               0.00%     16.77MiB / 15.66GiB   0.10%     9.72kB / 0B   58.1MB / 2.83MB   7
Dec 23 22:40:43 CONTAINER ID   NAME                    CPU %     MEM USAGE / LIMIT     MEM %     NET I/O       BLOCK I/O         PIDS
Dec 23 22:40:43 56013081df84   base_aic_janusgraph_1   0.11%     726.2MiB / 15.66GiB   4.53%     7.66kB / 0B   0B / 332kB        22
Dec 23 22:40:43 175a7162e018   portainer               0.09%     16.79MiB / 15.66GiB   0.10%     9.72kB / 0B   58.1MB / 2.83MB   7
Dec 23 22:40:47 CONTAINER ID   NAME                    CPU %     MEM USAGE / LIMIT     MEM %     NET I/O       BLOCK I/O         PIDS
Dec 23 22:40:47 56013081df84   base_aic_janusgraph_1   0.10%     726.2MiB / 15.66GiB   4.53%     7.94kB / 0B   0B / 332kB        22
Dec 23 22:40:47 175a7162e018   portainer               0.00%     16.79MiB / 15.66GiB   0.10%     9.72kB / 0B   58.1MB / 2.83MB   7
Dec 23 22:40:51 CONTAINER ID   NAME                    CPU %     MEM USAGE / LIMIT     MEM %     NET I/O       BLOCK I/O         PIDS
Dec 23 22:40:51 56013081df84   base_aic_janusgraph_1   0.10%     726.2MiB / 15.66GiB   4.53%     7.94kB / 0B   0B / 332kB        22
Dec 23 22:40:51 175a7162e018   portainer               0.00%     16.79MiB / 15.66GiB   0.10%     9.72kB / 0B   58.1MB / 2.83MB   7
Dec 23 22:40:54 CONTAINER ID   NAME                    CPU %     MEM USAGE / LIMIT     MEM %     NET I/O       BLOCK I/O         PIDS
Dec 23 22:40:54 56013081df84   base_aic_janusgraph_1   0.11%     726.2MiB / 15.66GiB   4.53%     7.94kB / 0B   0B / 332kB        22
Dec 23 22:40:54 175a7162e018   portainer               0.08%     16.79MiB / 15.66GiB   0.10%     9.72kB / 0B   58.1MB / 2.83MB   7
Dec 23 22:40:58 CONTAINER ID   NAME                    CPU %     MEM USAGE / LIMIT     MEM %     NET I/O       BLOCK I/O         PIDS
Dec 23 22:40:58 56013081df84   base_aic_janusgraph_1   0.12%     726.2MiB / 15.66GiB   4.53%     7.94kB / 0B   0B / 332kB        22
Dec 23 22:40:58 175a7162e018   portainer               0.00%     16.79MiB / 15.66GiB   0.10%     9.72kB / 0B   58.1MB / 2.83MB   7
Dec 23 22:41:01 CONTAINER ID   NAME                    CPU %     MEM USAGE / LIMIT     MEM %     NET I/O       BLOCK I/O         PIDS
Dec 23 22:41:01 56013081df84   base_aic_janusgraph_1   0.17%     726.2MiB / 15.66GiB   4.53%     7.94kB / 0B   0B / 332kB        22
Dec 23 22:41:01 175a7162e018   portainer               0.00%     16.79MiB / 15.66GiB   0.10%     9.72kB / 0B   58.1MB / 2.83MB   7
Dec 23 22:41:05 CONTAINER ID   NAME                    CPU %     MEM USAGE / LIMIT     MEM %     NET I/O       BLOCK I/O         PIDS
Dec 23 22:41:05 56013081df84   base_aic_janusgraph_1   0.10%     726.2MiB / 15.66GiB   4.53%     7.94kB / 0B   0B / 332kB        22
Dec 23 22:41:05 175a7162e018   portainer               0.00%     16.79MiB / 15.66GiB   0.10%     9.72kB / 0B   58.1MB / 2.83MB   7
Dec 23 22:41:09 CONTAINER ID   NAME                    CPU %     MEM USAGE / LIMIT     MEM %     NET I/O       BLOCK I/O         PIDS
Dec 23 22:41:09 56013081df84   base_aic_janusgraph_1   0.11%     726.2MiB / 15.66GiB   4.53%     7.94kB / 0B   0B / 332kB        22
Dec 23 22:41:09 175a7162e018   portainer               0.02%     16.79MiB / 15.66GiB   0.10%     9.72kB / 0B   58.1MB / 2.83MB   7
Dec 23 22:41:12 CONTAINER ID   NAME                    CPU %     MEM USAGE / LIMIT     MEM %     NET I/O       BLOCK I/O         PIDS
Dec 23 22:41:12 56013081df84   base_aic_janusgraph_1   0.11%     726.2MiB / 15.66GiB   4.53%     7.94kB / 0B   0B / 332kB        22
Dec 23 22:41:12 175a7162e018   portainer               0.00%     16.79MiB / 15.66GiB   0.10%     9.72kB / 0B   58.1MB / 2.83MB   7
Dec 23 22:41:16 CONTAINER ID   NAME                    CPU %     MEM USAGE / LIMIT     MEM %     NET I/O       BLOCK I/O         PIDS
Dec 23 22:41:16 56013081df84   base_aic_janusgraph_1   0.20%     726.2MiB / 15.66GiB   4.53%     7.94kB / 0B   0B / 332kB        22
Dec 23 22:41:16 175a7162e018   portainer               0.00%     16.79MiB / 15.66GiB   0.10%     9.72kB / 0B   58.1MB / 2.83MB   7
Dec 23 22:41:19 CONTAINER ID   NAME                    CPU %     MEM USAGE / LIMIT     MEM %     NET I/O       BLOCK I/O         PIDS
Dec 23 22:41:19 56013081df84   base_aic_janusgraph_1   0.11%     726.2MiB / 15.66GiB   4.53%     7.94kB / 0B   0B / 332kB        22
Dec 23 22:41:19 175a7162e018   portainer               0.02%     16.79MiB / 15.66GiB   0.10%     9.72kB / 0B   58.1MB / 2.83MB   7
Dec 23 22:41:23 CONTAINER ID   NAME                    CPU %     MEM USAGE / LIMIT     MEM %     NET I/O       BLOCK I/O         PIDS
Dec 23 22:41:23 56013081df84   base_aic_janusgraph_1   0.09%     726.2MiB / 15.66GiB   4.53%     7.94kB / 0B   0B / 332kB        22
Dec 23 22:41:23 175a7162e018   portainer               0.00%     16.79MiB / 15.66GiB   0.10%     9.72kB / 0B   58.1MB / 2.83MB   7
Dec 23 22:41:27 CONTAINER ID   NAME                    CPU %     MEM USAGE / LIMIT     MEM %     NET I/O       BLOCK I/O         PIDS
Dec 23 22:41:27 56013081df84   base_aic_janusgraph_1   0.18%     726.2MiB / 15.66GiB   4.53%     7.94kB / 0B   0B / 332kB        22
Dec 23 22:41:27 175a7162e018   portainer               0.00%     16.79MiB / 15.66GiB   0.10%     9.72kB / 0B   58.1MB / 2.83MB   7
Dec 23 22:41:30 CONTAINER ID   NAME                    CPU %     MEM USAGE / LIMIT     MEM %     NET I/O       BLOCK I/O         PIDS
Dec 23 22:41:30 56013081df84   base_aic_janusgraph_1   0.11%     726.2MiB / 15.66GiB   4.53%     7.94kB / 0B   0B / 332kB        22
Dec 23 22:41:30 175a7162e018   portainer               0.00%     16.79MiB / 15.66GiB   0.10%     9.72kB / 0B   58.1MB / 2.83MB   7
Dec 23 22:41:34 CONTAINER ID   NAME                    CPU %     MEM USAGE / LIMIT     MEM %     NET I/O       BLOCK I/O         PIDS
Dec 23 22:41:34 56013081df84   base_aic_janusgraph_1   0.11%     726.2MiB / 15.66GiB   4.53%     7.94kB / 0B   0B / 332kB        22
Dec 23 22:41:34 175a7162e018   portainer               0.00%     16.79MiB / 15.66GiB   0.10%     9.72kB / 0B   58.1MB / 2.83MB   7
Dec 23 22:41:37 CONTAINER ID   NAME                    CPU %     MEM USAGE / LIMIT     MEM %     NET I/O       BLOCK I/O         PIDS
Dec 23 22:41:37 56013081df84   base_aic_janusgraph_1   0.10%     726.2MiB / 15.66GiB   4.53%     7.94kB / 0B   0B / 332kB        22
Dec 23 22:41:37 175a7162e018   portainer               0.00%     16.79MiB / 15.66GiB   0.10%     9.72kB / 0B   58.1MB / 2.83MB   7
Dec 23 22:41:41 CONTAINER ID   NAME                    CPU %     MEM USAGE / LIMIT     MEM %     NET I/O       BLOCK I/O         PIDS
Dec 23 22:41:41 56013081df84   base_aic_janusgraph_1   0.19%     726.2MiB / 15.66GiB   4.53%     7.94kB / 0B   0B / 332kB        22
Dec 23 22:41:41 175a7162e018   portainer               0.00%     16.79MiB / 15.66GiB   0.10%     9.72kB / 0B   58.1MB / 2.83MB   7
Dec 23 22:41:45 CONTAINER ID   NAME                    CPU %     MEM USAGE / LIMIT     MEM %     NET I/O       BLOCK I/O         PIDS
Dec 23 22:41:45 56013081df84   base_aic_janusgraph_1   0.12%     726.2MiB / 15.66GiB   4.53%     7.94kB / 0B   0B / 332kB        22
Dec 23 22:41:45 175a7162e018   portainer               0.09%     16.79MiB / 15.66GiB   0.10%     9.72kB / 0B   58.1MB / 2.83MB   7
Dec 23 22:41:48 CONTAINER ID   NAME                    CPU %     MEM USAGE / LIMIT     MEM %     NET I/O       BLOCK I/O         PIDS
Dec 23 22:41:48 56013081df84   base_aic_janusgraph_1   0.10%     726.2MiB / 15.66GiB   4.53%     8.31kB / 0B   0B / 332kB        22
Dec 23 22:41:48 175a7162e018   portainer               0.00%     16.79MiB / 15.66GiB   0.10%     9.72kB / 0B   58.1MB / 2.83MB   7
Dec 23 22:41:52 CONTAINER ID   NAME                    CPU %     MEM USAGE / LIMIT     MEM %     NET I/O       BLOCK I/O         PIDS
Dec 23 22:41:52 56013081df84   base_aic_janusgraph_1   0.10%     726.2MiB / 15.66GiB   4.53%     8.31kB / 0B   0B / 332kB        22
Dec 23 22:41:52 175a7162e018   portainer               0.00%     16.79MiB / 15.66GiB   0.10%     9.72kB / 0B   58.1MB / 2.83MB   7
Dec 23 22:41:55 CONTAINER ID   NAME                    CPU %     MEM USAGE / LIMIT     MEM %     NET I/O       BLOCK I/O         PIDS
Dec 23 22:41:55 56013081df84   base_aic_janusgraph_1   0.11%     726.2MiB / 15.66GiB   4.53%     8.31kB / 0B   0B / 332kB        22
Dec 23 22:41:55 175a7162e018   portainer               0.00%     16.79MiB / 15.66GiB   0.10%     9.72kB / 0B   58.1MB / 2.83MB   7
Dec 23 22:41:59 CONTAINER ID   NAME                    CPU %     MEM USAGE / LIMIT     MEM %     NET I/O       BLOCK I/O         PIDS
Dec 23 22:41:59 56013081df84   base_aic_janusgraph_1   0.10%     726.2MiB / 15.66GiB   4.53%     8.31kB / 0B   0B / 332kB        22
Dec 23 22:41:59 175a7162e018   portainer               0.00%     16.79MiB / 15.66GiB   0.10%     9.72kB / 0B   58.1MB / 2.83MB   7
Dec 23 22:42:03 CONTAINER ID   NAME                    CPU %     MEM USAGE / LIMIT     MEM %     NET I/O       BLOCK I/O         PIDS
Dec 23 22:42:03 56013081df84   base_aic_janusgraph_1   0.18%     726.2MiB / 15.66GiB   4.53%     8.31kB / 0B   0B / 332kB        22
Dec 23 22:42:03 175a7162e018   portainer               0.02%     16.79MiB / 15.66GiB   0.10%     9.72kB / 0B   58.1MB / 2.83MB   7
Dec 23 22:42:06 CONTAINER ID   NAME                    CPU %     MEM USAGE / LIMIT     MEM %     NET I/O       BLOCK I/O         PIDS
Dec 23 22:42:06 56013081df84   base_aic_janusgraph_1   0.20%     726.2MiB / 15.66GiB   4.53%     8.31kB / 0B   0B / 332kB        22
Dec 23 22:42:06 175a7162e018   portainer               0.00%     16.79MiB / 15.66GiB   0.10%     9.72kB / 0B   58.1MB / 2.83MB   7
Dec 23 22:42:10 CONTAINER ID   NAME                    CPU %     MEM USAGE / LIMIT     MEM %     NET I/O       BLOCK I/O         PIDS
Dec 23 22:42:10 56013081df84   base_aic_janusgraph_1   0.11%     726.2MiB / 15.66GiB   4.53%     8.31kB / 0B   0B / 332kB        22
Dec 23 22:42:10 175a7162e018   portainer               0.00%     16.79MiB / 15.66GiB   0.10%     9.72kB / 0B   58.1MB / 2.83MB   7
Dec 23 22:42:13 CONTAINER ID   NAME                    CPU %     MEM USAGE / LIMIT     MEM %     NET I/O       BLOCK I/O         PIDS
Dec 23 22:42:13 56013081df84   base_aic_janusgraph_1   0.11%     726.2MiB / 15.66GiB   4.53%     8.31kB / 0B   0B / 332kB        22
Dec 23 22:42:13 175a7162e018   portainer               0.11%     16.79MiB / 15.66GiB   0.10%     9.72kB / 0B   58.1MB / 2.83MB   7
Dec 23 22:42:17 CONTAINER ID   NAME                    CPU %     MEM USAGE / LIMIT     MEM %     NET I/O       BLOCK I/O         PIDS
Dec 23 22:42:17 56013081df84   base_aic_janusgraph_1   0.11%     726.2MiB / 15.66GiB   4.53%     8.31kB / 0B   0B / 332kB        22
Dec 23 22:42:17 175a7162e018   portainer               0.00%     16.79MiB / 15.66GiB   0.10%     9.72kB / 0B   58.1MB / 2.83MB   7
Dec 23 22:42:21 CONTAINER ID   NAME                    CPU %     MEM USAGE / LIMIT     MEM %     NET I/O       BLOCK I/O         PIDS
Dec 23 22:42:21 56013081df84   base_aic_janusgraph_1   0.09%     726.2MiB / 15.66GiB   4.53%     8.31kB / 0B   0B / 332kB        22
Dec 23 22:42:21 175a7162e018   portainer               0.00%     16.79MiB / 15.66GiB   0.10%     9.72kB / 0B   58.1MB / 2.83MB   7
Dec 23 22:42:24 CONTAINER ID   NAME                    CPU %     MEM USAGE / LIMIT     MEM %     NET I/O       BLOCK I/O         PIDS
Dec 23 22:42:24 56013081df84   base_aic_janusgraph_1   0.11%     726.2MiB / 15.66GiB   4.53%     8.31kB / 0B   0B / 332kB        22
Dec 23 22:42:24 175a7162e018   portainer               0.10%     16.79MiB / 15.66GiB   0.10%     9.72kB / 0B   58.1MB / 2.83MB   7
Dec 23 22:42:28 CONTAINER ID   NAME                    CPU %     MEM USAGE / LIMIT     MEM %     NET I/O       BLOCK I/O         PIDS
Dec 23 22:42:28 56013081df84   base_aic_janusgraph_1   0.10%     726.2MiB / 15.66GiB   4.53%     8.31kB / 0B   0B / 332kB        22
Dec 23 22:42:28 175a7162e018   portainer               0.00%     16.79MiB / 15.66GiB   0.10%     9.72kB / 0B   58.1MB / 2.83MB   7
Dec 23 22:42:31 CONTAINER ID   NAME                    CPU %     MEM USAGE / LIMIT     MEM %     NET I/O       BLOCK I/O         PIDS
Dec 23 22:42:31 56013081df84   base_aic_janusgraph_1   0.17%     726.2MiB / 15.66GiB   4.53%     8.31kB / 0B   0B / 332kB        22
Dec 23 22:42:31 175a7162e018   portainer               0.00%     16.79MiB / 15.66GiB   0.10%     9.72kB / 0B   58.1MB / 2.83MB   7
Dec 23 22:42:35 CONTAINER ID   NAME                    CPU %     MEM USAGE / LIMIT     MEM %     NET I/O       BLOCK I/O         PIDS
Dec 23 22:42:35 56013081df84   base_aic_janusgraph_1   0.11%     726.2MiB / 15.66GiB   4.53%     8.31kB / 0B   0B / 332kB        22
Dec 23 22:42:35 175a7162e018   portainer               0.00%     16.79MiB / 15.66GiB   0.10%     9.72kB / 0B   58.1MB / 2.83MB   7
Dec 23 22:42:38 CONTAINER ID   NAME                    CPU %     MEM USAGE / LIMIT     MEM %     NET I/O       BLOCK I/O         PIDS
Dec 23 22:42:38 56013081df84   base_aic_janusgraph_1   0.09%     726.2MiB / 15.66GiB   4.53%     8.31kB / 0B   0B / 332kB        22
Dec 23 22:42:38 175a7162e018   portainer               0.00%     16.79MiB / 15.66GiB   0.10%     9.72kB / 0B   58.1MB / 2.83MB   7
Dec 23 22:42:42 CONTAINER ID   NAME                    CPU %     MEM USAGE / LIMIT     MEM %     NET I/O       BLOCK I/O         PIDS
Dec 23 22:42:42 56013081df84   base_aic_janusgraph_1   0.10%     726.2MiB / 15.66GiB   4.53%     8.31kB / 0B   0B / 332kB        22
Dec 23 22:42:42 175a7162e018   portainer               0.00%     16.23MiB / 15.66GiB   0.10%     9.72kB / 0B   58.1MB / 2.83MB   7
Dec 23 22:42:46 CONTAINER ID   NAME                    CPU %     MEM USAGE / LIMIT     MEM %     NET I/O       BLOCK I/O         PIDS
Dec 23 22:42:46 56013081df84   base_aic_janusgraph_1   0.17%     726.2MiB / 15.66GiB   4.53%     8.31kB / 0B   0B / 332kB        22
Dec 23 22:42:46 175a7162e018   portainer               0.00%     16.23MiB / 15.66GiB   0.10%     9.72kB / 0B   58.1MB / 2.83MB   7
Dec 23 22:42:49 CONTAINER ID   NAME                    CPU %     MEM USAGE / LIMIT     MEM %     NET I/O       BLOCK I/O         PIDS
Dec 23 22:42:49 56013081df84   base_aic_janusgraph_1   0.09%     726.2MiB / 15.66GiB   4.53%     8.31kB / 0B   0B / 332kB        22
Dec 23 22:42:49 175a7162e018   portainer               0.02%     16.23MiB / 15.66GiB   0.10%     9.72kB / 0B   58.1MB / 2.83MB   7
