elapsedWallClockMillis,totalMemoryBytes
14,7419632
1154,10565360
2200,13475304
3238,13954608
4311,14069640
5336,14165344
6375,14278616
7409,14370944
8447,14506072
9490,14642584
10529,14792984
11570,14917336
12608,15048384
13643,15180528
14678,15321680
15719,15462632
16773,15605752
17808,15752624
18848,15895128
19888,16048352
20917,16197832
21957,16356688
22984,16534536
24011,16704032
25072,16855336
26115,17019992
27143,17182032
28171,17345888
29198,17527592
30226,17715800
31257,17889720
32307,18068176
33336,18085064
34371,18214024
35401,18337736
36429,18463016
37463,18588584
38520,18663336
39560,18662904
40230,18094448
