Feb 11 18:31:28 CONTAINER ID   NAME      CPU %     MEM USAGE / LIMIT   MEM %     NET I/O   BLOCK I/O   PIDS
Feb 11 18:31:31 CONTAINER ID   NAME                  CPU %     MEM USAGE / LIMIT     MEM %     NET I/O        BLOCK I/O   PIDS
Feb 11 18:31:31 9561d174ef9c   noprov_repoSystem_1   290.60%   83.12MiB / 15.07GiB   0.54%     3.95kB / 96B   0B / 0B     30
Feb 11 18:31:34 CONTAINER ID   NAME                  CPU %     MEM USAGE / LIMIT     MEM %     NET I/O        BLOCK I/O     PIDS
Feb 11 18:31:34 9561d174ef9c   noprov_repoSystem_1   55.33%    152.5MiB / 15.07GiB   0.99%     10.9kB / 96B   0B / 1.76MB   38
Feb 11 18:31:37 CONTAINER ID   NAME                  CPU %     MEM USAGE / LIMIT     MEM %     NET I/O         BLOCK I/O     PIDS
Feb 11 18:31:37 9561d174ef9c   noprov_repoSystem_1   0.40%     152.5MiB / 15.07GiB   0.99%     12.4kB / 138B   0B / 1.76MB   38
Feb 11 18:31:40 CONTAINER ID   NAME                  CPU %     MEM USAGE / LIMIT     MEM %     NET I/O         BLOCK I/O     PIDS
Feb 11 18:31:40 9561d174ef9c   noprov_repoSystem_1   0.45%     152.5MiB / 15.07GiB   0.99%     12.9kB / 138B   0B / 1.76MB   37
Feb 11 18:31:43 CONTAINER ID   NAME                  CPU %     MEM USAGE / LIMIT     MEM %     NET I/O         BLOCK I/O     PIDS
Feb 11 18:31:43 9561d174ef9c   noprov_repoSystem_1   0.32%     152.2MiB / 15.07GiB   0.99%     12.9kB / 138B   0B / 1.76MB   33
Feb 11 18:31:46 CONTAINER ID   NAME                  CPU %     MEM USAGE / LIMIT     MEM %     NET I/O         BLOCK I/O     PIDS
Feb 11 18:31:46 9561d174ef9c   noprov_repoSystem_1   0.40%     152.2MiB / 15.07GiB   0.99%     13.7kB / 138B   0B / 1.76MB   33
Feb 11 18:31:49 CONTAINER ID   NAME                  CPU %     MEM USAGE / LIMIT     MEM %     NET I/O         BLOCK I/O     PIDS
Feb 11 18:31:49 9561d174ef9c   noprov_repoSystem_1   0.41%     152.2MiB / 15.07GiB   0.99%     13.9kB / 138B   0B / 1.76MB   33
Feb 11 18:31:52 CONTAINER ID   NAME                  CPU %     MEM USAGE / LIMIT     MEM %     NET I/O           BLOCK I/O     PIDS
Feb 11 18:31:52 9561d174ef9c   noprov_repoSystem_1   75.10%    184.2MiB / 15.07GiB   1.19%     32.1kB / 16.9kB   0B / 1.76MB   43
Feb 11 18:31:55 CONTAINER ID   NAME                  CPU %     MEM USAGE / LIMIT     MEM %     NET I/O           BLOCK I/O     PIDS
Feb 11 18:31:55 9561d174ef9c   noprov_repoSystem_1   3.62%     167.8MiB / 15.07GiB   1.09%     35.8kB / 19.5kB   0B / 1.76MB   43
Feb 11 18:31:58 CONTAINER ID   NAME                  CPU %     MEM USAGE / LIMIT     MEM %     NET I/O         BLOCK I/O     PIDS
Feb 11 18:31:58 9561d174ef9c   noprov_repoSystem_1   12.43%    167.9MiB / 15.07GiB   1.09%     41kB / 21.9kB   0B / 1.76MB   43
Feb 11 18:32:01 CONTAINER ID   NAME                  CPU %     MEM USAGE / LIMIT     MEM %     NET I/O         BLOCK I/O     PIDS
Feb 11 18:32:01 9561d174ef9c   noprov_repoSystem_1   22.76%    164.2MiB / 15.07GiB   1.06%     47.4kB / 25kB   0B / 1.88MB   43
Feb 11 18:32:04 CONTAINER ID   NAME                  CPU %     MEM USAGE / LIMIT     MEM %     NET I/O         BLOCK I/O     PIDS
Feb 11 18:32:04 9561d174ef9c   noprov_repoSystem_1   28.00%    164.2MiB / 15.07GiB   1.06%     52kB / 27.7kB   0B / 1.88MB   43
Feb 11 18:32:07 CONTAINER ID   NAME                  CPU %     MEM USAGE / LIMIT     MEM %     NET I/O           BLOCK I/O     PIDS
Feb 11 18:32:07 9561d174ef9c   noprov_repoSystem_1   8.20%     164.5MiB / 15.07GiB   1.07%     57.4kB / 31.8kB   0B / 1.88MB   43
Feb 11 18:32:10 CONTAINER ID   NAME                  CPU %     MEM USAGE / LIMIT     MEM %     NET I/O           BLOCK I/O     PIDS
Feb 11 18:32:10 9561d174ef9c   noprov_repoSystem_1   21.55%    164.7MiB / 15.07GiB   1.07%     61.6kB / 35.3kB   0B / 1.88MB   43
Feb 11 18:32:13 CONTAINER ID   NAME                  CPU %     MEM USAGE / LIMIT     MEM %     NET I/O           BLOCK I/O     PIDS
Feb 11 18:32:13 9561d174ef9c   noprov_repoSystem_1   15.11%    165.2MiB / 15.07GiB   1.07%     69.8kB / 42.9kB   0B / 1.88MB   43
Feb 11 18:32:16 CONTAINER ID   NAME                  CPU %     MEM USAGE / LIMIT     MEM %     NET I/O           BLOCK I/O     PIDS
Feb 11 18:32:16 9561d174ef9c   noprov_repoSystem_1   12.81%    165.4MiB / 15.07GiB   1.07%     76.6kB / 48.9kB   0B / 1.88MB   43
Feb 11 18:32:19 CONTAINER ID   NAME                  CPU %     MEM USAGE / LIMIT     MEM %     NET I/O           BLOCK I/O     PIDS
Feb 11 18:32:19 9561d174ef9c   noprov_repoSystem_1   9.75%     165.5MiB / 15.07GiB   1.07%     80.1kB / 50.7kB   0B / 1.88MB   43
Feb 11 18:32:22 CONTAINER ID   NAME                  CPU %     MEM USAGE / LIMIT     MEM %     NET I/O           BLOCK I/O     PIDS
Feb 11 18:32:22 9561d174ef9c   noprov_repoSystem_1   1.19%     165.6MiB / 15.07GiB   1.07%     84.2kB / 53.8kB   0B / 1.88MB   43
