Feb 11 18:29:17 CONTAINER ID   NAME      CPU %     MEM USAGE / LIMIT   MEM %     NET I/O   BLOCK I/O   PIDS
Feb 11 18:29:20 CONTAINER ID   NAME                  CPU %     MEM USAGE / LIMIT     MEM %     NET I/O        BLOCK I/O     PIDS
Feb 11 18:29:20 ea754eb84432   noprov_repoSystem_1   224.17%   117.6MiB / 15.07GiB   0.76%     3.77kB / 96B   0B / 8.19kB   35
Feb 11 18:29:23 CONTAINER ID   NAME                  CPU %     MEM USAGE / LIMIT     MEM %     NET I/O        BLOCK I/O     PIDS
Feb 11 18:29:23 ea754eb84432   noprov_repoSystem_1   0.40%     176.8MiB / 15.07GiB   1.15%     10.6kB / 96B   0B / 1.76MB   38
Feb 11 18:29:26 CONTAINER ID   NAME                  CPU %     MEM USAGE / LIMIT     MEM %     NET I/O         BLOCK I/O     PIDS
Feb 11 18:29:26 ea754eb84432   noprov_repoSystem_1   0.42%     156.3MiB / 15.07GiB   1.01%     12.7kB / 138B   0B / 1.76MB   38
Feb 11 18:29:29 CONTAINER ID   NAME                  CPU %     MEM USAGE / LIMIT     MEM %     NET I/O         BLOCK I/O     PIDS
Feb 11 18:29:29 ea754eb84432   noprov_repoSystem_1   0.47%     156.2MiB / 15.07GiB   1.01%     13.2kB / 138B   0B / 1.76MB   37
Feb 11 18:29:32 CONTAINER ID   NAME                  CPU %     MEM USAGE / LIMIT     MEM %     NET I/O         BLOCK I/O     PIDS
Feb 11 18:29:32 ea754eb84432   noprov_repoSystem_1   0.38%     155.9MiB / 15.07GiB   1.01%     13.2kB / 138B   0B / 1.76MB   33
Feb 11 18:29:35 CONTAINER ID   NAME                  CPU %     MEM USAGE / LIMIT     MEM %     NET I/O         BLOCK I/O     PIDS
Feb 11 18:29:35 ea754eb84432   noprov_repoSystem_1   0.38%     155.9MiB / 15.07GiB   1.01%     13.9kB / 138B   0B / 1.76MB   33
Feb 11 18:29:38 CONTAINER ID   NAME                  CPU %     MEM USAGE / LIMIT     MEM %     NET I/O         BLOCK I/O     PIDS
Feb 11 18:29:38 ea754eb84432   noprov_repoSystem_1   0.26%     155.9MiB / 15.07GiB   1.01%     13.9kB / 138B   0B / 1.76MB   33
Feb 11 18:29:41 CONTAINER ID   NAME                  CPU %     MEM USAGE / LIMIT     MEM %     NET I/O           BLOCK I/O     PIDS
Feb 11 18:29:41 ea754eb84432   noprov_repoSystem_1   21.24%    170.4MiB / 15.07GiB   1.10%     31.9kB / 15.9kB   0B / 1.76MB   43
Feb 11 18:29:44 CONTAINER ID   NAME                  CPU %     MEM USAGE / LIMIT     MEM %     NET I/O           BLOCK I/O     PIDS
Feb 11 18:29:44 ea754eb84432   noprov_repoSystem_1   2.89%     170.5MiB / 15.07GiB   1.10%     36.9kB / 19.2kB   0B / 1.76MB   43
Feb 11 18:29:47 CONTAINER ID   NAME                  CPU %     MEM USAGE / LIMIT     MEM %     NET I/O           BLOCK I/O     PIDS
Feb 11 18:29:47 ea754eb84432   noprov_repoSystem_1   16.27%    170.8MiB / 15.07GiB   1.11%     41.7kB / 22.3kB   0B / 1.76MB   43
Feb 11 18:29:50 CONTAINER ID   NAME                  CPU %     MEM USAGE / LIMIT     MEM %     NET I/O         BLOCK I/O     PIDS
Feb 11 18:29:50 ea754eb84432   noprov_repoSystem_1   6.68%     171.7MiB / 15.07GiB   1.11%     45.4kB / 24kB   0B / 1.88MB   43
Feb 11 18:29:53 CONTAINER ID   NAME                  CPU %     MEM USAGE / LIMIT     MEM %     NET I/O           BLOCK I/O     PIDS
Feb 11 18:29:53 ea754eb84432   noprov_repoSystem_1   7.08%     171.9MiB / 15.07GiB   1.11%     50.4kB / 27.2kB   0B / 1.88MB   43
Feb 11 18:29:56 CONTAINER ID   NAME                  CPU %     MEM USAGE / LIMIT     MEM %     NET I/O         BLOCK I/O     PIDS
Feb 11 18:29:56 ea754eb84432   noprov_repoSystem_1   20.55%    172.1MiB / 15.07GiB   1.12%     55.1kB / 31kB   0B / 1.88MB   43
Feb 11 18:29:59 CONTAINER ID   NAME                  CPU %     MEM USAGE / LIMIT     MEM %     NET I/O         BLOCK I/O     PIDS
Feb 11 18:29:59 ea754eb84432   noprov_repoSystem_1   12.95%    172.6MiB / 15.07GiB   1.12%     61kB / 36.3kB   0B / 1.88MB   43
Feb 11 18:30:02 CONTAINER ID   NAME                  CPU %     MEM USAGE / LIMIT     MEM %     NET I/O           BLOCK I/O     PIDS
Feb 11 18:30:02 ea754eb84432   noprov_repoSystem_1   10.11%    172.7MiB / 15.07GiB   1.12%     68.6kB / 43.8kB   0B / 1.88MB   43
Feb 11 18:30:06 CONTAINER ID   NAME                  CPU %     MEM USAGE / LIMIT   MEM %     NET I/O           BLOCK I/O     PIDS
Feb 11 18:30:06 ea754eb84432   noprov_repoSystem_1   5.47%     173MiB / 15.07GiB   1.12%     78.5kB / 51.3kB   0B / 1.88MB   43
Feb 11 18:30:09 CONTAINER ID   NAME                  CPU %     MEM USAGE / LIMIT     MEM %     NET I/O           BLOCK I/O     PIDS
Feb 11 18:30:09 ea754eb84432   noprov_repoSystem_1   3.43%     173.3MiB / 15.07GiB   1.12%     82.5kB / 53.2kB   0B / 1.88MB   43
Feb 11 18:30:12 CONTAINER ID   NAME                  CPU %     MEM USAGE / LIMIT     MEM %     NET I/O           BLOCK I/O     PIDS
Feb 11 18:30:12 ea754eb84432   noprov_repoSystem_1   4.72%     173.3MiB / 15.07GiB   1.12%     85.8kB / 55.1kB   0B / 1.88MB   43
