elapsedWallClockMillis,totalMemoryBytes
9,1219272
1103,1615760
2115,1613424
3126,1616384
4135,1617032
5151,1608312
6164,1611344
7179,1609432
8191,1612616
9211,1612016
10225,1610624
11236,1612232
12250,1612232
13265,1611928
14280,1612648
15292,1610488
16311,1611288
17326,1612568
18339,1612904
19354,1613664
20368,1611280
21387,1613224
22400,1613512
23412,1613960
24430,1613032
25446,1612416
26468,1614080
27477,1615864
28491,1615440
29503,1614768
30517,1612176
31533,1613888
32547,1614024
33561,1612712
34575,1611744
35589,1613368
36603,1614944
37616,1613208
38630,1614920
39644,1613384
40654,1615064
41665,1617008
42677,1615944
43689,1616520
44702,1613752
45714,1614760
46728,1615104
47744,1615312
48758,1617168
49773,1614152
50787,1615080
51801,1614592
52821,1615184
53834,1615224
54848,1613832
55862,1613968
56875,1615848
57888,1614112
58903,1613528
59911,1614176
60921,1614600
61934,1614600
62948,1614984
63959,1612384
64972,1616216
65987,1615176
67000,1613984
68008,1616992
69023,1614848
70043,1614440
71054,1615032
72068,1615288
73080,1615312
74099,1614944
75112,1614368
76122,1616496
77136,1616392
78153,1616984
79163,1614704
80172,1613264
81183,1615656
82196,1615568
83214,1615592
84227,1615512
85241,1615448
86253,1616400
87268,1616848
88288,1613640
89300,1613632
90314,1615912
91328,1615272
92342,1615560
93356,1612560
94367,1614896
95380,1615488
96396,1613520
97410,1615584
98425,1611600
99436,1616888
100453,1618504
101466,1618048
102478,1620016
103492,1616296
104504,1616648
105530,1615768
106544,1619776
107559,1618056
108575,1616920
109590,1616552
110604,1618872
111616,1618512
112630,1619768
113649,1616448
114663,1617728
115677,1617616
116688,1619080
117701,1617784
118709,1618400
119725,1616320
120736,1618888
121751,1619648
122762,1615848
123773,1618688
124787,1616928
125803,1615904
126817,1619376
127832,1617592
128851,1617240
129863,1618656
130878,1618424
131900,1620320
132911,1615960
133924,1614312
134937,1618744
135951,1615392
136962,1616624
137978,1617360
138987,1615096
140004,1620568
141015,1620928
142027,1621304
143044,1617656
144058,1615592
145081,1620000
146095,1618840
147114,1618912
148123,1619328
149144,1618920
150155,1620208
151167,1618568
152179,1614392
153195,1617856
154223,1619120
155239,1619928
156256,1620024
157267,1615312
158276,1616536
159294,1618576
160308,1617872
161323,1618928
162340,1616488
163356,1619136
164370,1616336
165383,1619936
166404,1619304
167420,1616416
168435,1616056
169452,1617512
170464,1619216
171478,1617640
172493,1618952
173510,1617672
174526,1618520
175548,1620392
176557,1620272
177571,1617712
178589,1616824
179607,1618432
180624,1619320
181639,1615904
182651,1618736
183664,1619376
184680,1619368
185694,1619688
186717,1614776
187732,1617472
188743,1617176
189755,1616480
190770,1620144
191782,1617904
192796,1619360
193810,1619808
194824,1617208
195835,1619672
196847,1618776
197858,1618000
198871,1619584
199889,1619680
200901,1619192
201912,1617160
202922,1620040
203936,1616544
204947,1620200
205960,1619688
206972,1619552
207983,1621000
208995,1619968
210005,1619600
211018,1615056
212032,1616576
213053,1618008
214068,1618328
215085,1618792
216101,1618056
217113,1620072
218127,1619704
219142,1619072
220162,1620416
221176,1616720
222188,1616056
223203,1617712
224221,1618624
225235,1618064
226246,1618872
227268,1619352
228282,1619632
229292,1620568
230301,1619624
230604,1611008
