elapsedWallClockMillis,totalMemoryBytes
13,5065080
1342,11128760
2388,12637072
3472,13191304
4528,13328096
5556,13456896
6587,13595168
7622,13719328
8658,13804040
9694,13952600
10747,14098632
11802,14253160
12875,14323776
13972,14476440
15067,14628296
16121,14786200
17202,14939952
18255,15094160
19295,15253160
20329,15412288
21367,15576616
22397,15732560
23424,15899304
24455,16067648
25504,16237360
26564,16399288
27604,16568880
28648,16741504
29688,16918080
30748,17037536
31778,17209952
32814,17327728
33845,17518656
34875,17628816
35908,17744760
36942,17850024
37995,17971952
39039,18078208
40090,18191528
41138,18250688
42180,18343368
43217,18462488
44324,18575800
45360,18575480
46281,17796944
