DATE Container,Name,ID,CPUPerc,MemUsage/MemUsage,NetIO/NetIO,BlockIO/BlockIO,MemPerc,PIDs
Feb 11 21:23:44 ,f472e1c6a80f,janusgraph-default,f472e1c6a80f,291.39%,226.5MiB / 15.66GiB,3.8kB / 96B,0B / 73.7kB,1.41%,21
Feb 11 21:23:47 ,f472e1c6a80f,janusgraph-default,f472e1c6a80f,317.68%,494.6MiB / 15.66GiB,6.65kB / 96B,0B / 73.7kB,3.08%,22
Feb 11 21:23:50 ,f472e1c6a80f,janusgraph-default,f472e1c6a80f,306.62%,899.7MiB / 15.66GiB,7.53kB / 138B,0B / 73.7kB,5.61%,23
Feb 11 21:23:53 ,f472e1c6a80f,janusgraph-default,f472e1c6a80f,0.25%,1.006GiB / 15.66GiB,7.93kB / 138B,0B / 106kB,6.42%,23
Feb 11 21:23:56 ,f472e1c6a80f,janusgraph-default,f472e1c6a80f,240.95%,185.6MiB / 15.66GiB,8.01kB / 138B,0B / 139kB,1.16%,28
Feb 11 21:23:59 ,f472e1c6a80f,janusgraph-default,f472e1c6a80f,170.24%,332.5MiB / 15.66GiB,8.59kB / 138B,0B / 143kB,2.07%,30
Feb 11 21:24:02 ,f472e1c6a80f,janusgraph-default,f472e1c6a80f,6.23%,358MiB / 15.66GiB,8.59kB / 138B,0B / 143kB,2.23%,31
Feb 11 21:24:05 ,f472e1c6a80f,janusgraph-default,f472e1c6a80f,0.12%,347.4MiB / 15.66GiB,8.59kB / 138B,0B / 143kB,2.17%,31
Feb 11 21:24:08 ,f472e1c6a80f,janusgraph-default,f472e1c6a80f,0.12%,347.4MiB / 15.66GiB,8.59kB / 138B,0B / 143kB,2.17%,31
Feb 11 21:24:11 ,f472e1c6a80f,janusgraph-default,f472e1c6a80f,0.16%,347.4MiB / 15.66GiB,8.59kB / 138B,0B / 143kB,2.17%,31
Feb 11 21:24:14 ,f472e1c6a80f,janusgraph-default,f472e1c6a80f,195.24%,362MiB / 15.66GiB,16.9kB / 4.66kB,0B / 352kB,2.26%,55
Feb 11 21:24:17 ,f472e1c6a80f,janusgraph-default,f472e1c6a80f,94.48%,370.8MiB / 15.66GiB,88kB / 44.3kB,0B / 1.61MB,2.31%,57
Feb 11 21:24:21 ,f472e1c6a80f,janusgraph-default,f472e1c6a80f,90.56%,372.9MiB / 15.66GiB,179kB / 95.6kB,0B / 3.26MB,2.33%,57
Feb 11 21:24:24 ,f472e1c6a80f,janusgraph-default,f472e1c6a80f,80.03%,374.4MiB / 15.66GiB,278kB / 151kB,0B / 5.03MB,2.33%,57
Feb 11 21:24:27 ,f472e1c6a80f,janusgraph-default,f472e1c6a80f,174.77%,376.1MiB / 15.66GiB,388kB / 212kB,0B / 6.99MB,2.35%,57
Feb 11 21:24:30 ,f472e1c6a80f,janusgraph-default,f472e1c6a80f,89.77%,377.3MiB / 15.66GiB,513kB / 281kB,0B / 9.2MB,2.35%,57
Feb 11 21:24:33 ,f472e1c6a80f,janusgraph-default,f472e1c6a80f,69.84%,377.5MiB / 15.66GiB,647kB / 355kB,0B / 11.6MB,2.35%,57
Feb 11 21:24:36 ,f472e1c6a80f,janusgraph-default,f472e1c6a80f,96.90%,381.6MiB / 15.66GiB,787kB / 433kB,0B / 14.1MB,2.38%,57
Feb 11 21:24:39 ,f472e1c6a80f,janusgraph-default,f472e1c6a80f,50.33%,382.6MiB / 15.66GiB,920kB / 507kB,0B / 16.5MB,2.39%,57
Feb 11 21:24:42 ,f472e1c6a80f,janusgraph-default,f472e1c6a80f,44.00%,382.7MiB / 15.66GiB,1.06MB / 587kB,0B / 19MB,2.39%,57
Feb 11 21:24:45 ,f472e1c6a80f,janusgraph-default,f472e1c6a80f,40.68%,382.7MiB / 15.66GiB,1.2MB / 666kB,0B / 21.5MB,2.39%,57
Feb 11 21:24:48 ,f472e1c6a80f,janusgraph-default,f472e1c6a80f,44.37%,382.9MiB / 15.66GiB,1.35MB / 746kB,0B / 24.1MB,2.39%,57
Feb 11 21:24:51 ,f472e1c6a80f,janusgraph-default,f472e1c6a80f,87.25%,383.2MiB / 15.66GiB,1.49MB / 826kB,0B / 26.7MB,2.39%,57
Feb 11 21:24:54 ,f472e1c6a80f,janusgraph-default,f472e1c6a80f,28.97%,383.2MiB / 15.66GiB,1.64MB / 908kB,0B / 29.3MB,2.39%,57
Feb 11 21:24:57 ,f472e1c6a80f,janusgraph-default,f472e1c6a80f,44.27%,383.4MiB / 15.66GiB,1.79MB / 990kB,0B / 31.9MB,2.39%,57
Feb 11 21:25:00 ,f472e1c6a80f,janusgraph-default,f472e1c6a80f,28.64%,383.1MiB / 15.66GiB,1.94MB / 1.07MB,0B / 34.6MB,2.39%,57
Feb 11 21:25:03 ,f472e1c6a80f,janusgraph-default,f472e1c6a80f,44.65%,383.3MiB / 15.66GiB,2.09MB / 1.16MB,0B / 37.3MB,2.39%,57
Feb 11 21:25:06 ,f472e1c6a80f,janusgraph-default,f472e1c6a80f,29.95%,383.4MiB / 15.66GiB,2.24MB / 1.24MB,0B / 40MB,2.39%,57
Feb 11 21:25:09 ,f472e1c6a80f,janusgraph-default,f472e1c6a80f,159.38%,384.4MiB / 15.66GiB,2.39MB / 1.32MB,0B / 42.7MB,2.40%,57
Feb 11 21:25:12 ,f472e1c6a80f,janusgraph-default,f472e1c6a80f,37.29%,384.4MiB / 15.66GiB,2.54MB / 1.41MB,0B / 45.4MB,2.40%,57
Feb 11 21:25:15 ,f472e1c6a80f,janusgraph-default,f472e1c6a80f,24.77%,384.5MiB / 15.66GiB,2.69MB / 1.49MB,0B / 48MB,2.40%,57
Feb 11 21:25:18 ,f472e1c6a80f,janusgraph-default,f472e1c6a80f,1.04%,384.4MiB / 15.66GiB,2.69MB / 1.49MB,0B / 48MB,2.40%,57
Feb 11 21:25:21 ,f472e1c6a80f,janusgraph-default,f472e1c6a80f,2.94%,384.4MiB / 15.66GiB,2.69MB / 1.49MB,0B / 48MB,2.40%,57
Feb 11 21:25:24 ,f472e1c6a80f,janusgraph-default,f472e1c6a80f,0.90%,384.4MiB / 15.66GiB,2.69MB / 1.49MB,0B / 48MB,2.40%,57
Feb 11 21:25:27 ,f472e1c6a80f,janusgraph-default,f472e1c6a80f,1.33%,384.4MiB / 15.66GiB,2.69MB / 1.49MB,0B / 48MB,2.40%,57
Feb 11 21:25:30 ,f472e1c6a80f,janusgraph-default,f472e1c6a80f,0.93%,384.4MiB / 15.66GiB,2.69MB / 1.49MB,0B / 48MB,2.40%,57
Feb 11 21:25:33 ,f472e1c6a80f,janusgraph-default,f472e1c6a80f,0.96%,384.7MiB / 15.66GiB,2.69MB / 1.49MB,0B / 48MB,2.40%,57
Feb 11 21:25:36 ,f472e1c6a80f,janusgraph-default,f472e1c6a80f,0.98%,384.7MiB / 15.66GiB,2.69MB / 1.49MB,0B / 48MB,2.40%,57
Feb 11 21:25:39 ,f472e1c6a80f,janusgraph-default,f472e1c6a80f,0.95%,384.7MiB / 15.66GiB,2.69MB / 1.49MB,0B / 48MB,2.40%,57
Feb 11 21:25:42 ,f472e1c6a80f,janusgraph-default,f472e1c6a80f,1.09%,384.7MiB / 15.66GiB,2.69MB / 1.49MB,0B / 48MB,2.40%,57
Feb 11 21:25:45 ,f472e1c6a80f,janusgraph-default,f472e1c6a80f,0.71%,384.7MiB / 15.66GiB,2.69MB / 1.49MB,0B / 48MB,2.40%,57
Feb 11 21:25:48 ,f472e1c6a80f,janusgraph-default,f472e1c6a80f,0.13%,384.7MiB / 15.66GiB,2.69MB / 1.49MB,0B / 48MB,2.40%,57
Feb 11 21:25:51 ,f472e1c6a80f,janusgraph-default,f472e1c6a80f,59.51%,387.9MiB / 15.66GiB,2.69MB / 1.49MB,0B / 51.2MB,2.42%,57
