DATE Container,Name,ID,CPUPerc,MemUsage/MemUsage,NetIO/NetIO,BlockIO/BlockIO,MemPerc,PIDs
Feb 11 21:30:20 ,17543c071df5,janusgraph-default,17543c071df5,294.29%,228.7MiB / 15.66GiB,2.4kB / 96B,0B / 73.7kB,1.43%,21
Feb 11 21:30:23 ,17543c071df5,janusgraph-default,17543c071df5,311.69%,543.4MiB / 15.66GiB,6.6kB / 96B,0B / 73.7kB,3.39%,22
Feb 11 21:30:26 ,17543c071df5,janusgraph-default,17543c071df5,247.97%,961.7MiB / 15.66GiB,7.47kB / 138B,0B / 73.7kB,6.00%,23
Feb 11 21:30:29 ,17543c071df5,janusgraph-default,17543c071df5,2.85%,1.006GiB / 15.66GiB,7.88kB / 138B,0B / 106kB,6.42%,23
Feb 11 21:30:32 ,17543c071df5,janusgraph-default,17543c071df5,256.86%,195.3MiB / 15.66GiB,7.88kB / 138B,0B / 143kB,1.22%,30
Feb 11 21:30:35 ,17543c071df5,janusgraph-default,17543c071df5,159.71%,334.8MiB / 15.66GiB,8.54kB / 138B,0B / 143kB,2.09%,30
Feb 11 21:30:38 ,17543c071df5,janusgraph-default,17543c071df5,0.82%,347.3MiB / 15.66GiB,8.54kB / 138B,0B / 143kB,2.17%,31
Feb 11 21:30:41 ,17543c071df5,janusgraph-default,17543c071df5,0.13%,326.6MiB / 15.66GiB,8.54kB / 138B,0B / 143kB,2.04%,31
Feb 11 21:30:44 ,17543c071df5,janusgraph-default,17543c071df5,0.12%,326.6MiB / 15.66GiB,8.54kB / 138B,0B / 143kB,2.04%,31
Feb 11 21:30:47 ,17543c071df5,janusgraph-default,17543c071df5,0.35%,326.6MiB / 15.66GiB,8.54kB / 138B,0B / 143kB,2.04%,31
Feb 11 21:30:50 ,17543c071df5,janusgraph-default,17543c071df5,147.09%,350.9MiB / 15.66GiB,17.9kB / 5.39kB,0B / 348kB,2.19%,55
Feb 11 21:30:53 ,17543c071df5,janusgraph-default,17543c071df5,90.71%,357.2MiB / 15.66GiB,90.6kB / 46kB,0B / 1.67MB,2.23%,55
Feb 11 21:30:56 ,17543c071df5,janusgraph-default,17543c071df5,79.03%,359.6MiB / 15.66GiB,180kB / 96.2kB,0B / 3.28MB,2.24%,55
Feb 11 21:30:59 ,17543c071df5,janusgraph-default,17543c071df5,107.69%,362.5MiB / 15.66GiB,280kB / 152kB,0B / 5.07MB,2.26%,55
Feb 11 21:31:02 ,17543c071df5,janusgraph-default,17543c071df5,142.02%,374.1MiB / 15.66GiB,392kB / 214kB,0B / 7.09MB,2.33%,55
Feb 11 21:31:06 ,17543c071df5,janusgraph-default,17543c071df5,111.32%,371.7MiB / 15.66GiB,516kB / 283kB,0B / 9.31MB,2.32%,55
Feb 11 21:31:09 ,17543c071df5,janusgraph-default,17543c071df5,67.56%,372.1MiB / 15.66GiB,649kB / 357kB,0B / 11.7MB,2.32%,55
Feb 11 21:31:12 ,17543c071df5,janusgraph-default,17543c071df5,94.88%,384MiB / 15.66GiB,782kB / 431kB,0B / 14.1MB,2.39%,55
Feb 11 21:31:15 ,17543c071df5,janusgraph-default,17543c071df5,68.13%,388.1MiB / 15.66GiB,918kB / 507kB,0B / 16.5MB,2.42%,55
Feb 11 21:31:18 ,17543c071df5,janusgraph-default,17543c071df5,46.54%,381.8MiB / 15.66GiB,1.06MB / 585kB,0B / 19.1MB,2.38%,55
Feb 11 21:31:21 ,17543c071df5,janusgraph-default,17543c071df5,40.15%,382MiB / 15.66GiB,1.19MB / 660kB,0B / 21.5MB,2.38%,55
Feb 11 21:31:24 ,17543c071df5,janusgraph-default,17543c071df5,42.21%,382.1MiB / 15.66GiB,1.34MB / 740kB,0B / 24.1MB,2.38%,55
Feb 11 21:31:27 ,17543c071df5,janusgraph-default,17543c071df5,77.23%,382.5MiB / 15.66GiB,1.48MB / 819kB,0B / 26.7MB,2.38%,55
Feb 11 21:31:30 ,17543c071df5,janusgraph-default,17543c071df5,44.86%,382.4MiB / 15.66GiB,1.63MB / 900kB,0B / 29.3MB,2.38%,55
Feb 11 21:31:33 ,17543c071df5,janusgraph-default,17543c071df5,36.40%,382.7MiB / 15.66GiB,1.78MB / 982kB,0B / 31.9MB,2.39%,55
Feb 11 21:31:36 ,17543c071df5,janusgraph-default,17543c071df5,38.16%,389.3MiB / 15.66GiB,1.92MB / 1.06MB,0B / 34.6MB,2.43%,55
Feb 11 21:31:39 ,17543c071df5,janusgraph-default,17543c071df5,36.14%,389.2MiB / 15.66GiB,2.07MB / 1.15MB,0B / 37.2MB,2.43%,55
Feb 11 21:31:42 ,17543c071df5,janusgraph-default,17543c071df5,29.86%,389.4MiB / 15.66GiB,2.22MB / 1.23MB,0B / 40MB,2.43%,55
Feb 11 21:31:45 ,17543c071df5,janusgraph-default,17543c071df5,109.02%,391.9MiB / 15.66GiB,2.37MB / 1.31MB,0B / 42.7MB,2.44%,55
Feb 11 21:31:48 ,17543c071df5,janusgraph-default,17543c071df5,26.36%,390.7MiB / 15.66GiB,2.52MB / 1.4MB,0B / 45.4MB,2.44%,55
Feb 11 21:31:51 ,17543c071df5,janusgraph-default,17543c071df5,27.11%,390.7MiB / 15.66GiB,2.68MB / 1.49MB,0B / 48.2MB,2.44%,55
Feb 11 21:31:54 ,17543c071df5,janusgraph-default,17543c071df5,1.04%,390.6MiB / 15.66GiB,2.69MB / 1.49MB,0B / 48.4MB,2.44%,55
Feb 11 21:31:57 ,17543c071df5,janusgraph-default,17543c071df5,2.90%,390.6MiB / 15.66GiB,2.69MB / 1.49MB,0B / 48.4MB,2.44%,55
Feb 11 21:32:00 ,17543c071df5,janusgraph-default,17543c071df5,0.94%,390.6MiB / 15.66GiB,2.69MB / 1.49MB,0B / 48.4MB,2.44%,55
Feb 11 21:32:03 ,17543c071df5,janusgraph-default,17543c071df5,1.04%,390.6MiB / 15.66GiB,2.69MB / 1.49MB,0B / 48.4MB,2.44%,55
Feb 11 21:32:06 ,17543c071df5,janusgraph-default,17543c071df5,2.96%,391.8MiB / 15.66GiB,2.69MB / 1.49MB,0B / 52.5MB,2.44%,55
Feb 11 21:32:09 ,17543c071df5,janusgraph-default,17543c071df5,0.96%,391.8MiB / 15.66GiB,2.69MB / 1.49MB,0B / 52.5MB,2.44%,55
Feb 11 21:32:12 ,17543c071df5,janusgraph-default,17543c071df5,0.97%,391.8MiB / 15.66GiB,2.69MB / 1.49MB,0B / 52.5MB,2.44%,55
Feb 11 21:32:15 ,17543c071df5,janusgraph-default,17543c071df5,0.90%,391.8MiB / 15.66GiB,2.69MB / 1.49MB,0B / 52.5MB,2.44%,55
Feb 11 21:32:18 ,17543c071df5,janusgraph-default,17543c071df5,1.10%,391.8MiB / 15.66GiB,2.69MB / 1.49MB,0B / 52.5MB,2.44%,55
Feb 11 21:32:21 ,17543c071df5,janusgraph-default,17543c071df5,0.98%,391.8MiB / 15.66GiB,2.69MB / 1.49MB,0B / 52.5MB,2.44%,55
Feb 11 21:32:24 ,17543c071df5,janusgraph-default,17543c071df5,0.12%,391.8MiB / 15.66GiB,2.69MB / 1.49MB,0B / 52.5MB,2.44%,55
Feb 11 21:32:27 ,17543c071df5,janusgraph-default,17543c071df5,0.14%,391.8MiB / 15.66GiB,2.69MB / 1.49MB,0B / 52.5MB,2.44%,55
Feb 11 21:32:29 ,17543c071df5,janusgraph-default,17543c071df5,0.00%,0B / 0B,0B / 0B,0B / 0B,0.00%,0
