DATE Container,Name,ID,CPUPerc,MemUsage/MemUsage,NetIO/NetIO,BlockIO/BlockIO,MemPerc,PIDs
Feb 11 22:18:46 ,b1a8d216403e,janusgraph-default,b1a8d216403e,277.02%,215.9MiB / 15.66GiB,4.05kB / 96B,0B / 73.7kB,1.35%,21
Feb 11 22:18:49 ,b1a8d216403e,janusgraph-default,b1a8d216403e,333.16%,518MiB / 15.66GiB,6.65kB / 96B,0B / 73.7kB,3.23%,22
Feb 11 22:18:52 ,b1a8d216403e,janusgraph-default,b1a8d216403e,271.96%,721.5MiB / 15.66GiB,7.53kB / 138B,0B / 73.7kB,4.50%,23
Feb 11 22:18:55 ,b1a8d216403e,janusgraph-default,b1a8d216403e,138.30%,906.1MiB / 15.66GiB,7.93kB / 138B,0B / 147kB,5.65%,23
Feb 11 22:18:58 ,b1a8d216403e,janusgraph-default,b1a8d216403e,215.13%,158.2MiB / 15.66GiB,8kB / 138B,0B / 180kB,0.99%,24
Feb 11 22:19:01 ,b1a8d216403e,janusgraph-default,b1a8d216403e,215.35%,331MiB / 15.66GiB,8.59kB / 138B,0B / 184kB,2.06%,30
Feb 11 22:19:04 ,b1a8d216403e,janusgraph-default,b1a8d216403e,3.21%,342.6MiB / 15.66GiB,8.59kB / 138B,0B / 184kB,2.14%,31
Feb 11 22:19:07 ,b1a8d216403e,janusgraph-default,b1a8d216403e,0.37%,333.7MiB / 15.66GiB,8.59kB / 138B,0B / 184kB,2.08%,31
Feb 11 22:19:10 ,b1a8d216403e,janusgraph-default,b1a8d216403e,0.13%,333.7MiB / 15.66GiB,8.59kB / 138B,0B / 184kB,2.08%,31
Feb 11 22:19:13 ,b1a8d216403e,janusgraph-default,b1a8d216403e,0.12%,333.7MiB / 15.66GiB,8.66kB / 138B,0B / 184kB,2.08%,31
Feb 11 22:19:16 ,b1a8d216403e,janusgraph-default,b1a8d216403e,0.13%,333.7MiB / 15.66GiB,8.84kB / 138B,0B / 184kB,2.08%,31
Feb 11 22:19:19 ,b1a8d216403e,janusgraph-default,b1a8d216403e,1.78%,333.7MiB / 15.66GiB,9.25kB / 138B,0B / 184kB,2.08%,31
Feb 11 22:19:22 ,b1a8d216403e,janusgraph-default,b1a8d216403e,0.14%,333.7MiB / 15.66GiB,9.25kB / 138B,0B / 184kB,2.08%,31
Feb 11 22:19:25 ,b1a8d216403e,janusgraph-default,b1a8d216403e,0.13%,333.7MiB / 15.66GiB,9.25kB / 138B,0B / 184kB,2.08%,31
Feb 11 22:19:28 ,b1a8d216403e,janusgraph-default,b1a8d216403e,0.13%,333.7MiB / 15.66GiB,9.25kB / 138B,0B / 184kB,2.08%,31
Feb 11 22:19:31 ,b1a8d216403e,janusgraph-default,b1a8d216403e,0.14%,333.7MiB / 15.66GiB,9.25kB / 138B,0B / 184kB,2.08%,31
Feb 11 22:19:34 ,b1a8d216403e,janusgraph-default,b1a8d216403e,0.57%,333.7MiB / 15.66GiB,9.25kB / 138B,0B / 184kB,2.08%,31
Feb 11 22:19:37 ,b1a8d216403e,janusgraph-default,b1a8d216403e,0.13%,333.7MiB / 15.66GiB,9.25kB / 138B,0B / 184kB,2.08%,31
Feb 11 22:19:40 ,b1a8d216403e,janusgraph-default,b1a8d216403e,0.14%,333.7MiB / 15.66GiB,9.25kB / 138B,0B / 184kB,2.08%,31
Feb 11 22:19:43 ,b1a8d216403e,janusgraph-default,b1a8d216403e,0.13%,333.7MiB / 15.66GiB,9.32kB / 138B,0B / 184kB,2.08%,31
Feb 11 22:19:46 ,b1a8d216403e,janusgraph-default,b1a8d216403e,135.76%,349.3MiB / 15.66GiB,22.3kB / 7.28kB,0B / 467kB,2.18%,57
Feb 11 22:19:49 ,b1a8d216403e,janusgraph-default,b1a8d216403e,89.90%,355.2MiB / 15.66GiB,98.6kB / 49.5kB,0B / 1.8MB,2.21%,57
Feb 11 22:19:52 ,b1a8d216403e,janusgraph-default,b1a8d216403e,81.64%,357.5MiB / 15.66GiB,189kB / 100kB,0B / 3.43MB,2.23%,57
Feb 11 22:19:55 ,b1a8d216403e,janusgraph-default,b1a8d216403e,111.47%,367.7MiB / 15.66GiB,291kB / 156kB,0B / 5.22MB,2.29%,57
Feb 11 22:19:58 ,b1a8d216403e,janusgraph-default,b1a8d216403e,125.64%,369MiB / 15.66GiB,405kB / 218kB,0B / 7.23MB,2.30%,57
Feb 11 22:20:01 ,b1a8d216403e,janusgraph-default,b1a8d216403e,140.13%,374.9MiB / 15.66GiB,533kB / 289kB,0B / 9.48MB,2.34%,57
Feb 11 22:20:04 ,b1a8d216403e,janusgraph-default,b1a8d216403e,75.63%,376.5MiB / 15.66GiB,666kB / 362kB,0B / 11.8MB,2.35%,57
Feb 11 22:20:07 ,b1a8d216403e,janusgraph-default,b1a8d216403e,64.12%,376.5MiB / 15.66GiB,801kB / 437kB,0B / 14.2MB,2.35%,57
Feb 11 22:20:10 ,b1a8d216403e,janusgraph-default,b1a8d216403e,40.01%,381.8MiB / 15.66GiB,935kB / 511kB,0B / 16.6MB,2.38%,57
Feb 11 22:20:13 ,b1a8d216403e,janusgraph-default,b1a8d216403e,33.06%,378.6MiB / 15.66GiB,1.08MB / 590kB,0B / 19.1MB,2.36%,57
Feb 11 22:20:16 ,b1a8d216403e,janusgraph-default,b1a8d216403e,36.90%,378.6MiB / 15.66GiB,1.21MB / 665kB,0B / 21.5MB,2.36%,57
Feb 11 22:20:19 ,b1a8d216403e,janusgraph-default,b1a8d216403e,45.43%,378.5MiB / 15.66GiB,1.36MB / 743kB,0B / 24MB,2.36%,57
Feb 11 22:20:22 ,b1a8d216403e,janusgraph-default,b1a8d216403e,76.64%,378.3MiB / 15.66GiB,1.5MB / 824kB,0B / 26.6MB,2.36%,57
Feb 11 22:20:25 ,b1a8d216403e,janusgraph-default,b1a8d216403e,27.36%,378.4MiB / 15.66GiB,1.66MB / 910kB,0B / 29.4MB,2.36%,57
Feb 11 22:20:28 ,b1a8d216403e,janusgraph-default,b1a8d216403e,30.97%,378.4MiB / 15.66GiB,1.81MB / 996kB,0B / 32.1MB,2.36%,57
Feb 11 22:22:50 ,a7616beb29de,janusgraph-memory,a7616beb29de,279.83%,346.6MiB / 15.66GiB,2.04kB / 96B,0B / 77.8kB,2.16%,21
Feb 11 22:22:53 ,a7616beb29de,janusgraph-memory,a7616beb29de,309.56%,695.5MiB / 15.66GiB,6.73kB / 96B,0B / 77.8kB,4.34%,22
Feb 11 22:22:56 ,a7616beb29de,janusgraph-memory,a7616beb29de,290.41%,756.6MiB / 15.66GiB,7.76kB / 246B,0B / 77.8kB,4.72%,23
Feb 11 22:22:59 ,a7616beb29de,janusgraph-memory,a7616beb29de,174.61%,121.7MiB / 15.66GiB,8.16kB / 246B,0B / 111kB,0.76%,16
Feb 11 22:23:02 ,a7616beb29de,janusgraph-memory,a7616beb29de,289.34%,715MiB / 15.66GiB,8.23kB / 246B,0B / 111kB,4.46%,21
Feb 11 22:23:05 ,a7616beb29de,janusgraph-memory,a7616beb29de,7.71%,728.6MiB / 15.66GiB,8.82kB / 246B,0B / 111kB,4.54%,22
Feb 11 22:23:08 ,a7616beb29de,janusgraph-memory,a7616beb29de,0.10%,728.6MiB / 15.66GiB,8.82kB / 246B,0B / 111kB,4.54%,22
Feb 11 22:23:11 ,a7616beb29de,janusgraph-memory,a7616beb29de,0.10%,719.8MiB / 15.66GiB,9.96kB / 1.11kB,0B / 111kB,4.49%,25
Feb 11 22:23:14 ,a7616beb29de,janusgraph-memory,a7616beb29de,0.11%,719.8MiB / 15.66GiB,9.96kB / 1.11kB,0B / 111kB,4.49%,25
Feb 11 22:23:17 ,a7616beb29de,janusgraph-memory,a7616beb29de,0.10%,719.8MiB / 15.66GiB,10kB / 1.11kB,0B / 111kB,4.49%,25
Feb 11 22:23:20 ,a7616beb29de,janusgraph-memory,a7616beb29de,130.74%,728.9MiB / 15.66GiB,32.2kB / 13.3kB,0B / 111kB,4.54%,49
Feb 11 22:23:23 ,a7616beb29de,janusgraph-memory,a7616beb29de,169.59%,737.3MiB / 15.66GiB,238kB / 128kB,0B / 111kB,4.60%,49
Feb 11 22:23:26 ,a7616beb29de,janusgraph-memory,a7616beb29de,237.49%,755.5MiB / 15.66GiB,565kB / 311kB,0B / 111kB,4.71%,49
Feb 11 22:23:29 ,a7616beb29de,janusgraph-memory,a7616beb29de,206.50%,763.5MiB / 15.66GiB,1.17MB / 648kB,0B / 111kB,4.76%,49
Feb 11 22:23:32 ,a7616beb29de,janusgraph-memory,a7616beb29de,89.55%,764.1MiB / 15.66GiB,1.91MB / 1.07MB,0B / 111kB,4.76%,49
Feb 11 22:23:35 ,a7616beb29de,janusgraph-memory,a7616beb29de,32.56%,765.5MiB / 15.66GiB,2.66MB / 1.49MB,0B / 111kB,4.77%,49
Feb 11 22:23:38 ,a7616beb29de,janusgraph-memory,a7616beb29de,0.10%,765.5MiB / 15.66GiB,2.66MB / 1.49MB,0B / 111kB,4.77%,49
Feb 11 22:23:41 ,a7616beb29de,janusgraph-memory,a7616beb29de,0.10%,765.5MiB / 15.66GiB,2.66MB / 1.49MB,0B / 111kB,4.77%,49
Feb 11 22:23:44 ,a7616beb29de,janusgraph-memory,a7616beb29de,0.11%,765.5MiB / 15.66GiB,2.66MB / 1.49MB,0B / 111kB,4.77%,49
Feb 11 22:23:47 ,a7616beb29de,janusgraph-memory,a7616beb29de,0.10%,765.5MiB / 15.66GiB,2.66MB / 1.49MB,0B / 111kB,4.77%,49
Feb 11 22:23:50 ,a7616beb29de,janusgraph-memory,a7616beb29de,3.69%,765.5MiB / 15.66GiB,2.66MB / 1.49MB,0B / 111kB,4.77%,49
Feb 11 22:23:53 ,a7616beb29de,janusgraph-memory,a7616beb29de,2.18%,765.5MiB / 15.66GiB,2.66MB / 1.49MB,0B / 111kB,4.77%,49
Feb 11 22:23:56 ,a7616beb29de,janusgraph-memory,a7616beb29de,4.74%,765.5MiB / 15.66GiB,2.66MB / 1.49MB,0B / 111kB,4.77%,49
Feb 11 22:24:00 ,e05f96b8e3ca,--,,0.00%,0B / 0B,0B / 0B,0B / 0B,0.00%,0
Feb 11 22:24:03 ,e05f96b8e3ca,janusgraph-memory,e05f96b8e3ca,259.95%,621.1MiB / 15.66GiB,5.61kB / 96B,0B / 77.8kB,3.87%,21
Feb 11 22:24:06 ,e05f96b8e3ca,janusgraph-memory,e05f96b8e3ca,264.59%,706.8MiB / 15.66GiB,7.41kB / 138B,0B / 77.8kB,4.41%,22
Feb 11 22:24:09 ,e05f96b8e3ca,janusgraph-memory,e05f96b8e3ca,267.00%,759.8MiB / 15.66GiB,8kB / 138B,0B / 77.8kB,4.74%,23
Feb 11 22:24:12 ,e05f96b8e3ca,janusgraph-memory,e05f96b8e3ca,223.60%,174.2MiB / 15.66GiB,8kB / 138B,0B / 111kB,1.09%,19
Feb 11 22:24:15 ,e05f96b8e3ca,janusgraph-memory,e05f96b8e3ca,282.95%,709.1MiB / 15.66GiB,8.25kB / 138B,0B / 111kB,4.42%,21
Feb 11 22:24:18 ,e05f96b8e3ca,janusgraph-memory,e05f96b8e3ca,0.41%,722.4MiB / 15.66GiB,8.66kB / 138B,0B / 111kB,4.50%,22
Feb 11 22:24:21 ,e05f96b8e3ca,janusgraph-memory,e05f96b8e3ca,0.09%,722.4MiB / 15.66GiB,8.66kB / 138B,0B / 111kB,4.50%,22
Feb 11 22:24:24 ,e05f96b8e3ca,janusgraph-memory,e05f96b8e3ca,0.11%,718.1MiB / 15.66GiB,8.66kB / 138B,0B / 111kB,4.48%,22
Feb 11 22:24:27 ,e05f96b8e3ca,janusgraph-memory,e05f96b8e3ca,0.10%,718.1MiB / 15.66GiB,8.66kB / 138B,0B / 111kB,4.48%,22
Feb 11 22:24:30 ,e05f96b8e3ca,janusgraph-memory,e05f96b8e3ca,0.08%,718.1MiB / 15.66GiB,8.66kB / 138B,0B / 111kB,4.48%,22
Feb 11 22:24:33 ,e05f96b8e3ca,janusgraph-memory,e05f96b8e3ca,143.58%,736MiB / 15.66GiB,66.6kB / 32.1kB,0B / 111kB,4.59%,53
Feb 11 22:24:36 ,e05f96b8e3ca,janusgraph-memory,e05f96b8e3ca,165.43%,740.1MiB / 15.66GiB,287kB / 155kB,0B / 111kB,4.61%,53
Feb 11 22:24:39 ,e05f96b8e3ca,janusgraph-memory,e05f96b8e3ca,232.75%,748.2MiB / 15.66GiB,645kB / 355kB,0B / 111kB,4.67%,53
Feb 11 22:24:42 ,e05f96b8e3ca,janusgraph-memory,e05f96b8e3ca,183.48%,759.4MiB / 15.66GiB,1.25MB / 698kB,0B / 111kB,4.73%,53
Feb 11 22:24:45 ,e05f96b8e3ca,janusgraph-memory,e05f96b8e3ca,126.64%,760.9MiB / 15.66GiB,2.01MB / 1.12MB,0B / 111kB,4.74%,53
Feb 11 22:24:48 ,e05f96b8e3ca,janusgraph-memory,e05f96b8e3ca,1.44%,757.5MiB / 15.66GiB,2.66MB / 1.49MB,0B / 111kB,4.72%,53
Feb 11 22:24:51 ,e05f96b8e3ca,janusgraph-memory,e05f96b8e3ca,0.14%,757.5MiB / 15.66GiB,2.66MB / 1.49MB,0B / 111kB,4.72%,53
Feb 11 22:24:54 ,e05f96b8e3ca,janusgraph-memory,e05f96b8e3ca,0.10%,757.5MiB / 15.66GiB,2.66MB / 1.49MB,0B / 111kB,4.72%,53
Feb 11 22:24:57 ,e05f96b8e3ca,janusgraph-memory,e05f96b8e3ca,0.13%,757.5MiB / 15.66GiB,2.66MB / 1.49MB,0B / 111kB,4.72%,53
Feb 11 22:25:00 ,e05f96b8e3ca,janusgraph-memory,e05f96b8e3ca,0.12%,757.5MiB / 15.66GiB,2.66MB / 1.49MB,0B / 111kB,4.72%,53
Feb 11 22:25:03 ,e05f96b8e3ca,janusgraph-memory,e05f96b8e3ca,4.90%,757.5MiB / 15.66GiB,2.66MB / 1.49MB,0B / 111kB,4.72%,53
Feb 11 22:25:06 ,e05f96b8e3ca,janusgraph-memory,e05f96b8e3ca,2.98%,757.5MiB / 15.66GiB,2.66MB / 1.49MB,0B / 111kB,4.72%,53
Feb 11 22:25:09 ,e05f96b8e3ca,janusgraph-memory,e05f96b8e3ca,3.83%,757.5MiB / 15.66GiB,2.66MB / 1.49MB,0B / 111kB,4.72%,53
Feb 11 22:25:14 ,44ad75c09bc5,janusgraph-memory,44ad75c09bc5,275.32%,362.9MiB / 15.66GiB,3.58kB / 96B,0B / 77.8kB,2.26%,21
Feb 11 22:25:17 ,44ad75c09bc5,janusgraph-memory,44ad75c09bc5,322.20%,707.1MiB / 15.66GiB,6.65kB / 96B,0B / 77.8kB,4.41%,22
Feb 11 22:25:20 ,44ad75c09bc5,janusgraph-memory,44ad75c09bc5,299.27%,758.4MiB / 15.66GiB,7.53kB / 138B,0B / 77.8kB,4.73%,23
Feb 11 22:25:23 ,44ad75c09bc5,janusgraph-memory,44ad75c09bc5,180.87%,129.4MiB / 15.66GiB,7.93kB / 138B,0B / 111kB,0.81%,16
Feb 11 22:25:26 ,44ad75c09bc5,janusgraph-memory,44ad75c09bc5,280.79%,711.2MiB / 15.66GiB,8.01kB / 138B,0B / 111kB,4.43%,21
Feb 11 22:25:29 ,44ad75c09bc5,janusgraph-memory,44ad75c09bc5,13.57%,729.6MiB / 15.66GiB,8.59kB / 138B,0B / 111kB,4.55%,22
Feb 11 22:25:32 ,44ad75c09bc5,janusgraph-memory,44ad75c09bc5,0.10%,729.6MiB / 15.66GiB,8.59kB / 138B,0B / 111kB,4.55%,22
Feb 11 22:25:35 ,44ad75c09bc5,janusgraph-memory,44ad75c09bc5,0.10%,714.2MiB / 15.66GiB,8.59kB / 138B,0B / 111kB,4.45%,22
Feb 11 22:25:38 ,44ad75c09bc5,janusgraph-memory,44ad75c09bc5,0.10%,714.2MiB / 15.66GiB,8.59kB / 138B,0B / 111kB,4.45%,22
Feb 11 22:25:41 ,44ad75c09bc5,janusgraph-memory,44ad75c09bc5,0.11%,714.2MiB / 15.66GiB,8.59kB / 138B,0B / 111kB,4.45%,22
Feb 11 22:25:44 ,44ad75c09bc5,janusgraph-memory,44ad75c09bc5,118.63%,727.9MiB / 15.66GiB,19.1kB / 6.09kB,0B / 111kB,4.54%,53
Feb 11 22:25:47 ,44ad75c09bc5,janusgraph-memory,44ad75c09bc5,159.34%,737.1MiB / 15.66GiB,192kB / 102kB,0B / 111kB,4.60%,53
Feb 11 22:25:50 ,44ad75c09bc5,janusgraph-memory,44ad75c09bc5,206.82%,745.8MiB / 15.66GiB,437kB / 238kB,0B / 111kB,4.65%,53
Feb 11 22:25:53 ,44ad75c09bc5,janusgraph-memory,44ad75c09bc5,173.79%,752.6MiB / 15.66GiB,902kB / 499kB,0B / 111kB,4.69%,53
Feb 11 22:25:56 ,44ad75c09bc5,janusgraph-memory,44ad75c09bc5,98.92%,754.3MiB / 15.66GiB,1.47MB / 820kB,0B / 111kB,4.70%,53
Feb 11 22:25:59 ,44ad75c09bc5,janusgraph-memory,44ad75c09bc5,71.11%,754.7MiB / 15.66GiB,2.33MB / 1.3MB,0B / 111kB,4.71%,53
Feb 11 22:26:02 ,44ad75c09bc5,janusgraph-memory,44ad75c09bc5,0.10%,754.7MiB / 15.66GiB,2.66MB / 1.49MB,0B / 111kB,4.71%,53
Feb 11 22:26:05 ,44ad75c09bc5,janusgraph-memory,44ad75c09bc5,0.10%,754.7MiB / 15.66GiB,2.66MB / 1.49MB,0B / 111kB,4.71%,53
Feb 11 22:26:08 ,44ad75c09bc5,janusgraph-memory,44ad75c09bc5,0.11%,754.7MiB / 15.66GiB,2.66MB / 1.49MB,0B / 111kB,4.71%,53
Feb 11 22:26:11 ,44ad75c09bc5,janusgraph-memory,44ad75c09bc5,0.11%,754.7MiB / 15.66GiB,2.66MB / 1.49MB,0B / 111kB,4.71%,53
Feb 11 22:26:14 ,44ad75c09bc5,janusgraph-memory,44ad75c09bc5,1.68%,754.7MiB / 15.66GiB,2.66MB / 1.49MB,0B / 111kB,4.71%,53
Feb 11 22:26:17 ,44ad75c09bc5,janusgraph-memory,44ad75c09bc5,2.30%,754.7MiB / 15.66GiB,2.66MB / 1.49MB,0B / 111kB,4.71%,53
Feb 11 22:26:20 ,44ad75c09bc5,janusgraph-memory,44ad75c09bc5,4.20%,754.7MiB / 15.66GiB,2.66MB / 1.49MB,0B / 111kB,4.71%,53
Feb 11 22:26:22 ,44ad75c09bc5,janusgraph-memory,44ad75c09bc5,0.00%,0B / 0B,0B / 0B,0B / 0B,0.00%,0
Feb 11 22:26:26 ,b3a3accb6c5e,janusgraph-memory,b3a3accb6c5e,316.21%,400.7MiB / 15.66GiB,4.76kB / 96B,0B / 77.8kB,2.50%,21
Feb 11 22:26:29 ,b3a3accb6c5e,janusgraph-memory,b3a3accb6c5e,326.38%,696.6MiB / 15.66GiB,7.15kB / 96B,0B / 77.8kB,4.34%,22
Feb 11 22:26:32 ,b3a3accb6c5e,janusgraph-memory,b3a3accb6c5e,259.04%,751.4MiB / 15.66GiB,7.45kB / 138B,0B / 77.8kB,4.69%,23
Feb 11 22:26:35 ,b3a3accb6c5e,janusgraph-memory,b3a3accb6c5e,127.24%,97.52MiB / 15.66GiB,7.85kB / 138B,0B / 111kB,0.61%,16
Feb 11 22:26:38 ,b3a3accb6c5e,janusgraph-memory,b3a3accb6c5e,281.85%,686MiB / 15.66GiB,7.85kB / 138B,0B / 111kB,4.28%,21
Feb 11 22:26:41 ,b3a3accb6c5e,janusgraph-memory,b3a3accb6c5e,129.78%,721.9MiB / 15.66GiB,8.51kB / 138B,0B / 111kB,4.50%,22
Feb 11 22:26:44 ,b3a3accb6c5e,janusgraph-memory,b3a3accb6c5e,0.11%,721.8MiB / 15.66GiB,8.51kB / 138B,0B / 111kB,4.50%,22
Feb 11 22:26:47 ,b3a3accb6c5e,janusgraph-memory,b3a3accb6c5e,0.21%,712.1MiB / 15.66GiB,8.51kB / 138B,0B / 111kB,4.44%,22
Feb 11 22:26:50 ,b3a3accb6c5e,janusgraph-memory,b3a3accb6c5e,0.11%,712.1MiB / 15.66GiB,8.51kB / 138B,0B / 111kB,4.44%,22
Feb 11 22:26:53 ,b3a3accb6c5e,janusgraph-memory,b3a3accb6c5e,0.10%,712.1MiB / 15.66GiB,8.51kB / 138B,0B / 111kB,4.44%,22
Feb 11 22:26:56 ,b3a3accb6c5e,janusgraph-memory,b3a3accb6c5e,114.64%,725.4MiB / 15.66GiB,17.5kB / 4.91kB,0B / 111kB,4.52%,48
Feb 11 22:26:59 ,b3a3accb6c5e,janusgraph-memory,b3a3accb6c5e,156.28%,731.6MiB / 15.66GiB,180kB / 95.2kB,0B / 111kB,4.56%,48
Feb 11 22:27:02 ,b3a3accb6c5e,janusgraph-memory,b3a3accb6c5e,212.68%,742.7MiB / 15.66GiB,414kB / 225kB,0B / 111kB,4.63%,48
Feb 11 22:27:05 ,b3a3accb6c5e,janusgraph-memory,b3a3accb6c5e,178.80%,749.6MiB / 15.66GiB,845kB / 467kB,0B / 111kB,4.67%,48
Feb 11 22:27:08 ,b3a3accb6c5e,janusgraph-memory,b3a3accb6c5e,102.38%,752.9MiB / 15.66GiB,1.43MB / 798kB,0B / 111kB,4.69%,48
Feb 11 22:27:11 ,b3a3accb6c5e,janusgraph-memory,b3a3accb6c5e,98.75%,753.4MiB / 15.66GiB,2.13MB / 1.19MB,0B / 111kB,4.70%,48
Feb 11 22:27:14 ,b3a3accb6c5e,janusgraph-memory,b3a3accb6c5e,0.11%,753.5MiB / 15.66GiB,2.66MB / 1.49MB,0B / 111kB,4.70%,48
Feb 11 22:27:17 ,b3a3accb6c5e,janusgraph-memory,b3a3accb6c5e,0.15%,753.5MiB / 15.66GiB,2.66MB / 1.49MB,0B / 111kB,4.70%,48
Feb 11 22:27:20 ,b3a3accb6c5e,janusgraph-memory,b3a3accb6c5e,0.12%,753.5MiB / 15.66GiB,2.66MB / 1.49MB,0B / 111kB,4.70%,48
Feb 11 22:27:23 ,b3a3accb6c5e,janusgraph-memory,b3a3accb6c5e,0.13%,753.5MiB / 15.66GiB,2.66MB / 1.49MB,0B / 111kB,4.70%,48
Feb 11 22:27:26 ,b3a3accb6c5e,janusgraph-memory,b3a3accb6c5e,1.17%,753.5MiB / 15.66GiB,2.66MB / 1.49MB,0B / 111kB,4.70%,48
Feb 11 22:27:29 ,b3a3accb6c5e,janusgraph-memory,b3a3accb6c5e,1.82%,753.5MiB / 15.66GiB,2.66MB / 1.49MB,0B / 111kB,4.70%,48
Feb 11 22:27:32 ,b3a3accb6c5e,janusgraph-memory,b3a3accb6c5e,2.45%,753.5MiB / 15.66GiB,2.66MB / 1.49MB,0B / 111kB,4.70%,48
Feb 11 22:27:34 ,b3a3accb6c5e,janusgraph-memory,b3a3accb6c5e,0.00%,0B / 0B,0B / 0B,0B / 0B,0.00%,0
Feb 11 22:27:38 ,8c75f7d913ea,janusgraph-memory,8c75f7d913ea,273.40%,376.5MiB / 15.66GiB,2.91kB / 96B,0B / 77.8kB,2.35%,21
Feb 11 22:27:41 ,8c75f7d913ea,janusgraph-memory,8c75f7d913ea,331.26%,706.3MiB / 15.66GiB,6.71kB / 96B,0B / 77.8kB,4.40%,23
Feb 11 22:27:44 ,8c75f7d913ea,janusgraph-memory,8c75f7d913ea,220.12%,738.4MiB / 15.66GiB,7.58kB / 138B,0B / 77.8kB,4.60%,24
Feb 11 22:27:47 ,8c75f7d913ea,janusgraph-memory,8c75f7d913ea,155.64%,113.4MiB / 15.66GiB,7.99kB / 138B,0B / 111kB,0.71%,16
Feb 11 22:27:50 ,8c75f7d913ea,janusgraph-memory,8c75f7d913ea,299.04%,697.7MiB / 15.66GiB,8.06kB / 138B,0B / 111kB,4.35%,21
Feb 11 22:27:53 ,8c75f7d913ea,janusgraph-memory,8c75f7d913ea,113.34%,716.3MiB / 15.66GiB,8.65kB / 138B,0B / 111kB,4.47%,22
Feb 11 22:27:56 ,8c75f7d913ea,janusgraph-memory,8c75f7d913ea,0.11%,716.3MiB / 15.66GiB,8.65kB / 138B,0B / 111kB,4.47%,22
Feb 11 22:27:59 ,8c75f7d913ea,janusgraph-memory,8c75f7d913ea,0.16%,716.3MiB / 15.66GiB,8.65kB / 138B,0B / 111kB,4.47%,22
Feb 11 22:28:02 ,8c75f7d913ea,janusgraph-memory,8c75f7d913ea,0.12%,716.3MiB / 15.66GiB,8.65kB / 138B,0B / 111kB,4.47%,22
Feb 11 22:28:05 ,8c75f7d913ea,janusgraph-memory,8c75f7d913ea,0.11%,716.3MiB / 15.66GiB,8.72kB / 138B,0B / 111kB,4.47%,22
Feb 11 22:28:08 ,8c75f7d913ea,janusgraph-memory,8c75f7d913ea,108.33%,730.6MiB / 15.66GiB,11.6kB / 1.81kB,0B / 111kB,4.55%,40
Feb 11 22:28:11 ,8c75f7d913ea,janusgraph-memory,8c75f7d913ea,143.13%,737.8MiB / 15.66GiB,172kB / 90.5kB,0B / 111kB,4.60%,50
Feb 11 22:28:14 ,8c75f7d913ea,janusgraph-memory,8c75f7d913ea,221.23%,750.9MiB / 15.66GiB,414kB / 225kB,0B / 111kB,4.68%,50
Feb 11 22:28:17 ,8c75f7d913ea,janusgraph-memory,8c75f7d913ea,186.79%,753.7MiB / 15.66GiB,836kB / 462kB,0B / 111kB,4.70%,50
Feb 11 22:28:20 ,8c75f7d913ea,janusgraph-memory,8c75f7d913ea,133.67%,754.4MiB / 15.66GiB,1.38MB / 768kB,0B / 111kB,4.70%,50
Feb 11 22:28:23 ,8c75f7d913ea,janusgraph-memory,8c75f7d913ea,77.43%,751.2MiB / 15.66GiB,2.17MB / 1.22MB,0B / 111kB,4.68%,50
Feb 11 22:28:26 ,8c75f7d913ea,janusgraph-memory,8c75f7d913ea,0.11%,751.5MiB / 15.66GiB,2.66MB / 1.49MB,0B / 111kB,4.69%,50
Feb 11 22:28:29 ,8c75f7d913ea,janusgraph-memory,8c75f7d913ea,0.11%,751.5MiB / 15.66GiB,2.66MB / 1.49MB,0B / 111kB,4.69%,50
Feb 11 22:28:32 ,8c75f7d913ea,janusgraph-memory,8c75f7d913ea,0.11%,751.5MiB / 15.66GiB,2.66MB / 1.49MB,0B / 111kB,4.69%,50
Feb 11 22:28:35 ,8c75f7d913ea,janusgraph-memory,8c75f7d913ea,0.12%,751.5MiB / 15.66GiB,2.66MB / 1.49MB,0B / 111kB,4.69%,50
Feb 11 22:28:38 ,8c75f7d913ea,janusgraph-memory,8c75f7d913ea,0.88%,751.5MiB / 15.66GiB,2.66MB / 1.49MB,0B / 111kB,4.69%,50
Feb 11 22:28:41 ,8c75f7d913ea,janusgraph-memory,8c75f7d913ea,2.33%,751.5MiB / 15.66GiB,2.66MB / 1.49MB,0B / 111kB,4.69%,50
Feb 11 22:28:44 ,8c75f7d913ea,janusgraph-memory,8c75f7d913ea,3.27%,751.5MiB / 15.66GiB,2.66MB / 1.49MB,0B / 111kB,4.69%,50
Feb 11 22:28:50 ,d557a4b68a00,janusgraph-memory,d557a4b68a00,300.28%,418.5MiB / 15.66GiB,3.25kB / 96B,0B / 77.8kB,2.61%,21
Feb 11 22:28:53 ,d557a4b68a00,janusgraph-memory,d557a4b68a00,325.91%,697.7MiB / 15.66GiB,6.6kB / 96B,0B / 77.8kB,4.35%,22
Feb 11 22:28:56 ,d557a4b68a00,janusgraph-memory,d557a4b68a00,320.42%,758.6MiB / 15.66GiB,7.47kB / 138B,0B / 77.8kB,4.73%,23
Feb 11 22:28:59 ,d557a4b68a00,janusgraph-memory,d557a4b68a00,223.63%,158.3MiB / 15.66GiB,7.88kB / 138B,0B / 111kB,0.99%,19
Feb 11 22:29:02 ,d557a4b68a00,janusgraph-memory,d557a4b68a00,279.91%,713.4MiB / 15.66GiB,7.88kB / 138B,0B / 111kB,4.45%,21
Feb 11 22:29:05 ,d557a4b68a00,janusgraph-memory,d557a4b68a00,0.41%,731.9MiB / 15.66GiB,8.54kB / 138B,0B / 111kB,4.56%,22
Feb 11 22:29:08 ,d557a4b68a00,janusgraph-memory,d557a4b68a00,0.11%,731.8MiB / 15.66GiB,8.54kB / 138B,0B / 111kB,4.56%,22
Feb 11 22:29:11 ,d557a4b68a00,janusgraph-memory,d557a4b68a00,0.10%,721.4MiB / 15.66GiB,8.54kB / 138B,0B / 111kB,4.50%,22
Feb 11 22:29:14 ,d557a4b68a00,janusgraph-memory,d557a4b68a00,0.10%,721.4MiB / 15.66GiB,8.54kB / 138B,0B / 111kB,4.50%,22
Feb 11 22:29:17 ,d557a4b68a00,janusgraph-memory,d557a4b68a00,0.10%,721.4MiB / 15.66GiB,8.54kB / 138B,0B / 111kB,4.50%,22
Feb 11 22:29:20 ,d557a4b68a00,janusgraph-memory,d557a4b68a00,142.38%,737.4MiB / 15.66GiB,27.2kB / 10.6kB,0B / 111kB,4.60%,47
Feb 11 22:29:23 ,d557a4b68a00,janusgraph-memory,d557a4b68a00,225.33%,744.4MiB / 15.66GiB,219kB / 117kB,0B / 111kB,4.64%,47
Feb 11 22:29:26 ,d557a4b68a00,janusgraph-memory,d557a4b68a00,225.12%,755.1MiB / 15.66GiB,538kB / 296kB,0B / 111kB,4.71%,47
Feb 11 22:29:29 ,d557a4b68a00,janusgraph-memory,d557a4b68a00,222.33%,762MiB / 15.66GiB,1.13MB / 628kB,0B / 111kB,4.75%,47
Feb 11 22:29:32 ,d557a4b68a00,janusgraph-memory,d557a4b68a00,206.73%,767.8MiB / 15.66GiB,1.8MB / 1.01MB,0B / 111kB,4.79%,47
Feb 11 22:29:35 ,d557a4b68a00,janusgraph-memory,d557a4b68a00,62.52%,767.3MiB / 15.66GiB,2.66MB / 1.49MB,0B / 111kB,4.78%,47
Feb 11 22:29:38 ,d557a4b68a00,janusgraph-memory,d557a4b68a00,0.09%,767.3MiB / 15.66GiB,2.66MB / 1.49MB,0B / 111kB,4.78%,47
Feb 11 22:29:41 ,d557a4b68a00,janusgraph-memory,d557a4b68a00,0.11%,767.3MiB / 15.66GiB,2.66MB / 1.49MB,0B / 111kB,4.78%,47
Feb 11 22:29:44 ,d557a4b68a00,janusgraph-memory,d557a4b68a00,0.11%,767.3MiB / 15.66GiB,2.66MB / 1.49MB,0B / 111kB,4.78%,47
Feb 11 22:29:47 ,d557a4b68a00,janusgraph-memory,d557a4b68a00,0.10%,767.3MiB / 15.66GiB,2.66MB / 1.49MB,0B / 111kB,4.78%,47
Feb 11 22:29:50 ,d557a4b68a00,janusgraph-memory,d557a4b68a00,5.07%,767.3MiB / 15.66GiB,2.66MB / 1.49MB,0B / 111kB,4.78%,47
Feb 11 22:29:53 ,d557a4b68a00,janusgraph-memory,d557a4b68a00,1.94%,767.3MiB / 15.66GiB,2.66MB / 1.49MB,0B / 111kB,4.78%,47
Feb 11 22:29:56 ,d557a4b68a00,janusgraph-memory,d557a4b68a00,7.21%,767.5MiB / 15.66GiB,2.66MB / 1.49MB,0B / 111kB,4.79%,47
Feb 11 22:29:58 ,d557a4b68a00,janusgraph-memory,d557a4b68a00,0.00%,0B / 0B,0B / 0B,0B / 0B,0.00%,0
Feb 11 22:30:02 ,f8a785458344,janusgraph-memory,f8a785458344,307.18%,399MiB / 15.66GiB,4.71kB / 96B,0B / 77.8kB,2.49%,21
Feb 11 22:30:05 ,f8a785458344,janusgraph-memory,f8a785458344,330.70%,707MiB / 15.66GiB,7.1kB / 96B,0B / 77.8kB,4.41%,22
Feb 11 22:30:08 ,f8a785458344,janusgraph-memory,f8a785458344,307.09%,758.5MiB / 15.66GiB,7.6kB / 138B,0B / 77.8kB,4.73%,23
Feb 11 22:30:11 ,f8a785458344,janusgraph-memory,f8a785458344,234.92%,152.1MiB / 15.66GiB,7.8kB / 138B,0B / 111kB,0.95%,19
Feb 11 22:30:14 ,f8a785458344,janusgraph-memory,f8a785458344,277.92%,713.8MiB / 15.66GiB,7.87kB / 138B,0B / 111kB,4.45%,21
Feb 11 22:30:17 ,f8a785458344,janusgraph-memory,f8a785458344,0.41%,731.3MiB / 15.66GiB,8.46kB / 138B,0B / 111kB,4.56%,22
Feb 11 22:30:20 ,f8a785458344,janusgraph-memory,f8a785458344,0.11%,731.3MiB / 15.66GiB,8.46kB / 138B,0B / 111kB,4.56%,22
Feb 11 22:30:23 ,f8a785458344,janusgraph-memory,f8a785458344,0.10%,713.3MiB / 15.66GiB,8.46kB / 138B,0B / 111kB,4.45%,22
Feb 11 22:30:26 ,f8a785458344,janusgraph-memory,f8a785458344,0.10%,713.3MiB / 15.66GiB,8.46kB / 138B,0B / 111kB,4.45%,22
Feb 11 22:30:29 ,f8a785458344,janusgraph-memory,f8a785458344,0.10%,713.3MiB / 15.66GiB,8.53kB / 138B,0B / 111kB,4.45%,22
Feb 11 22:30:32 ,f8a785458344,janusgraph-memory,f8a785458344,141.55%,727.6MiB / 15.66GiB,23kB / 7.95kB,0B / 111kB,4.54%,50
Feb 11 22:30:35 ,f8a785458344,janusgraph-memory,f8a785458344,201.61%,741.4MiB / 15.66GiB,210kB / 112kB,0B / 111kB,4.62%,50
Feb 11 22:30:38 ,f8a785458344,janusgraph-memory,f8a785458344,225.48%,752.2MiB / 15.66GiB,510kB / 280kB,0B / 111kB,4.69%,50
Feb 11 22:30:41 ,f8a785458344,janusgraph-memory,f8a785458344,209.91%,758MiB / 15.66GiB,1.04MB / 579kB,0B / 111kB,4.73%,50
Feb 11 22:30:44 ,f8a785458344,janusgraph-memory,f8a785458344,98.22%,758.4MiB / 15.66GiB,1.74MB / 972kB,0B / 111kB,4.73%,50
Feb 11 22:30:47 ,f8a785458344,janusgraph-memory,f8a785458344,61.38%,755.6MiB / 15.66GiB,2.66MB / 1.49MB,0B / 111kB,4.71%,50
Feb 11 22:30:50 ,f8a785458344,janusgraph-memory,f8a785458344,0.11%,755.6MiB / 15.66GiB,2.66MB / 1.49MB,0B / 111kB,4.71%,50
Feb 11 22:30:53 ,f8a785458344,janusgraph-memory,f8a785458344,0.10%,755.6MiB / 15.66GiB,2.66MB / 1.49MB,0B / 111kB,4.71%,50
Feb 11 22:30:56 ,f8a785458344,janusgraph-memory,f8a785458344,0.10%,755.6MiB / 15.66GiB,2.66MB / 1.49MB,0B / 111kB,4.71%,50
Feb 11 22:30:59 ,f8a785458344,janusgraph-memory,f8a785458344,0.10%,755.6MiB / 15.66GiB,2.66MB / 1.49MB,0B / 111kB,4.71%,50
Feb 11 22:31:02 ,f8a785458344,janusgraph-memory,f8a785458344,3.55%,755.6MiB / 15.66GiB,2.66MB / 1.49MB,0B / 111kB,4.71%,50
Feb 11 22:31:05 ,f8a785458344,janusgraph-memory,f8a785458344,2.38%,755.6MiB / 15.66GiB,2.66MB / 1.49MB,0B / 111kB,4.71%,50
Feb 11 22:31:08 ,f8a785458344,janusgraph-memory,f8a785458344,4.80%,755.6MiB / 15.66GiB,2.66MB / 1.49MB,0B / 111kB,4.71%,50
Feb 11 22:31:10 ,f8a785458344,janusgraph-memory,f8a785458344,0.00%,0B / 0B,0B / 0B,0B / 0B,0.00%,0
Feb 11 22:31:14 ,5293f3735238,janusgraph-memory,5293f3735238,284.92%,424.2MiB / 15.66GiB,4.89kB / 96B,0B / 77.8kB,2.64%,21
Feb 11 22:31:17 ,5293f3735238,janusgraph-memory,5293f3735238,335.47%,699.8MiB / 15.66GiB,6.96kB / 96B,0B / 77.8kB,4.36%,22
Feb 11 22:31:20 ,5293f3735238,janusgraph-memory,5293f3735238,312.16%,756.1MiB / 15.66GiB,7.66kB / 138B,0B / 77.8kB,4.71%,23
Feb 11 22:31:23 ,5293f3735238,janusgraph-memory,5293f3735238,233.60%,182.4MiB / 15.66GiB,7.87kB / 138B,0B / 111kB,1.14%,19
Feb 11 22:31:26 ,5293f3735238,janusgraph-memory,5293f3735238,269.40%,702.4MiB / 15.66GiB,7.93kB / 138B,0B / 111kB,4.38%,21
Feb 11 22:31:29 ,5293f3735238,janusgraph-memory,5293f3735238,0.43%,721.4MiB / 15.66GiB,8.52kB / 138B,0B / 111kB,4.50%,22
Feb 11 22:31:32 ,5293f3735238,janusgraph-memory,5293f3735238,0.10%,721.4MiB / 15.66GiB,8.52kB / 138B,0B / 111kB,4.50%,22
Feb 11 22:31:35 ,5293f3735238,janusgraph-memory,5293f3735238,0.09%,716.1MiB / 15.66GiB,8.52kB / 138B,0B / 111kB,4.46%,22
Feb 11 22:31:38 ,5293f3735238,janusgraph-memory,5293f3735238,0.10%,716.1MiB / 15.66GiB,8.52kB / 138B,0B / 111kB,4.46%,22
Feb 11 22:31:41 ,5293f3735238,janusgraph-memory,5293f3735238,0.10%,716.1MiB / 15.66GiB,8.52kB / 138B,0B / 111kB,4.46%,22
Feb 11 22:31:44 ,5293f3735238,janusgraph-memory,5293f3735238,148.05%,730.1MiB / 15.66GiB,25kB / 8.99kB,0B / 111kB,4.55%,53
Feb 11 22:31:47 ,5293f3735238,janusgraph-memory,5293f3735238,193.36%,737.5MiB / 15.66GiB,220kB / 118kB,0B / 111kB,4.60%,53
Feb 11 22:31:50 ,5293f3735238,janusgraph-memory,5293f3735238,245.95%,744.5MiB / 15.66GiB,521kB / 285kB,0B / 111kB,4.64%,53
Feb 11 22:31:53 ,5293f3735238,janusgraph-memory,5293f3735238,208.73%,756.3MiB / 15.66GiB,1.09MB / 605kB,0B / 111kB,4.72%,53
Feb 11 22:31:56 ,5293f3735238,janusgraph-memory,5293f3735238,115.68%,756.5MiB / 15.66GiB,1.76MB / 984kB,0B / 111kB,4.72%,53
Feb 11 22:31:59 ,5293f3735238,janusgraph-memory,5293f3735238,63.68%,759.2MiB / 15.66GiB,2.66MB / 1.49MB,0B / 111kB,4.73%,53
Feb 11 22:32:02 ,5293f3735238,janusgraph-memory,5293f3735238,0.11%,759.2MiB / 15.66GiB,2.66MB / 1.49MB,0B / 111kB,4.73%,53
Feb 11 22:32:05 ,5293f3735238,janusgraph-memory,5293f3735238,0.10%,751.2MiB / 15.66GiB,2.66MB / 1.49MB,0B / 111kB,4.68%,53
Feb 11 22:32:08 ,5293f3735238,janusgraph-memory,5293f3735238,0.09%,751.2MiB / 15.66GiB,2.66MB / 1.49MB,0B / 111kB,4.68%,53
Feb 11 22:32:11 ,5293f3735238,janusgraph-memory,5293f3735238,0.11%,751.2MiB / 15.66GiB,2.66MB / 1.49MB,0B / 111kB,4.68%,53
Feb 11 22:32:14 ,5293f3735238,janusgraph-memory,5293f3735238,2.34%,751.2MiB / 15.66GiB,2.66MB / 1.49MB,0B / 111kB,4.68%,53
Feb 11 22:32:17 ,5293f3735238,janusgraph-memory,5293f3735238,2.21%,751.2MiB / 15.66GiB,2.66MB / 1.49MB,0B / 111kB,4.68%,53
Feb 11 22:32:20 ,5293f3735238,janusgraph-memory,5293f3735238,5.26%,751.2MiB / 15.66GiB,2.66MB / 1.49MB,0B / 111kB,4.68%,53
Feb 11 22:32:22 ,5293f3735238,janusgraph-memory,5293f3735238,0.00%,0B / 0B,0B / 0B,0B / 0B,0.00%,0
Feb 11 22:32:26 ,86b781c4d5f8,janusgraph-memory,86b781c4d5f8,296.03%,408.6MiB / 15.66GiB,5.01kB / 96B,0B / 77.8kB,2.55%,21
Feb 11 22:32:29 ,86b781c4d5f8,janusgraph-memory,86b781c4d5f8,330.84%,706.5MiB / 15.66GiB,6.71kB / 96B,0B / 77.8kB,4.40%,22
Feb 11 22:32:32 ,86b781c4d5f8,janusgraph-memory,86b781c4d5f8,288.12%,763.7MiB / 15.66GiB,7.58kB / 138B,0B / 77.8kB,4.76%,23
Feb 11 22:32:35 ,86b781c4d5f8,janusgraph-memory,86b781c4d5f8,234.30%,175.8MiB / 15.66GiB,7.99kB / 138B,0B / 111kB,1.10%,19
Feb 11 22:32:38 ,86b781c4d5f8,janusgraph-memory,86b781c4d5f8,301.78%,706.8MiB / 15.66GiB,7.99kB / 138B,0B / 111kB,4.41%,21
Feb 11 22:32:41 ,86b781c4d5f8,janusgraph-memory,86b781c4d5f8,0.41%,723.1MiB / 15.66GiB,8.65kB / 138B,0B / 111kB,4.51%,22
Feb 11 22:32:44 ,86b781c4d5f8,janusgraph-memory,86b781c4d5f8,0.11%,723.1MiB / 15.66GiB,8.65kB / 138B,0B / 111kB,4.51%,22
Feb 11 22:32:47 ,86b781c4d5f8,janusgraph-memory,86b781c4d5f8,0.09%,723.1MiB / 15.66GiB,8.65kB / 138B,0B / 111kB,4.51%,22
Feb 11 22:32:50 ,86b781c4d5f8,janusgraph-memory,86b781c4d5f8,0.11%,723.1MiB / 15.66GiB,8.65kB / 138B,0B / 111kB,4.51%,22
Feb 11 22:32:53 ,86b781c4d5f8,janusgraph-memory,86b781c4d5f8,0.11%,723.1MiB / 15.66GiB,8.65kB / 138B,0B / 111kB,4.51%,22
Feb 11 22:32:56 ,86b781c4d5f8,janusgraph-memory,86b781c4d5f8,148.74%,737.2MiB / 15.66GiB,24kB / 8.54kB,0B / 111kB,4.60%,50
Feb 11 22:32:59 ,86b781c4d5f8,janusgraph-memory,86b781c4d5f8,193.89%,745.2MiB / 15.66GiB,209kB / 112kB,0B / 111kB,4.65%,50
Feb 11 22:33:02 ,86b781c4d5f8,janusgraph-memory,86b781c4d5f8,243.58%,754.2MiB / 15.66GiB,486kB / 266kB,0B / 111kB,4.70%,50
Feb 11 22:33:05 ,86b781c4d5f8,janusgraph-memory,86b781c4d5f8,186.99%,755.3MiB / 15.66GiB,1.02MB / 563kB,0B / 111kB,4.71%,50
Feb 11 22:33:08 ,86b781c4d5f8,janusgraph-memory,86b781c4d5f8,120.48%,756.2MiB / 15.66GiB,1.78MB / 992kB,0B / 111kB,4.71%,50
Feb 11 22:33:11 ,86b781c4d5f8,janusgraph-memory,86b781c4d5f8,98.54%,753MiB / 15.66GiB,2.66MB / 1.49MB,0B / 111kB,4.69%,50
Feb 11 22:33:14 ,86b781c4d5f8,janusgraph-memory,86b781c4d5f8,0.12%,753MiB / 15.66GiB,2.66MB / 1.49MB,0B / 111kB,4.69%,50
Feb 11 22:33:17 ,86b781c4d5f8,janusgraph-memory,86b781c4d5f8,0.12%,753MiB / 15.66GiB,2.66MB / 1.49MB,0B / 111kB,4.69%,50
Feb 11 22:33:20 ,86b781c4d5f8,janusgraph-memory,86b781c4d5f8,0.12%,753MiB / 15.66GiB,2.66MB / 1.49MB,0B / 111kB,4.69%,50
Feb 11 22:33:23 ,86b781c4d5f8,janusgraph-memory,86b781c4d5f8,0.10%,753MiB / 15.66GiB,2.66MB / 1.49MB,0B / 111kB,4.69%,50
Feb 11 22:33:26 ,86b781c4d5f8,janusgraph-memory,86b781c4d5f8,1.21%,753MiB / 15.66GiB,2.66MB / 1.49MB,0B / 111kB,4.69%,50
Feb 11 22:33:29 ,86b781c4d5f8,janusgraph-memory,86b781c4d5f8,2.17%,753MiB / 15.66GiB,2.66MB / 1.49MB,0B / 111kB,4.69%,50
Feb 11 22:33:32 ,86b781c4d5f8,janusgraph-memory,86b781c4d5f8,4.82%,753MiB / 15.66GiB,2.66MB / 1.49MB,0B / 111kB,4.69%,50
Feb 11 22:33:38 ,1978b89d7961,janusgraph-memory,1978b89d7961,275.36%,342.8MiB / 15.66GiB,4.8kB / 96B,0B / 77.8kB,2.14%,21
Feb 11 22:33:41 ,1978b89d7961,janusgraph-memory,1978b89d7961,256.46%,696.9MiB / 15.66GiB,6.71kB / 96B,0B / 77.8kB,4.35%,21
Feb 11 22:33:44 ,1978b89d7961,janusgraph-memory,1978b89d7961,284.90%,759.6MiB / 15.66GiB,7.78kB / 138B,0B / 77.8kB,4.74%,24
Feb 11 22:33:47 ,1978b89d7961,janusgraph-memory,1978b89d7961,28.82%,29.79MiB / 15.66GiB,7.99kB / 138B,0B / 111kB,0.19%,16
Feb 11 22:33:50 ,1978b89d7961,janusgraph-memory,1978b89d7961,267.31%,498.3MiB / 15.66GiB,8.06kB / 138B,0B / 111kB,3.11%,21
Feb 11 22:33:53 ,1978b89d7961,janusgraph-memory,1978b89d7961,186.39%,716.9MiB / 15.66GiB,8.65kB / 138B,0B / 111kB,4.47%,22
Feb 11 22:33:56 ,1978b89d7961,janusgraph-memory,1978b89d7961,0.10%,716.8MiB / 15.66GiB,8.65kB / 138B,0B / 111kB,4.47%,22
Feb 11 22:33:59 ,1978b89d7961,janusgraph-memory,1978b89d7961,0.16%,712.2MiB / 15.66GiB,8.65kB / 138B,0B / 111kB,4.44%,22
Feb 11 22:34:02 ,1978b89d7961,janusgraph-memory,1978b89d7961,0.11%,712.2MiB / 15.66GiB,8.65kB / 138B,0B / 111kB,4.44%,22
Feb 11 22:34:05 ,1978b89d7961,janusgraph-memory,1978b89d7961,0.11%,712.2MiB / 15.66GiB,8.72kB / 138B,0B / 111kB,4.44%,22
Feb 11 22:34:08 ,1978b89d7961,janusgraph-memory,1978b89d7961,134.59%,727.6MiB / 15.66GiB,22.9kB / 7.6kB,0B / 111kB,4.54%,50
Feb 11 22:34:11 ,1978b89d7961,janusgraph-memory,1978b89d7961,180.41%,737.5MiB / 15.66GiB,214kB / 112kB,0B / 111kB,4.60%,50
Feb 11 22:34:14 ,1978b89d7961,janusgraph-memory,1978b89d7961,246.90%,744.8MiB / 15.66GiB,475kB / 254kB,0B / 111kB,4.64%,50
Feb 11 22:34:17 ,1978b89d7961,janusgraph-memory,1978b89d7961,188.84%,748.5MiB / 15.66GiB,937kB / 509kB,0B / 111kB,4.67%,50
Feb 11 22:34:20 ,1978b89d7961,janusgraph-memory,1978b89d7961,127.59%,747.4MiB / 15.66GiB,1.54MB / 843kB,0B / 111kB,4.66%,50
Feb 11 22:34:23 ,1978b89d7961,janusgraph-memory,1978b89d7961,68.92%,747.8MiB / 15.66GiB,2.4MB / 1.31MB,0B / 111kB,4.66%,50
Feb 11 22:34:26 ,1978b89d7961,janusgraph-memory,1978b89d7961,0.10%,747.9MiB / 15.66GiB,2.66MB / 1.46MB,0B / 111kB,4.66%,50
Feb 11 22:34:29 ,1978b89d7961,janusgraph-memory,1978b89d7961,0.16%,747.9MiB / 15.66GiB,2.66MB / 1.46MB,0B / 111kB,4.66%,50
Feb 11 22:34:32 ,1978b89d7961,janusgraph-memory,1978b89d7961,0.12%,747.9MiB / 15.66GiB,2.66MB / 1.46MB,0B / 111kB,4.66%,50
Feb 11 22:34:35 ,1978b89d7961,janusgraph-memory,1978b89d7961,0.10%,747.9MiB / 15.66GiB,2.66MB / 1.46MB,0B / 111kB,4.66%,50
Feb 11 22:34:38 ,1978b89d7961,janusgraph-memory,1978b89d7961,6.28%,747.9MiB / 15.66GiB,2.66MB / 1.46MB,0B / 111kB,4.66%,50
Feb 11 22:34:41 ,1978b89d7961,janusgraph-memory,1978b89d7961,2.50%,747.9MiB / 15.66GiB,2.66MB / 1.46MB,0B / 111kB,4.66%,50
Feb 11 22:34:44 ,1978b89d7961,janusgraph-memory,1978b89d7961,4.00%,747.9MiB / 15.66GiB,2.66MB / 1.46MB,0B / 111kB,4.66%,50
Feb 11 22:34:46 ,1978b89d7961,janusgraph-memory,1978b89d7961,0.00%,0B / 0B,0B / 0B,0B / 0B,0.00%,0
