elapsedWallClockMillis,totalMemoryBytes
17,6371944
1187,10828328
2203,11301216
3239,11698912
4290,11835712
5342,11961920
6388,12088512
7435,12212464
8483,12340864
9529,12481880
10582,12607224
11629,12732888
12652,14007088
13716,14131744
14756,14846240
15811,14918480
16847,15033056
17883,15184728
18916,15327200
19962,15479184
21011,15641520
22060,15820344
23115,17001176
24187,17819408
25255,17964152
26290,18095000
27344,18231560
28414,18366152
29446,18497584
30478,18631992
31513,18758688
32546,18889488
33581,19017968
34614,19146224
35654,21240400
36749,21395560
37787,21548912
38870,21707432
39934,21885056
41029,22059216
42115,22231912
43207,22387176
44246,22518616
45312,22655320
46366,24553144
47430,24726096
48469,24888656
49510,25058968
50613,25212088
51710,25343744
52760,25489864
53809,25628256
54858,25759904
55911,25891560
56986,26019760
58070,26147936
59147,26275088
60211,26403568
61302,28089720
62420,29111136
63467,29268728
64515,29424504
65563,29596664
66610,29772920
67721,29952424
68847,30130848
69964,30310016
71080,30491736
72203,33117368
73307,33033456
74408,33213720
75524,33398520
76634,33576992
77725,33764392
78789,33933592
79913,34116512
81032,34294008
82123,35634696
83194,36519888
84293,36670008
85350,36811104
86405,36942192
87463,37078248
88550,37206456
89651,37340584
90783,37471224
91841,37599272
92902,37728480
93993,37858592
95090,39802520
96201,39963472
97285,40136824
98345,40312864
99406,40494200
100466,40676808
101583,40854072
102644,41018840
103731,41167872
104793,41312136
105933,43265000
107038,43409144
108128,43536592
109222,43668160
110286,43796136
111351,43925280
112464,44053312
113529,44181304
114595,44312712
115693,44476416
116775,46030048
117844,46191120
118914,46326040
119983,46480224
121051,46642408
122140,46824800
123267,46999760
124336,47182344
125407,47364088
126477,47541368
127622,51940840
128721,52095608
129796,52247872
130868,52417048
131945,52581584
133069,52761128
134170,52930744
135295,53106120
136369,53268544
137483,53447384
138558,55494424
139669,55663408
140757,55843640
141848,56023712
142971,56201664
144109,56386488
145211,56560720
146303,56739760
147423,56903920
148542,57055200
149642,59201784
150759,59381480
151855,59558480
152955,59736040
154091,59911216
155199,60079000
156284,60228728
157368,60367016
158474,60506928
159626,60644216
160731,62576376
161833,62754152
162932,62929888
164038,63109360
165174,63288288
166262,63471968
167349,63637520
168438,63804024
169536,63962288
170625,64094056
171724,66109704
172818,66255992
173972,66386328
175120,66526472
176214,66654496
177304,66783296
178396,66915136
179504,67042576
180616,67180512
181734,68697968
182830,68866272
183927,69015536
185050,69154680
186166,69290344
187316,69435744
188459,69564960
189555,69696368
190653,69823656
191764,69951976
192904,71550680
194022,71702104
195122,71861208
196223,72014336
197330,72145736
198443,72281376
199543,72424768
200642,72555872
201741,72689448
202903,72817240
204002,72947560
205155,74761896
206270,74895440
207427,75037464
208530,75194056
209634,75327008
210740,75467664
211859,75620384
212963,75754664
214117,75892128
215258,77422056
216358,77561512
217525,77692656
218626,77820960
219728,77962664
220891,78115864
221987,78285632
223114,78459656
224260,78630192
225370,80268456
226505,80459352
227606,80635056
228711,80818312
229814,80995024
230948,81173344
232109,81348448
233212,81529184
234316,81712816
235478,86874904
236585,87054672
237693,87233400
238803,87406672
239913,87585736
241056,87763592
242165,87945944
243276,88126544
244391,88310952
245573,90306632
246685,90488504
247797,90674800
248909,90851768
250077,91023920
251246,91173024
252357,91299256
253539,91441000
254652,91572904
255772,93348432
256914,93487552
258076,93615464
259253,93746984
260438,93875536
261556,94007528
262669,94150040
263785,94315832
264906,94459448
266096,95941176
267272,96089480
268391,96222440
269508,96362904
270625,96497552
271811,96629688
272933,96761768
274054,96893152
275222,97024776
276364,98522824
277489,98677232
278642,98808472
279807,98941008
280932,99082984
282055,99214752
283178,99350312
284299,99477520
285421,99605576
286550,101127664
287674,101266112
288802,101429016
289989,101603944
291119,101786952
292287,101964336
293485,102142576
294612,102323592
295729,102500688
296914,104391848
298102,104582088
299221,104766832
300426,104937128
301597,105111600
302776,105287920
303897,105468664
305017,105641512
306140,105797528
307289,107737368
308411,107876968
309531,108008264
310680,108136472
311801,108264752
312925,108393616
314091,108521752
315273,108649344
316456,108778184
317582,108906000
318735,110435280
319859,110601080
320987,110761224
322129,110896856
323307,111030192
324431,111159664
325557,111315560
326685,111479504
327837,111657824
328989,113375096
330117,113568472
331245,113743344
332415,113926512
333544,114105040
334669,114276240
335846,114442504
337039,114582808
338228,114718032
339386,116584392
340595,116722696
341728,116850024
342862,116977656
344039,117104880
345233,117233496
346367,117360960
347521,117498368
348655,117640264
349795,119051928
350932,119221584
352066,119393816
353250,119573024
354386,119744128
355574,119919872
356709,120109464
357845,120282520
358982,120453416
360145,122413224
361303,122550696
362507,122678240
363646,122829848
364787,122990952
365966,123159584
367168,123337712
368310,123511120
369514,123695976
370663,125444512
371805,125622992
372966,125795552
374126,125978656
375317,126157240
376462,126339896
377607,126518280
378752,126701808
379898,126872088
381068,128835128
382274,129001776
383422,129171104
384595,129344800
385740,129516512
386888,129687632
388090,129829936
389295,129957768
390496,130086072
391649,131767240
392797,131922880
394000,132081896
395172,132250352
396323,132426240
397472,132581456
398686,132709768
399836,132840680
401041,132988592
402276,134627928
403428,134765032
404640,134896336
405861,135024632
407014,135152944
408224,135281856
409439,135434088
410593,135594440
411746,135740424
412922,137259432
414136,137406792
415290,137536952
416500,137677600
417656,137808600
418872,137937448
420074,138069168
421229,138197400
422386,138341992
423574,139848088
424789,139987784
425950,140154224
427193,140339344
428354,140521496
429513,140700296
430672,140880992
431832,141057344
433053,141238760
434263,143160808
435427,143336376
436589,143512040
437752,143689488
438918,143863800
440085,144042928
441249,144222392
442414,144400536
443576,144579952
444750,146560496
445918,146736928
447128,146915840
448294,147102856
449458,147275520
450625,147439824
451791,147587112
453022,147715872
454190,147851184
455355,147978688
456546,149904736
457715,150047184
458940,150177472
460177,150308672
461344,150435824
462572,150567752
463809,150727456
464981,150890776
466205,151069760
467449,152627160
468622,152799944
469794,152962416
471031,153101416
472266,153229648
473439,153361872
474677,153510992
475850,153676720
477027,153851432
478245,158748944
479425,158902984
480603,159043968
481844,159184992
483024,159319272
484261,159448720
485501,159577232
486678,159704568
487857,159832536
489037,159961088
490272,160089880
491457,161926784
492638,162101336
493817,162270144
494999,162445520
496242,162623744
497424,162795304
498660,162968032
499912,163137472
501091,163318976
502282,165228808
503525,165412296
504709,165597784
505894,165767744
507094,165940672
508337,166089048
509578,166238400
510827,166393936
512016,166556576
513225,168395176
514413,168584032
515600,168762824
516787,168943360
517978,169119928
519164,169301056
520408,169481144
521596,169654832
522786,169828648
523986,171808648
525204,171984624
526459,172163536
527651,172348352
528844,172520752
530040,172684952
531285,172821512
532542,172949048
533735,173077448
534929,173205568
536120,173333936
537313,173462304
538503,173590144
539696,173719944
540891,173849200
542110,176489680
543369,176654680
544565,176803904
545761,176938992
547018,177073768
548211,177221104
549408,177352256
550604,177490792
551799,177618120
553026,179043888
554224,179191848
555419,179325424
556619,179488208
557820,179670040
559021,179848704
560278,180016088
561544,180173936
562745,180315336
563971,182080936
565242,182247400
566445,182409928
567644,182583808
568843,182761704
570049,182938672
571307,183109504
572511,183291128
573715,183464936
574929,185295024
576195,185469176
577402,185636640
578608,185789768
579813,185917560
581022,186063720
582228,186201168
583434,186339080
584642,186468056
585849,186595904
587066,188404592
588273,188544152
589482,188688328
590691,188867008
591904,189045808
593110,189228632
594386,189395328
595595,189562160
596806,189742032
598014,191534472
599282,191721448
600492,191907600
601703,192087384
602921,192271960
604133,192446552
605343,192614080
606558,192765536
607771,192894536
608988,194820224
610265,194988776
611480,195159848
612699,195330280
613921,195470872
615196,195621336
616475,195782896
617692,195956288
618915,196135440
620135,197885192
621408,198072840
622652,198249504
623872,198427280
625151,198607560
626400,198781712
627619,198963888
628841,199135000
630099,199315736
631316,201316800
632535,201492696
633791,201645928
635076,201784296
636300,201915216
637531,202043496
638807,202183440
640034,202314216
641314,202446248
642536,202575760
643760,202704048
644997,204564224
646219,204697768
647507,204854080
648803,204995288
650031,205130824
651317,205270384
652545,205418848
653773,205552488
654992,206889208
656220,207025256
657450,207159272
658681,207290464
659912,207428392
661142,207600432
662374,207774032
663605,207948368
664837,208140752
666081,209903208
667375,210068128
668610,210227696
669840,210390912
671077,210572928
672309,210753376
673541,210947208
674780,211121376
676084,213016608
677391,213216952
678692,213397512
679931,213581408
681217,213750648
682453,213928000
683742,214081136
685045,214210320
686340,214337848
687636,214466368
688868,214594560
690109,214723344
691404,214850656
692661,214980064
693901,215109152
695200,217646680
696443,217813552
697684,217962848
698997,218119424
700290,218296232
701530,218480544
702802,218657296
704112,218836552
705387,220410376
706695,220593680
707940,220772672
709241,220951048
710549,221132024
711795,221315936
713043,221495312
714355,221666968
715633,223481032
716880,223667088
718141,223843488
719390,224021928
720638,224200728
721887,224381312
723137,224560536
724467,224736784
725767,226507272
727030,226692984
728281,226874904
729533,227049648
730824,227236736
732136,227408640
733442,227578064
734756,227724720
736062,229464888
737372,229626680
738626,229785832
739882,229962008
741193,230140080
742518,230323080
743775,230511264
745035,230678496
746375,232359272
747632,232552696
748937,232727640
750251,232889376
751510,233037328
752766,233170072
754085,233306160
755406,233457936
756728,235047368
757988,235225696
759267,235401360
760524,235549688
761782,235684472
763046,235821688
764305,235982040
765634,236099200
766495,236074024
