elapsedWallClockMillis,totalMemoryBytes
8,1218720
1105,1612768
2114,1615648
3124,1615808
4141,1616184
5153,1609688
6165,1610952
7177,1612072
8195,1612208
9203,1611312
10216,1611776
11231,1610768
12240,1612360
13256,1611976
14273,1613168
15288,1610936
16305,1613000
17323,1613056
18339,1612400
19353,1612216
20368,1611632
21378,1611584
22389,1612016
23402,1613944
24416,1615064
25432,1613040
26444,1613688
27456,1614544
28476,1613664
29489,1615264
30501,1612968
31514,1613032
32530,1614368
33545,1614096
34559,1612264
35570,1612776
36582,1613136
37593,1613088
38607,1612312
39618,1612448
40627,1613392
41646,1611912
42657,1612896
43677,1613688
44691,1613120
45705,1614544
46725,1614840
47740,1613112
48755,1614008
49766,1613992
50779,1615056
51792,1615384
52802,1615800
53814,1615560
54828,1613464
55843,1614872
56855,1616040
57875,1614056
58888,1615536
59904,1614304
60915,1613712
61929,1615176
62945,1615176
63961,1611176
64980,1614376
65992,1612744
67004,1615832
68021,1614480
69032,1614256
70047,1614760
71062,1614352
72072,1614776
73088,1614176
74101,1615312
75111,1616568
76120,1616088
77135,1616208
78146,1614648
79165,1612080
80177,1616760
81189,1615328
82205,1614640
83219,1614448
84232,1614008
85244,1614792
86267,1615072
87278,1614760
88292,1616408
89303,1614952
90318,1615952
91332,1615640
92347,1614896
93361,1613552
94375,1616008
95393,1615624
96405,1614192
97422,1615680
98436,1614232
99446,1614648
100460,1616984
101473,1618000
102490,1618232
103504,1615840
104519,1616480
105532,1617040
106546,1617872
107557,1616896
108573,1614808
109595,1618240
110606,1618424
111621,1619080
112628,1618336
113639,1616048
114652,1614968
115667,1614408
116681,1617456
117696,1617312
118705,1616848
119717,1618880
120729,1616352
121746,1618696
122761,1614744
123776,1616256
124789,1618440
125805,1617672
126817,1619008
127829,1616080
128845,1617448
129859,1617792
130873,1618000
131889,1618304
132905,1615648
133921,1619952
134933,1618496
135945,1619160
136959,1619632
137975,1620320
138993,1615656
140009,1616520
141031,1618536
142048,1617712
143063,1617032
144075,1621240
145086,1617416
146100,1617568
147114,1619056
148127,1616384
149143,1617976
149508,1610224
