Feb 12 02:00:24 CONTAINER ID   NAME      CPU %     MEM USAGE / LIMIT   MEM %     NET I/O   BLOCK I/O   PIDS
Feb 12 02:00:27 CONTAINER ID   NAME                CPU %     MEM USAGE / LIMIT     MEM %     NET I/O       BLOCK I/O   PIDS
Feb 12 02:00:27 db72f1bb48c7   cdo_repoSystem_1    191.89%   66.88MiB / 15.07GiB   0.43%     3.02kB / 0B   0B / 0B     26
Feb 12 02:00:27 63c26d6ce6e2   cdo_repoHistory_1   187.59%   87.55MiB / 15.07GiB   0.57%     7.16kB / 0B   0B / 0B     30
Feb 12 02:00:31 CONTAINER ID   NAME                CPU %     MEM USAGE / LIMIT     MEM %     NET I/O       BLOCK I/O     PIDS
Feb 12 02:00:31 db72f1bb48c7   cdo_repoSystem_1    74.11%    178.6MiB / 15.07GiB   1.16%     11.3kB / 0B   0B / 1.72MB   38
Feb 12 02:00:31 63c26d6ce6e2   cdo_repoHistory_1   164.31%   147.5MiB / 15.07GiB   0.96%     11kB / 0B     0B / 1.73MB   37
Feb 12 02:00:34 CONTAINER ID   NAME                CPU %     MEM USAGE / LIMIT     MEM %     NET I/O       BLOCK I/O     PIDS
Feb 12 02:00:34 db72f1bb48c7   cdo_repoSystem_1    0.36%     178.6MiB / 15.07GiB   1.16%     12.1kB / 0B   0B / 1.72MB   38
Feb 12 02:00:34 63c26d6ce6e2   cdo_repoHistory_1   0.33%     162.4MiB / 15.07GiB   1.05%     12.5kB / 0B   0B / 1.73MB   38
Feb 12 02:00:38 CONTAINER ID   NAME                CPU %     MEM USAGE / LIMIT     MEM %     NET I/O       BLOCK I/O     PIDS
Feb 12 02:00:38 db72f1bb48c7   cdo_repoSystem_1    0.38%     167.2MiB / 15.07GiB   1.08%     12.3kB / 0B   0B / 1.72MB   33
Feb 12 02:00:38 63c26d6ce6e2   cdo_repoHistory_1   0.67%     150.5MiB / 15.07GiB   0.98%     12.5kB / 0B   0B / 1.73MB   33
Feb 12 02:00:42 CONTAINER ID   NAME                CPU %     MEM USAGE / LIMIT     MEM %     NET I/O       BLOCK I/O     PIDS
Feb 12 02:00:42 db72f1bb48c7   cdo_repoSystem_1    0.36%     167.2MiB / 15.07GiB   1.08%     13kB / 0B     0B / 1.72MB   33
Feb 12 02:00:42 63c26d6ce6e2   cdo_repoHistory_1   0.43%     150.5MiB / 15.07GiB   0.98%     12.8kB / 0B   0B / 1.73MB   33
Feb 12 02:00:45 CONTAINER ID   NAME                CPU %     MEM USAGE / LIMIT     MEM %     NET I/O         BLOCK I/O     PIDS
Feb 12 02:00:45 db72f1bb48c7   cdo_repoSystem_1    70.72%    181.4MiB / 15.07GiB   1.18%     17kB / 2.28kB   0B / 1.72MB   43
Feb 12 02:00:45 63c26d6ce6e2   cdo_repoHistory_1   0.21%     150.5MiB / 15.07GiB   0.98%     13.3kB / 0B     0B / 1.73MB   33
Feb 12 02:00:49 CONTAINER ID   NAME                CPU %     MEM USAGE / LIMIT     MEM %     NET I/O           BLOCK I/O     PIDS
Feb 12 02:00:49 db72f1bb48c7   cdo_repoSystem_1    10.78%    193.9MiB / 15.07GiB   1.26%     33.3kB / 17.8kB   0B / 1.72MB   43
Feb 12 02:00:49 63c26d6ce6e2   cdo_repoHistory_1   0.24%     164.8MiB / 15.07GiB   1.07%     17.6kB / 4.11kB   0B / 1.73MB   44
Feb 12 02:00:53 CONTAINER ID   NAME                CPU %     MEM USAGE / LIMIT     MEM %     NET I/O           BLOCK I/O     PIDS
Feb 12 02:00:53 db72f1bb48c7   cdo_repoSystem_1    3.44%     189.5MiB / 15.07GiB   1.23%     37.8kB / 20kB     0B / 1.72MB   43
Feb 12 02:00:53 63c26d6ce6e2   cdo_repoHistory_1   0.35%     164.8MiB / 15.07GiB   1.07%     17.6kB / 4.11kB   0B / 1.73MB   43
Feb 12 02:00:56 CONTAINER ID   NAME                CPU %     MEM USAGE / LIMIT     MEM %     NET I/O           BLOCK I/O     PIDS
Feb 12 02:00:56 db72f1bb48c7   cdo_repoSystem_1    2.02%     184.3MiB / 15.07GiB   1.19%     44.9kB / 24.2kB   0B / 1.72MB   43
Feb 12 02:00:56 63c26d6ce6e2   cdo_repoHistory_1   0.29%     164.8MiB / 15.07GiB   1.07%     17.7kB / 4.11kB   0B / 1.73MB   43
Feb 12 02:01:00 CONTAINER ID   NAME                CPU %     MEM USAGE / LIMIT     MEM %     NET I/O           BLOCK I/O     PIDS
Feb 12 02:01:00 db72f1bb48c7   cdo_repoSystem_1    5.07%     185.4MiB / 15.07GiB   1.20%     51.7kB / 28.6kB   0B / 1.84MB   43
Feb 12 02:01:00 63c26d6ce6e2   cdo_repoHistory_1   0.35%     187.2MiB / 15.07GiB   1.21%     872kB / 47.9kB    0B / 1.85MB   44
Feb 12 02:01:03 CONTAINER ID   NAME                CPU %     MEM USAGE / LIMIT     MEM %     NET I/O           BLOCK I/O     PIDS
Feb 12 02:01:03 db72f1bb48c7   cdo_repoSystem_1    15.07%    185.7MiB / 15.07GiB   1.20%     58.2kB / 33.9kB   0B / 1.84MB   43
Feb 12 02:01:03 63c26d6ce6e2   cdo_repoHistory_1   0.40%     172MiB / 15.07GiB     1.11%     872kB / 47.9kB    0B / 1.85MB   43
Feb 12 02:01:07 CONTAINER ID   NAME                CPU %     MEM USAGE / LIMIT     MEM %     NET I/O           BLOCK I/O     PIDS
Feb 12 02:01:07 db72f1bb48c7   cdo_repoSystem_1    7.38%     186MiB / 15.07GiB     1.21%     64.8kB / 39.7kB   0B / 1.84MB   43
Feb 12 02:01:07 63c26d6ce6e2   cdo_repoHistory_1   170.94%   225.1MiB / 15.07GiB   1.46%     1.66MB / 100kB    0B / 1.85MB   46
Feb 12 02:01:11 CONTAINER ID   NAME                CPU %     MEM USAGE / LIMIT     MEM %     NET I/O           BLOCK I/O     PIDS
Feb 12 02:01:11 db72f1bb48c7   cdo_repoSystem_1    14.16%    186.5MiB / 15.07GiB   1.21%     76.8kB / 51.7kB   0B / 1.84MB   43
Feb 12 02:01:11 63c26d6ce6e2   cdo_repoHistory_1   0.33%     225.1MiB / 15.07GiB   1.46%     1.66MB / 100kB    0B / 1.85MB   46
Feb 12 02:01:14 CONTAINER ID   NAME                CPU %     MEM USAGE / LIMIT     MEM %     NET I/O           BLOCK I/O     PIDS
Feb 12 02:01:14 db72f1bb48c7   cdo_repoSystem_1    7.64%     186.6MiB / 15.07GiB   1.21%     86.2kB / 60.7kB   0B / 1.84MB   43
Feb 12 02:01:14 63c26d6ce6e2   cdo_repoHistory_1   0.36%     225.1MiB / 15.07GiB   1.46%     1.66MB / 100kB    0B / 1.85MB   45
Feb 12 02:01:18 CONTAINER ID   NAME                CPU %     MEM USAGE / LIMIT     MEM %     NET I/O           BLOCK I/O     PIDS
Feb 12 02:01:18 db72f1bb48c7   cdo_repoSystem_1    6.59%     187MiB / 15.07GiB     1.21%     92.5kB / 66.9kB   0B / 1.84MB   43
Feb 12 02:01:18 63c26d6ce6e2   cdo_repoHistory_1   114.46%   261.5MiB / 15.07GiB   1.69%     2.45MB / 158kB    0B / 1.85MB   46
Feb 12 02:01:22 CONTAINER ID   NAME                CPU %     MEM USAGE / LIMIT     MEM %     NET I/O          BLOCK I/O     PIDS
Feb 12 02:01:22 db72f1bb48c7   cdo_repoSystem_1    4.04%     187.6MiB / 15.07GiB   1.22%     102kB / 74.6kB   0B / 1.84MB   43
Feb 12 02:01:22 63c26d6ce6e2   cdo_repoHistory_1   0.68%     244.1MiB / 15.07GiB   1.58%     2.45MB / 158kB   0B / 1.85MB   45
Feb 12 02:01:25 CONTAINER ID   NAME                CPU %     MEM USAGE / LIMIT     MEM %     NET I/O          BLOCK I/O     PIDS
Feb 12 02:01:25 db72f1bb48c7   cdo_repoSystem_1    3.80%     187.5MiB / 15.07GiB   1.22%     107kB / 77.9kB   0B / 1.84MB   43
Feb 12 02:01:25 63c26d6ce6e2   cdo_repoHistory_1   0.39%     244.1MiB / 15.07GiB   1.58%     2.45MB / 158kB   0B / 1.85MB   45
Feb 12 02:01:29 CONTAINER ID   NAME                CPU %     MEM USAGE / LIMIT     MEM %     NET I/O         BLOCK I/O     PIDS
Feb 12 02:01:29 db72f1bb48c7   cdo_repoSystem_1    1.34%     187.7MiB / 15.07GiB   1.22%     113kB / 81kB    0B / 1.84MB   43
Feb 12 02:01:29 63c26d6ce6e2   cdo_repoHistory_1   155.19%   273.7MiB / 15.07GiB   1.77%     3.2MB / 210kB   0B / 1.85MB   46
Feb 12 02:01:33 CONTAINER ID   NAME                CPU %     MEM USAGE / LIMIT     MEM %     NET I/O          BLOCK I/O     PIDS
Feb 12 02:01:33 db72f1bb48c7   cdo_repoSystem_1    5.77%     187.9MiB / 15.07GiB   1.22%     121kB / 86.2kB   0B / 1.84MB   43
Feb 12 02:01:33 63c26d6ce6e2   cdo_repoHistory_1   0.36%     266.6MiB / 15.07GiB   1.73%     3.2MB / 210kB    0B / 1.85MB   46
Feb 12 02:01:36 CONTAINER ID   NAME                CPU %     MEM USAGE / LIMIT     MEM %     NET I/O          BLOCK I/O     PIDS
Feb 12 02:01:36 db72f1bb48c7   cdo_repoSystem_1    1.15%     187.8MiB / 15.07GiB   1.22%     126kB / 89.9kB   0B / 1.84MB   43
Feb 12 02:01:36 63c26d6ce6e2   cdo_repoHistory_1   0.39%     266.5MiB / 15.07GiB   1.73%     3.2MB / 210kB    0B / 1.85MB   45
Feb 12 02:01:40 CONTAINER ID   NAME                CPU %     MEM USAGE / LIMIT     MEM %     NET I/O          BLOCK I/O     PIDS
Feb 12 02:01:40 db72f1bb48c7   cdo_repoSystem_1    1.32%     189MiB / 15.07GiB     1.22%     131kB / 93.4kB   0B / 1.84MB   43
Feb 12 02:01:40 63c26d6ce6e2   cdo_repoHistory_1   0.40%     307.1MiB / 15.07GiB   1.99%     3.94MB / 270kB   0B / 1.85MB   45
Feb 12 02:01:44 CONTAINER ID   NAME                CPU %     MEM USAGE / LIMIT     MEM %     NET I/O          BLOCK I/O     PIDS
Feb 12 02:01:44 db72f1bb48c7   cdo_repoSystem_1    4.28%     189MiB / 15.07GiB     1.22%     137kB / 96.8kB   0B / 1.84MB   43
Feb 12 02:01:44 63c26d6ce6e2   cdo_repoHistory_1   0.38%     301.9MiB / 15.07GiB   1.96%     3.94MB / 270kB   0B / 1.85MB   45
Feb 12 02:01:47 CONTAINER ID   NAME                CPU %     MEM USAGE / LIMIT     MEM %     NET I/O          BLOCK I/O     PIDS
Feb 12 02:01:47 db72f1bb48c7   cdo_repoSystem_1    5.63%     189.2MiB / 15.07GiB   1.23%     144kB / 103kB    0B / 1.84MB   43
Feb 12 02:01:47 63c26d6ce6e2   cdo_repoHistory_1   0.38%     301.9MiB / 15.07GiB   1.96%     3.94MB / 270kB   0B / 1.85MB   45
Feb 12 02:01:51 CONTAINER ID   NAME                CPU %     MEM USAGE / LIMIT     MEM %     NET I/O         BLOCK I/O     PIDS
Feb 12 02:01:51 db72f1bb48c7   cdo_repoSystem_1    5.60%     189.3MiB / 15.07GiB   1.23%     156kB / 114kB   0B / 1.84MB   43
Feb 12 02:01:51 63c26d6ce6e2   cdo_repoHistory_1   2.83%     312MiB / 15.07GiB     2.02%     4.7MB / 330kB   0B / 1.85MB   45
Feb 12 02:01:54 CONTAINER ID   NAME                CPU %     MEM USAGE / LIMIT     MEM %     NET I/O         BLOCK I/O     PIDS
Feb 12 02:01:54 db72f1bb48c7   cdo_repoSystem_1    3.52%     189.6MiB / 15.07GiB   1.23%     165kB / 123kB   0B / 1.84MB   43
Feb 12 02:01:54 63c26d6ce6e2   cdo_repoHistory_1   0.36%     312MiB / 15.07GiB     2.02%     4.7MB / 330kB   0B / 1.85MB   45
Feb 12 02:01:58 CONTAINER ID   NAME                CPU %     MEM USAGE / LIMIT     MEM %     NET I/O         BLOCK I/O     PIDS
Feb 12 02:01:58 db72f1bb48c7   cdo_repoSystem_1    12.47%    189.8MiB / 15.07GiB   1.23%     175kB / 132kB   0B / 1.84MB   43
Feb 12 02:01:58 63c26d6ce6e2   cdo_repoHistory_1   0.40%     312MiB / 15.07GiB     2.02%     4.7MB / 330kB   0B / 1.85MB   45
Feb 12 02:02:02 CONTAINER ID   NAME                CPU %     MEM USAGE / LIMIT     MEM %     NET I/O          BLOCK I/O     PIDS
Feb 12 02:02:02 db72f1bb48c7   cdo_repoSystem_1    1.46%     189.9MiB / 15.07GiB   1.23%     181kB / 135kB    0B / 1.84MB   43
Feb 12 02:02:02 63c26d6ce6e2   cdo_repoHistory_1   0.35%     334.2MiB / 15.07GiB   2.17%     5.54MB / 401kB   0B / 1.85MB   46
Feb 12 02:02:05 CONTAINER ID   NAME                CPU %     MEM USAGE / LIMIT     MEM %     NET I/O          BLOCK I/O     PIDS
Feb 12 02:02:05 db72f1bb48c7   cdo_repoSystem_1    0.88%     189.8MiB / 15.07GiB   1.23%     188kB / 137kB    0B / 1.84MB   43
Feb 12 02:02:05 63c26d6ce6e2   cdo_repoHistory_1   0.37%     334.2MiB / 15.07GiB   2.17%     5.54MB / 401kB   0B / 1.85MB   45
Feb 12 02:02:09 CONTAINER ID   NAME                CPU %     MEM USAGE / LIMIT     MEM %     NET I/O          BLOCK I/O     PIDS
Feb 12 02:02:09 db72f1bb48c7   cdo_repoSystem_1    2.31%     189.8MiB / 15.07GiB   1.23%     194kB / 140kB    0B / 1.84MB   43
Feb 12 02:02:09 63c26d6ce6e2   cdo_repoHistory_1   0.31%     334.2MiB / 15.07GiB   2.17%     5.54MB / 401kB   0B / 1.85MB   45
Feb 12 02:02:13 CONTAINER ID   NAME                CPU %     MEM USAGE / LIMIT     MEM %     NET I/O          BLOCK I/O     PIDS
Feb 12 02:02:13 db72f1bb48c7   cdo_repoSystem_1    3.35%     189.8MiB / 15.07GiB   1.23%     201kB / 146kB    0B / 1.84MB   43
Feb 12 02:02:13 63c26d6ce6e2   cdo_repoHistory_1   0.31%     335.9MiB / 15.07GiB   2.18%     6.25MB / 456kB   0B / 1.85MB   46
Feb 12 02:02:16 CONTAINER ID   NAME                CPU %     MEM USAGE / LIMIT     MEM %     NET I/O          BLOCK I/O     PIDS
Feb 12 02:02:16 db72f1bb48c7   cdo_repoSystem_1    1.99%     189.8MiB / 15.07GiB   1.23%     207kB / 151kB    0B / 1.84MB   43
Feb 12 02:02:16 63c26d6ce6e2   cdo_repoHistory_1   0.38%     335.9MiB / 15.07GiB   2.18%     6.25MB / 456kB   0B / 1.85MB   45
Feb 12 02:02:20 CONTAINER ID   NAME                CPU %     MEM USAGE / LIMIT     MEM %     NET I/O          BLOCK I/O     PIDS
Feb 12 02:02:20 db72f1bb48c7   cdo_repoSystem_1    3.23%     189.8MiB / 15.07GiB   1.23%     213kB / 157kB    0B / 1.84MB   43
Feb 12 02:02:20 63c26d6ce6e2   cdo_repoHistory_1   63.13%    346.6MiB / 15.07GiB   2.25%     6.99MB / 516kB   0B / 1.85MB   46
Feb 12 02:02:23 CONTAINER ID   NAME                CPU %     MEM USAGE / LIMIT     MEM %     NET I/O          BLOCK I/O     PIDS
Feb 12 02:02:23 db72f1bb48c7   cdo_repoSystem_1    1.89%     190MiB / 15.07GiB     1.23%     226kB / 168kB    0B / 1.84MB   43
Feb 12 02:02:23 63c26d6ce6e2   cdo_repoHistory_1   0.61%     346.4MiB / 15.07GiB   2.24%     6.99MB / 516kB   0B / 1.85MB   45
Feb 12 02:02:27 CONTAINER ID   NAME                CPU %     MEM USAGE / LIMIT     MEM %     NET I/O          BLOCK I/O     PIDS
Feb 12 02:02:27 db72f1bb48c7   cdo_repoSystem_1    2.75%     190MiB / 15.07GiB     1.23%     236kB / 177kB    0B / 1.84MB   43
Feb 12 02:02:27 63c26d6ce6e2   cdo_repoHistory_1   0.37%     346.4MiB / 15.07GiB   2.24%     6.99MB / 516kB   0B / 1.85MB   45
Feb 12 02:02:31 CONTAINER ID   NAME                CPU %     MEM USAGE / LIMIT     MEM %     NET I/O          BLOCK I/O     PIDS
Feb 12 02:02:31 db72f1bb48c7   cdo_repoSystem_1    3.33%     189.9MiB / 15.07GiB   1.23%     245kB / 185kB    0B / 1.84MB   43
Feb 12 02:02:31 63c26d6ce6e2   cdo_repoHistory_1   0.35%     346.4MiB / 15.07GiB   2.24%     6.99MB / 516kB   0B / 1.85MB   45
Feb 12 02:02:34 CONTAINER ID   NAME                CPU %     MEM USAGE / LIMIT     MEM %     NET I/O          BLOCK I/O     PIDS
Feb 12 02:02:34 db72f1bb48c7   cdo_repoSystem_1    1.94%     190MiB / 15.07GiB     1.23%     254kB / 194kB    0B / 1.84MB   43
Feb 12 02:02:34 63c26d6ce6e2   cdo_repoHistory_1   0.37%     355.1MiB / 15.07GiB   2.30%     7.86MB / 588kB   0B / 1.85MB   45
Feb 12 02:02:38 CONTAINER ID   NAME                CPU %     MEM USAGE / LIMIT     MEM %     NET I/O          BLOCK I/O     PIDS
Feb 12 02:02:38 db72f1bb48c7   cdo_repoSystem_1    1.05%     190MiB / 15.07GiB     1.23%     265kB / 203kB    0B / 1.84MB   43
Feb 12 02:02:38 63c26d6ce6e2   cdo_repoHistory_1   0.58%     355.2MiB / 15.07GiB   2.30%     7.86MB / 588kB   0B / 1.85MB   45
Feb 12 02:02:42 CONTAINER ID   NAME                CPU %     MEM USAGE / LIMIT     MEM %     NET I/O          BLOCK I/O     PIDS
Feb 12 02:02:42 db72f1bb48c7   cdo_repoSystem_1    0.26%     190MiB / 15.07GiB     1.23%     270kB / 207kB    0B / 1.84MB   43
Feb 12 02:02:42 63c26d6ce6e2   cdo_repoHistory_1   0.34%     355.1MiB / 15.07GiB   2.30%     7.86MB / 588kB   0B / 1.85MB   45
Feb 12 02:02:45 CONTAINER ID   NAME                CPU %     MEM USAGE / LIMIT     MEM %     NET I/O          BLOCK I/O     PIDS
Feb 12 02:02:45 db72f1bb48c7   cdo_repoSystem_1    0.68%     190MiB / 15.07GiB     1.23%     276kB / 210kB    0B / 1.84MB   43
Feb 12 02:02:45 63c26d6ce6e2   cdo_repoHistory_1   0.41%     373.7MiB / 15.07GiB   2.42%     8.69MB / 657kB   0B / 1.85MB   45
Feb 12 02:02:49 CONTAINER ID   NAME                CPU %     MEM USAGE / LIMIT     MEM %     NET I/O          BLOCK I/O     PIDS
Feb 12 02:02:49 db72f1bb48c7   cdo_repoSystem_1    0.97%     190.1MiB / 15.07GiB   1.23%     282kB / 214kB    0B / 1.84MB   43
Feb 12 02:02:49 63c26d6ce6e2   cdo_repoHistory_1   0.38%     356.9MiB / 15.07GiB   2.31%     8.69MB / 657kB   0B / 1.85MB   45
Feb 12 02:02:52 CONTAINER ID   NAME                CPU %     MEM USAGE / LIMIT     MEM %     NET I/O          BLOCK I/O     PIDS
Feb 12 02:02:52 db72f1bb48c7   cdo_repoSystem_1    5.81%     190MiB / 15.07GiB     1.23%     288kB / 220kB    0B / 1.84MB   43
Feb 12 02:02:52 63c26d6ce6e2   cdo_repoHistory_1   0.43%     356.9MiB / 15.07GiB   2.31%     8.69MB / 657kB   0B / 1.85MB   45
Feb 12 02:02:56 CONTAINER ID   NAME                CPU %     MEM USAGE / LIMIT     MEM %     NET I/O          BLOCK I/O     PIDS
Feb 12 02:02:56 db72f1bb48c7   cdo_repoSystem_1    1.45%     190.1MiB / 15.07GiB   1.23%     300kB / 231kB    0B / 1.84MB   43
Feb 12 02:02:56 63c26d6ce6e2   cdo_repoHistory_1   0.34%     365.8MiB / 15.07GiB   2.37%     9.44MB / 717kB   0B / 1.85MB   45
Feb 12 02:03:00 CONTAINER ID   NAME                CPU %     MEM USAGE / LIMIT     MEM %     NET I/O          BLOCK I/O     PIDS
Feb 12 02:03:00 db72f1bb48c7   cdo_repoSystem_1    1.26%     190.1MiB / 15.07GiB   1.23%     309kB / 240kB    0B / 1.84MB   43
Feb 12 02:03:00 63c26d6ce6e2   cdo_repoHistory_1   0.37%     365.8MiB / 15.07GiB   2.37%     9.44MB / 717kB   0B / 1.85MB   45
Feb 12 02:03:03 CONTAINER ID   NAME                CPU %     MEM USAGE / LIMIT     MEM %     NET I/O          BLOCK I/O     PIDS
Feb 12 02:03:03 db72f1bb48c7   cdo_repoSystem_1    1.23%     190.1MiB / 15.07GiB   1.23%     319kB / 248kB    0B / 1.84MB   43
Feb 12 02:03:03 63c26d6ce6e2   cdo_repoHistory_1   24.46%    366.3MiB / 15.07GiB   2.37%     10.2MB / 781kB   0B / 1.85MB   45
Feb 12 02:03:07 CONTAINER ID   NAME                CPU %     MEM USAGE / LIMIT     MEM %     NET I/O          BLOCK I/O     PIDS
Feb 12 02:03:07 db72f1bb48c7   cdo_repoSystem_1    0.65%     190.2MiB / 15.07GiB   1.23%     326kB / 253kB    0B / 1.84MB   43
Feb 12 02:03:07 63c26d6ce6e2   cdo_repoHistory_1   0.38%     366.3MiB / 15.07GiB   2.37%     10.2MB / 781kB   0B / 1.85MB   45
Feb 12 02:03:11 CONTAINER ID   NAME                CPU %     MEM USAGE / LIMIT     MEM %     NET I/O          BLOCK I/O     PIDS
Feb 12 02:03:11 db72f1bb48c7   cdo_repoSystem_1    0.60%     190.2MiB / 15.07GiB   1.23%     329kB / 254kB    0B / 1.84MB   43
Feb 12 02:03:11 63c26d6ce6e2   cdo_repoHistory_1   0.35%     366.3MiB / 15.07GiB   2.37%     10.2MB / 781kB   0B / 1.85MB   45
Feb 12 02:03:14 CONTAINER ID   NAME                CPU %     MEM USAGE / LIMIT     MEM %     NET I/O          BLOCK I/O     PIDS
Feb 12 02:03:14 db72f1bb48c7   cdo_repoSystem_1    0.91%     190.2MiB / 15.07GiB   1.23%     335kB / 257kB    0B / 1.84MB   43
Feb 12 02:03:14 63c26d6ce6e2   cdo_repoHistory_1   0.38%     366.3MiB / 15.07GiB   2.37%     10.2MB / 781kB   0B / 1.85MB   45
Feb 12 02:03:18 CONTAINER ID   NAME                CPU %     MEM USAGE / LIMIT     MEM %     NET I/O          BLOCK I/O     PIDS
Feb 12 02:03:18 db72f1bb48c7   cdo_repoSystem_1    0.51%     190.2MiB / 15.07GiB   1.23%     338kB / 259kB    0B / 1.84MB   43
Feb 12 02:03:18 63c26d6ce6e2   cdo_repoHistory_1   0.38%     373.9MiB / 15.07GiB   2.42%     11.1MB / 849kB   0B / 1.85MB   45
