file,machine,peakMemory_MiB,peakNetIO_kB
base_AIC/docker/docker-stats-10.txt,portainer,17.09,12.0
base_AIC/docker/docker-stats-10.txt,base_aic_janusgraph_1,737.4,8.45
base_AIC/docker/docker-stats-1.txt,portainer,17.12,11.9
base_AIC/docker/docker-stats-1.txt,base_aic_janusgraph_1,773.0,8.37
base_AIC/docker/docker-stats-2.txt,portainer,17.08,11.9
base_AIC/docker/docker-stats-2.txt,base_aic_janusgraph_1,745.6,8.53
base_AIC/docker/docker-stats-3.txt,portainer,17.15,11.9
base_AIC/docker/docker-stats-3.txt,base_aic_janusgraph_1,745.7,8.65
base_AIC/docker/docker-stats-4.txt,portainer,17.0,11.9
base_AIC/docker/docker-stats-4.txt,base_aic_janusgraph_1,744.0,8.42
base_AIC/docker/docker-stats-5.txt,portainer,17.08,11.9
base_AIC/docker/docker-stats-5.txt,base_aic_janusgraph_1,739.7,8.42
base_AIC/docker/docker-stats-6.txt,portainer,17.02,12.0
base_AIC/docker/docker-stats-6.txt,base_aic_janusgraph_1,739.7,8.45
base_AIC/docker/docker-stats-7.txt,portainer,17.1,12.0
base_AIC/docker/docker-stats-7.txt,base_aic_janusgraph_1,749.2,8.42
base_AIC/docker/docker-stats-8.txt,portainer,17.07,12.0
base_AIC/docker/docker-stats-8.txt,base_aic_janusgraph_1,732.0,8.44
base_AIC/docker/docker-stats-9.txt,portainer,17.05,12.0
base_AIC/docker/docker-stats-9.txt,base_aic_janusgraph_1,748.2,8.48
