elapsedWallClockMillis,totalMemoryBytes
16,6369880
1192,12697896
2240,13481880
3265,13954784
4326,14086760
5355,14219512
6384,14357680
7420,14496272
8454,14572400
9487,14712000
10516,14849600
11567,14979832
12613,15112424
13651,15251648
14693,15394448
15734,15539056
16777,15678424
17818,15826248
18863,15971608
19888,16126264
20928,16279248
21985,16396136
23019,16564544
24060,16726432
25100,16895656
26131,17050856
27172,17209040
28199,17390712
29226,17571032
30252,17755512
31285,17958832
32314,18158624
33354,18340744
34385,18519560
35416,18696224
36448,18877976
37480,19072024
38513,19278800
39556,19489840
40589,19716176
41628,19935920
42670,20149144
43713,20342472
44761,20527080
45801,20689680
46835,20845448
47870,21026392
48920,21203672
49954,21398056
51002,21573344
52038,21734888
53088,21892296
54137,22064144
55187,22230112
56235,22388360
57291,22540776
58326,22688752
59371,22830680
60408,22977856
61450,23123720
62499,23275848
63536,23449536
64584,23615944
65632,23785392
66684,23983936
67722,24192816
68760,24394856
69799,24601768
70854,24792376
71905,24980216
72954,25163928
73993,25326528
75032,25504296
76078,25692688
77124,25895264
78164,26078984
79211,26267080
80259,26462152
81301,26651872
82355,26837576
83396,27011464
84437,27173200
85486,27325264
86528,27483456
87570,27657144
88612,27758592
89654,27899904
90698,28046488
91741,28189960
92783,28339328
93833,28489072
94876,28637984
95920,28817680
96972,28990648
98024,29165064
99075,29328592
100121,29528456
101166,29727608
102232,29908256
103299,30079608
104358,30244152
105413,30432672
106461,30617456
107507,30812840
108555,31005048
109603,31163304
110651,31306176
111746,31459808
112794,31625472
113841,31776840
114888,31928728
115953,32077472
117001,32227360
118050,32377200
119098,32522176
120160,32705192
121206,32915480
122253,33113304
123299,33321520
124357,33504888
125415,33665352
126465,33808664
127537,33958960
128612,34106440
129663,34255640
130714,34399160
131771,34544672
132822,34689944
133891,34858032
134960,35007944
136025,35159192
137078,35324712
138130,35495136
139194,35652360
140248,35804256
141318,35974664
142398,36122912
143485,36281792
144605,36451192
145692,36595024
146769,36743320
147875,36892072
148963,37039936
150052,37203368
151156,37365392
152280,37561608
153419,37712216
154549,37687360
155647,37686272
155853,37393952
