Jan 16 15:06:36 CONTAINER ID   NAME      CPU %     MEM USAGE / LIMIT   MEM %     NET I/O   BLOCK I/O   PIDS
Jan 16 15:06:38 CONTAINER ID   NAME      CPU %     MEM USAGE / LIMIT   MEM %     NET I/O   BLOCK I/O   PIDS
Jan 16 15:06:39 CONTAINER ID   NAME      CPU %     MEM USAGE / LIMIT   MEM %     NET I/O   BLOCK I/O   PIDS
Jan 16 15:06:39                --        0.00%     0B / 0B             0.00%     0B / 0B   0B / 0B     0
Jan 16 15:06:42 CONTAINER ID   NAME                CPU %     MEM USAGE / LIMIT     MEM %     NET I/O      BLOCK I/O   PIDS
Jan 16 15:06:42 ab2a1b959880   janusgraph-memory   289.51%   310.6MiB / 15.07GiB   2.01%     4.2kB / 0B   0B / 86kB   21
Jan 16 15:06:45 CONTAINER ID   NAME                CPU %     MEM USAGE / LIMIT   MEM %     NET I/O       BLOCK I/O   PIDS
Jan 16 15:06:45 ab2a1b959880   janusgraph-memory   243.84%   675MiB / 15.07GiB   4.37%     7.25kB / 0B   0B / 86kB   21
Jan 16 15:06:47 CONTAINER ID   NAME                CPU %     MEM USAGE / LIMIT     MEM %     NET I/O       BLOCK I/O   PIDS
Jan 16 15:06:47 ab2a1b959880   janusgraph-memory   295.27%   696.5MiB / 15.07GiB   4.51%     9.45kB / 0B   0B / 86kB   22
Jan 16 15:06:50 CONTAINER ID   NAME                CPU %     MEM USAGE / LIMIT   MEM %     NET I/O       BLOCK I/O   PIDS
Jan 16 15:06:50 ab2a1b959880   janusgraph-memory   284.71%   762MiB / 15.07GiB   4.94%     10.1kB / 0B   0B / 86kB   23
Jan 16 15:06:53 CONTAINER ID   NAME                CPU %     MEM USAGE / LIMIT     MEM %     NET I/O       BLOCK I/O    PIDS
Jan 16 15:06:53 ab2a1b959880   janusgraph-memory   47.10%    30.31MiB / 15.07GiB   0.20%     10.1kB / 0B   0B / 119kB   16
Jan 16 15:06:55 CONTAINER ID   NAME                CPU %     MEM USAGE / LIMIT     MEM %     NET I/O       BLOCK I/O    PIDS
Jan 16 15:06:55 ab2a1b959880   janusgraph-memory   197.75%   293.6MiB / 15.07GiB   1.90%     10.2kB / 0B   0B / 119kB   21
Jan 16 15:06:58 CONTAINER ID   NAME                CPU %     MEM USAGE / LIMIT   MEM %     NET I/O       BLOCK I/O    PIDS
Jan 16 15:06:58 ab2a1b959880   janusgraph-memory   284.45%   714MiB / 15.07GiB   4.63%     10.4kB / 0B   0B / 119kB   21
Jan 16 15:07:01 CONTAINER ID   NAME                CPU %     MEM USAGE / LIMIT     MEM %     NET I/O       BLOCK I/O    PIDS
Jan 16 15:07:01 ab2a1b959880   janusgraph-memory   236.83%   728.7MiB / 15.07GiB   4.72%     10.4kB / 0B   0B / 119kB   22
Jan 16 15:07:03 CONTAINER ID   NAME                CPU %     MEM USAGE / LIMIT     MEM %     NET I/O       BLOCK I/O    PIDS
Jan 16 15:07:03 ab2a1b959880   janusgraph-memory   0.62%     717.5MiB / 15.07GiB   4.65%     10.4kB / 0B   0B / 119kB   22
Jan 16 15:07:06 CONTAINER ID   NAME                CPU %     MEM USAGE / LIMIT     MEM %     NET I/O       BLOCK I/O    PIDS
Jan 16 15:07:06 ab2a1b959880   janusgraph-memory   0.10%     717.5MiB / 15.07GiB   4.65%     10.4kB / 0B   0B / 119kB   22
Jan 16 15:07:09 CONTAINER ID   NAME                CPU %     MEM USAGE / LIMIT     MEM %     NET I/O       BLOCK I/O    PIDS
Jan 16 15:07:09 ab2a1b959880   janusgraph-memory   0.16%     717.5MiB / 15.07GiB   4.65%     10.4kB / 0B   0B / 119kB   22
Jan 16 15:07:11 CONTAINER ID   NAME                CPU %     MEM USAGE / LIMIT     MEM %     NET I/O       BLOCK I/O    PIDS
Jan 16 15:07:11 ab2a1b959880   janusgraph-memory   0.08%     717.5MiB / 15.07GiB   4.65%     10.5kB / 0B   0B / 119kB   22
Jan 16 15:07:14 CONTAINER ID   NAME                CPU %     MEM USAGE / LIMIT     MEM %     NET I/O       BLOCK I/O    PIDS
Jan 16 15:07:14 ab2a1b959880   janusgraph-memory   85.86%    725.7MiB / 15.07GiB   4.70%     12kB / 921B   0B / 119kB   30
Jan 16 15:07:17 CONTAINER ID   NAME                CPU %     MEM USAGE / LIMIT     MEM %     NET I/O           BLOCK I/O    PIDS
Jan 16 15:07:17 ab2a1b959880   janusgraph-memory   74.91%    730.2MiB / 15.07GiB   4.73%     22.2kB / 7.25kB   0B / 119kB   47
Jan 16 15:07:19 CONTAINER ID   NAME                CPU %     MEM USAGE / LIMIT     MEM %     NET I/O          BLOCK I/O    PIDS
Jan 16 15:07:19 ab2a1b959880   janusgraph-memory   120.24%   736.7MiB / 15.07GiB   4.77%     147kB / 66.7kB   0B / 119kB   53
Jan 16 15:07:22 CONTAINER ID   NAME                CPU %     MEM USAGE / LIMIT     MEM %     NET I/O         BLOCK I/O    PIDS
Jan 16 15:07:22 ab2a1b959880   janusgraph-memory   179.26%   739.6MiB / 15.07GiB   4.79%     335kB / 156kB   0B / 119kB   53
Jan 16 15:07:25 CONTAINER ID   NAME                CPU %     MEM USAGE / LIMIT     MEM %     NET I/O         BLOCK I/O    PIDS
Jan 16 15:07:25 ab2a1b959880   janusgraph-memory   170.84%   746.9MiB / 15.07GiB   4.84%     522kB / 244kB   0B / 119kB   53
Jan 16 15:07:28 CONTAINER ID   NAME                CPU %     MEM USAGE / LIMIT     MEM %     NET I/O         BLOCK I/O    PIDS
Jan 16 15:07:28 ab2a1b959880   janusgraph-memory   219.60%   750.4MiB / 15.07GiB   4.86%     796kB / 379kB   0B / 119kB   53
Jan 16 15:07:30 CONTAINER ID   NAME                CPU %     MEM USAGE / LIMIT     MEM %     NET I/O          BLOCK I/O    PIDS
Jan 16 15:07:30 ab2a1b959880   janusgraph-memory   213.76%   759.6MiB / 15.07GiB   4.92%     1.08MB / 520kB   0B / 119kB   53
Jan 16 15:07:33 CONTAINER ID   NAME                CPU %     MEM USAGE / LIMIT     MEM %     NET I/O          BLOCK I/O    PIDS
Jan 16 15:07:33 ab2a1b959880   janusgraph-memory   228.89%   761.6MiB / 15.07GiB   4.94%     1.43MB / 688kB   0B / 119kB   53
Jan 16 15:07:35 CONTAINER ID   NAME                CPU %     MEM USAGE / LIMIT     MEM %     NET I/O          BLOCK I/O    PIDS
Jan 16 15:07:35 ab2a1b959880   janusgraph-memory   187.14%   762.6MiB / 15.07GiB   4.94%     1.89MB / 916kB   0B / 119kB   53
Jan 16 15:07:38 CONTAINER ID   NAME                CPU %     MEM USAGE / LIMIT     MEM %     NET I/O          BLOCK I/O    PIDS
Jan 16 15:07:38 ab2a1b959880   janusgraph-memory   110.29%   763.2MiB / 15.07GiB   4.95%     2.5MB / 1.22MB   0B / 119kB   53
Jan 16 15:07:41 CONTAINER ID   NAME                CPU %     MEM USAGE / LIMIT     MEM %     NET I/O           BLOCK I/O    PIDS
Jan 16 15:07:41 ab2a1b959880   janusgraph-memory   166.99%   764.5MiB / 15.07GiB   4.95%     3.08MB / 1.51MB   0B / 119kB   53
Jan 16 15:07:43 CONTAINER ID   NAME                CPU %     MEM USAGE / LIMIT     MEM %     NET I/O           BLOCK I/O    PIDS
Jan 16 15:07:43 ab2a1b959880   janusgraph-memory   159.33%   765.4MiB / 15.07GiB   4.96%     3.71MB / 1.81MB   0B / 119kB   53
Jan 16 15:07:46 CONTAINER ID   NAME                CPU %     MEM USAGE / LIMIT     MEM %     NET I/O         BLOCK I/O    PIDS
Jan 16 15:07:46 ab2a1b959880   janusgraph-memory   75.58%    774.2MiB / 15.07GiB   5.02%     4.7MB / 2.3MB   0B / 119kB   53
Jan 16 15:07:49 CONTAINER ID   NAME                CPU %     MEM USAGE / LIMIT     MEM %     NET I/O           BLOCK I/O    PIDS
Jan 16 15:07:49 ab2a1b959880   janusgraph-memory   78.14%    768.1MiB / 15.07GiB   4.98%     5.82MB / 2.84MB   0B / 119kB   53
Jan 16 15:07:51 CONTAINER ID   NAME                CPU %     MEM USAGE / LIMIT     MEM %     NET I/O           BLOCK I/O    PIDS
Jan 16 15:07:51 ab2a1b959880   janusgraph-memory   86.94%    768.1MiB / 15.07GiB   4.98%     7.07MB / 3.46MB   0B / 119kB   53
Jan 16 15:07:54 CONTAINER ID   NAME                CPU %     MEM USAGE / LIMIT     MEM %     NET I/O           BLOCK I/O    PIDS
Jan 16 15:07:54 ab2a1b959880   janusgraph-memory   68.10%    877.5MiB / 15.07GiB   5.69%     8.46MB / 4.14MB   0B / 119kB   53
Jan 16 15:07:56 CONTAINER ID   NAME                CPU %     MEM USAGE / LIMIT     MEM %     NET I/O           BLOCK I/O    PIDS
Jan 16 15:07:56 ab2a1b959880   janusgraph-memory   73.49%    877.5MiB / 15.07GiB   5.69%     9.92MB / 4.87MB   0B / 119kB   53
Jan 16 15:07:59 CONTAINER ID   NAME                CPU %     MEM USAGE / LIMIT     MEM %     NET I/O           BLOCK I/O    PIDS
Jan 16 15:07:59 ab2a1b959880   janusgraph-memory   2.84%     877.5MiB / 15.07GiB   5.69%     10.5MB / 5.13MB   0B / 119kB   53
Jan 16 15:08:02 CONTAINER ID   NAME                CPU %     MEM USAGE / LIMIT     MEM %     NET I/O           BLOCK I/O    PIDS
Jan 16 15:08:02 ab2a1b959880   janusgraph-memory   3.77%     877.5MiB / 15.07GiB   5.69%     10.5MB / 5.13MB   0B / 119kB   53
Jan 16 15:08:04 CONTAINER ID   NAME                CPU %     MEM USAGE / LIMIT     MEM %     NET I/O           BLOCK I/O    PIDS
Jan 16 15:08:04 ab2a1b959880   janusgraph-memory   3.12%     877.5MiB / 15.07GiB   5.69%     10.5MB / 5.13MB   0B / 119kB   53
Jan 16 15:08:07 CONTAINER ID   NAME                CPU %     MEM USAGE / LIMIT     MEM %     NET I/O           BLOCK I/O    PIDS
Jan 16 15:08:07 ab2a1b959880   janusgraph-memory   5.52%     877.5MiB / 15.07GiB   5.69%     10.5MB / 5.13MB   0B / 119kB   53
