Jan 16 15:25:17 CONTAINER ID   NAME      CPU %     MEM USAGE / LIMIT   MEM %     NET I/O   BLOCK I/O   PIDS
Jan 16 15:25:19 CONTAINER ID   NAME      CPU %     MEM USAGE / LIMIT   MEM %     NET I/O   BLOCK I/O   PIDS
Jan 16 15:25:21 CONTAINER ID   NAME      CPU %     MEM USAGE / LIMIT   MEM %     NET I/O   BLOCK I/O   PIDS
Jan 16 15:25:23 CONTAINER ID   NAME                CPU %     MEM USAGE / LIMIT     MEM %     NET I/O    BLOCK I/O   PIDS
Jan 16 15:25:23 ab2a1b959880   janusgraph-memory   269.56%   299.8MiB / 15.07GiB   1.94%     4kB / 0B   0B / 86kB   21
Jan 16 15:25:26 CONTAINER ID   NAME                CPU %     MEM USAGE / LIMIT     MEM %     NET I/O       BLOCK I/O   PIDS
Jan 16 15:25:26 ab2a1b959880   janusgraph-memory   289.96%   680.3MiB / 15.07GiB   4.41%     6.92kB / 0B   0B / 86kB   21
Jan 16 15:25:28 CONTAINER ID   NAME                CPU %     MEM USAGE / LIMIT     MEM %     NET I/O       BLOCK I/O   PIDS
Jan 16 15:25:28 ab2a1b959880   janusgraph-memory   291.50%   738.1MiB / 15.07GiB   4.78%     8.83kB / 0B   0B / 86kB   23
Jan 16 15:25:31 CONTAINER ID   NAME                CPU %     MEM USAGE / LIMIT   MEM %     NET I/O       BLOCK I/O   PIDS
Jan 16 15:25:31 ab2a1b959880   janusgraph-memory   185.31%   782MiB / 15.07GiB   5.07%     9.39kB / 0B   0B / 86kB   23
Jan 16 15:25:34 CONTAINER ID   NAME                CPU %     MEM USAGE / LIMIT   MEM %     NET I/O       BLOCK I/O    PIDS
Jan 16 15:25:34 ab2a1b959880   janusgraph-memory   259.36%   181MiB / 15.07GiB   1.17%     9.39kB / 0B   0B / 119kB   19
Jan 16 15:25:36 CONTAINER ID   NAME                CPU %     MEM USAGE / LIMIT     MEM %     NET I/O       BLOCK I/O    PIDS
Jan 16 15:25:36 ab2a1b959880   janusgraph-memory   314.56%   662.5MiB / 15.07GiB   4.29%     9.46kB / 0B   0B / 119kB   21
Jan 16 15:25:39 CONTAINER ID   NAME                CPU %     MEM USAGE / LIMIT   MEM %     NET I/O       BLOCK I/O    PIDS
Jan 16 15:25:39 ab2a1b959880   janusgraph-memory   222.13%   732MiB / 15.07GiB   4.74%     9.69kB / 0B   0B / 119kB   22
Jan 16 15:25:42 CONTAINER ID   NAME                CPU %     MEM USAGE / LIMIT   MEM %     NET I/O       BLOCK I/O    PIDS
Jan 16 15:25:42 ab2a1b959880   janusgraph-memory   0.13%     732MiB / 15.07GiB   4.74%     9.69kB / 0B   0B / 119kB   22
Jan 16 15:25:44 CONTAINER ID   NAME                CPU %     MEM USAGE / LIMIT     MEM %     NET I/O       BLOCK I/O    PIDS
Jan 16 15:25:44 ab2a1b959880   janusgraph-memory   0.15%     716.3MiB / 15.07GiB   4.64%     9.69kB / 0B   0B / 119kB   22
Jan 16 15:25:47 CONTAINER ID   NAME                CPU %     MEM USAGE / LIMIT     MEM %     NET I/O         BLOCK I/O    PIDS
Jan 16 15:25:47 ab2a1b959880   janusgraph-memory   9.95%     717.7MiB / 15.07GiB   4.65%     10.2kB / 182B   0B / 119kB   23
Jan 16 15:25:50 CONTAINER ID   NAME                CPU %     MEM USAGE / LIMIT     MEM %     NET I/O           BLOCK I/O    PIDS
Jan 16 15:25:50 ab2a1b959880   janusgraph-memory   56.76%    728.5MiB / 15.07GiB   4.72%     16.3kB / 4.24kB   0B / 119kB   48
Jan 16 15:25:52 CONTAINER ID   NAME                CPU %     MEM USAGE / LIMIT   MEM %     NET I/O          BLOCK I/O    PIDS
Jan 16 15:25:52 ab2a1b959880   janusgraph-memory   139.09%   735MiB / 15.07GiB   4.76%     118kB / 53.5kB   0B / 119kB   54
Jan 16 15:25:55 CONTAINER ID   NAME                CPU %     MEM USAGE / LIMIT     MEM %     NET I/O         BLOCK I/O    PIDS
Jan 16 15:25:55 ab2a1b959880   janusgraph-memory   169.70%   741.7MiB / 15.07GiB   4.81%     310kB / 145kB   0B / 119kB   54
Jan 16 15:25:58 CONTAINER ID   NAME                CPU %     MEM USAGE / LIMIT     MEM %     NET I/O         BLOCK I/O    PIDS
Jan 16 15:25:58 ab2a1b959880   janusgraph-memory   153.51%   743.5MiB / 15.07GiB   4.82%     542kB / 257kB   0B / 119kB   54
Jan 16 15:26:00 CONTAINER ID   NAME                CPU %     MEM USAGE / LIMIT     MEM %     NET I/O         BLOCK I/O    PIDS
Jan 16 15:26:00 ab2a1b959880   janusgraph-memory   197.34%   744.2MiB / 15.07GiB   4.82%     813kB / 390kB   0B / 119kB   54
Jan 16 15:26:03 CONTAINER ID   NAME                CPU %     MEM USAGE / LIMIT     MEM %     NET I/O          BLOCK I/O    PIDS
Jan 16 15:26:03 ab2a1b959880   janusgraph-memory   202.56%   751.3MiB / 15.07GiB   4.87%     1.19MB / 575kB   0B / 119kB   54
Jan 16 15:26:05 CONTAINER ID   NAME                CPU %     MEM USAGE / LIMIT     MEM %     NET I/O          BLOCK I/O    PIDS
Jan 16 15:26:05 ab2a1b959880   janusgraph-memory   160.14%   751.8MiB / 15.07GiB   4.87%     1.64MB / 800kB   0B / 119kB   54
Jan 16 15:26:08 CONTAINER ID   NAME                CPU %     MEM USAGE / LIMIT     MEM %     NET I/O           BLOCK I/O    PIDS
Jan 16 15:26:08 ab2a1b959880   janusgraph-memory   144.88%   752.5MiB / 15.07GiB   4.88%     2.27MB / 1.11MB   0B / 119kB   54
Jan 16 15:26:11 CONTAINER ID   NAME                CPU %     MEM USAGE / LIMIT     MEM %     NET I/O           BLOCK I/O    PIDS
Jan 16 15:26:11 ab2a1b959880   janusgraph-memory   80.10%    752.8MiB / 15.07GiB   4.88%     2.98MB / 1.46MB   0B / 119kB   54
Jan 16 15:26:14 CONTAINER ID   NAME                CPU %     MEM USAGE / LIMIT     MEM %     NET I/O           BLOCK I/O    PIDS
Jan 16 15:26:14 ab2a1b959880   janusgraph-memory   136.83%   753.4MiB / 15.07GiB   4.88%     3.64MB / 1.78MB   0B / 119kB   54
Jan 16 15:26:16 CONTAINER ID   NAME                CPU %     MEM USAGE / LIMIT     MEM %     NET I/O           BLOCK I/O    PIDS
Jan 16 15:26:16 ab2a1b959880   janusgraph-memory   65.22%    762.1MiB / 15.07GiB   4.94%     4.75MB / 2.33MB   0B / 119kB   54
Jan 16 15:26:19 CONTAINER ID   NAME                CPU %     MEM USAGE / LIMIT     MEM %     NET I/O           BLOCK I/O    PIDS
Jan 16 15:26:19 ab2a1b959880   janusgraph-memory   70.86%    762.1MiB / 15.07GiB   4.94%     5.97MB / 2.93MB   0B / 119kB   54
Jan 16 15:26:21 CONTAINER ID   NAME                CPU %     MEM USAGE / LIMIT     MEM %     NET I/O           BLOCK I/O    PIDS
Jan 16 15:26:21 ab2a1b959880   janusgraph-memory   86.05%    762.1MiB / 15.07GiB   4.94%     7.27MB / 3.57MB   0B / 119kB   54
Jan 16 15:26:24 CONTAINER ID   NAME                CPU %     MEM USAGE / LIMIT     MEM %     NET I/O           BLOCK I/O    PIDS
Jan 16 15:26:24 ab2a1b959880   janusgraph-memory   70.82%    873.4MiB / 15.07GiB   5.66%     8.52MB / 4.18MB   0B / 119kB   54
Jan 16 15:26:26 CONTAINER ID   NAME                CPU %     MEM USAGE / LIMIT     MEM %     NET I/O          BLOCK I/O    PIDS
Jan 16 15:26:26 ab2a1b959880   janusgraph-memory   64.70%    873.4MiB / 15.07GiB   5.66%     9.98MB / 4.9MB   0B / 119kB   54
Jan 16 15:26:29 CONTAINER ID   NAME                CPU %     MEM USAGE / LIMIT     MEM %     NET I/O           BLOCK I/O    PIDS
Jan 16 15:26:29 ab2a1b959880   janusgraph-memory   4.54%     873.4MiB / 15.07GiB   5.66%     10.7MB / 5.27MB   0B / 119kB   54
Jan 16 15:26:32 CONTAINER ID   NAME                CPU %     MEM USAGE / LIMIT     MEM %     NET I/O           BLOCK I/O    PIDS
Jan 16 15:26:32 ab2a1b959880   janusgraph-memory   6.94%     873.4MiB / 15.07GiB   5.66%     10.7MB / 5.27MB   0B / 119kB   54
Jan 16 15:26:34 CONTAINER ID   NAME                CPU %     MEM USAGE / LIMIT     MEM %     NET I/O           BLOCK I/O    PIDS
Jan 16 15:26:34 ab2a1b959880   janusgraph-memory   6.53%     873.4MiB / 15.07GiB   5.66%     10.7MB / 5.27MB   0B / 119kB   54
Jan 16 15:26:37 CONTAINER ID   NAME                CPU %     MEM USAGE / LIMIT     MEM %     NET I/O           BLOCK I/O    PIDS
Jan 16 15:26:37 ab2a1b959880   janusgraph-memory   17.28%    873.4MiB / 15.07GiB   5.66%     10.7MB / 5.27MB   0B / 119kB   54
Jan 16 15:26:40 CONTAINER ID   NAME                CPU %     MEM USAGE / LIMIT     MEM %     NET I/O           BLOCK I/O    PIDS
Jan 16 15:26:40 ab2a1b959880   janusgraph-memory   8.54%     873.4MiB / 15.07GiB   5.66%     10.7MB / 5.27MB   0B / 119kB   54
Jan 16 15:26:42 CONTAINER ID   NAME                CPU %     MEM USAGE / LIMIT     MEM %     NET I/O           BLOCK I/O    PIDS
Jan 16 15:26:42 ab2a1b959880   janusgraph-memory   3.44%     873.4MiB / 15.07GiB   5.66%     10.7MB / 5.27MB   0B / 119kB   54
Jan 16 15:26:44 CONTAINER ID   NAME      CPU %     MEM USAGE / LIMIT   MEM %     NET I/O   BLOCK I/O   PIDS
