Images space usage:

REPOSITORY                                             TAG                    IMAGE ID       CREATED         SIZE      SHARED SIZE   UNIQUE SIZE   CONTAINERS
phpstorm_helpers                                       PS-203.7148.74         61bce0c8eb5f   11 days ago     1.376MB   1.232MB       143.9kB       0
autofeedback/node                                      development            0f6d99af1bb2   2 weeks ago     119.9MB   116.1MB       3.808MB       0
autofeedback/nginx                                     development            74eec0c4b6fe   2 weeks ago     89.23MB   0B            89.23MB       0
autofeedback/app                                       development            a4718fc826ed   2 weeks ago     113MB     9.159MB       103.9MB       0
autofeedback/echo                                      development            05b703250f83   2 weeks ago     142MB     116.1MB       25.87MB       0
phpstorm_helpers                                       PS-202.8194.11         9c4cf2c6d29a   2 weeks ago     1.376MB   1.232MB       143.9kB       0
autofeedback/worker                                    development            3578a7181cc0   2 weeks ago     390.4MB   9.159MB       381.2MB       0
dspace/dspace                                          dspace-6_x-jdk8-test   83b473e35009   2 weeks ago     1.021GB   462.7MB       558.7MB       0
registry.gitlab.com/sea-aston/cdo-docker               latest                 88d9b94a4c7e   3 weeks ago     639.8MB   628.5MB       11.29MB       2
cdo-server                                             latest                 c70802d160d7   3 weeks ago     639.8MB   639.8MB       2.296kB       0
cdo-docker                                             latest                 34a8c0c39713   3 weeks ago     639.8MB   639.8MB       2.296kB       0
maven                                                  3-openjdk-11           638b84016302   4 weeks ago     639.7MB   628.5MB       11.26MB       0
janusgraph/janusgraph                                  latest                 b57d4bab842f   5 weeks ago     1.09GB    0B            1.09GB        1
dspace/dspace-grunt                                    dspace-6_x             75c036d9dc5a   2 months ago    250.5MB   181.1MB       69.42MB       0
dspace/dspace-cli                                      dspace-6_x             b96ab59a9b5c   2 months ago    625.1MB   513.8MB       111.3MB       0
autofeedback/nginx                                     production             47b4e9b3d501   2 months ago    92.4MB    67.48MB       24.92MB       0
autofeedback/worker                                    production             3a3cc3763930   2 months ago    404.7MB   8.33MB        396.4MB       0
autofeedback/app                                       production             f6583e451a35   2 months ago    146MB     8.33MB        137.6MB       0
phpstorm_helpers                                       PS-202.7660.42         3b17c483eb05   2 months ago    1.376MB   1.232MB       143.9kB       0
autofeedback/echo                                      production             06576c634c9d   2 months ago    143MB     0B            143MB         0
openjdk                                                8-jdk                  82f24ce79de6   2 months ago    513.8MB   513.8MB       0B            0
bitnami/redis                                          6.0-debian-10          153e3318ab8a   2 months ago    102.7MB   67.48MB       35.25MB       0
node                                                   14-buster-slim         afba96fee3b3   2 months ago    181.1MB   181.1MB       0B            0
bitnami/mariadb                                        10.5-debian-10         858604a71593   2 months ago    330.7MB   67.48MB       263.3MB       0
registry.gitlab.com/a.garcia-dominguez/mubpel-docker   latest                 9f9254381ec7   2 months ago    389.7MB   288.1MB       101.6MB       0
mubpel                                                 latest                 238b66e0fd96   2 months ago    389.7MB   288.1MB       101.6MB       0
dspace/dspace-mvn                                      dspace-6_x             e1f856ad00c0   3 months ago    526.6MB   525MB         1.657MB       0
maven                                                  3-jdk-8                5bbbc7693372   3 months ago    525MB     525MB         0B            0
mysql                                                  5.6                    c580203d8753   3 months ago    302.4MB   0B            302.4MB       0
busybox                                                latest                 f0b02e9d092d   4 months ago    1.232MB   1.232MB       0B            0
osixia/openldap                                        1.4.0                  8d3e5b3192dc   8 months ago    262.3MB   0B            262.3MB       0
sudobmitch/base                                        scratch                002431c323c2   12 months ago   1.323MB   0B            1.323MB       0
dspace/dspace-postgres-pgcrypto                        latest                 e40b7cdcb17e   21 months ago   329.1MB   0B            329.1MB       0
tomcat                                                 8-jre8                 3639174793ba   21 months ago   462.7MB   462.7MB       0B            0
dspace/dspace-dependencies                             dspace-6_x             f058a75ac117   2 years ago     1.157GB   0B            1.157GB       0
maven                                                  3.3.9-jdk-8            9997d8483b2f   3 years ago     652.8MB   0B            652.8MB       0

Containers space usage:

CONTAINER ID   IMAGE                                             COMMAND                  LOCAL VOLUMES   SIZE      CREATED          STATUS                        NAMES
9561d174ef9c   registry.gitlab.com/sea-aston/cdo-docker:latest   "/usr/local/bin/entr…"   2               1.88kB    54 seconds ago   Up 52 seconds                 noprov_repoSystem_1
5b0ac292ccd7   janusgraph/janusgraph:latest                      "docker-entrypoint.s…"   1               37.5kB    17 minutes ago   Exited (137) 17 minutes ago   janus-inmemory_janusgraph_1
8fd61fd52fb4   registry.gitlab.com/sea-aston/cdo-docker:latest   "/usr/local/bin/entr…"   2               0B        17 minutes ago   Created                       janus-inmemory_repoSystem_1

Local Volumes space usage:

VOLUME NAME                                                                           LINKS     SIZE
d6_m2_data                                                                            0         307.9MB
d6_pgdata                                                                             0         68.04MB
d6_solr_search                                                                        0         270B
autofeedback-it_app_public_data                                                       0         0B
autofeedback-it_redis_data                                                            0         92B
autofeedback-webapp_m2_data                                                           0         0B
cdo-docker_repo_config                                                                0         0B
cdo-docker_repo_data                                                                  0         0B
docker-autofeedback_app_data                                                          0         1.587MB
fold_solr_oai                                                                         0         178B
fold_solr_search                                                                      0         178B
janus-inmemory_repoSystem_config                                                      1         2.542kB
36c9d96eff183db501e9651ad6f321717292bbfd70c6a4f0eb4dfcc6dd12ccd3                      0         0B
autofeedback-it_ldap_etc_data                                                         0         117.2kB
docker-autofeedback_m2_data                                                           0         81.73MB
textcrimes-219-add-docker-compose-setup-for-running-review-apps_app_config            0         51.31kB
autofeedback-webapp_mariadb_data                                                      0         118.3MB
cb77a68389602281b5eac9a6494cb90ef82af1d3802b1a4116b59d4447cc0448                      0         143.9kB
cdo-server-master_repo_config                                                         0         117.1kB
3767657d739338f00b8cc01e2d0f00bbbb584646e42b19f84bb68af69766f91a                      0         143.9kB
61ebe6d97e4f8019bdc2615d58c2da28272e3fd70f9b04e57a9c4c6717f0981f                      0         0B
autofeedback-it_ldap_db_data                                                          0         131.1kB
autofeedback-it_m2_data                                                               0         0B
autofeedback-webapp_ldap_etc_data                                                     0         117.2kB
fold_m2_data                                                                          0         307.1MB
textcrimes-217-some-documents-are-in-anonymous-view-that-should-not-be_app_data       0         257.1kB
712f8efe9a382d2e90acd0df65b53cdc8156d2d38b67feb004512e865e78e312                      0         0B
91e84398c6c07f79e94bac894ba773a0294e7b55221110cc13300516a780587d                      0         0B
d6_solr_oai                                                                           0         178B
c35af3913e157ab0d81a8fe00bfb24af717864d6f405df80d7ca1af22a9bdeb3                      0         143.9kB
cddb0bd0cf74f02e3cc034d4b56b7fad223500bf2ef432d76cab01d6de5c5c5d                      0         0B
d6_solr_authority                                                                     0         178B
docker-autofeedback_ldap_etc_data                                                     0         117.2kB
textcrimes-219-add-docker-compose-setup-for-running-review-apps_mariadb_data          0         119MB
d915d972766c24e4f7702d888e03e6ecc877f0773a2f1f1258a45df6e1fcbe30                      0         0B
fcba242610bcb653a2a93e778422887a4300ab89c0469a89aef6b073d62bcafa                      0         143.9kB
fold_pgdata                                                                           0         51.9MB
fold_solr_statistics                                                                  0         178B
fold_assetstore                                                                       0         0B
janus-inmemory_janusgraph-default-data                                                1         0B
6cd1bdf0129d71ed830002009496e61fab3480dc3566d035a0a50c451f59de33                      0         143.9kB
autofeedback-it_mariadb_data                                                          0         121MB
bdb9453675bd32355291da041291f960043cf4791ca98406dfdb223a7e0180a9                      0         143.9kB
fa9308742f6e8228e0defd43813532546682e411c2ff904e2a73ae02fc716902                      0         0B
noprov_repoSystem_data                                                                1         2.181MB
docker-autofeedback_ldap_db_data                                                      0         131.1kB
docker-autofeedback_redis_data                                                        0         18.8MB
janus-inmemory_repoSystem_data                                                        1         0B
fold_solr_authority                                                                   0         178B
textcrimes-217-some-documents-are-in-anonymous-view-that-should-not-be_mariadb_data   0         206.7MB
01706f55e131b21cafaffdf053246d65497be312879efb32c8cdac7743a1ca9c                      0         143.9kB
autofeedback-webapp_ldap_db_data                                                      0         131.1kB
be21418d0b5b30260ff8d04185129e4483c3034ae1200af9c50e276220467f03                      0         143.9kB
e38adc0b7eafede00c4589c3fa0c5685259cb079c35aa1ffdb9fc28a00648195                      0         0B
e864c52bf696ca20cc4a65f1ecbf5b2712080bea851ec72479228a2e5fd0ce0b                      0         0B
textcrimes-217-some-documents-are-in-anonymous-view-that-should-not-be_app_config     0         51.31kB
1558cf0bcc99ea7d46e133e001d42ab966438303238d276e5074b1d4afccb0b8                      0         143.9kB
26f5e21f5849a9eb4ab420eac6cfe5569ea386921654d308974db5644e4124d5                      0         0B
docker-autofeedback_mariadb_data                                                      0         121.8MB
textcrimes-219-add-docker-compose-setup-for-running-review-apps_app_data              0         57.03kB
noprov_repoSystem_config                                                              1         117.1kB
3693ecbc6b5fbae73ff02f24ae5e127f68b7b6f11a078044e8adfa5139dc1042                      0         0B
4e90da1574cbe8b7f7e9856049749a13e346324084779d2e720af819024ad023                      0         0B
d6_solr_statistics                                                                    0         178B
d6_assetstore                                                                         0         0B
e3e9a20b2bb8cceccc92185971443c66b28c6fa3ea98c8b5e2c45308b326f6d3                      0         0B
e82dd7af5f1b4b3044b3f7ff147f9527e739a597600d6500d3c550f329b6397d                      0         143.9kB
1b9080fd4a8dfe8f0040aaa13ba18cf14a88c1c784055005b432accd58ac5f9c                      0         143.9kB
2482137c4e44f719b642baaef09d1366866f7e6e8b1ca3598d47558ee4b94107                      0         143.9kB
2a1a4f2ecbd444e2424a4ca6fd18b97753b53c16cf9003ca1a2cc0613beabc44                      0         143.9kB
615467f0ebbd07e0c3613b11460bcd897a1cc77bbaed3e495f0ce472cee8184c                      0         0B
cdo-server-master_repo_data                                                           0         2.181MB
janusgraph-docker_janusgraph-default-data                                             0         0B
autofeedback-it_app_data                                                              0         143.5kB
docker-autofeedback_app_public_data                                                   0         0B
48b56e40bb15b4ede3dc5672f9995e6c77b203704541c2ff96d8a8197e8baf3a                      0         143.9kB
6b5888a15a4d01827da4324c79218dbc135029ea2cb8c78141fb3e2bf34f4143                      0         0B
autofeedback-webapp_redis_data                                                        0         579B
df47aec8bcce41820bf39b3a1c4c5715aaa420f295af2bd312f7a4a16dd33939                      0         0B

Build cache usage: 0B

CACHE ID       CACHE TYPE   SIZE      CREATED        LAST USED      USAGE     SHARED
0248571ab8e7   regular      329kB     3 months ago                  0         true
0b1d811cf3c0   regular      23.2MB    3 months ago                  0         true
1d0fd3fe0baf   regular      26.4MB    3 months ago                  0         true
1ee349c4d1a9   regular      0B        3 months ago                  0         true
23d5cba3a059   regular      496MB     3 months ago                  0         true
25f85687a782   regular      87B       3 months ago                  0         true
39303adc020d   regular      443B      3 months ago                  0         true
71ada72ac4fa   regular      2.21MB    3 months ago                  0         true
80f4436f151d   regular      33B       3 months ago                  0         true
984e8d35fe94   regular      209MB     3 months ago                  0         true
b20c1bb531c7   regular      142MB     3 months ago                  0         true
b5af5fa48ff5   regular      1.32MB    2 months ago                  0         true
bb0105ce0027   regular      48B       2 months ago                  0         true
c581f4ede92d   regular      101MB     3 months ago                  0         true
d3fa03647647   regular      7.81MB    3 months ago                  0         true
d7764a2a2574   regular      348MB     3 months ago                  0         true
db6282b366fa   regular      1.65kB    3 months ago                  0         true
e672ffb69c4a   regular      10.6MB    3 months ago                  0         true
e88cfd7b4438   regular      327B      3 months ago                  0         true
f481364aea49   regular      1.16kB    3 months ago                  0         true
f9db0d9e19c3   regular      11.3MB    3 months ago                  0         true
9780f6d83e45   regular      114MB     3 months ago   2 months ago   3         true
5173011923d0   regular      16.5MB    3 months ago   2 months ago   3         true
4bb57adf9037   regular      17.5MB    3 months ago   2 months ago   3         true
d5d618196ec3   regular      146MB     3 months ago   2 months ago   3         true
3383e45b22b2   regular      11.1MB    3 months ago   2 months ago   3         true
254cf71da09b   regular      27B       3 months ago   2 months ago   3         true
d0fe97fa8b8c   regular      69.2MB    2 months ago   2 months ago   10        true
e01bf079d132   regular      8.78MB    2 months ago   2 months ago   10        true
d803038a0118   regular      27B       2 months ago   2 months ago   10        true
ee3e88ad60b6   regular      210MB     2 months ago   2 months ago   10        true
nxemdm3iodbl   regular      329kB     2 months ago   2 months ago   8         true
vojf32fc6yst   regular      1.32MB    2 months ago   2 months ago   7         true
tqsjccu22io7   regular      353B      2 months ago   2 months ago   5         true
8xaphipmajx9   regular      0B        2 months ago   2 months ago   5         true
yt18vmg1nnfb   regular      99.9MB    2 months ago   2 months ago   3         true
wzkogccwebyz   regular      0B        2 months ago   2 months ago   1         true
0v3e0klgv1nb   regular      2.63kB    2 months ago   2 months ago   3         true
wb7o89umpnk2   regular      72.6kB    2 months ago   2 months ago   1         true
an6ovt283sp4   regular      2.84MB    2 months ago   2 months ago   1         true
v55ao79up5dv   regular      247B      2 months ago   2 months ago   1         true
xc663h66vvev   regular      0B        2 months ago   2 months ago   1         true
5z8udut02kn7   regular      32.8MB    2 months ago   2 months ago   1         true
3m2duoxnt5ih   regular      0B        2 months ago   2 months ago   1         true
4lwi0z5cy9wc   regular      32.8MB    2 months ago   2 months ago   1         true
ps6ua07dh3l6   regular      0B        2 months ago   2 months ago   1         true
ul6d9bkxnu9f   regular      3.17MB    2 months ago   2 months ago   1         true
q9w29q65wmju   regular      2.84MB    2 months ago   2 months ago   1         true
ablqlyow71te   regular      72.6kB    2 months ago   2 months ago   1         true
0fb337af2f4b   regular      53.5kB    2 months ago   2 months ago   1         true
ba9df52ca7b4   regular      14.4MB    2 months ago   2 months ago   1         true
be383d830bfe   regular      2.46MB    2 months ago   2 months ago   1         true
5affc1490ed5   regular      2.33MB    2 months ago   2 months ago   1         true
160c1dbab591   regular      2.44MB    2 months ago   2 months ago   1         true
f852f9c5f34f   regular      0B        2 months ago   2 months ago   1         true
c07b560dfdd0   regular      0B        2 months ago   2 months ago   1         true
f06356686e2a   regular      11B       2 months ago   2 months ago   1         true
5be32b568931   regular      11B       2 months ago   2 months ago   1         true
595d56eacb66   regular      33.2kB    2 months ago   2 months ago   1         true
0dc976394cbc   regular      34.4kB    2 months ago   2 months ago   1         true
n0a62h84szjf   regular      1.31kB    2 months ago   2 months ago   1         true
2wml326d1m58   regular      476B      2 months ago   2 months ago   1         true
t32cz35pipe2   regular      3.17MB    2 months ago   2 months ago   1         true
k5oqslyxn400   regular      1.63MB    2 months ago   2 months ago   5         true
os3q503kmkw7   regular      24.4MB    2 months ago   2 months ago   5         true
3u5of8dn7rad   regular      0B        2 months ago   2 months ago   5         true
s88wp1gr4x2g   regular      1.67kB    2 months ago   2 months ago   4         true
285ffda5b32b   regular      10.4MB    2 months ago   2 months ago   5         true
83476e1b2da4   regular      587B      2 months ago   2 months ago   5         true
6521d9dae284   regular      62.6MB    2 months ago   2 months ago   5         true
832cecd838ca   regular      6.72kB    2 months ago   2 months ago   5         true
190a5858822c   regular      46.7kB    2 months ago   2 months ago   5         true
w5a6tyy0owda   regular      2.2MB     2 months ago   2 months ago   5         true
jrq5c9dsagam   regular      276MB     2 months ago   2 months ago   5         true
djhuay6feb5z   regular      6.23MB    2 months ago   2 months ago   5         true
2t97du465cz0   regular      90B       2 months ago   2 months ago   5         true
kg70a72rkhd5   regular      1.7kB     2 months ago   2 months ago   5         true
wy28p01bm5xb   regular      667B      2 months ago   2 months ago   5         true
etsozg197y2m   regular      0B        2 months ago   2 months ago   5         true
3e207b409db3   regular      5.61MB    2 months ago   2 months ago   7         true
2c094e97f738   regular      104MB     2 months ago   2 months ago   7         true
548877dc17d2   regular      7.62MB    2 months ago   2 months ago   7         true
b7c90b88ad34   regular      116B      2 months ago   2 months ago   8         true
ace0eda3e3be   regular      5.57MB    2 months ago   2 months ago   10        true
290243221064   regular      2.75MB    2 months ago   2 months ago   10        true
d70c58dec99c   regular      4.68kB    2 months ago   2 months ago   10        true
b53d3ebfb226   regular      0B        2 months ago   2 months ago   10        true
e81f6a7a0e80   regular      10.4MB    2 months ago   2 months ago   5         true
306183b04a48   regular      587B      2 months ago   2 months ago   5         true
131b00efa01a   regular      62.7MB    2 months ago   2 months ago   5         true
a3899fb1a2fe   regular      6.73kB    2 months ago   2 months ago   5         true
1114e08953b8   regular      46.7kB    2 months ago   2 months ago   5         true
837e6626ed1f   regular      25.4kB    2 months ago   2 months ago   5         true
nqwwt9y3zll2   regular      2.2MB     2 months ago   2 months ago   5         true
tbw4fvldb5ir   regular      20.4MB    2 months ago   2 months ago   5         true
yejkmoi76rrh   regular      6.14MB    2 months ago   2 months ago   6         true
e4dd870fa921   regular      67.5MB    2 months ago   2 months ago   16        true
t8x3t5oc8y7k   regular      0B        3 weeks ago    3 weeks ago    1         true
5yy3sxrficr3   regular      0B        3 weeks ago    3 weeks ago    1         true
19s5w0qdqenc   regular      0B        3 weeks ago    3 weeks ago    2         true
sqdyu6t1f0n8   regular      2.3kB     3 weeks ago    3 weeks ago    2         true
wtjy3jv85el1   regular      0B        3 weeks ago    3 weeks ago    2         true
sxh35sbl55fr   regular      0B        3 weeks ago    3 weeks ago    12        true
34zxoz4uiiku   regular      0B        3 weeks ago    3 weeks ago    12        true
osnwl4o9fdpd   regular      0B        3 weeks ago    3 weeks ago    12        true
xszke2cn3psk   regular      0B        3 weeks ago    3 weeks ago    12        true
ipttkq7yh3p8   regular      0B        3 weeks ago    3 weeks ago    12        true
is4oekq2yuuv   regular      0B        3 weeks ago    3 weeks ago    12        true
qtykkv44m8dt   regular      0B        3 weeks ago    3 weeks ago    11        true
l2hzbngjle6a   regular      329kB     3 weeks ago    3 weeks ago    11        true
ndyscp1krin1   regular      0B        3 weeks ago    3 weeks ago    7         true
fky1rlbcfww7   regular      0B        3 weeks ago    3 weeks ago    1         true
722djat4nsmj   regular      0B        3 weeks ago    3 weeks ago    1         true
r0hjkmxcbhpj   regular      11MB      3 weeks ago    3 weeks ago    4         true
m62gmc6rmlp9   regular      2.3kB     3 weeks ago    3 weeks ago    1         true
7538197ce091   regular      327B      3 months ago   2 weeks ago    7         true
f94641f1fe1f   regular      101MB     3 months ago   2 weeks ago    16        true
ddf0293e8e23   regular      23.2MB    3 months ago   2 weeks ago    16        true
a9a9c8853295   regular      7.81MB    3 months ago   2 weeks ago    16        true
fa14a85b824e   regular      2.05MB    3 months ago   2 weeks ago    16        true
6b6450559d31   regular      87B       3 months ago   2 weeks ago    16        true
067619b0ac68   regular      33B       3 months ago   2 weeks ago    16        true
fc82c5f00299   regular      309MB     3 months ago   2 weeks ago    16        true
5f01074ca9f4   regular      0B        3 months ago   2 weeks ago    16        true
4abee72d794e   regular      1.86MB    3 months ago   2 weeks ago    16        true
c43fe4301f09   regular      18.2MB    3 months ago   2 weeks ago    16        true
ad683ea82dd8   regular      0B        3 months ago   2 weeks ago    17        true
nc3i8o2x60nw   regular      1.63MB    2 weeks ago    2 weeks ago    1         true
pgk39b4153wi   regular      24.2MB    2 weeks ago    2 weeks ago    1         true
kqe7nmafyg6t   regular      0B        2 weeks ago    2 weeks ago    1         true
znm35fwekcpt   regular      1.67kB    2 weeks ago    2 weeks ago    1         true
qr5l90zbeah6   regular      0B        2 weeks ago    2 weeks ago    2         true
hwkn2gfv7koi   regular      0B        2 weeks ago    2 weeks ago    2         true
pjmihgfy1ghb   regular      0B        2 weeks ago    2 weeks ago    2         true
kcv74bkj6xyk   regular      0B        2 weeks ago    2 weeks ago    2         true
976j3ehe2h6v   regular      0B        2 weeks ago    2 weeks ago    2         true
st5g321mnc29   regular      0B        2 weeks ago    2 weeks ago    1         true
msjzhgwwn08m   regular      1.32MB    2 weeks ago    2 weeks ago    1         true
hkxfhnvll987   regular      2.2MB     2 weeks ago    2 weeks ago    1         true
ycrgtrcccluk   regular      379B      2 weeks ago    2 weeks ago    1         true
mup6p8j9ejz0   regular      18.7MB    2 weeks ago    2 weeks ago    1         true
fp1n3v93j3fs   regular      1.64MB    2 weeks ago    2 weeks ago    1         true
ooo46ysi02f6   regular      72.6kB    2 weeks ago    2 weeks ago    1         true
mwffxelf5xxj   regular      0B        2 weeks ago    2 weeks ago    1         true
prhf9d7qe7dn   regular      6.15MB    2 weeks ago    2 weeks ago    1         true
l36kn10644x9   regular      2.65kB    2 weeks ago    2 weeks ago    1         true
qvsa385rnydy   regular      0B        2 weeks ago    2 weeks ago    1         true
10jm2rxyjoyy   regular      0B        2 weeks ago    2 weeks ago    2         true
0lrp2w3omoa8   regular      0B        2 weeks ago    2 weeks ago    2         true
uoqz0dryespl   regular      0B        2 weeks ago    2 weeks ago    2         true
4s7ir45xck9e   regular      0B        2 weeks ago    2 weeks ago    2         true
mnlt27ov26yw   regular      0B        2 weeks ago    2 weeks ago    2         true
s8wiqvmfven7   regular      0B        2 weeks ago    2 weeks ago    2         true
sw83g1w25azs   regular      0B        2 weeks ago    2 weeks ago    2         true
kix4exbe4kps   regular      0B        2 weeks ago    2 weeks ago    2         true
yz4f6ofrevjq   regular      0B        2 weeks ago    2 weeks ago    2         true
sembb4h1fso7   regular      0B        2 weeks ago    2 weeks ago    2         true
lt28duy0h2sy   regular      0B        2 weeks ago    2 weeks ago    2         true
qvlcnvv1onws   regular      0B        2 weeks ago    2 weeks ago    1         true
mx0dur8lj5ej   regular      476B      2 weeks ago    2 weeks ago    1         true
z5k0h08f5i0r   regular      0B        2 weeks ago    2 weeks ago    19        true
kodaw6uzf7sb   regular      0B        2 weeks ago    2 weeks ago    19        true
ujkn23ngq1cj   regular      0B        2 weeks ago    2 weeks ago    19        true
pu1c9xia42zp   regular      0B        2 weeks ago    2 weeks ago    19        true
mb3qqp5ub8ms   regular      0B        2 weeks ago    2 weeks ago    17        true
21nsh3092lg6   regular      0B        2 weeks ago    2 weeks ago    17        true
i6bjxfn998qw   regular      0B        2 weeks ago    2 weeks ago    17        true
vlbe1lxt926s   regular      0B        2 weeks ago    2 weeks ago    17        true
jawrusv6pfkw   regular      0B        2 weeks ago    2 weeks ago    15        true
jh4irbfdefpn   regular      2.2MB     2 weeks ago    2 weeks ago    15        true
2d6udxknmwgo   regular      295MB     2 weeks ago    2 weeks ago    15        true
xfgpngyglbxq   regular      6.24MB    2 weeks ago    2 weeks ago    15        true
x7utnkua063s   regular      90B       2 weeks ago    2 weeks ago    15        true
lj4szbrd08ka   regular      1.7kB     2 weeks ago    2 weeks ago    16        true
ilb5dt7mybnd   regular      927B      2 weeks ago    2 weeks ago    4         true
a0zrdw0vtrdb   regular      0B        2 weeks ago    2 weeks ago    4         true
i4nf0yckz2tx   regular      1.32MB    2 weeks ago    2 weeks ago    4         true
14de6c9pz2fq   regular      203kB     2 weeks ago    2 weeks ago    4         true
yu43s90g1y42   regular      2.3MB     2 weeks ago    2 weeks ago    4         true
luqehjilsfcb   regular      0B        2 weeks ago    2 weeks ago    4         true
qv1ietb1x75i   regular      72.6kB    2 weeks ago    2 weeks ago    4         true
7wcnl73811c9   regular      615B      2 weeks ago    2 weeks ago    4         true
ecdv64bgqtex   regular      0B        2 weeks ago    2 weeks ago    4         true
3xv3bks8a3a4   regular      0B        2 weeks ago    2 weeks ago    3         true
vd4kkbl2tngb   regular      0B        2 weeks ago    2 weeks ago    3         true
tysrrawh49y1   regular      0B        2 weeks ago    2 weeks ago    3         true
b6c7982a7c36   regular      109B      2 months ago   2 weeks ago    19        true
9l0xnfsaqaoh   regular      1.32MB    2 weeks ago    2 weeks ago    1         true
im87wnz4jyto   regular      0B        2 weeks ago    2 weeks ago    1         true
dmcecvr07i5o   regular      0B        2 weeks ago    2 weeks ago    2         true
eyev6drx7cjr   regular      2.48MB    2 weeks ago    2 weeks ago    1         true
l8h9ymksejsz   regular      4.82kB    2 weeks ago    2 weeks ago    1         true
o4sq2fp04whg   regular      499B      2 weeks ago    2 weeks ago    1         true
it4gi3cmo077   regular      0B        13 days ago    13 days ago    1         true
yyiey3swxdhk   regular      0B        13 days ago    13 days ago    1         true
gkqsyd45mkdk   regular      0B        13 days ago    13 days ago    1         true
l3tuj9ddbc16   regular      0B        13 days ago    13 days ago    1         true
c6bmscrx9kt0   regular      0B        13 days ago    13 days ago    1         true
ss38lvc9b2l4   regular      0B        13 days ago    13 days ago    1         true
d2e202e9b6db   regular      0B        3 months ago   13 days ago    6         true
ttstu8eb3n56   regular      0B        13 days ago    13 days ago    1         true
