Feb 13 03:14:15 CONTAINER ID   NAME      CPU %     MEM USAGE / LIMIT   MEM %     NET I/O   BLOCK I/O   PIDS
Feb 13 03:14:19 CONTAINER ID   NAME                          CPU %     MEM USAGE / LIMIT     MEM %     NET I/O       BLOCK I/O     PIDS
Feb 13 03:14:19 71e6377199e3   janus-inmemory_janusgraph_1   179.23%   102.6MiB / 15.07GiB   0.67%     1.54kB / 0B   0B / 77.8kB   19
Feb 13 03:14:19 c8e3c12f622e   janus-inmemory_repoSystem_1   157.88%   83.74MiB / 15.07GiB   0.54%     5.59kB / 0B   0B / 0B       30
Feb 13 03:14:22 CONTAINER ID   NAME                          CPU %     MEM USAGE / LIMIT     MEM %     NET I/O       BLOCK I/O     PIDS
Feb 13 03:14:22 71e6377199e3   janus-inmemory_janusgraph_1   223.13%   667.8MiB / 15.07GiB   4.33%     10.7kB / 0B   0B / 77.8kB   21
Feb 13 03:14:22 c8e3c12f622e   janus-inmemory_repoSystem_1   213.14%   166.1MiB / 15.07GiB   1.08%     9.34kB / 0B   0B / 1.41MB   36
Feb 13 03:14:26 CONTAINER ID   NAME                          CPU %     MEM USAGE / LIMIT     MEM %     NET I/O       BLOCK I/O     PIDS
Feb 13 03:14:26 71e6377199e3   janus-inmemory_janusgraph_1   313.45%   756.3MiB / 15.07GiB   4.90%     11kB / 0B     0B / 77.8kB   23
Feb 13 03:14:26 c8e3c12f622e   janus-inmemory_repoSystem_1   0.15%     176.3MiB / 15.07GiB   1.14%     10.9kB / 0B   0B / 1.76MB   37
Feb 13 03:14:29 CONTAINER ID   NAME                          CPU %     MEM USAGE / LIMIT     MEM %     NET I/O       BLOCK I/O     PIDS
Feb 13 03:14:29 71e6377199e3   janus-inmemory_janusgraph_1   28.22%    24.44MiB / 15.07GiB   0.16%     11.3kB / 0B   0B / 111kB    16
Feb 13 03:14:29 c8e3c12f622e   janus-inmemory_repoSystem_1   0.15%     164MiB / 15.07GiB     1.06%     11.3kB / 0B   0B / 1.76MB   33
Feb 13 03:14:33 CONTAINER ID   NAME                          CPU %     MEM USAGE / LIMIT     MEM %     NET I/O       BLOCK I/O     PIDS
Feb 13 03:14:33 71e6377199e3   janus-inmemory_janusgraph_1   305.93%   717.3MiB / 15.07GiB   4.65%     11.5kB / 0B   0B / 111kB    21
Feb 13 03:14:33 c8e3c12f622e   janus-inmemory_repoSystem_1   0.15%     164MiB / 15.07GiB     1.06%     11.6kB / 0B   0B / 1.76MB   33
Feb 13 03:14:37 CONTAINER ID   NAME                          CPU %     MEM USAGE / LIMIT   MEM %     NET I/O         BLOCK I/O     PIDS
Feb 13 03:14:37 71e6377199e3   janus-inmemory_janusgraph_1   61.64%    738MiB / 15.07GiB   4.78%     12.9kB / 778B   0B / 111kB    26
Feb 13 03:14:37 c8e3c12f622e   janus-inmemory_repoSystem_1   0.20%     164MiB / 15.07GiB   1.06%     11.7kB / 0B     0B / 1.76MB   33
Feb 13 03:14:40 CONTAINER ID   NAME                          CPU %     MEM USAGE / LIMIT     MEM %     NET I/O         BLOCK I/O     PIDS
Feb 13 03:14:40 71e6377199e3   janus-inmemory_janusgraph_1   64.77%    731.8MiB / 15.07GiB   4.74%     19kB / 4.75kB   0B / 111kB    47
Feb 13 03:14:40 c8e3c12f622e   janus-inmemory_repoSystem_1   6.91%     168.9MiB / 15.07GiB   1.09%     32kB / 17.7kB   0B / 1.76MB   43
Feb 13 03:14:44 CONTAINER ID   NAME                          CPU %     MEM USAGE / LIMIT   MEM %     NET I/O           BLOCK I/O     PIDS
Feb 13 03:14:44 71e6377199e3   janus-inmemory_janusgraph_1   184.83%   742MiB / 15.07GiB   4.81%     350kB / 169kB     0B / 111kB    53
Feb 13 03:14:44 c8e3c12f622e   janus-inmemory_repoSystem_1   1.98%     169MiB / 15.07GiB   1.10%     36.4kB / 20.1kB   0B / 1.76MB   43
Feb 13 03:14:48 CONTAINER ID   NAME                          CPU %     MEM USAGE / LIMIT     MEM %     NET I/O           BLOCK I/O     PIDS
Feb 13 03:14:48 71e6377199e3   janus-inmemory_janusgraph_1   215.88%   743.5MiB / 15.07GiB   4.82%     795kB / 393kB     0B / 111kB    53
Feb 13 03:14:48 c8e3c12f622e   janus-inmemory_repoSystem_1   4.21%     169.2MiB / 15.07GiB   1.10%     41.4kB / 23.3kB   0B / 1.76MB   43
Feb 13 03:14:51 CONTAINER ID   NAME                          CPU %     MEM USAGE / LIMIT     MEM %     NET I/O           BLOCK I/O     PIDS
Feb 13 03:14:51 71e6377199e3   janus-inmemory_janusgraph_1   240.71%   761.5MiB / 15.07GiB   4.93%     1.42MB / 709kB    0B / 111kB    53
Feb 13 03:14:51 c8e3c12f622e   janus-inmemory_repoSystem_1   15.61%    169.7MiB / 15.07GiB   1.10%     47.8kB / 27.6kB   0B / 1.88MB   43
Feb 13 03:14:55 CONTAINER ID   NAME                          CPU %     MEM USAGE / LIMIT     MEM %     NET I/O           BLOCK I/O     PIDS
Feb 13 03:14:55 71e6377199e3   janus-inmemory_janusgraph_1   188.94%   754.7MiB / 15.07GiB   4.89%     2.26MB / 1.13MB   0B / 111kB    53
Feb 13 03:14:55 c8e3c12f622e   janus-inmemory_repoSystem_1   10.05%    170MiB / 15.07GiB     1.10%     53.9kB / 32.4kB   0B / 1.88MB   43
Feb 13 03:14:58 CONTAINER ID   NAME                          CPU %     MEM USAGE / LIMIT     MEM %     NET I/O           BLOCK I/O     PIDS
Feb 13 03:14:58 71e6377199e3   janus-inmemory_janusgraph_1   155.25%   755.1MiB / 15.07GiB   4.89%     3.01MB / 1.52MB   0B / 111kB    53
Feb 13 03:14:58 c8e3c12f622e   janus-inmemory_repoSystem_1   2.34%     170.4MiB / 15.07GiB   1.10%     60.6kB / 38kB     0B / 1.88MB   43
Feb 13 03:15:01 CONTAINER ID   NAME                          CPU %     MEM USAGE / LIMIT     MEM %     NET I/O           BLOCK I/O     PIDS
Feb 13 03:15:01 71e6377199e3   janus-inmemory_janusgraph_1   166.94%   755.6MiB / 15.07GiB   4.90%     4.02MB / 2.02MB   0B / 111kB    53
Feb 13 03:15:01 c8e3c12f622e   janus-inmemory_repoSystem_1   7.07%     170.6MiB / 15.07GiB   1.11%     69.7kB / 46.7kB   0B / 1.88MB   43
Feb 13 03:15:05 CONTAINER ID   NAME                          CPU %     MEM USAGE / LIMIT     MEM %     NET I/O           BLOCK I/O     PIDS
Feb 13 03:15:05 71e6377199e3   janus-inmemory_janusgraph_1   70.97%    853.6MiB / 15.07GiB   5.53%     5.36MB / 2.7MB    0B / 111kB    53
Feb 13 03:15:05 c8e3c12f622e   janus-inmemory_repoSystem_1   2.58%     171.2MiB / 15.07GiB   1.11%     81.1kB / 57.5kB   0B / 1.88MB   43
Feb 13 03:15:08 CONTAINER ID   NAME                          CPU %     MEM USAGE / LIMIT     MEM %     NET I/O           BLOCK I/O     PIDS
Feb 13 03:15:08 71e6377199e3   janus-inmemory_janusgraph_1   66.79%    853.6MiB / 15.07GiB   5.53%     8.02MB / 4.04MB   0B / 111kB    53
Feb 13 03:15:08 c8e3c12f622e   janus-inmemory_repoSystem_1   1.54%     171.3MiB / 15.07GiB   1.11%     85.8kB / 60.9kB   0B / 1.88MB   43
Feb 13 03:15:12 CONTAINER ID   NAME                          CPU %     MEM USAGE / LIMIT     MEM %     NET I/O           BLOCK I/O     PIDS
Feb 13 03:15:12 71e6377199e3   janus-inmemory_janusgraph_1   65.23%    859MiB / 15.07GiB     5.57%     10.2MB / 5.13MB   0B / 111kB    53
Feb 13 03:15:12 c8e3c12f622e   janus-inmemory_repoSystem_1   3.89%     171.6MiB / 15.07GiB   1.11%     91.9kB / 65.3kB   0B / 1.88MB   43
Feb 13 03:15:16 CONTAINER ID   NAME                          CPU %     MEM USAGE / LIMIT     MEM %     NET I/O           BLOCK I/O     PIDS
Feb 13 03:15:16 71e6377199e3   janus-inmemory_janusgraph_1   66.00%    868.3MiB / 15.07GiB   5.63%     12.5MB / 6.28MB   0B / 111kB    53
Feb 13 03:15:16 c8e3c12f622e   janus-inmemory_repoSystem_1   1.80%     171.7MiB / 15.07GiB   1.11%     96.6kB / 67.8kB   0B / 1.88MB   43
Feb 13 03:15:19 CONTAINER ID   NAME                          CPU %     MEM USAGE / LIMIT     MEM %     NET I/O          BLOCK I/O     PIDS
Feb 13 03:15:19 71e6377199e3   janus-inmemory_janusgraph_1   34.70%    868.3MiB / 15.07GiB   5.63%     14MB / 7.06MB    0B / 111kB    53
Feb 13 03:15:19 c8e3c12f622e   janus-inmemory_repoSystem_1   2.84%     172MiB / 15.07GiB     1.11%     104kB / 72.8kB   0B / 1.88MB   43
Feb 13 03:15:23 CONTAINER ID   NAME                          CPU %     MEM USAGE / LIMIT     MEM %     NET I/O           BLOCK I/O     PIDS
Feb 13 03:15:23 71e6377199e3   janus-inmemory_janusgraph_1   58.75%    875.8MiB / 15.07GiB   5.68%     15.4MB / 7.77MB   0B / 111kB    53
Feb 13 03:15:23 c8e3c12f622e   janus-inmemory_repoSystem_1   8.94%     172.2MiB / 15.07GiB   1.12%     114kB / 79.7kB    0B / 1.88MB   43
Feb 13 03:15:26 CONTAINER ID   NAME                          CPU %     MEM USAGE / LIMIT     MEM %     NET I/O           BLOCK I/O     PIDS
Feb 13 03:15:26 71e6377199e3   janus-inmemory_janusgraph_1   42.98%    875.6MiB / 15.07GiB   5.67%     16.8MB / 8.48MB   0B / 111kB    53
Feb 13 03:15:26 c8e3c12f622e   janus-inmemory_repoSystem_1   4.64%     172.4MiB / 15.07GiB   1.12%     124kB / 88.6kB    0B / 1.88MB   43
Feb 13 03:15:30 CONTAINER ID   NAME                          CPU %     MEM USAGE / LIMIT     MEM %     NET I/O           BLOCK I/O     PIDS
Feb 13 03:15:30 71e6377199e3   janus-inmemory_janusgraph_1   57.79%    875.6MiB / 15.07GiB   5.67%     17.8MB / 8.96MB   0B / 111kB    53
Feb 13 03:15:30 c8e3c12f622e   janus-inmemory_repoSystem_1   4.60%     172.6MiB / 15.07GiB   1.12%     136kB / 101kB     0B / 1.88MB   43
Feb 13 03:15:34 CONTAINER ID   NAME                          CPU %     MEM USAGE / LIMIT     MEM %     NET I/O           BLOCK I/O     PIDS
Feb 13 03:15:34 71e6377199e3   janus-inmemory_janusgraph_1   49.92%    882.8MiB / 15.07GiB   5.72%     19.6MB / 9.84MB   0B / 111kB    53
Feb 13 03:15:34 c8e3c12f622e   janus-inmemory_repoSystem_1   4.02%     172.8MiB / 15.07GiB   1.12%     143kB / 107kB     0B / 1.88MB   43
Feb 13 03:15:37 CONTAINER ID   NAME                          CPU %     MEM USAGE / LIMIT     MEM %     NET I/O           BLOCK I/O     PIDS
Feb 13 03:15:37 71e6377199e3   janus-inmemory_janusgraph_1   39.24%    882.7MiB / 15.07GiB   5.72%     20.9MB / 10.5MB   0B / 111kB    53
Feb 13 03:15:37 c8e3c12f622e   janus-inmemory_repoSystem_1   2.70%     173MiB / 15.07GiB     1.12%     156kB / 119kB     0B / 1.88MB   43
Feb 13 03:15:41 CONTAINER ID   NAME                          CPU %     MEM USAGE / LIMIT     MEM %     NET I/O         BLOCK I/O     PIDS
Feb 13 03:15:41 71e6377199e3   janus-inmemory_janusgraph_1   49.04%    882.7MiB / 15.07GiB   5.72%     21.9MB / 11MB   0B / 111kB    53
Feb 13 03:15:41 c8e3c12f622e   janus-inmemory_repoSystem_1   0.86%     173.1MiB / 15.07GiB   1.12%     164kB / 126kB   0B / 1.88MB   43
Feb 13 03:15:44 CONTAINER ID   NAME                          CPU %     MEM USAGE / LIMIT     MEM %     NET I/O           BLOCK I/O     PIDS
Feb 13 03:15:44 71e6377199e3   janus-inmemory_janusgraph_1   45.53%    886.3MiB / 15.07GiB   5.74%     23.2MB / 11.7MB   0B / 111kB    53
Feb 13 03:15:44 c8e3c12f622e   janus-inmemory_repoSystem_1   9.86%     173.1MiB / 15.07GiB   1.12%     172kB / 133kB     0B / 1.88MB   43
Feb 13 03:15:48 CONTAINER ID   NAME                          CPU %     MEM USAGE / LIMIT     MEM %     NET I/O           BLOCK I/O     PIDS
Feb 13 03:15:48 71e6377199e3   janus-inmemory_janusgraph_1   36.50%    886.3MiB / 15.07GiB   5.74%     25.1MB / 12.6MB   0B / 111kB    53
Feb 13 03:15:48 c8e3c12f622e   janus-inmemory_repoSystem_1   3.30%     173.4MiB / 15.07GiB   1.12%     179kB / 140kB     0B / 1.88MB   43
Feb 13 03:15:52 CONTAINER ID   NAME                          CPU %     MEM USAGE / LIMIT     MEM %     NET I/O           BLOCK I/O     PIDS
Feb 13 03:15:52 71e6377199e3   janus-inmemory_janusgraph_1   66.98%    889.9MiB / 15.07GiB   5.77%     26.3MB / 13.2MB   0B / 111kB    53
Feb 13 03:15:52 c8e3c12f622e   janus-inmemory_repoSystem_1   7.42%     173.5MiB / 15.07GiB   1.12%     186kB / 145kB     0B / 1.88MB   43
Feb 13 03:15:55 CONTAINER ID   NAME                          CPU %     MEM USAGE / LIMIT     MEM %     NET I/O           BLOCK I/O     PIDS
Feb 13 03:15:55 71e6377199e3   janus-inmemory_janusgraph_1   44.84%    889.6MiB / 15.07GiB   5.77%     27.7MB / 13.9MB   0B / 111kB    53
Feb 13 03:15:55 c8e3c12f622e   janus-inmemory_repoSystem_1   1.54%     173.5MiB / 15.07GiB   1.12%     198kB / 157kB     0B / 1.88MB   43
Feb 13 03:15:59 CONTAINER ID   NAME                          CPU %     MEM USAGE / LIMIT     MEM %     NET I/O           BLOCK I/O     PIDS
Feb 13 03:15:59 71e6377199e3   janus-inmemory_janusgraph_1   45.14%    889.6MiB / 15.07GiB   5.77%     28.8MB / 14.5MB   0B / 111kB    53
Feb 13 03:15:59 c8e3c12f622e   janus-inmemory_repoSystem_1   1.27%     173.6MiB / 15.07GiB   1.13%     211kB / 168kB     0B / 1.88MB   43
Feb 13 03:16:02 CONTAINER ID   NAME                          CPU %     MEM USAGE / LIMIT     MEM %     NET I/O           BLOCK I/O     PIDS
Feb 13 03:16:02 71e6377199e3   janus-inmemory_janusgraph_1   48.83%    893.5MiB / 15.07GiB   5.79%     30.8MB / 15.4MB   0B / 111kB    53
Feb 13 03:16:02 c8e3c12f622e   janus-inmemory_repoSystem_1   3.87%     173.7MiB / 15.07GiB   1.13%     217kB / 174kB     0B / 1.88MB   43
Feb 13 03:16:06 CONTAINER ID   NAME                          CPU %     MEM USAGE / LIMIT     MEM %     NET I/O           BLOCK I/O     PIDS
Feb 13 03:16:06 71e6377199e3   janus-inmemory_janusgraph_1   41.58%    893.5MiB / 15.07GiB   5.79%     32.2MB / 16.1MB   0B / 111kB    53
Feb 13 03:16:06 c8e3c12f622e   janus-inmemory_repoSystem_1   1.79%     173.9MiB / 15.07GiB   1.13%     230kB / 187kB     0B / 1.88MB   43
Feb 13 03:16:10 CONTAINER ID   NAME                          CPU %     MEM USAGE / LIMIT     MEM %     NET I/O           BLOCK I/O     PIDS
Feb 13 03:16:10 71e6377199e3   janus-inmemory_janusgraph_1   49.72%    893.7MiB / 15.07GiB   5.79%     33.3MB / 16.7MB   0B / 111kB    53
Feb 13 03:16:10 c8e3c12f622e   janus-inmemory_repoSystem_1   1.40%     173.9MiB / 15.07GiB   1.13%     242kB / 199kB     0B / 1.88MB   43
Feb 13 03:16:13 CONTAINER ID   NAME                          CPU %     MEM USAGE / LIMIT     MEM %     NET I/O           BLOCK I/O     PIDS
Feb 13 03:16:13 71e6377199e3   janus-inmemory_janusgraph_1   52.45%    893.6MiB / 15.07GiB   5.79%     35.2MB / 17.7MB   0B / 111kB    53
Feb 13 03:16:13 c8e3c12f622e   janus-inmemory_repoSystem_1   1.48%     174.1MiB / 15.07GiB   1.13%     249kB / 205kB     0B / 1.88MB   43
Feb 13 03:16:17 CONTAINER ID   NAME                          CPU %     MEM USAGE / LIMIT     MEM %     NET I/O           BLOCK I/O     PIDS
Feb 13 03:16:17 71e6377199e3   janus-inmemory_janusgraph_1   38.51%    893.6MiB / 15.07GiB   5.79%     36.7MB / 18.4MB   0B / 111kB    53
Feb 13 03:16:17 c8e3c12f622e   janus-inmemory_repoSystem_1   1.14%     174.1MiB / 15.07GiB   1.13%     262kB / 216kB     0B / 1.88MB   43
Feb 13 03:16:20 CONTAINER ID   NAME                          CPU %     MEM USAGE / LIMIT     MEM %     NET I/O           BLOCK I/O     PIDS
Feb 13 03:16:20 71e6377199e3   janus-inmemory_janusgraph_1   37.86%    893.8MiB / 15.07GiB   5.79%     38.2MB / 19.2MB   0B / 111kB    53
Feb 13 03:16:20 c8e3c12f622e   janus-inmemory_repoSystem_1   2.05%     174.3MiB / 15.07GiB   1.13%     272kB / 225kB     0B / 1.88MB   43
Feb 13 03:16:24 CONTAINER ID   NAME                          CPU %     MEM USAGE / LIMIT     MEM %     NET I/O           BLOCK I/O     PIDS
Feb 13 03:16:24 71e6377199e3   janus-inmemory_janusgraph_1   33.21%    893.8MiB / 15.07GiB   5.79%     39.3MB / 19.7MB   0B / 111kB    53
Feb 13 03:16:24 c8e3c12f622e   janus-inmemory_repoSystem_1   0.63%     174.1MiB / 15.07GiB   1.13%     278kB / 229kB     0B / 1.88MB   43
Feb 13 03:16:28 CONTAINER ID   NAME                          CPU %     MEM USAGE / LIMIT     MEM %     NET I/O           BLOCK I/O     PIDS
Feb 13 03:16:28 71e6377199e3   janus-inmemory_janusgraph_1   32.00%    894.8MiB / 15.07GiB   5.80%     40.5MB / 20.3MB   0B / 111kB    53
Feb 13 03:16:28 c8e3c12f622e   janus-inmemory_repoSystem_1   0.57%     174.2MiB / 15.07GiB   1.13%     286kB / 233kB     0B / 1.88MB   43
Feb 13 03:16:31 CONTAINER ID   NAME                          CPU %     MEM USAGE / LIMIT     MEM %     NET I/O           BLOCK I/O     PIDS
Feb 13 03:16:31 71e6377199e3   janus-inmemory_janusgraph_1   34.03%    894.7MiB / 15.07GiB   5.80%     41.6MB / 20.9MB   0B / 111kB    53
Feb 13 03:16:31 c8e3c12f622e   janus-inmemory_repoSystem_1   0.55%     174.1MiB / 15.07GiB   1.13%     290kB / 235kB     0B / 1.88MB   43
Feb 13 03:16:35 CONTAINER ID   NAME                          CPU %     MEM USAGE / LIMIT     MEM %     NET I/O           BLOCK I/O     PIDS
Feb 13 03:16:35 71e6377199e3   janus-inmemory_janusgraph_1   36.58%    894.7MiB / 15.07GiB   5.80%     42.7MB / 21.4MB   0B / 111kB    53
Feb 13 03:16:35 c8e3c12f622e   janus-inmemory_repoSystem_1   0.29%     174.1MiB / 15.07GiB   1.13%     296kB / 239kB     0B / 1.88MB   43
Feb 13 03:16:38 CONTAINER ID   NAME                          CPU %     MEM USAGE / LIMIT     MEM %     NET I/O         BLOCK I/O     PIDS
Feb 13 03:16:38 71e6377199e3   janus-inmemory_janusgraph_1   30.80%    894.7MiB / 15.07GiB   5.80%     44MB / 22.1MB   0B / 111kB    53
Feb 13 03:16:38 c8e3c12f622e   janus-inmemory_repoSystem_1   1.71%     174.1MiB / 15.07GiB   1.13%     305kB / 247kB   0B / 1.88MB   43
Feb 13 03:16:42 CONTAINER ID   NAME                          CPU %     MEM USAGE / LIMIT     MEM %     NET I/O           BLOCK I/O     PIDS
Feb 13 03:16:42 71e6377199e3   janus-inmemory_janusgraph_1   61.79%    894.7MiB / 15.07GiB   5.80%     45.1MB / 22.6MB   0B / 111kB    53
Feb 13 03:16:42 c8e3c12f622e   janus-inmemory_repoSystem_1   2.48%     174.1MiB / 15.07GiB   1.13%     317kB / 258kB     0B / 1.88MB   43
Feb 13 03:16:46 CONTAINER ID   NAME                          CPU %     MEM USAGE / LIMIT     MEM %     NET I/O           BLOCK I/O     PIDS
Feb 13 03:16:46 71e6377199e3   janus-inmemory_janusgraph_1   43.25%    894.7MiB / 15.07GiB   5.80%     46.9MB / 23.5MB   0B / 111kB    53
Feb 13 03:16:46 c8e3c12f622e   janus-inmemory_repoSystem_1   0.67%     174.1MiB / 15.07GiB   1.13%     322kB / 263kB     0B / 1.88MB   43
Feb 13 03:16:49 CONTAINER ID   NAME                          CPU %     MEM USAGE / LIMIT     MEM %     NET I/O         BLOCK I/O     PIDS
Feb 13 03:16:49 71e6377199e3   janus-inmemory_janusgraph_1   43.57%    896.8MiB / 15.07GiB   5.81%     47.9MB / 24MB   0B / 111kB    53
Feb 13 03:16:49 c8e3c12f622e   janus-inmemory_repoSystem_1   0.91%     174.2MiB / 15.07GiB   1.13%     336kB / 275kB   0B / 1.88MB   43
Feb 13 03:16:53 CONTAINER ID   NAME                          CPU %     MEM USAGE / LIMIT     MEM %     NET I/O           BLOCK I/O     PIDS
Feb 13 03:16:53 71e6377199e3   janus-inmemory_janusgraph_1   41.66%    896.7MiB / 15.07GiB   5.81%     49.4MB / 24.7MB   0B / 111kB    53
Feb 13 03:16:53 c8e3c12f622e   janus-inmemory_repoSystem_1   0.76%     174.3MiB / 15.07GiB   1.13%     344kB / 282kB     0B / 1.88MB   43
Feb 13 03:16:56 CONTAINER ID   NAME                          CPU %     MEM USAGE / LIMIT     MEM %     NET I/O           BLOCK I/O     PIDS
Feb 13 03:16:56 71e6377199e3   janus-inmemory_janusgraph_1   34.56%    896.7MiB / 15.07GiB   5.81%     50.4MB / 25.3MB   0B / 111kB    53
Feb 13 03:16:56 c8e3c12f622e   janus-inmemory_repoSystem_1   0.57%     174.2MiB / 15.07GiB   1.13%     349kB / 285kB     0B / 1.88MB   43
Feb 13 03:17:00 CONTAINER ID   NAME                          CPU %     MEM USAGE / LIMIT     MEM %     NET I/O         BLOCK I/O     PIDS
Feb 13 03:17:00 71e6377199e3   janus-inmemory_janusgraph_1   35.35%    897.9MiB / 15.07GiB   5.82%     52MB / 26.1MB   0B / 111kB    53
Feb 13 03:17:00 c8e3c12f622e   janus-inmemory_repoSystem_1   1.07%     174.2MiB / 15.07GiB   1.13%     356kB / 290kB   0B / 1.88MB   43
Feb 13 03:17:04 CONTAINER ID   NAME                          CPU %     MEM USAGE / LIMIT     MEM %     NET I/O         BLOCK I/O     PIDS
Feb 13 03:17:04 71e6377199e3   janus-inmemory_janusgraph_1   41.90%    897.9MiB / 15.07GiB   5.82%     53MB / 26.6MB   0B / 111kB    53
Feb 13 03:17:04 c8e3c12f622e   janus-inmemory_repoSystem_1   0.45%     174.2MiB / 15.07GiB   1.13%     365kB / 298kB   0B / 1.88MB   43
Feb 13 03:17:07 CONTAINER ID   NAME                          CPU %     MEM USAGE / LIMIT     MEM %     NET I/O           BLOCK I/O     PIDS
Feb 13 03:17:07 71e6377199e3   janus-inmemory_janusgraph_1   41.49%    897.9MiB / 15.07GiB   5.82%     54.5MB / 27.3MB   0B / 111kB    53
Feb 13 03:17:07 c8e3c12f622e   janus-inmemory_repoSystem_1   0.63%     174.2MiB / 15.07GiB   1.13%     369kB / 300kB     0B / 1.88MB   43
Feb 13 03:17:11 CONTAINER ID   NAME                          CPU %     MEM USAGE / LIMIT     MEM %     NET I/O           BLOCK I/O     PIDS
Feb 13 03:17:11 71e6377199e3   janus-inmemory_janusgraph_1   38.78%    897.9MiB / 15.07GiB   5.82%     55.4MB / 27.8MB   0B / 111kB    53
Feb 13 03:17:11 c8e3c12f622e   janus-inmemory_repoSystem_1   0.21%     174.3MiB / 15.07GiB   1.13%     380kB / 311kB     0B / 1.88MB   43
Feb 13 03:17:14 CONTAINER ID   NAME                          CPU %     MEM USAGE / LIMIT     MEM %     NET I/O           BLOCK I/O     PIDS
Feb 13 03:17:14 71e6377199e3   janus-inmemory_janusgraph_1   41.71%    897.9MiB / 15.07GiB   5.82%     57.2MB / 28.7MB   0B / 111kB    53
Feb 13 03:17:14 c8e3c12f622e   janus-inmemory_repoSystem_1   1.18%     174.2MiB / 15.07GiB   1.13%     390kB / 320kB     0B / 1.88MB   43
Feb 13 03:17:18 CONTAINER ID   NAME                          CPU %     MEM USAGE / LIMIT     MEM %     NET I/O           BLOCK I/O     PIDS
Feb 13 03:17:18 71e6377199e3   janus-inmemory_janusgraph_1   35.32%    897.9MiB / 15.07GiB   5.82%     58.3MB / 29.2MB   0B / 111kB    53
Feb 13 03:17:18 c8e3c12f622e   janus-inmemory_repoSystem_1   0.69%     174.2MiB / 15.07GiB   1.13%     398kB / 327kB     0B / 1.88MB   43
Feb 13 03:17:22 CONTAINER ID   NAME                          CPU %     MEM USAGE / LIMIT     MEM %     NET I/O         BLOCK I/O     PIDS
Feb 13 03:17:22 71e6377199e3   janus-inmemory_janusgraph_1   42.49%    900.2MiB / 15.07GiB   5.83%     59.9MB / 30MB   0B / 111kB    53
Feb 13 03:17:22 c8e3c12f622e   janus-inmemory_repoSystem_1   1.10%     174.2MiB / 15.07GiB   1.13%     404kB / 332kB   0B / 1.88MB   43
Feb 13 03:17:25 CONTAINER ID   NAME                          CPU %     MEM USAGE / LIMIT     MEM %     NET I/O           BLOCK I/O     PIDS
Feb 13 03:17:25 71e6377199e3   janus-inmemory_janusgraph_1   31.30%    900.2MiB / 15.07GiB   5.83%     60.7MB / 30.4MB   0B / 111kB    53
Feb 13 03:17:25 c8e3c12f622e   janus-inmemory_repoSystem_1   0.54%     174.2MiB / 15.07GiB   1.13%     414kB / 339kB     0B / 1.88MB   43
Feb 13 03:17:29 CONTAINER ID   NAME                          CPU %     MEM USAGE / LIMIT     MEM %     NET I/O           BLOCK I/O     PIDS
Feb 13 03:17:29 71e6377199e3   janus-inmemory_janusgraph_1   31.19%    900.2MiB / 15.07GiB   5.83%     62.2MB / 31.2MB   0B / 111kB    53
Feb 13 03:17:29 c8e3c12f622e   janus-inmemory_repoSystem_1   0.42%     174.2MiB / 15.07GiB   1.13%     417kB / 341kB     0B / 1.88MB   43
Feb 13 03:17:33 CONTAINER ID   NAME                          CPU %     MEM USAGE / LIMIT     MEM %     NET I/O           BLOCK I/O     PIDS
Feb 13 03:17:33 71e6377199e3   janus-inmemory_janusgraph_1   35.91%    900.4MiB / 15.07GiB   5.83%     63.4MB / 31.8MB   0B / 111kB    53
Feb 13 03:17:33 c8e3c12f622e   janus-inmemory_repoSystem_1   0.53%     174.3MiB / 15.07GiB   1.13%     422kB / 343kB     0B / 1.88MB   43
Feb 13 03:17:36 CONTAINER ID   NAME                          CPU %     MEM USAGE / LIMIT     MEM %     NET I/O           BLOCK I/O     PIDS
Feb 13 03:17:36 71e6377199e3   janus-inmemory_janusgraph_1   34.01%    900.4MiB / 15.07GiB   5.83%     64.1MB / 32.1MB   0B / 111kB    53
Feb 13 03:17:36 c8e3c12f622e   janus-inmemory_repoSystem_1   0.24%     174.3MiB / 15.07GiB   1.13%     429kB / 349kB     0B / 1.88MB   43
Feb 13 03:17:40 CONTAINER ID   NAME                          CPU %     MEM USAGE / LIMIT     MEM %     NET I/O           BLOCK I/O     PIDS
Feb 13 03:17:40 71e6377199e3   janus-inmemory_janusgraph_1   32.83%    902MiB / 15.07GiB     5.85%     65.6MB / 32.9MB   0B / 111kB    53
Feb 13 03:17:40 c8e3c12f622e   janus-inmemory_repoSystem_1   0.60%     174.3MiB / 15.07GiB   1.13%     434kB / 352kB     0B / 1.88MB   43
Feb 13 03:17:43 CONTAINER ID   NAME                          CPU %     MEM USAGE / LIMIT     MEM %     NET I/O           BLOCK I/O     PIDS
Feb 13 03:17:43 71e6377199e3   janus-inmemory_janusgraph_1   39.89%    902MiB / 15.07GiB     5.85%     66.6MB / 33.4MB   0B / 111kB    53
Feb 13 03:17:43 c8e3c12f622e   janus-inmemory_repoSystem_1   1.00%     178.9MiB / 15.07GiB   1.16%     443kB / 359kB     0B / 1.88MB   43
Feb 13 03:17:47 CONTAINER ID   NAME                          CPU %     MEM USAGE / LIMIT     MEM %     NET I/O         BLOCK I/O     PIDS
Feb 13 03:17:47 71e6377199e3   janus-inmemory_janusgraph_1   44.70%    902.1MiB / 15.07GiB   5.85%     67.9MB / 34MB   0B / 111kB    53
Feb 13 03:17:47 c8e3c12f622e   janus-inmemory_repoSystem_1   0.95%     178.6MiB / 15.07GiB   1.16%     452kB / 368kB   0B / 1.88MB   43
Feb 13 03:17:51 CONTAINER ID   NAME                          CPU %     MEM USAGE / LIMIT     MEM %     NET I/O           BLOCK I/O     PIDS
Feb 13 03:17:51 71e6377199e3   janus-inmemory_janusgraph_1   36.93%    902.1MiB / 15.07GiB   5.85%     69.7MB / 34.9MB   0B / 111kB    53
Feb 13 03:17:51 c8e3c12f622e   janus-inmemory_repoSystem_1   1.31%     178.6MiB / 15.07GiB   1.16%     461kB / 377kB     0B / 1.88MB   43
Feb 13 03:17:54 CONTAINER ID   NAME                          CPU %     MEM USAGE / LIMIT     MEM %     NET I/O           BLOCK I/O     PIDS
Feb 13 03:17:54 71e6377199e3   janus-inmemory_janusgraph_1   39.48%    902.1MiB / 15.07GiB   5.85%     70.8MB / 35.5MB   0B / 111kB    53
Feb 13 03:17:54 c8e3c12f622e   janus-inmemory_repoSystem_1   5.34%     174.3MiB / 15.07GiB   1.13%     474kB / 389kB     0B / 1.88MB   43
Feb 13 03:17:58 CONTAINER ID   NAME                          CPU %     MEM USAGE / LIMIT     MEM %     NET I/O           BLOCK I/O     PIDS
Feb 13 03:17:58 71e6377199e3   janus-inmemory_janusgraph_1   46.96%    902.4MiB / 15.07GiB   5.85%     72.3MB / 36.2MB   0B / 111kB    53
Feb 13 03:17:58 c8e3c12f622e   janus-inmemory_repoSystem_1   0.97%     174.3MiB / 15.07GiB   1.13%     483kB / 398kB     0B / 1.88MB   43
Feb 13 03:18:01 CONTAINER ID   NAME                          CPU %     MEM USAGE / LIMIT     MEM %     NET I/O           BLOCK I/O     PIDS
Feb 13 03:18:01 71e6377199e3   janus-inmemory_janusgraph_1   44.27%    902.1MiB / 15.07GiB   5.85%     73.6MB / 36.9MB   0B / 111kB    53
Feb 13 03:18:01 c8e3c12f622e   janus-inmemory_repoSystem_1   3.12%     174.5MiB / 15.07GiB   1.13%     493kB / 407kB     0B / 1.88MB   43
Feb 13 03:18:05 CONTAINER ID   NAME                          CPU %     MEM USAGE / LIMIT     MEM %     NET I/O           BLOCK I/O     PIDS
Feb 13 03:18:05 71e6377199e3   janus-inmemory_janusgraph_1   37.84%    902.1MiB / 15.07GiB   5.85%     75.1MB / 37.6MB   0B / 111kB    53
Feb 13 03:18:05 c8e3c12f622e   janus-inmemory_repoSystem_1   5.52%     174.5MiB / 15.07GiB   1.13%     505kB / 419kB     0B / 1.88MB   43
Feb 13 03:18:09 CONTAINER ID   NAME                          CPU %     MEM USAGE / LIMIT     MEM %     NET I/O           BLOCK I/O     PIDS
Feb 13 03:18:09 71e6377199e3   janus-inmemory_janusgraph_1   31.67%    902.1MiB / 15.07GiB   5.85%     76.8MB / 38.5MB   0B / 111kB    53
Feb 13 03:18:09 c8e3c12f622e   janus-inmemory_repoSystem_1   0.86%     174.4MiB / 15.07GiB   1.13%     509kB / 422kB     0B / 1.88MB   43
Feb 13 03:18:12 CONTAINER ID   NAME                          CPU %     MEM USAGE / LIMIT     MEM %     NET I/O         BLOCK I/O     PIDS
Feb 13 03:18:12 71e6377199e3   janus-inmemory_janusgraph_1   35.86%    902.1MiB / 15.07GiB   5.85%     77.9MB / 39MB   0B / 111kB    53
Feb 13 03:18:12 c8e3c12f622e   janus-inmemory_repoSystem_1   0.55%     174.5MiB / 15.07GiB   1.13%     514kB / 424kB   0B / 1.88MB   43
Feb 13 03:18:16 CONTAINER ID   NAME                          CPU %     MEM USAGE / LIMIT     MEM %     NET I/O           BLOCK I/O     PIDS
Feb 13 03:18:16 71e6377199e3   janus-inmemory_janusgraph_1   33.76%    902.1MiB / 15.07GiB   5.85%     78.9MB / 39.5MB   0B / 111kB    53
Feb 13 03:18:16 c8e3c12f622e   janus-inmemory_repoSystem_1   22.38%    181.7MiB / 15.07GiB   1.18%     519kB / 427kB     0B / 1.88MB   43
Feb 13 03:18:19 CONTAINER ID   NAME                          CPU %     MEM USAGE / LIMIT     MEM %     NET I/O         BLOCK I/O     PIDS
Feb 13 03:18:19 71e6377199e3   janus-inmemory_janusgraph_1   35.13%    902.1MiB / 15.07GiB   5.85%     80MB / 40.1MB   0B / 111kB    53
Feb 13 03:18:19 c8e3c12f622e   janus-inmemory_repoSystem_1   19.19%    182.4MiB / 15.07GiB   1.18%     525kB / 430kB   0B / 1.88MB   43
Feb 13 03:18:23 CONTAINER ID   NAME                          CPU %     MEM USAGE / LIMIT     MEM %     NET I/O           BLOCK I/O     PIDS
Feb 13 03:18:23 71e6377199e3   janus-inmemory_janusgraph_1   31.81%    902.1MiB / 15.07GiB   5.85%     81.3MB / 40.7MB   0B / 111kB    53
Feb 13 03:18:23 c8e3c12f622e   janus-inmemory_repoSystem_1   0.62%     210.4MiB / 15.07GiB   1.36%     531kB / 436kB     0B / 1.88MB   43
Feb 13 03:18:27 CONTAINER ID   NAME                          CPU %     MEM USAGE / LIMIT     MEM %     NET I/O           BLOCK I/O     PIDS
Feb 13 03:18:27 71e6377199e3   janus-inmemory_janusgraph_1   34.00%    902.1MiB / 15.07GiB   5.85%     82.2MB / 41.2MB   0B / 111kB    53
Feb 13 03:18:27 c8e3c12f622e   janus-inmemory_repoSystem_1   0.47%     191.7MiB / 15.07GiB   1.24%     538kB / 440kB     0B / 1.88MB   43
Feb 13 03:18:30 CONTAINER ID   NAME                          CPU %     MEM USAGE / LIMIT     MEM %     NET I/O           BLOCK I/O     PIDS
Feb 13 03:18:30 71e6377199e3   janus-inmemory_janusgraph_1   31.57%    903.4MiB / 15.07GiB   5.85%     83.1MB / 41.7MB   0B / 111kB    53
Feb 13 03:18:30 c8e3c12f622e   janus-inmemory_repoSystem_1   0.41%     191.7MiB / 15.07GiB   1.24%     543kB / 442kB     0B / 1.88MB   43
Feb 13 03:18:34 CONTAINER ID   NAME                          CPU %     MEM USAGE / LIMIT     MEM %     NET I/O           BLOCK I/O     PIDS
Feb 13 03:18:34 71e6377199e3   janus-inmemory_janusgraph_1   35.23%    903.4MiB / 15.07GiB   5.85%     84.4MB / 42.3MB   0B / 111kB    53
Feb 13 03:18:34 c8e3c12f622e   janus-inmemory_repoSystem_1   0.86%     191.7MiB / 15.07GiB   1.24%     552kB / 450kB     0B / 1.88MB   43
Feb 13 03:18:37 CONTAINER ID   NAME                          CPU %     MEM USAGE / LIMIT     MEM %     NET I/O           BLOCK I/O     PIDS
Feb 13 03:18:37 71e6377199e3   janus-inmemory_janusgraph_1   41.11%    904.8MiB / 15.07GiB   5.86%     86.2MB / 43.2MB   0B / 111kB    53
Feb 13 03:18:37 c8e3c12f622e   janus-inmemory_repoSystem_1   0.81%     191.8MiB / 15.07GiB   1.24%     558kB / 455kB     0B / 1.88MB   43
Feb 13 03:18:41 CONTAINER ID   NAME                          CPU %     MEM USAGE / LIMIT     MEM %     NET I/O           BLOCK I/O     PIDS
Feb 13 03:18:41 71e6377199e3   janus-inmemory_janusgraph_1   42.84%    904.8MiB / 15.07GiB   5.86%     87.3MB / 43.7MB   0B / 111kB    53
Feb 13 03:18:41 c8e3c12f622e   janus-inmemory_repoSystem_1   1.79%     191.8MiB / 15.07GiB   1.24%     571kB / 467kB     0B / 1.88MB   43
Feb 13 03:18:45 CONTAINER ID   NAME                          CPU %     MEM USAGE / LIMIT     MEM %     NET I/O           BLOCK I/O     PIDS
Feb 13 03:18:45 71e6377199e3   janus-inmemory_janusgraph_1   38.93%    904.8MiB / 15.07GiB   5.86%     88.9MB / 44.6MB   0B / 111kB    53
Feb 13 03:18:45 c8e3c12f622e   janus-inmemory_repoSystem_1   0.94%     181.8MiB / 15.07GiB   1.18%     576kB / 472kB     0B / 1.88MB   43
Feb 13 03:18:48 CONTAINER ID   NAME                          CPU %     MEM USAGE / LIMIT     MEM %     NET I/O           BLOCK I/O     PIDS
Feb 13 03:18:48 71e6377199e3   janus-inmemory_janusgraph_1   32.05%    906.3MiB / 15.07GiB   5.87%     90.1MB / 45.1MB   0B / 111kB    53
Feb 13 03:18:48 c8e3c12f622e   janus-inmemory_repoSystem_1   1.66%     181.7MiB / 15.07GiB   1.18%     584kB / 478kB     0B / 1.88MB   43
Feb 13 03:18:52 CONTAINER ID   NAME                          CPU %     MEM USAGE / LIMIT     MEM %     NET I/O           BLOCK I/O     PIDS
Feb 13 03:18:52 71e6377199e3   janus-inmemory_janusgraph_1   29.72%    906.3MiB / 15.07GiB   5.87%     91.5MB / 45.8MB   0B / 111kB    53
Feb 13 03:18:52 c8e3c12f622e   janus-inmemory_repoSystem_1   0.74%     181.9MiB / 15.07GiB   1.18%     592kB / 485kB     0B / 1.88MB   43
Feb 13 03:18:55 CONTAINER ID   NAME                          CPU %     MEM USAGE / LIMIT     MEM %     NET I/O           BLOCK I/O     PIDS
Feb 13 03:18:55 71e6377199e3   janus-inmemory_janusgraph_1   35.47%    906.3MiB / 15.07GiB   5.87%     92.7MB / 46.4MB   0B / 111kB    53
Feb 13 03:18:55 c8e3c12f622e   janus-inmemory_repoSystem_1   0.60%     181.8MiB / 15.07GiB   1.18%     596kB / 488kB     0B / 1.88MB   43
Feb 13 03:18:59 CONTAINER ID   NAME                          CPU %     MEM USAGE / LIMIT     MEM %     NET I/O           BLOCK I/O     PIDS
Feb 13 03:18:59 71e6377199e3   janus-inmemory_janusgraph_1   37.49%    907.7MiB / 15.07GiB   5.88%     93.7MB / 46.9MB   0B / 111kB    53
Feb 13 03:18:59 c8e3c12f622e   janus-inmemory_repoSystem_1   0.49%     181.8MiB / 15.07GiB   1.18%     602kB / 491kB     0B / 1.88MB   43
Feb 13 03:19:03 CONTAINER ID   NAME                          CPU %     MEM USAGE / LIMIT     MEM %     NET I/O           BLOCK I/O     PIDS
Feb 13 03:19:03 71e6377199e3   janus-inmemory_janusgraph_1   29.52%    907.7MiB / 15.07GiB   5.88%     94.8MB / 47.5MB   0B / 111kB    53
Feb 13 03:19:03 c8e3c12f622e   janus-inmemory_repoSystem_1   0.56%     181.8MiB / 15.07GiB   1.18%     608kB / 495kB     0B / 1.88MB   43
Feb 13 03:19:06 CONTAINER ID   NAME                          CPU %     MEM USAGE / LIMIT     MEM %     NET I/O           BLOCK I/O     PIDS
Feb 13 03:19:06 71e6377199e3   janus-inmemory_janusgraph_1   42.18%    909.3MiB / 15.07GiB   5.89%     96.2MB / 48.2MB   0B / 111kB    53
Feb 13 03:19:06 c8e3c12f622e   janus-inmemory_repoSystem_1   0.95%     181.8MiB / 15.07GiB   1.18%     616kB / 502kB     0B / 1.88MB   43
Feb 13 03:19:10 CONTAINER ID   NAME                          CPU %     MEM USAGE / LIMIT     MEM %     NET I/O           BLOCK I/O     PIDS
Feb 13 03:19:10 71e6377199e3   janus-inmemory_janusgraph_1   43.77%    909.1MiB / 15.07GiB   5.89%     97.3MB / 48.7MB   0B / 111kB    53
Feb 13 03:19:10 c8e3c12f622e   janus-inmemory_repoSystem_1   1.14%     181.9MiB / 15.07GiB   1.18%     628kB / 513kB     0B / 1.88MB   43
Feb 13 03:19:13 CONTAINER ID   NAME                          CPU %     MEM USAGE / LIMIT     MEM %     NET I/O           BLOCK I/O     PIDS
Feb 13 03:19:13 71e6377199e3   janus-inmemory_janusgraph_1   40.04%    909.1MiB / 15.07GiB   5.89%     98.5MB / 49.3MB   0B / 111kB    53
Feb 13 03:19:13 c8e3c12f622e   janus-inmemory_repoSystem_1   0.69%     182MiB / 15.07GiB     1.18%     634kB / 518kB     0B / 1.88MB   43
Feb 13 03:19:17 CONTAINER ID   NAME                          CPU %     MEM USAGE / LIMIT     MEM %     NET I/O           BLOCK I/O     PIDS
Feb 13 03:19:17 71e6377199e3   janus-inmemory_janusgraph_1   39.28%    910.5MiB / 15.07GiB   5.90%     99.6MB / 49.9MB   0B / 111kB    53
Feb 13 03:19:17 c8e3c12f622e   janus-inmemory_repoSystem_1   0.26%     181.9MiB / 15.07GiB   1.18%     640kB / 522kB     0B / 1.88MB   43
Feb 13 03:19:21 CONTAINER ID   NAME                          CPU %     MEM USAGE / LIMIT     MEM %     NET I/O          BLOCK I/O     PIDS
Feb 13 03:19:21 71e6377199e3   janus-inmemory_janusgraph_1   28.62%    910.5MiB / 15.07GiB   5.90%     101MB / 50.5MB   0B / 111kB    53
Feb 13 03:19:21 c8e3c12f622e   janus-inmemory_repoSystem_1   0.44%     181.9MiB / 15.07GiB   1.18%     645kB / 524kB    0B / 1.88MB   43
Feb 13 03:19:24 CONTAINER ID   NAME                          CPU %     MEM USAGE / LIMIT     MEM %     NET I/O         BLOCK I/O     PIDS
Feb 13 03:19:24 71e6377199e3   janus-inmemory_janusgraph_1   32.63%    910.5MiB / 15.07GiB   5.90%     102MB / 51MB    0B / 111kB    53
Feb 13 03:19:24 c8e3c12f622e   janus-inmemory_repoSystem_1   3.28%     181.9MiB / 15.07GiB   1.18%     651kB / 528kB   0B / 1.88MB   43
Feb 13 03:19:28 CONTAINER ID   NAME                          CPU %     MEM USAGE / LIMIT     MEM %     NET I/O          BLOCK I/O     PIDS
Feb 13 03:19:28 71e6377199e3   janus-inmemory_janusgraph_1   44.00%    912.2MiB / 15.07GiB   5.91%     103MB / 51.6MB   0B / 111kB    53
Feb 13 03:19:28 c8e3c12f622e   janus-inmemory_repoSystem_1   0.84%     181.9MiB / 15.07GiB   1.18%     657kB / 532kB    0B / 1.88MB   43
Feb 13 03:19:31 CONTAINER ID   NAME                          CPU %     MEM USAGE / LIMIT     MEM %     NET I/O          BLOCK I/O     PIDS
Feb 13 03:19:31 71e6377199e3   janus-inmemory_janusgraph_1   38.16%    911.9MiB / 15.07GiB   5.91%     105MB / 52.4MB   0B / 111kB    53
Feb 13 03:19:31 c8e3c12f622e   janus-inmemory_repoSystem_1   0.98%     181.9MiB / 15.07GiB   1.18%     666kB / 540kB    0B / 1.88MB   43
Feb 13 03:19:35 CONTAINER ID   NAME                          CPU %     MEM USAGE / LIMIT     MEM %     NET I/O         BLOCK I/O     PIDS
Feb 13 03:19:35 71e6377199e3   janus-inmemory_janusgraph_1   38.91%    911.9MiB / 15.07GiB   5.91%     106MB / 53MB    0B / 111kB    53
Feb 13 03:19:35 c8e3c12f622e   janus-inmemory_repoSystem_1   1.30%     182.1MiB / 15.07GiB   1.18%     678kB / 552kB   0B / 1.88MB   43
Feb 13 03:19:39 CONTAINER ID   NAME                          CPU %     MEM USAGE / LIMIT     MEM %     NET I/O          BLOCK I/O     PIDS
Feb 13 03:19:39 71e6377199e3   janus-inmemory_janusgraph_1   33.69%    913.3MiB / 15.07GiB   5.92%     108MB / 53.9MB   0B / 111kB    53
Feb 13 03:19:39 c8e3c12f622e   janus-inmemory_repoSystem_1   0.89%     182MiB / 15.07GiB     1.18%     684kB / 557kB    0B / 1.88MB   43
Feb 13 03:19:42 CONTAINER ID   NAME                          CPU %     MEM USAGE / LIMIT     MEM %     NET I/O          BLOCK I/O     PIDS
Feb 13 03:19:42 71e6377199e3   janus-inmemory_janusgraph_1   35.34%    913.3MiB / 15.07GiB   5.92%     109MB / 54.5MB   0B / 111kB    53
Feb 13 03:19:42 c8e3c12f622e   janus-inmemory_repoSystem_1   0.57%     182MiB / 15.07GiB     1.18%     691kB / 562kB    0B / 1.88MB   43
Feb 13 03:19:46 CONTAINER ID   NAME                          CPU %     MEM USAGE / LIMIT     MEM %     NET I/O         BLOCK I/O     PIDS
Feb 13 03:19:46 71e6377199e3   janus-inmemory_janusgraph_1   39.93%    914.7MiB / 15.07GiB   5.93%     110MB / 55MB    0B / 111kB    53
Feb 13 03:19:46 c8e3c12f622e   janus-inmemory_repoSystem_1   1.69%     182MiB / 15.07GiB     1.18%     696kB / 565kB   0B / 1.88MB   43
Feb 13 03:19:50 CONTAINER ID   NAME                          CPU %     MEM USAGE / LIMIT     MEM %     NET I/O          BLOCK I/O     PIDS
Feb 13 03:19:50 71e6377199e3   janus-inmemory_janusgraph_1   32.35%    914.7MiB / 15.07GiB   5.93%     111MB / 55.4MB   0B / 111kB    53
Feb 13 03:19:50 c8e3c12f622e   janus-inmemory_repoSystem_1   0.28%     182MiB / 15.07GiB     1.18%     702kB / 568kB    0B / 1.88MB   43
Feb 13 03:19:53 CONTAINER ID   NAME                          CPU %     MEM USAGE / LIMIT     MEM %     NET I/O          BLOCK I/O     PIDS
Feb 13 03:19:53 71e6377199e3   janus-inmemory_janusgraph_1   31.38%    914.7MiB / 15.07GiB   5.93%     112MB / 56.1MB   0B / 111kB    53
Feb 13 03:19:53 c8e3c12f622e   janus-inmemory_repoSystem_1   1.40%     182.1MiB / 15.07GiB   1.18%     708kB / 572kB    0B / 1.88MB   43
Feb 13 03:19:57 CONTAINER ID   NAME                          CPU %     MEM USAGE / LIMIT     MEM %     NET I/O          BLOCK I/O     PIDS
Feb 13 03:19:57 71e6377199e3   janus-inmemory_janusgraph_1   39.40%    916.3MiB / 15.07GiB   5.94%     113MB / 56.7MB   0B / 111kB    53
Feb 13 03:19:57 c8e3c12f622e   janus-inmemory_repoSystem_1   0.55%     182MiB / 15.07GiB     1.18%     713kB / 576kB    0B / 1.88MB   43
Feb 13 03:20:00 CONTAINER ID   NAME                          CPU %     MEM USAGE / LIMIT     MEM %     NET I/O          BLOCK I/O     PIDS
Feb 13 03:20:00 71e6377199e3   janus-inmemory_janusgraph_1   40.00%    916MiB / 15.07GiB     5.94%     115MB / 57.4MB   0B / 111kB    53
Feb 13 03:20:00 c8e3c12f622e   janus-inmemory_repoSystem_1   0.92%     182.1MiB / 15.07GiB   1.18%     722kB / 583kB    0B / 1.88MB   43
Feb 13 03:20:04 CONTAINER ID   NAME                          CPU %     MEM USAGE / LIMIT   MEM %     NET I/O          BLOCK I/O     PIDS
Feb 13 03:20:04 71e6377199e3   janus-inmemory_janusgraph_1   36.67%    916MiB / 15.07GiB   5.94%     116MB / 57.9MB   0B / 111kB    53
Feb 13 03:20:04 c8e3c12f622e   janus-inmemory_repoSystem_1   0.33%     182MiB / 15.07GiB   1.18%     728kB / 588kB    0B / 1.88MB   43
Feb 13 03:20:08 CONTAINER ID   NAME                          CPU %     MEM USAGE / LIMIT   MEM %     NET I/O          BLOCK I/O     PIDS
Feb 13 03:20:08 71e6377199e3   janus-inmemory_janusgraph_1   29.41%    916MiB / 15.07GiB   5.94%     116MB / 58.3MB   0B / 111kB    53
Feb 13 03:20:08 c8e3c12f622e   janus-inmemory_repoSystem_1   0.45%     182MiB / 15.07GiB   1.18%     735kB / 592kB    0B / 1.88MB   43
Feb 13 03:20:11 CONTAINER ID   NAME                          CPU %     MEM USAGE / LIMIT     MEM %     NET I/O          BLOCK I/O     PIDS
Feb 13 03:20:11 71e6377199e3   janus-inmemory_janusgraph_1   26.99%    917.2MiB / 15.07GiB   5.94%     118MB / 58.9MB   0B / 111kB    53
Feb 13 03:20:11 c8e3c12f622e   janus-inmemory_repoSystem_1   0.48%     182MiB / 15.07GiB     1.18%     740kB / 594kB    0B / 1.88MB   43
Feb 13 03:20:15 CONTAINER ID   NAME                          CPU %     MEM USAGE / LIMIT     MEM %     NET I/O          BLOCK I/O     PIDS
Feb 13 03:20:15 71e6377199e3   janus-inmemory_janusgraph_1   33.89%    917.2MiB / 15.07GiB   5.94%     119MB / 59.7MB   0B / 111kB    53
Feb 13 03:20:15 c8e3c12f622e   janus-inmemory_repoSystem_1   0.76%     182.2MiB / 15.07GiB   1.18%     744kB / 597kB    0B / 1.88MB   43
Feb 13 03:20:18 CONTAINER ID   NAME                          CPU %     MEM USAGE / LIMIT     MEM %     NET I/O          BLOCK I/O     PIDS
Feb 13 03:20:18 71e6377199e3   janus-inmemory_janusgraph_1   43.96%    918.8MiB / 15.07GiB   5.95%     120MB / 60.2MB   0B / 111kB    53
Feb 13 03:20:18 c8e3c12f622e   janus-inmemory_repoSystem_1   28.51%    183.2MiB / 15.07GiB   1.19%     750kB / 602kB    0B / 1.88MB   43
Feb 13 03:20:22 CONTAINER ID   NAME                          CPU %     MEM USAGE / LIMIT     MEM %     NET I/O          BLOCK I/O     PIDS
Feb 13 03:20:22 71e6377199e3   janus-inmemory_janusgraph_1   34.13%    918.6MiB / 15.07GiB   5.95%     121MB / 60.7MB   0B / 111kB    53
Feb 13 03:20:22 c8e3c12f622e   janus-inmemory_repoSystem_1   0.59%     183.2MiB / 15.07GiB   1.19%     755kB / 605kB    0B / 1.88MB   43
Feb 13 03:20:26 CONTAINER ID   NAME                          CPU %     MEM USAGE / LIMIT     MEM %     NET I/O          BLOCK I/O     PIDS
Feb 13 03:20:26 71e6377199e3   janus-inmemory_janusgraph_1   31.81%    918.6MiB / 15.07GiB   5.95%     122MB / 61.2MB   0B / 111kB    53
Feb 13 03:20:26 c8e3c12f622e   janus-inmemory_repoSystem_1   10.54%    185.3MiB / 15.07GiB   1.20%     761kB / 609kB    0B / 1.88MB   43
Feb 13 03:20:29 CONTAINER ID   NAME                          CPU %     MEM USAGE / LIMIT     MEM %     NET I/O          BLOCK I/O     PIDS
Feb 13 03:20:29 71e6377199e3   janus-inmemory_janusgraph_1   34.13%    918.6MiB / 15.07GiB   5.95%     123MB / 61.7MB   0B / 111kB    53
Feb 13 03:20:29 c8e3c12f622e   janus-inmemory_repoSystem_1   0.78%     185.3MiB / 15.07GiB   1.20%     771kB / 617kB    0B / 1.88MB   43
Feb 13 03:20:33 CONTAINER ID   NAME                          CPU %     MEM USAGE / LIMIT     MEM %     NET I/O          BLOCK I/O     PIDS
Feb 13 03:20:33 71e6377199e3   janus-inmemory_janusgraph_1   36.80%    919.9MiB / 15.07GiB   5.96%     125MB / 62.6MB   0B / 111kB    53
Feb 13 03:20:33 c8e3c12f622e   janus-inmemory_repoSystem_1   1.51%     185.4MiB / 15.07GiB   1.20%     777kB / 623kB    0B / 1.88MB   43
Feb 13 03:20:36 CONTAINER ID   NAME                          CPU %     MEM USAGE / LIMIT     MEM %     NET I/O          BLOCK I/O     PIDS
Feb 13 03:20:36 71e6377199e3   janus-inmemory_janusgraph_1   33.45%    919.9MiB / 15.07GiB   5.96%     126MB / 63.2MB   0B / 111kB    53
Feb 13 03:20:36 c8e3c12f622e   janus-inmemory_repoSystem_1   2.28%     185.3MiB / 15.07GiB   1.20%     784kB / 629kB    0B / 1.88MB   43
Feb 13 03:20:40 CONTAINER ID   NAME                          CPU %     MEM USAGE / LIMIT     MEM %     NET I/O          BLOCK I/O     PIDS
Feb 13 03:20:40 71e6377199e3   janus-inmemory_janusgraph_1   33.90%    921.4MiB / 15.07GiB   5.97%     127MB / 63.7MB   0B / 111kB    53
Feb 13 03:20:40 c8e3c12f622e   janus-inmemory_repoSystem_1   0.48%     185.3MiB / 15.07GiB   1.20%     789kB / 631kB    0B / 1.88MB   43
Feb 13 03:20:44 CONTAINER ID   NAME                          CPU %     MEM USAGE / LIMIT     MEM %     NET I/O          BLOCK I/O     PIDS
Feb 13 03:20:44 71e6377199e3   janus-inmemory_janusgraph_1   36.11%    921.3MiB / 15.07GiB   5.97%     128MB / 64.2MB   0B / 111kB    53
Feb 13 03:20:44 c8e3c12f622e   janus-inmemory_repoSystem_1   0.25%     185.3MiB / 15.07GiB   1.20%     793kB / 633kB    0B / 1.88MB   43
Feb 13 03:20:47 CONTAINER ID   NAME                          CPU %     MEM USAGE / LIMIT     MEM %     NET I/O          BLOCK I/O     PIDS
Feb 13 03:20:47 71e6377199e3   janus-inmemory_janusgraph_1   35.45%    921.3MiB / 15.07GiB   5.97%     129MB / 64.7MB   0B / 111kB    53
Feb 13 03:20:47 c8e3c12f622e   janus-inmemory_repoSystem_1   2.17%     185.3MiB / 15.07GiB   1.20%     803kB / 640kB    0B / 1.88MB   43
Feb 13 03:20:50 CONTAINER ID   NAME                          CPU %     MEM USAGE / LIMIT     MEM %     NET I/O          BLOCK I/O     PIDS
Feb 13 03:20:50 71e6377199e3   janus-inmemory_janusgraph_1   31.23%    922.6MiB / 15.07GiB   5.98%     130MB / 65.3MB   0B / 111kB    53
Feb 13 03:20:50 c8e3c12f622e   janus-inmemory_repoSystem_1   9.27%     185.3MiB / 15.07GiB   1.20%     807kB / 643kB    0B / 1.88MB   43
Feb 13 03:20:53 CONTAINER ID   NAME                          CPU %     MEM USAGE / LIMIT     MEM %     NET I/O         BLOCK I/O     PIDS
Feb 13 03:20:53 71e6377199e3   janus-inmemory_janusgraph_1   36.69%    922.6MiB / 15.07GiB   5.98%     132MB / 66MB    0B / 111kB    53
Feb 13 03:20:53 c8e3c12f622e   janus-inmemory_repoSystem_1   0.95%     185.4MiB / 15.07GiB   1.20%     812kB / 649kB   0B / 1.88MB   43
Feb 13 03:20:57 CONTAINER ID   NAME                          CPU %     MEM USAGE / LIMIT     MEM %     NET I/O          BLOCK I/O     PIDS
Feb 13 03:20:57 71e6377199e3   janus-inmemory_janusgraph_1   38.11%    922.6MiB / 15.07GiB   5.98%     133MB / 66.6MB   0B / 111kB    53
Feb 13 03:20:57 c8e3c12f622e   janus-inmemory_repoSystem_1   0.44%     185.4MiB / 15.07GiB   1.20%     819kB / 654kB    0B / 1.88MB   43
Feb 13 03:21:00 CONTAINER ID   NAME                          CPU %     MEM USAGE / LIMIT     MEM %     NET I/O          BLOCK I/O     PIDS
Feb 13 03:21:00 71e6377199e3   janus-inmemory_janusgraph_1   31.64%    922.6MiB / 15.07GiB   5.98%     133MB / 66.9MB   0B / 111kB    53
Feb 13 03:21:00 c8e3c12f622e   janus-inmemory_repoSystem_1   0.27%     185.4MiB / 15.07GiB   1.20%     824kB / 656kB    0B / 1.88MB   43
Feb 13 03:21:03 CONTAINER ID   NAME                          CPU %     MEM USAGE / LIMIT     MEM %     NET I/O          BLOCK I/O     PIDS
Feb 13 03:21:03 71e6377199e3   janus-inmemory_janusgraph_1   28.79%    923.9MiB / 15.07GiB   5.99%     134MB / 67.3MB   0B / 111kB    53
Feb 13 03:21:03 c8e3c12f622e   janus-inmemory_repoSystem_1   0.48%     185.4MiB / 15.07GiB   1.20%     830kB / 659kB    0B / 1.88MB   43
Feb 13 03:21:07 CONTAINER ID   NAME                          CPU %     MEM USAGE / LIMIT     MEM %     NET I/O         BLOCK I/O     PIDS
Feb 13 03:21:07 71e6377199e3   janus-inmemory_janusgraph_1   35.31%    923.9MiB / 15.07GiB   5.99%     136MB / 68MB    0B / 111kB    53
Feb 13 03:21:07 c8e3c12f622e   janus-inmemory_repoSystem_1   0.60%     185.6MiB / 15.07GiB   1.20%     834kB / 662kB   0B / 1.88MB   43
Feb 13 03:21:10 CONTAINER ID   NAME                          CPU %     MEM USAGE / LIMIT     MEM %     NET I/O          BLOCK I/O     PIDS
Feb 13 03:21:10 71e6377199e3   janus-inmemory_janusgraph_1   34.23%    923.9MiB / 15.07GiB   5.99%     137MB / 68.7MB   0B / 111kB    53
Feb 13 03:21:10 c8e3c12f622e   janus-inmemory_repoSystem_1   0.61%     185.6MiB / 15.07GiB   1.20%     840kB / 667kB    0B / 1.88MB   43
Feb 13 03:21:14 CONTAINER ID   NAME                          CPU %     MEM USAGE / LIMIT     MEM %     NET I/O         BLOCK I/O     PIDS
Feb 13 03:21:14 71e6377199e3   janus-inmemory_janusgraph_1   33.75%    925.2MiB / 15.07GiB   6.00%     138MB / 69MB    0B / 111kB    53
Feb 13 03:21:14 c8e3c12f622e   janus-inmemory_repoSystem_1   0.46%     185.7MiB / 15.07GiB   1.20%     847kB / 672kB   0B / 1.88MB   43
Feb 13 03:21:18 CONTAINER ID   NAME                          CPU %     MEM USAGE / LIMIT     MEM %     NET I/O          BLOCK I/O     PIDS
Feb 13 03:21:18 71e6377199e3   janus-inmemory_janusgraph_1   36.72%    925.2MiB / 15.07GiB   6.00%     139MB / 69.7MB   0B / 111kB    53
Feb 13 03:21:18 c8e3c12f622e   janus-inmemory_repoSystem_1   0.47%     185.5MiB / 15.07GiB   1.20%     851kB / 674kB    0B / 1.88MB   43
Feb 13 03:21:21 CONTAINER ID   NAME                          CPU %     MEM USAGE / LIMIT     MEM %     NET I/O          BLOCK I/O     PIDS
Feb 13 03:21:21 71e6377199e3   janus-inmemory_janusgraph_1   41.59%    925.2MiB / 15.07GiB   6.00%     140MB / 70.3MB   0B / 111kB    53
Feb 13 03:21:21 c8e3c12f622e   janus-inmemory_repoSystem_1   7.76%     185.5MiB / 15.07GiB   1.20%     858kB / 680kB    0B / 1.88MB   43
Feb 13 03:21:25 CONTAINER ID   NAME                          CPU %     MEM USAGE / LIMIT     MEM %     NET I/O          BLOCK I/O     PIDS
Feb 13 03:21:25 71e6377199e3   janus-inmemory_janusgraph_1   40.84%    926.6MiB / 15.07GiB   6.00%     141MB / 70.8MB   0B / 111kB    53
Feb 13 03:21:25 c8e3c12f622e   janus-inmemory_repoSystem_1   3.03%     185.6MiB / 15.07GiB   1.20%     871kB / 692kB    0B / 1.88MB   43
Feb 13 03:21:28 CONTAINER ID   NAME                          CPU %     MEM USAGE / LIMIT     MEM %     NET I/O          BLOCK I/O     PIDS
Feb 13 03:21:28 71e6377199e3   janus-inmemory_janusgraph_1   38.57%    926.6MiB / 15.07GiB   6.00%     143MB / 71.7MB   0B / 111kB    53
Feb 13 03:21:28 c8e3c12f622e   janus-inmemory_repoSystem_1   1.23%     185.6MiB / 15.07GiB   1.20%     877kB / 698kB    0B / 1.88MB   43
Feb 13 03:21:32 CONTAINER ID   NAME                          CPU %     MEM USAGE / LIMIT     MEM %     NET I/O          BLOCK I/O     PIDS
Feb 13 03:21:32 71e6377199e3   janus-inmemory_janusgraph_1   37.14%    928MiB / 15.07GiB     6.01%     145MB / 72.5MB   0B / 111kB    53
Feb 13 03:21:32 c8e3c12f622e   janus-inmemory_repoSystem_1   0.88%     185.7MiB / 15.07GiB   1.20%     887kB / 707kB    0B / 1.88MB   43
Feb 13 03:21:36 CONTAINER ID   NAME                          CPU %     MEM USAGE / LIMIT     MEM %     NET I/O          BLOCK I/O     PIDS
Feb 13 03:21:36 71e6377199e3   janus-inmemory_janusgraph_1   45.63%    927.9MiB / 15.07GiB   6.01%     146MB / 73.2MB   0B / 111kB    53
Feb 13 03:21:36 c8e3c12f622e   janus-inmemory_repoSystem_1   0.79%     185.7MiB / 15.07GiB   1.20%     896kB / 716kB    0B / 1.88MB   43
Feb 13 03:21:39 CONTAINER ID   NAME                          CPU %     MEM USAGE / LIMIT     MEM %     NET I/O          BLOCK I/O     PIDS
Feb 13 03:21:39 71e6377199e3   janus-inmemory_janusgraph_1   52.40%    929.3MiB / 15.07GiB   6.02%     147MB / 73.8MB   0B / 111kB    53
Feb 13 03:21:39 c8e3c12f622e   janus-inmemory_repoSystem_1   0.22%     185.7MiB / 15.07GiB   1.20%     906kB / 725kB    0B / 1.88MB   43
Feb 13 03:21:43 CONTAINER ID   NAME                          CPU %     MEM USAGE / LIMIT     MEM %     NET I/O          BLOCK I/O     PIDS
Feb 13 03:21:43 71e6377199e3   janus-inmemory_janusgraph_1   38.51%    929.3MiB / 15.07GiB   6.02%     149MB / 74.5MB   0B / 111kB    53
Feb 13 03:21:43 c8e3c12f622e   janus-inmemory_repoSystem_1   1.24%     185.8MiB / 15.07GiB   1.20%     918kB / 737kB    0B / 1.88MB   43
Feb 13 03:21:46 CONTAINER ID   NAME                          CPU %     MEM USAGE / LIMIT     MEM %     NET I/O         BLOCK I/O     PIDS
Feb 13 03:21:46 71e6377199e3   janus-inmemory_janusgraph_1   38.75%    929.3MiB / 15.07GiB   6.02%     150MB / 75MB    0B / 111kB    53
Feb 13 03:21:46 c8e3c12f622e   janus-inmemory_repoSystem_1   1.69%     200.9MiB / 15.07GiB   1.30%     931kB / 750kB   0B / 1.88MB   43
Feb 13 03:21:50 CONTAINER ID   NAME                          CPU %     MEM USAGE / LIMIT     MEM %     NET I/O          BLOCK I/O     PIDS
Feb 13 03:21:50 71e6377199e3   janus-inmemory_janusgraph_1   34.38%    930.8MiB / 15.07GiB   6.03%     152MB / 75.9MB   0B / 111kB    53
Feb 13 03:21:50 c8e3c12f622e   janus-inmemory_repoSystem_1   0.68%     189.4MiB / 15.07GiB   1.23%     936kB / 754kB    0B / 1.88MB   43
Feb 13 03:21:54 CONTAINER ID   NAME                          CPU %     MEM USAGE / LIMIT     MEM %     NET I/O          BLOCK I/O     PIDS
Feb 13 03:21:54 71e6377199e3   janus-inmemory_janusgraph_1   39.14%    930.6MiB / 15.07GiB   6.03%     153MB / 76.6MB   0B / 111kB    53
Feb 13 03:21:54 c8e3c12f622e   janus-inmemory_repoSystem_1   0.70%     189.4MiB / 15.07GiB   1.23%     945kB / 762kB    0B / 1.88MB   43
Feb 13 03:21:57 CONTAINER ID   NAME                          CPU %     MEM USAGE / LIMIT     MEM %     NET I/O          BLOCK I/O     PIDS
Feb 13 03:21:57 71e6377199e3   janus-inmemory_janusgraph_1   42.71%    930.6MiB / 15.07GiB   6.03%     154MB / 77.3MB   0B / 111kB    53
Feb 13 03:21:57 c8e3c12f622e   janus-inmemory_repoSystem_1   0.79%     189.6MiB / 15.07GiB   1.23%     953kB / 769kB    0B / 1.88MB   43
Feb 13 03:22:01 CONTAINER ID   NAME                          CPU %     MEM USAGE / LIMIT     MEM %     NET I/O          BLOCK I/O     PIDS
Feb 13 03:22:01 71e6377199e3   janus-inmemory_janusgraph_1   36.11%    931.9MiB / 15.07GiB   6.04%     155MB / 77.6MB   0B / 111kB    53
Feb 13 03:22:01 c8e3c12f622e   janus-inmemory_repoSystem_1   0.71%     183.4MiB / 15.07GiB   1.19%     962kB / 777kB    0B / 1.88MB   43
Feb 13 03:22:04 CONTAINER ID   NAME                          CPU %     MEM USAGE / LIMIT     MEM %     NET I/O          BLOCK I/O     PIDS
Feb 13 03:22:04 71e6377199e3   janus-inmemory_janusgraph_1   31.67%    931.9MiB / 15.07GiB   6.04%     157MB / 78.4MB   0B / 111kB    53
Feb 13 03:22:04 c8e3c12f622e   janus-inmemory_repoSystem_1   1.06%     183.5MiB / 15.07GiB   1.19%     970kB / 784kB    0B / 1.88MB   43
Feb 13 03:22:08 CONTAINER ID   NAME                          CPU %     MEM USAGE / LIMIT     MEM %     NET I/O         BLOCK I/O     PIDS
Feb 13 03:22:08 71e6377199e3   janus-inmemory_janusgraph_1   40.03%    933.4MiB / 15.07GiB   6.05%     158MB / 79MB    0B / 111kB    53
Feb 13 03:22:08 c8e3c12f622e   janus-inmemory_repoSystem_1   0.54%     183.7MiB / 15.07GiB   1.19%     975kB / 788kB   0B / 1.88MB   43
Feb 13 03:22:12 CONTAINER ID   NAME                          CPU %     MEM USAGE / LIMIT     MEM %     NET I/O          BLOCK I/O     PIDS
Feb 13 03:22:12 71e6377199e3   janus-inmemory_janusgraph_1   34.63%    933.2MiB / 15.07GiB   6.05%     159MB / 79.5MB   0B / 111kB    53
Feb 13 03:22:12 c8e3c12f622e   janus-inmemory_repoSystem_1   0.44%     183.9MiB / 15.07GiB   1.19%     982kB / 792kB    0B / 1.88MB   43
Feb 13 03:22:15 CONTAINER ID   NAME                          CPU %     MEM USAGE / LIMIT     MEM %     NET I/O          BLOCK I/O     PIDS
Feb 13 03:22:15 71e6377199e3   janus-inmemory_janusgraph_1   40.30%    933.2MiB / 15.07GiB   6.05%     160MB / 80.2MB   0B / 111kB    53
Feb 13 03:22:15 c8e3c12f622e   janus-inmemory_repoSystem_1   0.40%     183.9MiB / 15.07GiB   1.19%     985kB / 794kB    0B / 1.88MB   43
Feb 13 03:22:19 CONTAINER ID   NAME                          CPU %     MEM USAGE / LIMIT     MEM %     NET I/O          BLOCK I/O     PIDS
Feb 13 03:22:19 71e6377199e3   janus-inmemory_janusgraph_1   53.09%    934.7MiB / 15.07GiB   6.06%     161MB / 80.8MB   0B / 111kB    53
Feb 13 03:22:19 c8e3c12f622e   janus-inmemory_repoSystem_1   0.70%     184MiB / 15.07GiB     1.19%     992kB / 800kB    0B / 1.88MB   43
Feb 13 03:22:23 CONTAINER ID   NAME                          CPU %     MEM USAGE / LIMIT     MEM %     NET I/O          BLOCK I/O     PIDS
Feb 13 03:22:23 71e6377199e3   janus-inmemory_janusgraph_1   39.02%    934.5MiB / 15.07GiB   6.06%     162MB / 81.3MB   0B / 111kB    53
Feb 13 03:22:23 c8e3c12f622e   janus-inmemory_repoSystem_1   0.20%     184.6MiB / 15.07GiB   1.20%     1MB / 811kB      0B / 1.88MB   43
Feb 13 03:22:26 CONTAINER ID   NAME                          CPU %     MEM USAGE / LIMIT     MEM %     NET I/O          BLOCK I/O     PIDS
Feb 13 03:22:26 71e6377199e3   janus-inmemory_janusgraph_1   39.72%    934.5MiB / 15.07GiB   6.06%     164MB / 82MB     0B / 111kB    53
Feb 13 03:22:26 c8e3c12f622e   janus-inmemory_repoSystem_1   0.83%     185.4MiB / 15.07GiB   1.20%     1.02MB / 824kB   0B / 1.88MB   43
Feb 13 03:22:29 CONTAINER ID   NAME                          CPU %     MEM USAGE / LIMIT     MEM %     NET I/O          BLOCK I/O     PIDS
Feb 13 03:22:29 71e6377199e3   janus-inmemory_janusgraph_1   41.10%    935.8MiB / 15.07GiB   6.06%     165MB / 82.7MB   0B / 111kB    53
Feb 13 03:22:29 c8e3c12f622e   janus-inmemory_repoSystem_1   0.81%     185.5MiB / 15.07GiB   1.20%     1.02MB / 830kB   0B / 1.88MB   43
Feb 13 03:22:32 CONTAINER ID   NAME                          CPU %     MEM USAGE / LIMIT     MEM %     NET I/O          BLOCK I/O     PIDS
Feb 13 03:22:32 71e6377199e3   janus-inmemory_janusgraph_1   36.03%    935.8MiB / 15.07GiB   6.06%     167MB / 83.4MB   0B / 111kB    53
Feb 13 03:22:32 c8e3c12f622e   janus-inmemory_repoSystem_1   3.01%     185.7MiB / 15.07GiB   1.20%     1.03MB / 835kB   0B / 1.88MB   43
Feb 13 03:22:36 CONTAINER ID   NAME                          CPU %     MEM USAGE / LIMIT     MEM %     NET I/O          BLOCK I/O     PIDS
Feb 13 03:22:36 71e6377199e3   janus-inmemory_janusgraph_1   44.42%    935.8MiB / 15.07GiB   6.06%     168MB / 84.2MB   0B / 111kB    53
Feb 13 03:22:36 c8e3c12f622e   janus-inmemory_repoSystem_1   4.17%     186.3MiB / 15.07GiB   1.21%     1.04MB / 844kB   0B / 1.88MB   43
Feb 13 03:22:40 CONTAINER ID   NAME                          CPU %     MEM USAGE / LIMIT     MEM %     NET I/O          BLOCK I/O     PIDS
Feb 13 03:22:40 71e6377199e3   janus-inmemory_janusgraph_1   46.81%    937.2MiB / 15.07GiB   6.07%     169MB / 84.6MB   0B / 111kB    53
Feb 13 03:22:40 c8e3c12f622e   janus-inmemory_repoSystem_1   0.84%     186.9MiB / 15.07GiB   1.21%     1.05MB / 857kB   0B / 1.88MB   43
Feb 13 03:22:43 CONTAINER ID   NAME                          CPU %     MEM USAGE / LIMIT     MEM %     NET I/O          BLOCK I/O     PIDS
Feb 13 03:22:43 71e6377199e3   janus-inmemory_janusgraph_1   36.30%    937.2MiB / 15.07GiB   6.07%     170MB / 85.3MB   0B / 111kB    53
Feb 13 03:22:43 c8e3c12f622e   janus-inmemory_repoSystem_1   0.25%     187.2MiB / 15.07GiB   1.21%     1.06MB / 866kB   0B / 1.88MB   43
Feb 13 03:22:47 CONTAINER ID   NAME                          CPU %     MEM USAGE / LIMIT     MEM %     NET I/O          BLOCK I/O     PIDS
Feb 13 03:22:47 71e6377199e3   janus-inmemory_janusgraph_1   34.78%    938.5MiB / 15.07GiB   6.08%     172MB / 86.2MB   0B / 111kB    53
Feb 13 03:22:47 c8e3c12f622e   janus-inmemory_repoSystem_1   0.76%     190.3MiB / 15.07GiB   1.23%     1.07MB / 875kB   0B / 1.88MB   43
Feb 13 03:22:50 CONTAINER ID   NAME                          CPU %     MEM USAGE / LIMIT     MEM %     NET I/O          BLOCK I/O     PIDS
Feb 13 03:22:50 71e6377199e3   janus-inmemory_janusgraph_1   40.10%    938.5MiB / 15.07GiB   6.08%     173MB / 86.7MB   0B / 111kB    53
Feb 13 03:22:50 c8e3c12f622e   janus-inmemory_repoSystem_1   1.14%     190.7MiB / 15.07GiB   1.24%     1.08MB / 884kB   0B / 1.88MB   43
Feb 13 03:22:54 CONTAINER ID   NAME                          CPU %     MEM USAGE / LIMIT     MEM %     NET I/O          BLOCK I/O     PIDS
Feb 13 03:22:54 71e6377199e3   janus-inmemory_janusgraph_1   33.05%    938.5MiB / 15.07GiB   6.08%     175MB / 87.5MB   0B / 111kB    53
Feb 13 03:22:54 c8e3c12f622e   janus-inmemory_repoSystem_1   2.99%     194.4MiB / 15.07GiB   1.26%     1.09MB / 890kB   0B / 1.88MB   43
Feb 13 03:22:58 CONTAINER ID   NAME                          CPU %     MEM USAGE / LIMIT     MEM %     NET I/O          BLOCK I/O     PIDS
Feb 13 03:22:58 71e6377199e3   janus-inmemory_janusgraph_1   33.42%    939.8MiB / 15.07GiB   6.09%     176MB / 88.2MB   0B / 111kB    53
Feb 13 03:22:58 c8e3c12f622e   janus-inmemory_repoSystem_1   0.77%     194.8MiB / 15.07GiB   1.26%     1.1MB / 899kB    0B / 1.88MB   44
Feb 13 03:23:01 CONTAINER ID   NAME                          CPU %     MEM USAGE / LIMIT     MEM %     NET I/O          BLOCK I/O     PIDS
Feb 13 03:23:01 71e6377199e3   janus-inmemory_janusgraph_1   46.71%    939.8MiB / 15.07GiB   6.09%     177MB / 88.8MB   0B / 111kB    53
Feb 13 03:23:01 c8e3c12f622e   janus-inmemory_repoSystem_1   0.77%     194.9MiB / 15.07GiB   1.26%     1.11MB / 912kB   0B / 1.88MB   43
Feb 13 03:23:05 CONTAINER ID   NAME                          CPU %     MEM USAGE / LIMIT     MEM %     NET I/O          BLOCK I/O     PIDS
Feb 13 03:23:05 71e6377199e3   janus-inmemory_janusgraph_1   50.28%    941.2MiB / 15.07GiB   6.10%     178MB / 89.4MB   0B / 111kB    53
Feb 13 03:23:05 c8e3c12f622e   janus-inmemory_repoSystem_1   0.77%     194.9MiB / 15.07GiB   1.26%     1.12MB / 921kB   0B / 1.88MB   43
Feb 13 03:23:08 CONTAINER ID   NAME                          CPU %     MEM USAGE / LIMIT     MEM %     NET I/O          BLOCK I/O     PIDS
Feb 13 03:23:08 71e6377199e3   janus-inmemory_janusgraph_1   42.89%    941.1MiB / 15.07GiB   6.10%     180MB / 90.3MB   0B / 111kB    53
Feb 13 03:23:08 c8e3c12f622e   janus-inmemory_repoSystem_1   0.20%     194.8MiB / 15.07GiB   1.26%     1.13MB / 927kB   0B / 1.88MB   43
Feb 13 03:23:12 CONTAINER ID   NAME                          CPU %     MEM USAGE / LIMIT     MEM %     NET I/O          BLOCK I/O     PIDS
Feb 13 03:23:12 71e6377199e3   janus-inmemory_janusgraph_1   27.46%    941.1MiB / 15.07GiB   6.10%     181MB / 90.8MB   0B / 111kB    53
Feb 13 03:23:12 c8e3c12f622e   janus-inmemory_repoSystem_1   0.53%     194.8MiB / 15.07GiB   1.26%     1.13MB / 934kB   0B / 1.88MB   43
Feb 13 03:23:16 CONTAINER ID   NAME                          CPU %     MEM USAGE / LIMIT     MEM %     NET I/O          BLOCK I/O     PIDS
Feb 13 03:23:16 71e6377199e3   janus-inmemory_janusgraph_1   27.07%    942.5MiB / 15.07GiB   6.11%     182MB / 91.3MB   0B / 111kB    53
Feb 13 03:23:16 c8e3c12f622e   janus-inmemory_repoSystem_1   0.41%     194.8MiB / 15.07GiB   1.26%     1.14MB / 937kB   0B / 1.88MB   43
Feb 13 03:23:19 CONTAINER ID   NAME                          CPU %     MEM USAGE / LIMIT     MEM %     NET I/O          BLOCK I/O     PIDS
Feb 13 03:23:19 71e6377199e3   janus-inmemory_janusgraph_1   29.85%    942.5MiB / 15.07GiB   6.11%     183MB / 91.8MB   0B / 111kB    53
Feb 13 03:23:19 c8e3c12f622e   janus-inmemory_repoSystem_1   0.39%     194.8MiB / 15.07GiB   1.26%     1.15MB / 939kB   0B / 1.88MB   43
Feb 13 03:23:23 CONTAINER ID   NAME                          CPU %     MEM USAGE / LIMIT     MEM %     NET I/O          BLOCK I/O     PIDS
Feb 13 03:23:23 71e6377199e3   janus-inmemory_janusgraph_1   32.50%    942.5MiB / 15.07GiB   6.11%     185MB / 92.6MB   0B / 111kB    53
Feb 13 03:23:23 c8e3c12f622e   janus-inmemory_repoSystem_1   0.55%     194.8MiB / 15.07GiB   1.26%     1.15MB / 943kB   0B / 1.88MB   43
Feb 13 03:23:26 CONTAINER ID   NAME                          CPU %     MEM USAGE / LIMIT     MEM %     NET I/O          BLOCK I/O     PIDS
Feb 13 03:23:26 71e6377199e3   janus-inmemory_janusgraph_1   33.28%    943.8MiB / 15.07GiB   6.12%     186MB / 93.1MB   0B / 111kB    53
Feb 13 03:23:26 c8e3c12f622e   janus-inmemory_repoSystem_1   0.51%     194.8MiB / 15.07GiB   1.26%     1.16MB / 947kB   0B / 1.88MB   43
Feb 13 03:23:30 CONTAINER ID   NAME                          CPU %     MEM USAGE / LIMIT     MEM %     NET I/O          BLOCK I/O     PIDS
Feb 13 03:23:30 71e6377199e3   janus-inmemory_janusgraph_1   38.52%    943.8MiB / 15.07GiB   6.12%     187MB / 93.6MB   0B / 111kB    53
Feb 13 03:23:30 c8e3c12f622e   janus-inmemory_repoSystem_1   0.61%     194.8MiB / 15.07GiB   1.26%     1.16MB / 950kB   0B / 1.88MB   43
Feb 13 03:23:34 CONTAINER ID   NAME                          CPU %     MEM USAGE / LIMIT     MEM %     NET I/O          BLOCK I/O     PIDS
Feb 13 03:23:34 71e6377199e3   janus-inmemory_janusgraph_1   35.79%    943.8MiB / 15.07GiB   6.12%     188MB / 94.1MB   0B / 111kB    53
Feb 13 03:23:34 c8e3c12f622e   janus-inmemory_repoSystem_1   0.21%     194.8MiB / 15.07GiB   1.26%     1.17MB / 952kB   0B / 1.88MB   43
Feb 13 03:23:37 CONTAINER ID   NAME                          CPU %     MEM USAGE / LIMIT     MEM %     NET I/O          BLOCK I/O     PIDS
Feb 13 03:23:37 71e6377199e3   janus-inmemory_janusgraph_1   34.37%    945.1MiB / 15.07GiB   6.12%     189MB / 94.7MB   0B / 111kB    53
Feb 13 03:23:37 c8e3c12f622e   janus-inmemory_repoSystem_1   0.55%     194.8MiB / 15.07GiB   1.26%     1.17MB / 959kB   0B / 1.88MB   43
Feb 13 03:23:41 CONTAINER ID   NAME                          CPU %     MEM USAGE / LIMIT     MEM %     NET I/O          BLOCK I/O     PIDS
Feb 13 03:23:41 71e6377199e3   janus-inmemory_janusgraph_1   25.71%    945.1MiB / 15.07GiB   6.12%     190MB / 95.3MB   0B / 111kB    53
Feb 13 03:23:41 c8e3c12f622e   janus-inmemory_repoSystem_1   0.46%     194.8MiB / 15.07GiB   1.26%     1.18MB / 962kB   0B / 1.88MB   43
Feb 13 03:23:44 CONTAINER ID   NAME                          CPU %     MEM USAGE / LIMIT     MEM %     NET I/O          BLOCK I/O     PIDS
Feb 13 03:23:44 71e6377199e3   janus-inmemory_janusgraph_1   25.86%    945.1MiB / 15.07GiB   6.12%     191MB / 95.9MB   0B / 111kB    53
Feb 13 03:23:44 c8e3c12f622e   janus-inmemory_repoSystem_1   0.42%     194.8MiB / 15.07GiB   1.26%     1.18MB / 965kB   0B / 1.88MB   43
Feb 13 03:23:48 CONTAINER ID   NAME                          CPU %     MEM USAGE / LIMIT     MEM %     NET I/O          BLOCK I/O     PIDS
Feb 13 03:23:48 71e6377199e3   janus-inmemory_janusgraph_1   34.74%    945.1MiB / 15.07GiB   6.12%     192MB / 96.3MB   0B / 111kB    53
Feb 13 03:23:48 c8e3c12f622e   janus-inmemory_repoSystem_1   0.61%     194.8MiB / 15.07GiB   1.26%     1.19MB / 969kB   0B / 1.88MB   43
Feb 13 03:23:52 CONTAINER ID   NAME                          CPU %     MEM USAGE / LIMIT     MEM %     NET I/O          BLOCK I/O     PIDS
Feb 13 03:23:52 71e6377199e3   janus-inmemory_janusgraph_1   35.77%    946.4MiB / 15.07GiB   6.13%     194MB / 97MB     0B / 111kB    53
Feb 13 03:23:52 c8e3c12f622e   janus-inmemory_repoSystem_1   0.46%     194.8MiB / 15.07GiB   1.26%     1.19MB / 971kB   0B / 1.88MB   43
Feb 13 03:23:55 CONTAINER ID   NAME                          CPU %     MEM USAGE / LIMIT     MEM %     NET I/O          BLOCK I/O     PIDS
Feb 13 03:23:55 71e6377199e3   janus-inmemory_janusgraph_1   41.98%    946.4MiB / 15.07GiB   6.13%     195MB / 97.7MB   0B / 111kB    53
Feb 13 03:23:55 c8e3c12f622e   janus-inmemory_repoSystem_1   0.77%     194.8MiB / 15.07GiB   1.26%     1.2MB / 979kB    0B / 1.88MB   43
Feb 13 03:23:59 CONTAINER ID   NAME                          CPU %     MEM USAGE / LIMIT     MEM %     NET I/O          BLOCK I/O     PIDS
Feb 13 03:23:59 71e6377199e3   janus-inmemory_janusgraph_1   40.44%    947.8MiB / 15.07GiB   6.14%     196MB / 98.3MB   0B / 111kB    53
Feb 13 03:23:59 c8e3c12f622e   janus-inmemory_repoSystem_1   0.75%     194.8MiB / 15.07GiB   1.26%     1.21MB / 989kB   0B / 1.88MB   43
Feb 13 03:24:03 CONTAINER ID   NAME                          CPU %     MEM USAGE / LIMIT     MEM %     NET I/O          BLOCK I/O     PIDS
Feb 13 03:24:03 71e6377199e3   janus-inmemory_janusgraph_1   28.76%    947.8MiB / 15.07GiB   6.14%     197MB / 98.7MB   0B / 111kB    53
Feb 13 03:24:03 c8e3c12f622e   janus-inmemory_repoSystem_1   0.27%     194.8MiB / 15.07GiB   1.26%     1.22MB / 996kB   0B / 1.88MB   43
Feb 13 03:24:06 CONTAINER ID   NAME                          CPU %     MEM USAGE / LIMIT     MEM %     NET I/O          BLOCK I/O     PIDS
Feb 13 03:24:06 71e6377199e3   janus-inmemory_janusgraph_1   35.56%    947.8MiB / 15.07GiB   6.14%     198MB / 99.3MB   0B / 111kB    53
Feb 13 03:24:06 c8e3c12f622e   janus-inmemory_repoSystem_1   8.52%     195MiB / 15.07GiB     1.26%     1.23MB / 1MB     0B / 1.88MB   43
Feb 13 03:24:10 CONTAINER ID   NAME                          CPU %     MEM USAGE / LIMIT     MEM %     NET I/O           BLOCK I/O     PIDS
Feb 13 03:24:10 71e6377199e3   janus-inmemory_janusgraph_1   35.61%    949.2MiB / 15.07GiB   6.15%     200MB / 100MB     0B / 111kB    53
Feb 13 03:24:10 c8e3c12f622e   janus-inmemory_repoSystem_1   0.84%     194.9MiB / 15.07GiB   1.26%     1.24MB / 1.01MB   0B / 1.88MB   43
Feb 13 03:24:13 CONTAINER ID   NAME                          CPU %     MEM USAGE / LIMIT     MEM %     NET I/O           BLOCK I/O     PIDS
Feb 13 03:24:13 71e6377199e3   janus-inmemory_janusgraph_1   33.40%    949.2MiB / 15.07GiB   6.15%     201MB / 101MB     0B / 111kB    53
Feb 13 03:24:13 c8e3c12f622e   janus-inmemory_repoSystem_1   0.84%     194.9MiB / 15.07GiB   1.26%     1.25MB / 1.02MB   0B / 1.88MB   43
Feb 13 03:24:17 CONTAINER ID   NAME                          CPU %     MEM USAGE / LIMIT     MEM %     NET I/O           BLOCK I/O     PIDS
Feb 13 03:24:17 71e6377199e3   janus-inmemory_janusgraph_1   41.17%    949.2MiB / 15.07GiB   6.15%     202MB / 101MB     0B / 111kB    53
Feb 13 03:24:17 c8e3c12f622e   janus-inmemory_repoSystem_1   0.63%     194.9MiB / 15.07GiB   1.26%     1.26MB / 1.03MB   0B / 1.88MB   43
Feb 13 03:24:21 CONTAINER ID   NAME                          CPU %     MEM USAGE / LIMIT     MEM %     NET I/O           BLOCK I/O     PIDS
Feb 13 03:24:21 71e6377199e3   janus-inmemory_janusgraph_1   33.63%    951.3MiB / 15.07GiB   6.16%     203MB / 102MB     0B / 111kB    53
Feb 13 03:24:21 c8e3c12f622e   janus-inmemory_repoSystem_1   0.56%     195MiB / 15.07GiB     1.26%     1.26MB / 1.03MB   0B / 1.88MB   43
Feb 13 03:24:24 CONTAINER ID   NAME                          CPU %     MEM USAGE / LIMIT     MEM %     NET I/O           BLOCK I/O     PIDS
Feb 13 03:24:24 71e6377199e3   janus-inmemory_janusgraph_1   35.36%    951.3MiB / 15.07GiB   6.16%     205MB / 103MB     0B / 111kB    53
Feb 13 03:24:24 c8e3c12f622e   janus-inmemory_repoSystem_1   0.26%     194.9MiB / 15.07GiB   1.26%     1.27MB / 1.04MB   0B / 1.88MB   43
Feb 13 03:24:28 CONTAINER ID   NAME                          CPU %     MEM USAGE / LIMIT     MEM %     NET I/O           BLOCK I/O     PIDS
Feb 13 03:24:28 71e6377199e3   janus-inmemory_janusgraph_1   29.53%    951.3MiB / 15.07GiB   6.16%     206MB / 103MB     0B / 111kB    53
Feb 13 03:24:28 c8e3c12f622e   janus-inmemory_repoSystem_1   0.27%     194.9MiB / 15.07GiB   1.26%     1.27MB / 1.04MB   0B / 1.88MB   43
Feb 13 03:24:31 CONTAINER ID   NAME                          CPU %     MEM USAGE / LIMIT     MEM %     NET I/O           BLOCK I/O     PIDS
Feb 13 03:24:31 71e6377199e3   janus-inmemory_janusgraph_1   33.55%    952.7MiB / 15.07GiB   6.17%     207MB / 104MB     0B / 111kB    53
Feb 13 03:24:31 c8e3c12f622e   janus-inmemory_repoSystem_1   0.55%     194.9MiB / 15.07GiB   1.26%     1.28MB / 1.05MB   0B / 1.88MB   43
Feb 13 03:24:35 CONTAINER ID   NAME                          CPU %     MEM USAGE / LIMIT     MEM %     NET I/O           BLOCK I/O     PIDS
Feb 13 03:24:35 71e6377199e3   janus-inmemory_janusgraph_1   33.33%    952.7MiB / 15.07GiB   6.17%     208MB / 104MB     0B / 111kB    53
Feb 13 03:24:35 c8e3c12f622e   janus-inmemory_repoSystem_1   0.74%     194.9MiB / 15.07GiB   1.26%     1.29MB / 1.05MB   0B / 1.88MB   43
Feb 13 03:24:39 CONTAINER ID   NAME                          CPU %     MEM USAGE / LIMIT     MEM %     NET I/O          BLOCK I/O     PIDS
Feb 13 03:24:39 71e6377199e3   janus-inmemory_janusgraph_1   32.79%    952.7MiB / 15.07GiB   6.17%     209MB / 105MB    0B / 111kB    53
Feb 13 03:24:39 c8e3c12f622e   janus-inmemory_repoSystem_1   0.81%     194.9MiB / 15.07GiB   1.26%     1.3MB / 1.06MB   0B / 1.88MB   43
Feb 13 03:24:42 CONTAINER ID   NAME                          CPU %     MEM USAGE / LIMIT     MEM %     NET I/O           BLOCK I/O     PIDS
Feb 13 03:24:42 71e6377199e3   janus-inmemory_janusgraph_1   39.02%    954MiB / 15.07GiB     6.18%     211MB / 106MB     0B / 111kB    53
Feb 13 03:24:42 c8e3c12f622e   janus-inmemory_repoSystem_1   0.87%     194.9MiB / 15.07GiB   1.26%     1.31MB / 1.07MB   0B / 1.88MB   43
Feb 13 03:24:46 CONTAINER ID   NAME                          CPU %     MEM USAGE / LIMIT     MEM %     NET I/O           BLOCK I/O     PIDS
Feb 13 03:24:46 71e6377199e3   janus-inmemory_janusgraph_1   42.87%    954MiB / 15.07GiB     6.18%     212MB / 106MB     0B / 111kB    53
Feb 13 03:24:46 c8e3c12f622e   janus-inmemory_repoSystem_1   0.79%     194.9MiB / 15.07GiB   1.26%     1.32MB / 1.08MB   0B / 1.88MB   43
Feb 13 03:24:49 CONTAINER ID   NAME                          CPU %     MEM USAGE / LIMIT     MEM %     NET I/O           BLOCK I/O     PIDS
Feb 13 03:24:49 71e6377199e3   janus-inmemory_janusgraph_1   38.43%    955.4MiB / 15.07GiB   6.19%     214MB / 107MB     0B / 111kB    53
Feb 13 03:24:49 c8e3c12f622e   janus-inmemory_repoSystem_1   0.63%     194.9MiB / 15.07GiB   1.26%     1.32MB / 1.09MB   0B / 1.88MB   43
Feb 13 03:24:53 CONTAINER ID   NAME                          CPU %     MEM USAGE / LIMIT     MEM %     NET I/O           BLOCK I/O     PIDS
Feb 13 03:24:53 71e6377199e3   janus-inmemory_janusgraph_1   44.07%    955.4MiB / 15.07GiB   6.19%     215MB / 108MB     0B / 111kB    53
Feb 13 03:24:53 c8e3c12f622e   janus-inmemory_repoSystem_1   0.42%     195MiB / 15.07GiB     1.26%     1.33MB / 1.09MB   0B / 1.88MB   43
Feb 13 03:24:57 CONTAINER ID   NAME                          CPU %     MEM USAGE / LIMIT     MEM %     NET I/O           BLOCK I/O     PIDS
Feb 13 03:24:57 71e6377199e3   janus-inmemory_janusgraph_1   44.21%    955.4MiB / 15.07GiB   6.19%     217MB / 108MB     0B / 111kB    53
Feb 13 03:24:57 c8e3c12f622e   janus-inmemory_repoSystem_1   0.73%     195MiB / 15.07GiB     1.26%     1.35MB / 1.11MB   0B / 1.88MB   43
Feb 13 03:25:00 CONTAINER ID   NAME                          CPU %     MEM USAGE / LIMIT     MEM %     NET I/O           BLOCK I/O     PIDS
Feb 13 03:25:00 71e6377199e3   janus-inmemory_janusgraph_1   32.55%    957.4MiB / 15.07GiB   6.20%     218MB / 109MB     0B / 111kB    53
Feb 13 03:25:00 c8e3c12f622e   janus-inmemory_repoSystem_1   0.29%     194.8MiB / 15.07GiB   1.26%     1.36MB / 1.11MB   0B / 1.88MB   43
Feb 13 03:25:03 CONTAINER ID   NAME                          CPU %     MEM USAGE / LIMIT     MEM %     NET I/O           BLOCK I/O     PIDS
Feb 13 03:25:03 71e6377199e3   janus-inmemory_janusgraph_1   36.28%    957.4MiB / 15.07GiB   6.20%     219MB / 110MB     0B / 111kB    53
Feb 13 03:25:03 c8e3c12f622e   janus-inmemory_repoSystem_1   0.76%     194.9MiB / 15.07GiB   1.26%     1.36MB / 1.12MB   0B / 1.88MB   43
Feb 13 03:25:06 CONTAINER ID   NAME                          CPU %     MEM USAGE / LIMIT     MEM %     NET I/O           BLOCK I/O     PIDS
Feb 13 03:25:06 71e6377199e3   janus-inmemory_janusgraph_1   41.45%    958.7MiB / 15.07GiB   6.21%     220MB / 110MB     0B / 111kB    53
Feb 13 03:25:06 c8e3c12f622e   janus-inmemory_repoSystem_1   0.81%     194.9MiB / 15.07GiB   1.26%     1.37MB / 1.13MB   0B / 1.88MB   43
Feb 13 03:25:10 CONTAINER ID   NAME                          CPU %     MEM USAGE / LIMIT     MEM %     NET I/O           BLOCK I/O     PIDS
Feb 13 03:25:10 71e6377199e3   janus-inmemory_janusgraph_1   32.07%    958.7MiB / 15.07GiB   6.21%     222MB / 111MB     0B / 111kB    53
Feb 13 03:25:10 c8e3c12f622e   janus-inmemory_repoSystem_1   2.09%     195MiB / 15.07GiB     1.26%     1.38MB / 1.14MB   0B / 1.88MB   43
Feb 13 03:25:14 CONTAINER ID   NAME                          CPU %     MEM USAGE / LIMIT     MEM %     NET I/O           BLOCK I/O     PIDS
Feb 13 03:25:14 71e6377199e3   janus-inmemory_janusgraph_1   34.06%    958.7MiB / 15.07GiB   6.21%     223MB / 112MB     0B / 111kB    53
Feb 13 03:25:14 c8e3c12f622e   janus-inmemory_repoSystem_1   0.43%     194.9MiB / 15.07GiB   1.26%     1.39MB / 1.14MB   0B / 1.88MB   43
Feb 13 03:25:17 CONTAINER ID   NAME                          CPU %     MEM USAGE / LIMIT     MEM %     NET I/O           BLOCK I/O     PIDS
Feb 13 03:25:17 71e6377199e3   janus-inmemory_janusgraph_1   33.05%    960.2MiB / 15.07GiB   6.22%     224MB / 112MB     0B / 111kB    53
Feb 13 03:25:17 c8e3c12f622e   janus-inmemory_repoSystem_1   0.38%     194.9MiB / 15.07GiB   1.26%     1.39MB / 1.14MB   0B / 1.88MB   43
Feb 13 03:25:21 CONTAINER ID   NAME                          CPU %     MEM USAGE / LIMIT     MEM %     NET I/O           BLOCK I/O     PIDS
Feb 13 03:25:21 71e6377199e3   janus-inmemory_janusgraph_1   33.73%    960.2MiB / 15.07GiB   6.22%     225MB / 113MB     0B / 111kB    53
Feb 13 03:25:21 c8e3c12f622e   janus-inmemory_repoSystem_1   0.41%     194.9MiB / 15.07GiB   1.26%     1.39MB / 1.15MB   0B / 1.88MB   43
Feb 13 03:25:24 CONTAINER ID   NAME                          CPU %     MEM USAGE / LIMIT     MEM %     NET I/O          BLOCK I/O     PIDS
Feb 13 03:25:24 71e6377199e3   janus-inmemory_janusgraph_1   37.71%    960.2MiB / 15.07GiB   6.22%     226MB / 113MB    0B / 111kB    53
Feb 13 03:25:24 c8e3c12f622e   janus-inmemory_repoSystem_1   0.35%     194.9MiB / 15.07GiB   1.26%     1.4MB / 1.15MB   0B / 1.88MB   43
Feb 13 03:25:28 CONTAINER ID   NAME                          CPU %     MEM USAGE / LIMIT     MEM %     NET I/O           BLOCK I/O     PIDS
Feb 13 03:25:28 71e6377199e3   janus-inmemory_janusgraph_1   48.79%    961.6MiB / 15.07GiB   6.23%     227MB / 114MB     0B / 111kB    53
Feb 13 03:25:28 c8e3c12f622e   janus-inmemory_repoSystem_1   0.22%     194.9MiB / 15.07GiB   1.26%     1.41MB / 1.16MB   0B / 1.88MB   43
Feb 13 03:25:32 CONTAINER ID   NAME                          CPU %     MEM USAGE / LIMIT     MEM %     NET I/O           BLOCK I/O     PIDS
Feb 13 03:25:32 71e6377199e3   janus-inmemory_janusgraph_1   38.75%    961.5MiB / 15.07GiB   6.23%     228MB / 114MB     0B / 111kB    53
Feb 13 03:25:32 c8e3c12f622e   janus-inmemory_repoSystem_1   0.89%     194.9MiB / 15.07GiB   1.26%     1.42MB / 1.17MB   0B / 1.88MB   43
Feb 13 03:25:35 CONTAINER ID   NAME                          CPU %     MEM USAGE / LIMIT     MEM %     NET I/O           BLOCK I/O     PIDS
Feb 13 03:25:35 71e6377199e3   janus-inmemory_janusgraph_1   36.62%    961.5MiB / 15.07GiB   6.23%     230MB / 115MB     0B / 111kB    53
Feb 13 03:25:35 c8e3c12f622e   janus-inmemory_repoSystem_1   1.34%     194.9MiB / 15.07GiB   1.26%     1.43MB / 1.18MB   0B / 1.88MB   43
Feb 13 03:25:39 CONTAINER ID   NAME                          CPU %     MEM USAGE / LIMIT     MEM %     NET I/O           BLOCK I/O     PIDS
Feb 13 03:25:39 71e6377199e3   janus-inmemory_janusgraph_1   38.09%    962.9MiB / 15.07GiB   6.24%     231MB / 116MB     0B / 111kB    53
Feb 13 03:25:39 c8e3c12f622e   janus-inmemory_repoSystem_1   1.60%     195.1MiB / 15.07GiB   1.26%     1.44MB / 1.19MB   0B / 1.88MB   43
Feb 13 03:25:42 CONTAINER ID   NAME                          CPU %     MEM USAGE / LIMIT     MEM %     NET I/O           BLOCK I/O     PIDS
Feb 13 03:25:42 71e6377199e3   janus-inmemory_janusgraph_1   34.15%    962.9MiB / 15.07GiB   6.24%     233MB / 117MB     0B / 111kB    53
Feb 13 03:25:42 c8e3c12f622e   janus-inmemory_repoSystem_1   0.87%     195MiB / 15.07GiB     1.26%     1.45MB / 1.19MB   0B / 1.88MB   43
Feb 13 03:25:46 CONTAINER ID   NAME                          CPU %     MEM USAGE / LIMIT     MEM %     NET I/O          BLOCK I/O     PIDS
Feb 13 03:25:46 71e6377199e3   janus-inmemory_janusgraph_1   29.78%    962.9MiB / 15.07GiB   6.24%     234MB / 117MB    0B / 111kB    53
Feb 13 03:25:46 c8e3c12f622e   janus-inmemory_repoSystem_1   0.57%     195MiB / 15.07GiB     1.26%     1.46MB / 1.2MB   0B / 1.88MB   43
Feb 13 03:25:50 CONTAINER ID   NAME                          CPU %     MEM USAGE / LIMIT     MEM %     NET I/O           BLOCK I/O     PIDS
Feb 13 03:25:50 71e6377199e3   janus-inmemory_janusgraph_1   26.92%    964.3MiB / 15.07GiB   6.25%     235MB / 118MB     0B / 111kB    53
Feb 13 03:25:50 c8e3c12f622e   janus-inmemory_repoSystem_1   17.56%    195.1MiB / 15.07GiB   1.26%     1.46MB / 1.21MB   0B / 1.88MB   43
Feb 13 03:25:53 CONTAINER ID   NAME                          CPU %     MEM USAGE / LIMIT     MEM %     NET I/O           BLOCK I/O     PIDS
Feb 13 03:25:53 71e6377199e3   janus-inmemory_janusgraph_1   26.54%    964.3MiB / 15.07GiB   6.25%     236MB / 118MB     0B / 111kB    53
Feb 13 03:25:53 c8e3c12f622e   janus-inmemory_repoSystem_1   0.40%     195MiB / 15.07GiB     1.26%     1.47MB / 1.21MB   0B / 1.88MB   43
Feb 13 03:25:57 CONTAINER ID   NAME                          CPU %     MEM USAGE / LIMIT     MEM %     NET I/O           BLOCK I/O     PIDS
Feb 13 03:25:57 71e6377199e3   janus-inmemory_janusgraph_1   29.35%    964.3MiB / 15.07GiB   6.25%     237MB / 119MB     0B / 111kB    53
Feb 13 03:25:57 c8e3c12f622e   janus-inmemory_repoSystem_1   0.41%     195MiB / 15.07GiB     1.26%     1.47MB / 1.21MB   0B / 1.88MB   43
Feb 13 03:26:00 CONTAINER ID   NAME                          CPU %     MEM USAGE / LIMIT     MEM %     NET I/O           BLOCK I/O     PIDS
Feb 13 03:26:00 71e6377199e3   janus-inmemory_janusgraph_1   34.43%    965.9MiB / 15.07GiB   6.26%     238MB / 119MB     0B / 111kB    53
Feb 13 03:26:00 c8e3c12f622e   janus-inmemory_repoSystem_1   2.73%     195.2MiB / 15.07GiB   1.26%     1.48MB / 1.22MB   0B / 1.88MB   43
Feb 13 03:26:04 CONTAINER ID   NAME                          CPU %     MEM USAGE / LIMIT     MEM %     NET I/O           BLOCK I/O     PIDS
Feb 13 03:26:04 71e6377199e3   janus-inmemory_janusgraph_1   35.49%    965.9MiB / 15.07GiB   6.26%     240MB / 120MB     0B / 111kB    53
Feb 13 03:26:04 c8e3c12f622e   janus-inmemory_repoSystem_1   1.08%     195.1MiB / 15.07GiB   1.26%     1.49MB / 1.22MB   0B / 1.88MB   43
Feb 13 03:26:08 CONTAINER ID   NAME                          CPU %     MEM USAGE / LIMIT     MEM %     NET I/O           BLOCK I/O     PIDS
Feb 13 03:26:08 71e6377199e3   janus-inmemory_janusgraph_1   43.87%    967.4MiB / 15.07GiB   6.27%     241MB / 121MB     0B / 111kB    53
Feb 13 03:26:08 c8e3c12f622e   janus-inmemory_repoSystem_1   0.51%     195.1MiB / 15.07GiB   1.26%     1.49MB / 1.23MB   0B / 1.88MB   43
Feb 13 03:26:11 CONTAINER ID   NAME                          CPU %     MEM USAGE / LIMIT     MEM %     NET I/O          BLOCK I/O     PIDS
Feb 13 03:26:11 71e6377199e3   janus-inmemory_janusgraph_1   34.76%    967.2MiB / 15.07GiB   6.27%     242MB / 121MB    0B / 111kB    53
Feb 13 03:26:11 c8e3c12f622e   janus-inmemory_repoSystem_1   0.37%     195.1MiB / 15.07GiB   1.26%     1.5MB / 1.24MB   0B / 1.88MB   43
Feb 13 03:26:15 CONTAINER ID   NAME                          CPU %     MEM USAGE / LIMIT     MEM %     NET I/O           BLOCK I/O     PIDS
Feb 13 03:26:15 71e6377199e3   janus-inmemory_janusgraph_1   34.29%    967.2MiB / 15.07GiB   6.27%     243MB / 122MB     0B / 111kB    53
Feb 13 03:26:15 c8e3c12f622e   janus-inmemory_repoSystem_1   0.81%     195.1MiB / 15.07GiB   1.26%     1.51MB / 1.24MB   0B / 1.88MB   43
Feb 13 03:26:19 CONTAINER ID   NAME                          CPU %     MEM USAGE / LIMIT     MEM %     NET I/O           BLOCK I/O     PIDS
Feb 13 03:26:19 71e6377199e3   janus-inmemory_janusgraph_1   41.62%    967.2MiB / 15.07GiB   6.27%     244MB / 122MB     0B / 111kB    53
Feb 13 03:26:19 c8e3c12f622e   janus-inmemory_repoSystem_1   0.21%     195.1MiB / 15.07GiB   1.26%     1.51MB / 1.24MB   0B / 1.88MB   43
Feb 13 03:26:22 CONTAINER ID   NAME                          CPU %     MEM USAGE / LIMIT     MEM %     NET I/O           BLOCK I/O     PIDS
Feb 13 03:26:22 71e6377199e3   janus-inmemory_janusgraph_1   44.84%    968.6MiB / 15.07GiB   6.28%     245MB / 123MB     0B / 111kB    53
Feb 13 03:26:22 c8e3c12f622e   janus-inmemory_repoSystem_1   0.20%     195.1MiB / 15.07GiB   1.26%     1.52MB / 1.24MB   0B / 1.88MB   43
Feb 13 03:26:26 CONTAINER ID   NAME                          CPU %     MEM USAGE / LIMIT     MEM %     NET I/O           BLOCK I/O     PIDS
Feb 13 03:26:26 71e6377199e3   janus-inmemory_janusgraph_1   35.18%    968.6MiB / 15.07GiB   6.28%     246MB / 123MB     0B / 111kB    53
Feb 13 03:26:26 c8e3c12f622e   janus-inmemory_repoSystem_1   0.23%     195.1MiB / 15.07GiB   1.26%     1.53MB / 1.26MB   0B / 1.88MB   43
Feb 13 03:26:29 CONTAINER ID   NAME                          CPU %     MEM USAGE / LIMIT     MEM %     NET I/O           BLOCK I/O     PIDS
Feb 13 03:26:29 71e6377199e3   janus-inmemory_janusgraph_1   48.49%    968.8MiB / 15.07GiB   6.28%     248MB / 124MB     0B / 111kB    53
Feb 13 03:26:29 c8e3c12f622e   janus-inmemory_repoSystem_1   0.71%     195.2MiB / 15.07GiB   1.26%     1.54MB / 1.26MB   0B / 1.88MB   43
Feb 13 03:26:33 CONTAINER ID   NAME                          CPU %     MEM USAGE / LIMIT     MEM %     NET I/O           BLOCK I/O     PIDS
Feb 13 03:26:33 71e6377199e3   janus-inmemory_janusgraph_1   33.98%    969.9MiB / 15.07GiB   6.29%     249MB / 125MB     0B / 111kB    53
Feb 13 03:26:33 c8e3c12f622e   janus-inmemory_repoSystem_1   7.00%     195.2MiB / 15.07GiB   1.27%     1.55MB / 1.27MB   0B / 1.88MB   43
Feb 13 03:26:37 CONTAINER ID   NAME                          CPU %     MEM USAGE / LIMIT     MEM %     NET I/O           BLOCK I/O     PIDS
Feb 13 03:26:37 71e6377199e3   janus-inmemory_janusgraph_1   38.03%    969.9MiB / 15.07GiB   6.29%     251MB / 126MB     0B / 111kB    53
Feb 13 03:26:37 c8e3c12f622e   janus-inmemory_repoSystem_1   0.68%     195.2MiB / 15.07GiB   1.27%     1.56MB / 1.28MB   0B / 1.88MB   43
Feb 13 03:26:40 CONTAINER ID   NAME                          CPU %     MEM USAGE / LIMIT     MEM %     NET I/O           BLOCK I/O     PIDS
Feb 13 03:26:40 71e6377199e3   janus-inmemory_janusgraph_1   37.47%    971.9MiB / 15.07GiB   6.30%     252MB / 126MB     0B / 111kB    53
Feb 13 03:26:40 c8e3c12f622e   janus-inmemory_repoSystem_1   1.20%     195.2MiB / 15.07GiB   1.27%     1.56MB / 1.29MB   0B / 1.88MB   43
Feb 13 03:26:44 CONTAINER ID   NAME                          CPU %     MEM USAGE / LIMIT     MEM %     NET I/O          BLOCK I/O     PIDS
Feb 13 03:26:44 71e6377199e3   janus-inmemory_janusgraph_1   34.29%    971.9MiB / 15.07GiB   6.30%     253MB / 127MB    0B / 111kB    53
Feb 13 03:26:44 c8e3c12f622e   janus-inmemory_repoSystem_1   0.68%     195.4MiB / 15.07GiB   1.27%     1.57MB / 1.3MB   0B / 1.88MB   43
Feb 13 03:26:47 CONTAINER ID   NAME                          CPU %     MEM USAGE / LIMIT     MEM %     NET I/O           BLOCK I/O     PIDS
Feb 13 03:26:47 71e6377199e3   janus-inmemory_janusgraph_1   34.54%    971.9MiB / 15.07GiB   6.30%     255MB / 128MB     0B / 111kB    53
Feb 13 03:26:47 c8e3c12f622e   janus-inmemory_repoSystem_1   0.72%     195.2MiB / 15.07GiB   1.27%     1.58MB / 1.31MB   0B / 1.88MB   43
Feb 13 03:26:51 CONTAINER ID   NAME                          CPU %     MEM USAGE / LIMIT     MEM %     NET I/O          BLOCK I/O     PIDS
Feb 13 03:26:51 71e6377199e3   janus-inmemory_janusgraph_1   32.02%    973.3MiB / 15.07GiB   6.31%     256MB / 128MB    0B / 111kB    53
Feb 13 03:26:51 c8e3c12f622e   janus-inmemory_repoSystem_1   0.65%     195.3MiB / 15.07GiB   1.27%     1.6MB / 1.32MB   0B / 1.88MB   43
Feb 13 03:26:54 CONTAINER ID   NAME                          CPU %     MEM USAGE / LIMIT     MEM %     NET I/O          BLOCK I/O     PIDS
Feb 13 03:26:54 71e6377199e3   janus-inmemory_janusgraph_1   35.91%    973.3MiB / 15.07GiB   6.31%     258MB / 129MB    0B / 111kB    53
Feb 13 03:26:54 c8e3c12f622e   janus-inmemory_repoSystem_1   0.72%     195.4MiB / 15.07GiB   1.27%     1.6MB / 1.33MB   0B / 1.88MB   43
Feb 13 03:26:58 CONTAINER ID   NAME                          CPU %     MEM USAGE / LIMIT     MEM %     NET I/O           BLOCK I/O     PIDS
Feb 13 03:26:58 71e6377199e3   janus-inmemory_janusgraph_1   38.96%    974.9MiB / 15.07GiB   6.32%     259MB / 129MB     0B / 111kB    53
Feb 13 03:26:58 c8e3c12f622e   janus-inmemory_repoSystem_1   0.53%     195.3MiB / 15.07GiB   1.27%     1.61MB / 1.34MB   0B / 1.88MB   43
Feb 13 03:27:02 CONTAINER ID   NAME                          CPU %     MEM USAGE / LIMIT     MEM %     NET I/O           BLOCK I/O     PIDS
Feb 13 03:27:02 71e6377199e3   janus-inmemory_janusgraph_1   35.42%    974.7MiB / 15.07GiB   6.32%     260MB / 130MB     0B / 111kB    53
Feb 13 03:27:02 c8e3c12f622e   janus-inmemory_repoSystem_1   0.72%     195.3MiB / 15.07GiB   1.27%     1.62MB / 1.35MB   0B / 1.88MB   43
Feb 13 03:27:05 CONTAINER ID   NAME                          CPU %     MEM USAGE / LIMIT     MEM %     NET I/O           BLOCK I/O     PIDS
Feb 13 03:27:05 71e6377199e3   janus-inmemory_janusgraph_1   37.45%    974.7MiB / 15.07GiB   6.32%     261MB / 131MB     0B / 111kB    53
Feb 13 03:27:05 c8e3c12f622e   janus-inmemory_repoSystem_1   0.72%     195.4MiB / 15.07GiB   1.27%     1.63MB / 1.36MB   0B / 1.88MB   43
Feb 13 03:27:09 CONTAINER ID   NAME                          CPU %     MEM USAGE / LIMIT     MEM %     NET I/O           BLOCK I/O     PIDS
Feb 13 03:27:09 71e6377199e3   janus-inmemory_janusgraph_1   39.08%    976.1MiB / 15.07GiB   6.33%     262MB / 131MB     0B / 111kB    53
Feb 13 03:27:09 c8e3c12f622e   janus-inmemory_repoSystem_1   39.45%    195.9MiB / 15.07GiB   1.27%     1.64MB / 1.36MB   0B / 1.88MB   43
Feb 13 03:27:12 CONTAINER ID   NAME                          CPU %     MEM USAGE / LIMIT     MEM %     NET I/O           BLOCK I/O     PIDS
Feb 13 03:27:12 71e6377199e3   janus-inmemory_janusgraph_1   13.44%    976.1MiB / 15.07GiB   6.33%     264MB / 132MB     0B / 111kB    53
Feb 13 03:27:12 c8e3c12f622e   janus-inmemory_repoSystem_1   0.69%     202.6MiB / 15.07GiB   1.31%     1.65MB / 1.37MB   0B / 1.88MB   43
Feb 13 03:27:16 CONTAINER ID   NAME                          CPU %     MEM USAGE / LIMIT     MEM %     NET I/O           BLOCK I/O     PIDS
Feb 13 03:27:16 71e6377199e3   janus-inmemory_janusgraph_1   3.34%     976.2MiB / 15.07GiB   6.33%     264MB / 132MB     0B / 111kB    53
Feb 13 03:27:16 c8e3c12f622e   janus-inmemory_repoSystem_1   0.29%     202.7MiB / 15.07GiB   1.31%     1.65MB / 1.37MB   0B / 1.88MB   43
