Jan 17 17:47:56 CONTAINER ID   NAME      CPU %     MEM USAGE / LIMIT   MEM %     NET I/O   BLOCK I/O   PIDS
Jan 17 17:47:57 CONTAINER ID   NAME      CPU %     MEM USAGE / LIMIT   MEM %     NET I/O   BLOCK I/O   PIDS
Jan 17 17:47:57                --        0.00%     0B / 0B             0.00%     0B / 0B   0B / 0B     0
Jan 17 17:47:57                --        0.00%     0B / 0B             0.00%     0B / 0B   0B / 0B     0
Jan 17 17:48:01 CONTAINER ID   NAME                                      CPU %     MEM USAGE / LIMIT     MEM %     NET I/O        BLOCK I/O         PIDS
Jan 17 17:48:01 8b60ec83577d   cdo-after-redesign-docker_repoHistory_1   169.02%   117.4MiB / 15.07GiB   0.76%     9.76kB / 96B   1.24MB / 24.6kB   35
Jan 17 17:48:01 1902c8556da5   cdo-after-redesign-docker_repoSystem_1    169.00%   113.6MiB / 15.07GiB   0.74%     9.42kB / 96B   0B / 0B           33
Jan 17 17:48:04 CONTAINER ID   NAME                                      CPU %     MEM USAGE / LIMIT     MEM %     NET I/O         BLOCK I/O         PIDS
Jan 17 17:48:04 8b60ec83577d   cdo-after-redesign-docker_repoHistory_1   126.34%   163.6MiB / 15.07GiB   1.06%     13.9kB / 138B   1.24MB / 1.73MB   38
Jan 17 17:48:04 1902c8556da5   cdo-after-redesign-docker_repoSystem_1    0.40%     144.6MiB / 15.07GiB   0.94%     14.9kB / 138B   0B / 1.74MB       38
Jan 17 17:48:08 CONTAINER ID   NAME                                      CPU %     MEM USAGE / LIMIT     MEM %     NET I/O         BLOCK I/O         PIDS
Jan 17 17:48:08 8b60ec83577d   cdo-after-redesign-docker_repoHistory_1   0.49%     163.6MiB / 15.07GiB   1.06%     16.6kB / 138B   1.24MB / 1.73MB   37
Jan 17 17:48:08 1902c8556da5   cdo-after-redesign-docker_repoSystem_1    0.51%     144.6MiB / 15.07GiB   0.94%     16.6kB / 138B   0B / 1.74MB       37
Jan 17 17:48:12 CONTAINER ID   NAME                                      CPU %     MEM USAGE / LIMIT     MEM %     NET I/O         BLOCK I/O         PIDS
Jan 17 17:48:12 8b60ec83577d   cdo-after-redesign-docker_repoHistory_1   0.42%     163.2MiB / 15.07GiB   1.06%     17.4kB / 138B   1.24MB / 1.73MB   33
Jan 17 17:48:12 1902c8556da5   cdo-after-redesign-docker_repoSystem_1    0.43%     144.3MiB / 15.07GiB   0.93%     17.3kB / 138B   0B / 1.74MB       33
Jan 17 17:48:15 CONTAINER ID   NAME                                      CPU %     MEM USAGE / LIMIT     MEM %     NET I/O         BLOCK I/O         PIDS
Jan 17 17:48:15 8b60ec83577d   cdo-after-redesign-docker_repoHistory_1   0.41%     163.2MiB / 15.07GiB   1.06%     18.3kB / 138B   1.24MB / 1.73MB   33
Jan 17 17:48:15 1902c8556da5   cdo-after-redesign-docker_repoSystem_1    0.39%     144.3MiB / 15.07GiB   0.93%     18.3kB / 138B   0B / 1.74MB       33
Jan 17 17:48:19 CONTAINER ID   NAME                                      CPU %     MEM USAGE / LIMIT     MEM %     NET I/O           BLOCK I/O         PIDS
Jan 17 17:48:19 8b60ec83577d   cdo-after-redesign-docker_repoHistory_1   50.75%    167.3MiB / 15.07GiB   1.08%     22.4kB / 4.09kB   1.24MB / 1.73MB   44
Jan 17 17:48:19 1902c8556da5   cdo-after-redesign-docker_repoSystem_1    213.51%   198.5MiB / 15.07GiB   1.29%     22.6kB / 2.4kB    0B / 1.74MB       44
Jan 17 17:48:23 CONTAINER ID   NAME                                      CPU %     MEM USAGE / LIMIT     MEM %     NET I/O           BLOCK I/O         PIDS
Jan 17 17:48:23 8b60ec83577d   cdo-after-redesign-docker_repoHistory_1   0.38%     167.6MiB / 15.07GiB   1.09%     24.6kB / 5.34kB   1.24MB / 1.73MB   43
Jan 17 17:48:23 1902c8556da5   cdo-after-redesign-docker_repoSystem_1    1.60%     190.6MiB / 15.07GiB   1.24%     41.9kB / 19kB     0B / 1.74MB       43
Jan 17 17:48:27 CONTAINER ID   NAME                                      CPU %     MEM USAGE / LIMIT     MEM %     NET I/O           BLOCK I/O         PIDS
Jan 17 17:48:27 8b60ec83577d   cdo-after-redesign-docker_repoHistory_1   0.43%     167.6MiB / 15.07GiB   1.09%     25.4kB / 5.34kB   1.24MB / 1.73MB   43
Jan 17 17:48:27 1902c8556da5   cdo-after-redesign-docker_repoSystem_1    3.32%     190.8MiB / 15.07GiB   1.24%     46.8kB / 21.4kB   0B / 1.74MB       43
Jan 17 17:48:30 CONTAINER ID   NAME                                      CPU %     MEM USAGE / LIMIT     MEM %     NET I/O           BLOCK I/O         PIDS
Jan 17 17:48:30 8b60ec83577d   cdo-after-redesign-docker_repoHistory_1   80.64%    173.5MiB / 15.07GiB   1.12%     875kB / 7.54kB    1.24MB / 1.86MB   43
Jan 17 17:48:30 1902c8556da5   cdo-after-redesign-docker_repoSystem_1    8.63%     191.5MiB / 15.07GiB   1.24%     56.7kB / 28.5kB   0B / 1.86MB       43
Jan 17 17:48:34 CONTAINER ID   NAME                                      CPU %     MEM USAGE / LIMIT     MEM %     NET I/O           BLOCK I/O         PIDS
Jan 17 17:48:34 8b60ec83577d   cdo-after-redesign-docker_repoHistory_1   0.34%     175.6MiB / 15.07GiB   1.14%     876kB / 47.7kB    1.24MB / 1.86MB   43
Jan 17 17:48:34 1902c8556da5   cdo-after-redesign-docker_repoSystem_1    13.21%    191.9MiB / 15.07GiB   1.24%     65.2kB / 35.7kB   0B / 1.86MB       43
Jan 17 17:48:38 CONTAINER ID   NAME                                      CPU %     MEM USAGE / LIMIT     MEM %     NET I/O           BLOCK I/O         PIDS
Jan 17 17:48:38 8b60ec83577d   cdo-after-redesign-docker_repoHistory_1   0.41%     175.6MiB / 15.07GiB   1.14%     877kB / 47.7kB    1.24MB / 1.86MB   43
Jan 17 17:48:38 1902c8556da5   cdo-after-redesign-docker_repoSystem_1    10.55%    192.2MiB / 15.07GiB   1.25%     73.3kB / 42.1kB   0B / 1.86MB       43
Jan 17 17:48:42 CONTAINER ID   NAME                                      CPU %     MEM USAGE / LIMIT     MEM %     NET I/O           BLOCK I/O         PIDS
Jan 17 17:48:42 8b60ec83577d   cdo-after-redesign-docker_repoHistory_1   5.38%     214.3MiB / 15.07GiB   1.39%     1.59MB / 99.1kB   1.24MB / 1.86MB   45
Jan 17 17:48:42 1902c8556da5   cdo-after-redesign-docker_repoSystem_1    3.99%     192.8MiB / 15.07GiB   1.25%     82.9kB / 50.4kB   0B / 1.86MB       43
Jan 17 17:48:45 CONTAINER ID   NAME                                      CPU %     MEM USAGE / LIMIT     MEM %     NET I/O           BLOCK I/O         PIDS
Jan 17 17:48:45 8b60ec83577d   cdo-after-redesign-docker_repoHistory_1   0.14%     214.3MiB / 15.07GiB   1.39%     1.59MB / 99.1kB   1.24MB / 1.86MB   45
Jan 17 17:48:45 1902c8556da5   cdo-after-redesign-docker_repoSystem_1    6.25%     192.9MiB / 15.07GiB   1.25%     88.9kB / 55.4kB   0B / 1.86MB       43
Jan 17 17:48:49 CONTAINER ID   NAME                                      CPU %     MEM USAGE / LIMIT     MEM %     NET I/O           BLOCK I/O         PIDS
Jan 17 17:48:49 8b60ec83577d   cdo-after-redesign-docker_repoHistory_1   0.44%     214.2MiB / 15.07GiB   1.39%     1.6MB / 99.1kB    1.24MB / 1.86MB   45
Jan 17 17:48:49 1902c8556da5   cdo-after-redesign-docker_repoSystem_1    11.23%    193.3MiB / 15.07GiB   1.25%     98.8kB / 63.9kB   0B / 1.86MB       43
Jan 17 17:48:53 CONTAINER ID   NAME                                      CPU %     MEM USAGE / LIMIT     MEM %     NET I/O          BLOCK I/O         PIDS
Jan 17 17:48:53 8b60ec83577d   cdo-after-redesign-docker_repoHistory_1   0.56%     219.8MiB / 15.07GiB   1.42%     2.36MB / 153kB   1.24MB / 1.86MB   45
Jan 17 17:48:53 1902c8556da5   cdo-after-redesign-docker_repoSystem_1    0.55%     193.4MiB / 15.07GiB   1.25%     102kB / 66kB     0B / 1.86MB       43
Jan 17 17:48:57 CONTAINER ID   NAME                                      CPU %     MEM USAGE / LIMIT     MEM %     NET I/O          BLOCK I/O         PIDS
Jan 17 17:48:57 8b60ec83577d   cdo-after-redesign-docker_repoHistory_1   0.44%     220MiB / 15.07GiB     1.43%     2.36MB / 153kB   1.24MB / 1.86MB   45
Jan 17 17:48:57 1902c8556da5   cdo-after-redesign-docker_repoSystem_1    0.52%     193.5MiB / 15.07GiB   1.25%     103kB / 66.2kB   0B / 1.86MB       43
Jan 17 17:49:00 CONTAINER ID   NAME                                      CPU %     MEM USAGE / LIMIT     MEM %     NET I/O          BLOCK I/O         PIDS
Jan 17 17:49:00 8b60ec83577d   cdo-after-redesign-docker_repoHistory_1   0.41%     220MiB / 15.07GiB     1.43%     2.36MB / 153kB   1.24MB / 1.86MB   45
Jan 17 17:49:00 1902c8556da5   cdo-after-redesign-docker_repoSystem_1    0.48%     193.5MiB / 15.07GiB   1.25%     103kB / 66.2kB   0B / 1.86MB       43
Jan 17 17:49:04 CONTAINER ID   NAME                                      CPU %     MEM USAGE / LIMIT     MEM %     NET I/O          BLOCK I/O         PIDS
Jan 17 17:49:04 8b60ec83577d   cdo-after-redesign-docker_repoHistory_1   0.43%     220MiB / 15.07GiB     1.43%     2.36MB / 153kB   1.24MB / 1.86MB   45
Jan 17 17:49:04 1902c8556da5   cdo-after-redesign-docker_repoSystem_1    0.51%     193.5MiB / 15.07GiB   1.25%     103kB / 66.2kB   0B / 1.86MB       43
