Jan 17 17:50:16 CONTAINER ID   NAME      CPU %     MEM USAGE / LIMIT   MEM %     NET I/O   BLOCK I/O   PIDS
Jan 17 17:50:19 CONTAINER ID   NAME                                      CPU %     MEM USAGE / LIMIT     MEM %     NET I/O        BLOCK I/O   PIDS
Jan 17 17:50:19 70f7fb71acca   cdo-after-redesign-docker_repoSystem_1    183.44%   75.62MiB / 15.07GiB   0.49%     8.51kB / 96B   0B / 0B     30
Jan 17 17:50:19 ce728e1f4809   cdo-after-redesign-docker_repoHistory_1   179.23%   77.18MiB / 15.07GiB   0.50%     8.62kB / 96B   0B / 0B     30
Jan 17 17:50:22 CONTAINER ID   NAME                                      CPU %     MEM USAGE / LIMIT     MEM %     NET I/O        BLOCK I/O     PIDS
Jan 17 17:50:22 70f7fb71acca   cdo-after-redesign-docker_repoSystem_1    171.74%   147.1MiB / 15.07GiB   0.95%     14.3kB / 96B   0B / 1.58MB   34
Jan 17 17:50:22 ce728e1f4809   cdo-after-redesign-docker_repoHistory_1   159.77%   147.5MiB / 15.07GiB   0.96%     14.4kB / 96B   0B / 1.5MB    35
Jan 17 17:50:25 CONTAINER ID   NAME                                      CPU %     MEM USAGE / LIMIT     MEM %     NET I/O         BLOCK I/O     PIDS
Jan 17 17:50:25 70f7fb71acca   cdo-after-redesign-docker_repoSystem_1    0.34%     167.2MiB / 15.07GiB   1.08%     17kB / 138B     0B / 1.72MB   38
Jan 17 17:50:25 ce728e1f4809   cdo-after-redesign-docker_repoHistory_1   0.34%     176.5MiB / 15.07GiB   1.14%     17.1kB / 138B   0B / 1.73MB   37
Jan 17 17:50:28 CONTAINER ID   NAME                                      CPU %     MEM USAGE / LIMIT     MEM %     NET I/O         BLOCK I/O     PIDS
Jan 17 17:50:28 70f7fb71acca   cdo-after-redesign-docker_repoSystem_1    0.79%     155.9MiB / 15.07GiB   1.01%     18.1kB / 138B   0B / 1.72MB   37
Jan 17 17:50:28 ce728e1f4809   cdo-after-redesign-docker_repoHistory_1   0.59%     172.4MiB / 15.07GiB   1.12%     18.2kB / 138B   0B / 1.73MB   37
Jan 17 17:50:31 CONTAINER ID   NAME                                      CPU %     MEM USAGE / LIMIT     MEM %     NET I/O         BLOCK I/O     PIDS
Jan 17 17:50:31 70f7fb71acca   cdo-after-redesign-docker_repoSystem_1    0.44%     155.6MiB / 15.07GiB   1.01%     18.6kB / 138B   0B / 1.72MB   33
Jan 17 17:50:31 ce728e1f4809   cdo-after-redesign-docker_repoHistory_1   0.43%     172.1MiB / 15.07GiB   1.12%     18.7kB / 138B   0B / 1.73MB   33
Jan 17 17:50:34 CONTAINER ID   NAME                                      CPU %     MEM USAGE / LIMIT     MEM %     NET I/O         BLOCK I/O     PIDS
Jan 17 17:50:34 70f7fb71acca   cdo-after-redesign-docker_repoSystem_1    0.41%     155.6MiB / 15.07GiB   1.01%     19.6kB / 138B   0B / 1.72MB   33
Jan 17 17:50:34 ce728e1f4809   cdo-after-redesign-docker_repoHistory_1   0.39%     172.1MiB / 15.07GiB   1.12%     19.7kB / 138B   0B / 1.73MB   33
Jan 17 17:50:37 CONTAINER ID   NAME                                      CPU %     MEM USAGE / LIMIT     MEM %     NET I/O         BLOCK I/O     PIDS
Jan 17 17:50:37 70f7fb71acca   cdo-after-redesign-docker_repoSystem_1    0.18%     155.6MiB / 15.07GiB   1.01%     20.1kB / 138B   0B / 1.72MB   33
Jan 17 17:50:37 ce728e1f4809   cdo-after-redesign-docker_repoHistory_1   4.17%     172.5MiB / 15.07GiB   1.12%     20.4kB / 212B   0B / 1.73MB   33
Jan 17 17:50:40 CONTAINER ID   NAME                                      CPU %     MEM USAGE / LIMIT     MEM %     NET I/O           BLOCK I/O     PIDS
Jan 17 17:50:40 70f7fb71acca   cdo-after-redesign-docker_repoSystem_1    25.85%    173.4MiB / 15.07GiB   1.12%     38.4kB / 16.1kB   0B / 1.72MB   43
Jan 17 17:50:40 ce728e1f4809   cdo-after-redesign-docker_repoHistory_1   0.21%     176.2MiB / 15.07GiB   1.14%     25.1kB / 4.41kB   0B / 1.73MB   44
Jan 17 17:50:43 CONTAINER ID   NAME                                      CPU %     MEM USAGE / LIMIT     MEM %     NET I/O           BLOCK I/O     PIDS
Jan 17 17:50:43 70f7fb71acca   cdo-after-redesign-docker_repoSystem_1    2.73%     169.5MiB / 15.07GiB   1.10%     43.9kB / 19.4kB   0B / 1.72MB   43
Jan 17 17:50:43 ce728e1f4809   cdo-after-redesign-docker_repoHistory_1   0.54%     176.1MiB / 15.07GiB   1.14%     25.3kB / 4.41kB   0B / 1.73MB   43
Jan 17 17:50:46 CONTAINER ID   NAME                                      CPU %     MEM USAGE / LIMIT     MEM %     NET I/O           BLOCK I/O     PIDS
Jan 17 17:50:46 70f7fb71acca   cdo-after-redesign-docker_repoSystem_1    5.80%     169.6MiB / 15.07GiB   1.10%     47.4kB / 21.1kB   0B / 1.72MB   43
Jan 17 17:50:46 ce728e1f4809   cdo-after-redesign-docker_repoHistory_1   0.37%     176.1MiB / 15.07GiB   1.14%     25.8kB / 4.41kB   0B / 1.73MB   43
Jan 17 17:50:49 CONTAINER ID   NAME                                      CPU %     MEM USAGE / LIMIT     MEM %     NET I/O           BLOCK I/O     PIDS
Jan 17 17:50:49 70f7fb71acca   cdo-after-redesign-docker_repoSystem_1    45.60%    170.2MiB / 15.07GiB   1.10%     54.1kB / 25.9kB   0B / 1.85MB   43
Jan 17 17:50:49 ce728e1f4809   cdo-after-redesign-docker_repoHistory_1   128.33%   183.4MiB / 15.07GiB   1.19%     838kB / 7.46kB    0B / 1.85MB   43
Jan 17 17:50:52 CONTAINER ID   NAME                                      CPU %     MEM USAGE / LIMIT     MEM %     NET I/O          BLOCK I/O     PIDS
Jan 17 17:50:52 70f7fb71acca   cdo-after-redesign-docker_repoSystem_1    9.74%     170.8MiB / 15.07GiB   1.11%     62kB / 32.3kB    0B / 1.85MB   43
Jan 17 17:50:52 ce728e1f4809   cdo-after-redesign-docker_repoHistory_1   0.38%     186.5MiB / 15.07GiB   1.21%     839kB / 45.9kB   0B / 1.85MB   43
Jan 17 17:50:56 CONTAINER ID   NAME                                      CPU %     MEM USAGE / LIMIT     MEM %     NET I/O           BLOCK I/O     PIDS
Jan 17 17:50:56 70f7fb71acca   cdo-after-redesign-docker_repoSystem_1    3.13%     170.9MiB / 15.07GiB   1.11%     68.5kB / 37.7kB   0B / 1.85MB   43
Jan 17 17:50:56 ce728e1f4809   cdo-after-redesign-docker_repoHistory_1   0.39%     186.5MiB / 15.07GiB   1.21%     840kB / 45.9kB    0B / 1.85MB   43
Jan 17 17:50:59 CONTAINER ID   NAME                                      CPU %     MEM USAGE / LIMIT     MEM %     NET I/O           BLOCK I/O     PIDS
Jan 17 17:50:59 70f7fb71acca   cdo-after-redesign-docker_repoSystem_1    13.42%    171.4MiB / 15.07GiB   1.11%     76.6kB / 44.4kB   0B / 1.85MB   43
Jan 17 17:50:59 ce728e1f4809   cdo-after-redesign-docker_repoHistory_1   0.44%     186.5MiB / 15.07GiB   1.21%     840kB / 45.9kB    0B / 1.85MB   43
Jan 17 17:51:02 CONTAINER ID   NAME                                      CPU %     MEM USAGE / LIMIT     MEM %     NET I/O          BLOCK I/O     PIDS
Jan 17 17:51:02 70f7fb71acca   cdo-after-redesign-docker_repoSystem_1    11.02%    171.6MiB / 15.07GiB   1.11%     82kB / 49.2kB    0B / 1.85MB   43
Jan 17 17:51:02 ce728e1f4809   cdo-after-redesign-docker_repoHistory_1   8.31%     219.1MiB / 15.07GiB   1.42%     1.62MB / 100kB   0B / 1.85MB   45
Jan 17 17:51:05 CONTAINER ID   NAME                                      CPU %     MEM USAGE / LIMIT     MEM %     NET I/O           BLOCK I/O     PIDS
Jan 17 17:51:05 70f7fb71acca   cdo-after-redesign-docker_repoSystem_1    14.71%    171.9MiB / 15.07GiB   1.11%     90.1kB / 56.2kB   0B / 1.85MB   43
Jan 17 17:51:05 ce728e1f4809   cdo-after-redesign-docker_repoHistory_1   0.39%     219.1MiB / 15.07GiB   1.42%     1.63MB / 100kB    0B / 1.85MB   45
Jan 17 17:51:08 CONTAINER ID   NAME                                      CPU %     MEM USAGE / LIMIT     MEM %     NET I/O           BLOCK I/O     PIDS
Jan 17 17:51:08 70f7fb71acca   cdo-after-redesign-docker_repoSystem_1    0.52%     172.2MiB / 15.07GiB   1.12%     95.8kB / 60.9kB   0B / 1.85MB   43
Jan 17 17:51:08 ce728e1f4809   cdo-after-redesign-docker_repoHistory_1   0.45%     219.1MiB / 15.07GiB   1.42%     1.63MB / 100kB    0B / 1.85MB   45
Jan 17 17:51:11 CONTAINER ID   NAME                                      CPU %     MEM USAGE / LIMIT     MEM %     NET I/O          BLOCK I/O     PIDS
Jan 17 17:51:11 70f7fb71acca   cdo-after-redesign-docker_repoSystem_1    0.66%     172.3MiB / 15.07GiB   1.12%     101kB / 65.3kB   0B / 1.85MB   43
Jan 17 17:51:11 ce728e1f4809   cdo-after-redesign-docker_repoHistory_1   0.45%     219.1MiB / 15.07GiB   1.42%     1.63MB / 100kB   0B / 1.85MB   45
Jan 17 17:51:14 CONTAINER ID   NAME                                      CPU %     MEM USAGE / LIMIT     MEM %     NET I/O          BLOCK I/O     PIDS
Jan 17 17:51:14 70f7fb71acca   cdo-after-redesign-docker_repoSystem_1    0.53%     172.3MiB / 15.07GiB   1.12%     102kB / 65.3kB   0B / 1.85MB   43
Jan 17 17:51:14 ce728e1f4809   cdo-after-redesign-docker_repoHistory_1   0.45%     219.1MiB / 15.07GiB   1.42%     1.63MB / 100kB   0B / 1.85MB   45
Jan 17 17:51:17 CONTAINER ID   NAME                                      CPU %     MEM USAGE / LIMIT     MEM %     NET I/O          BLOCK I/O     PIDS
Jan 17 17:51:17 70f7fb71acca   cdo-after-redesign-docker_repoSystem_1    0.57%     172.4MiB / 15.07GiB   1.12%     102kB / 65.5kB   0B / 1.85MB   43
Jan 17 17:51:17 ce728e1f4809   cdo-after-redesign-docker_repoHistory_1   0.55%     219.3MiB / 15.07GiB   1.42%     1.63MB / 100kB   0B / 1.85MB   45
Jan 17 17:51:20 CONTAINER ID   NAME                                      CPU %     MEM USAGE / LIMIT     MEM %     NET I/O          BLOCK I/O     PIDS
Jan 17 17:51:20 70f7fb71acca   cdo-after-redesign-docker_repoSystem_1    0.52%     172.4MiB / 15.07GiB   1.12%     102kB / 65.5kB   0B / 1.85MB   43
Jan 17 17:51:20 ce728e1f4809   cdo-after-redesign-docker_repoHistory_1   0.51%     219.3MiB / 15.07GiB   1.42%     1.63MB / 100kB   0B / 1.85MB   45
Jan 17 17:51:23 CONTAINER ID   NAME                                      CPU %     MEM USAGE / LIMIT     MEM %     NET I/O          BLOCK I/O     PIDS
Jan 17 17:51:23 70f7fb71acca   cdo-after-redesign-docker_repoSystem_1    0.43%     172.4MiB / 15.07GiB   1.12%     103kB / 65.5kB   0B / 1.85MB   43
Jan 17 17:51:23 ce728e1f4809   cdo-after-redesign-docker_repoHistory_1   0.45%     219.3MiB / 15.07GiB   1.42%     1.63MB / 100kB   0B / 1.85MB   45
Jan 17 17:51:26 CONTAINER ID   NAME      CPU %     MEM USAGE / LIMIT   MEM %     NET I/O   BLOCK I/O   PIDS
