file,machine,seconds,memory_bytes,netIO_bytes
janus-inmemory/docker/docker-stats-10.txt,janus-inmemory_repoSystem_1,0.0,95378472.96,6800.0
janus-inmemory/docker/docker-stats-10.txt,janus-inmemory_janusgraph_1,0.0,93658808.32,3140.0
janus-inmemory/docker/docker-stats-10.txt,janus-inmemory_repoSystem_1,4.0,158964121.6,11100.0
janus-inmemory/docker/docker-stats-10.txt,janus-inmemory_janusgraph_1,4.0,673500364.8,10800.0
janus-inmemory/docker/docker-stats-10.txt,janus-inmemory_repoSystem_1,7.0,158859264.0,11600.0
janus-inmemory/docker/docker-stats-10.txt,janus-inmemory_janusgraph_1,7.0,756967014.4,11900.0
janus-inmemory/docker/docker-stats-10.txt,janus-inmemory_repoSystem_1,11.0,153721241.6,12200.0
janus-inmemory/docker/docker-stats-10.txt,janus-inmemory_janusgraph_1,11.0,175741337.6,12200.0
janus-inmemory/docker/docker-stats-10.txt,janus-inmemory_repoSystem_1,15.0,153721241.6,12400.0
janus-inmemory/docker/docker-stats-10.txt,janus-inmemory_janusgraph_1,15.0,741448089.6,12900.0
janus-inmemory/docker/docker-stats-10.txt,janus-inmemory_repoSystem_1,18.0,178362777.6,15300.0
janus-inmemory/docker/docker-stats-10.txt,janus-inmemory_janusgraph_1,18.0,750675558.4,12900.0
janus-inmemory/docker/docker-stats-10.txt,janus-inmemory_repoSystem_1,22.0,196503142.4,33100.0
janus-inmemory/docker/docker-stats-10.txt,janus-inmemory_janusgraph_1,22.0,737673216.0,19600.0
janus-inmemory/docker/docker-stats-10.txt,janus-inmemory_repoSystem_1,25.0,189687398.4,38900.0
janus-inmemory/docker/docker-stats-10.txt,janus-inmemory_janusgraph_1,25.0,755813580.8,228000.0
janus-inmemory/docker/docker-stats-10.txt,janus-inmemory_repoSystem_1,29.0,189792256.0,44300.0
janus-inmemory/docker/docker-stats-10.txt,janus-inmemory_janusgraph_1,29.0,762524467.2,673000.0
janus-inmemory/docker/docker-stats-10.txt,janus-inmemory_repoSystem_1,33.0,191155404.8,51500.0
janus-inmemory/docker/docker-stats-10.txt,janus-inmemory_janusgraph_1,33.0,791674880.0,1150000.0
janus-inmemory/docker/docker-stats-10.txt,janus-inmemory_repoSystem_1,36.0,191365120.0,57400.0
janus-inmemory/docker/docker-stats-10.txt,janus-inmemory_janusgraph_1,36.0,793247744.0,1820000.0
janus-inmemory/docker/docker-stats-10.txt,janus-inmemory_repoSystem_1,40.0,191679692.8,64500.0
janus-inmemory/docker/docker-stats-10.txt,janus-inmemory_janusgraph_1,40.0,795030323.2,2840000.0
janus-inmemory/docker/docker-stats-10.txt,janus-inmemory_repoSystem_1,44.0,191994265.6,72100.0
janus-inmemory/docker/docker-stats-10.txt,janus-inmemory_janusgraph_1,44.0,798805196.8,4430000.0
janus-inmemory/docker/docker-stats-10.txt,janus-inmemory_repoSystem_1,47.0,192203980.8,79800.0
janus-inmemory/docker/docker-stats-10.txt,janus-inmemory_janusgraph_1,47.0,798805196.8,5850000.0
janus-inmemory/docker/docker-stats-10.txt,janus-inmemory_repoSystem_1,51.0,192203980.8,86000.0
janus-inmemory/docker/docker-stats-10.txt,janus-inmemory_janusgraph_1,51.0,912365977.6,7910000.0
janus-inmemory/docker/docker-stats-10.txt,janus-inmemory_repoSystem_1,55.0,192308838.4,89100.0
janus-inmemory/docker/docker-stats-10.txt,janus-inmemory_janusgraph_1,55.0,912156262.4,10700000.0
janus-inmemory/docker/docker-stats-10.txt,janus-inmemory_repoSystem_1,58.0,192728268.8,96600.0
janus-inmemory/docker/docker-stats-10.txt,janus-inmemory_janusgraph_1,58.0,924844032.0,12300000.0
janus-inmemory/docker/docker-stats-10.txt,janus-inmemory_repoSystem_1,62.0,192833126.4,102000.0
janus-inmemory/docker/docker-stats-10.txt,janus-inmemory_janusgraph_1,62.0,924844032.0,14200000.0
janus-inmemory/docker/docker-stats-10.txt,janus-inmemory_repoSystem_1,65.0,192833126.4,107000.0
janus-inmemory/docker/docker-stats-10.txt,janus-inmemory_janusgraph_1,65.0,933127782.4,15400000.0
janus-inmemory/docker/docker-stats-10.txt,janus-inmemory_repoSystem_1,69.0,193147699.2,116000.0
janus-inmemory/docker/docker-stats-10.txt,janus-inmemory_janusgraph_1,69.0,933127782.4,16200000.0
janus-inmemory/docker/docker-stats-10.txt,janus-inmemory_repoSystem_1,73.0,193462272.0,122000.0
janus-inmemory/docker/docker-stats-10.txt,janus-inmemory_janusgraph_1,73.0,933127782.4,17500000.0
janus-inmemory/docker/docker-stats-10.txt,janus-inmemory_repoSystem_1,76.0,193776844.8,129000.0
janus-inmemory/docker/docker-stats-10.txt,janus-inmemory_janusgraph_1,76.0,937322086.4,19000000.0
janus-inmemory/docker/docker-stats-10.txt,janus-inmemory_repoSystem_1,80.0,194091417.6,141000.0
janus-inmemory/docker/docker-stats-10.txt,janus-inmemory_janusgraph_1,80.0,937217228.8,20200000.0
janus-inmemory/docker/docker-stats-10.txt,janus-inmemory_repoSystem_1,83.0,194196275.2,147000.0
janus-inmemory/docker/docker-stats-10.txt,janus-inmemory_janusgraph_1,83.0,937217228.8,21500000.0
janus-inmemory/docker/docker-stats-10.txt,janus-inmemory_repoSystem_1,87.0,194301132.8,154000.0
janus-inmemory/docker/docker-stats-10.txt,janus-inmemory_janusgraph_1,87.0,939314380.8,22600000.0
janus-inmemory/docker/docker-stats-10.txt,janus-inmemory_repoSystem_1,91.0,194301132.8,159000.0
janus-inmemory/docker/docker-stats-10.txt,janus-inmemory_janusgraph_1,91.0,939314380.8,23900000.0
janus-inmemory/docker/docker-stats-10.txt,janus-inmemory_repoSystem_1,94.0,194405990.4,162000.0
janus-inmemory/docker/docker-stats-10.txt,janus-inmemory_janusgraph_1,94.0,939314380.8,25300000.0
janus-inmemory/docker/docker-stats-10.txt,janus-inmemory_repoSystem_1,98.0,194510848.0,172000.0
janus-inmemory/docker/docker-stats-10.txt,janus-inmemory_janusgraph_1,98.0,939628953.6,26700000.0
janus-inmemory/docker/docker-stats-10.txt,janus-inmemory_repoSystem_1,101.0,194720563.2,185000.0
janus-inmemory/docker/docker-stats-10.txt,janus-inmemory_janusgraph_1,101.0,939628953.6,27700000.0
janus-inmemory/docker/docker-stats-10.txt,janus-inmemory_repoSystem_1,105.0,195035136.0,191000.0
janus-inmemory/docker/docker-stats-10.txt,janus-inmemory_janusgraph_1,105.0,939628953.6,29000000.0
janus-inmemory/docker/docker-stats-10.txt,janus-inmemory_repoSystem_1,109.0,194720563.2,197000.0
janus-inmemory/docker/docker-stats-10.txt,janus-inmemory_janusgraph_1,109.0,939628953.6,30200000.0
janus-inmemory/docker/docker-stats-10.txt,janus-inmemory_repoSystem_1,112.0,194720563.2,201000.0
janus-inmemory/docker/docker-stats-10.txt,janus-inmemory_janusgraph_1,112.0,939628953.6,31300000.0
janus-inmemory/docker/docker-stats-10.txt,janus-inmemory_repoSystem_1,116.0,194930278.4,208000.0
janus-inmemory/docker/docker-stats-10.txt,janus-inmemory_janusgraph_1,116.0,939628953.6,32299999.999999996
janus-inmemory/docker/docker-stats-10.txt,janus-inmemory_repoSystem_1,119.0,194930278.4,212000.0
janus-inmemory/docker/docker-stats-10.txt,janus-inmemory_janusgraph_1,119.0,939628953.6,34000000.0
janus-inmemory/docker/docker-stats-10.txt,janus-inmemory_repoSystem_1,123.0,194930278.4,223000.0
janus-inmemory/docker/docker-stats-10.txt,janus-inmemory_janusgraph_1,123.0,939628953.6,35000000.0
janus-inmemory/docker/docker-stats-10.txt,janus-inmemory_repoSystem_1,127.0,195035136.0,233000.0
janus-inmemory/docker/docker-stats-10.txt,janus-inmemory_janusgraph_1,127.0,939628953.6,36400000.0
janus-inmemory/docker/docker-stats-10.txt,janus-inmemory_repoSystem_1,130.0,195349708.8,244000.0
janus-inmemory/docker/docker-stats-10.txt,janus-inmemory_janusgraph_1,130.0,939628953.6,37900000.0
janus-inmemory/docker/docker-stats-10.txt,janus-inmemory_repoSystem_1,134.0,195035136.0,247000.0
janus-inmemory/docker/docker-stats-10.txt,janus-inmemory_janusgraph_1,134.0,939628953.6,39400000.0
janus-inmemory/docker/docker-stats-10.txt,janus-inmemory_repoSystem_1,137.0,195035136.0,255000.0
janus-inmemory/docker/docker-stats-10.txt,janus-inmemory_janusgraph_1,137.0,939628953.6,40200000.0
janus-inmemory/docker/docker-stats-10.txt,janus-inmemory_repoSystem_1,141.0,195035136.0,260000.0
janus-inmemory/docker/docker-stats-10.txt,janus-inmemory_janusgraph_1,141.0,939628953.6,41400000.0
janus-inmemory/docker/docker-stats-10.txt,janus-inmemory_repoSystem_1,145.0,195139993.6,263000.0
janus-inmemory/docker/docker-stats-10.txt,janus-inmemory_janusgraph_1,145.0,939628953.6,42800000.0
janus-inmemory/docker/docker-stats-10.txt,janus-inmemory_repoSystem_1,148.0,195244851.2,274000.0
janus-inmemory/docker/docker-stats-10.txt,janus-inmemory_janusgraph_1,148.0,939628953.6,44200000.0
janus-inmemory/docker/docker-stats-10.txt,janus-inmemory_repoSystem_1,152.0,195244851.2,280000.0
janus-inmemory/docker/docker-stats-10.txt,janus-inmemory_janusgraph_1,152.0,939628953.6,45500000.0
janus-inmemory/docker/docker-stats-10.txt,janus-inmemory_repoSystem_1,155.0,195349708.8,286000.0
janus-inmemory/docker/docker-stats-10.txt,janus-inmemory_janusgraph_1,155.0,939628953.6,46700000.0
janus-inmemory/docker/docker-stats-10.txt,janus-inmemory_repoSystem_1,159.0,195454566.4,299000.0
janus-inmemory/docker/docker-stats-10.txt,janus-inmemory_janusgraph_1,159.0,939628953.6,47700000.0
janus-inmemory/docker/docker-stats-10.txt,janus-inmemory_repoSystem_1,163.0,195349708.8,305000.0
janus-inmemory/docker/docker-stats-10.txt,janus-inmemory_janusgraph_1,163.0,939628953.6,49100000.0
janus-inmemory/docker/docker-stats-10.txt,janus-inmemory_repoSystem_1,166.0,195349708.8,311000.0
janus-inmemory/docker/docker-stats-10.txt,janus-inmemory_janusgraph_1,166.0,939628953.6,50100000.0
janus-inmemory/docker/docker-stats-10.txt,janus-inmemory_repoSystem_1,170.0,195349708.8,321000.0
janus-inmemory/docker/docker-stats-10.txt,janus-inmemory_janusgraph_1,170.0,939628953.6,51500000.0
janus-inmemory/docker/docker-stats-10.txt,janus-inmemory_repoSystem_1,173.0,195349708.8,321000.0
janus-inmemory/docker/docker-stats-10.txt,janus-inmemory_janusgraph_1,173.0,939733811.2,52200000.0
janus-inmemory/docker/docker-stats-1.txt,janus-inmemory_janusgraph_1,0.0,90586480.64,1470.0
janus-inmemory/docker/docker-stats-1.txt,janus-inmemory_repoSystem_1,0.0,96804536.32,7620.0
janus-inmemory/docker/docker-stats-1.txt,janus-inmemory_janusgraph_1,4.0,698246758.4,11500.0
janus-inmemory/docker/docker-stats-1.txt,janus-inmemory_repoSystem_1,4.0,156762112.0,10800.0
janus-inmemory/docker/docker-stats-1.txt,janus-inmemory_janusgraph_1,8.0,771332505.6,11900.0
janus-inmemory/docker/docker-stats-1.txt,janus-inmemory_repoSystem_1,8.0,187799961.6,12400.0
janus-inmemory/docker/docker-stats-1.txt,janus-inmemory_janusgraph_1,11.0,150260940.8,12200.0
janus-inmemory/docker/docker-stats-1.txt,janus-inmemory_repoSystem_1,11.0,167247872.0,12400.0
janus-inmemory/docker/docker-stats-1.txt,janus-inmemory_janusgraph_1,15.0,656303718.4,12400.0
janus-inmemory/docker/docker-stats-1.txt,janus-inmemory_repoSystem_1,15.0,167247872.0,13200.0
janus-inmemory/docker/docker-stats-1.txt,janus-inmemory_janusgraph_1,18.0,755289292.8,14200.0
janus-inmemory/docker/docker-stats-1.txt,janus-inmemory_repoSystem_1,18.0,167247872.0,13200.0
janus-inmemory/docker/docker-stats-1.txt,janus-inmemory_janusgraph_1,22.0,766404198.4,41000.0
janus-inmemory/docker/docker-stats-1.txt,janus-inmemory_repoSystem_1,22.0,189477683.2,32900.0
janus-inmemory/docker/docker-stats-1.txt,janus-inmemory_janusgraph_1,26.0,774687948.8,337000.0
janus-inmemory/docker/docker-stats-1.txt,janus-inmemory_repoSystem_1,26.0,182347366.4,38900.0
janus-inmemory/docker/docker-stats-1.txt,janus-inmemory_janusgraph_1,29.0,778672537.6,854000.0
janus-inmemory/docker/docker-stats-1.txt,janus-inmemory_repoSystem_1,29.0,182557081.6,44000.0
janus-inmemory/docker/docker-stats-1.txt,janus-inmemory_janusgraph_1,33.0,802370355.2,1320000.0
janus-inmemory/docker/docker-stats-1.txt,janus-inmemory_repoSystem_1,33.0,184025088.0,51200.0
janus-inmemory/docker/docker-stats-1.txt,janus-inmemory_janusgraph_1,36.0,803628646.4,1840000.0
janus-inmemory/docker/docker-stats-1.txt,janus-inmemory_repoSystem_1,36.0,184234803.2,56800.0
janus-inmemory/docker/docker-stats-1.txt,janus-inmemory_janusgraph_1,39.0,804677222.4,2810000.0
janus-inmemory/docker/docker-stats-1.txt,janus-inmemory_repoSystem_1,39.0,184444518.4,62400.0
janus-inmemory/docker/docker-stats-1.txt,janus-inmemory_janusgraph_1,43.0,798910054.4,3540000.0
janus-inmemory/docker/docker-stats-1.txt,janus-inmemory_repoSystem_1,43.0,184968806.4,74900.0
janus-inmemory/docker/docker-stats-1.txt,janus-inmemory_janusgraph_1,47.0,808032665.6,5930000.0
janus-inmemory/docker/docker-stats-1.txt,janus-inmemory_repoSystem_1,47.0,185283379.2,78300.0
janus-inmemory/docker/docker-stats-1.txt,janus-inmemory_janusgraph_1,50.0,916245708.8,8029999.999999999
janus-inmemory/docker/docker-stats-1.txt,janus-inmemory_repoSystem_1,50.0,185493094.4,85100.0
janus-inmemory/docker/docker-stats-1.txt,janus-inmemory_janusgraph_1,54.0,916455424.0,10300000.0
janus-inmemory/docker/docker-stats-1.txt,janus-inmemory_repoSystem_1,54.0,185597952.0,89800.0
janus-inmemory/docker/docker-stats-1.txt,janus-inmemory_janusgraph_1,57.0,935749222.4,12600000.0
janus-inmemory/docker/docker-stats-1.txt,janus-inmemory_repoSystem_1,57.0,186122240.0,95900.0
janus-inmemory/docker/docker-stats-1.txt,janus-inmemory_janusgraph_1,61.0,935749222.4,14000000.0
janus-inmemory/docker/docker-stats-1.txt,janus-inmemory_repoSystem_1,61.0,186331955.2,102000.0
janus-inmemory/docker/docker-stats-1.txt,janus-inmemory_janusgraph_1,65.0,941935820.8,15500000.0
janus-inmemory/docker/docker-stats-1.txt,janus-inmemory_repoSystem_1,65.0,186436812.8,112000.0
janus-inmemory/docker/docker-stats-1.txt,janus-inmemory_janusgraph_1,68.0,941935820.8,16300000.0
janus-inmemory/docker/docker-stats-1.txt,janus-inmemory_repoSystem_1,68.0,186961100.8,125000.0
janus-inmemory/docker/docker-stats-1.txt,janus-inmemory_janusgraph_1,72.0,941935820.8,18100000.0
janus-inmemory/docker/docker-stats-1.txt,janus-inmemory_repoSystem_1,72.0,187170816.0,132000.0
janus-inmemory/docker/docker-stats-1.txt,janus-inmemory_janusgraph_1,75.0,945815552.0,19100000.0
janus-inmemory/docker/docker-stats-1.txt,janus-inmemory_repoSystem_1,75.0,187275673.6,141000.0
janus-inmemory/docker/docker-stats-1.txt,janus-inmemory_janusgraph_1,79.0,945815552.0,20600000.0
janus-inmemory/docker/docker-stats-1.txt,janus-inmemory_repoSystem_1,79.0,187380531.2,146000.0
janus-inmemory/docker/docker-stats-1.txt,janus-inmemory_janusgraph_1,83.0,945815552.0,21800000.0
janus-inmemory/docker/docker-stats-1.txt,janus-inmemory_repoSystem_1,83.0,187380531.2,151000.0
janus-inmemory/docker/docker-stats-1.txt,janus-inmemory_janusgraph_1,86.0,948017561.6,22900000.0
janus-inmemory/docker/docker-stats-1.txt,janus-inmemory_repoSystem_1,86.0,187380531.2,156000.0
janus-inmemory/docker/docker-stats-1.txt,janus-inmemory_janusgraph_1,90.0,948017561.6,24300000.0
janus-inmemory/docker/docker-stats-1.txt,janus-inmemory_repoSystem_1,90.0,187695104.0,163000.0
janus-inmemory/docker/docker-stats-1.txt,janus-inmemory_janusgraph_1,93.0,948017561.6,25400000.0
janus-inmemory/docker/docker-stats-1.txt,janus-inmemory_repoSystem_1,93.0,187695104.0,169000.0
janus-inmemory/docker/docker-stats-1.txt,janus-inmemory_janusgraph_1,97.0,948332134.4,26200000.0
janus-inmemory/docker/docker-stats-1.txt,janus-inmemory_repoSystem_1,97.0,187799961.6,178000.0
janus-inmemory/docker/docker-stats-1.txt,janus-inmemory_janusgraph_1,101.0,948332134.4,27400000.0
janus-inmemory/docker/docker-stats-1.txt,janus-inmemory_repoSystem_1,101.0,187695104.0,183000.0
janus-inmemory/docker/docker-stats-1.txt,janus-inmemory_janusgraph_1,104.0,948332134.4,29100000.0
janus-inmemory/docker/docker-stats-1.txt,janus-inmemory_repoSystem_1,104.0,187799961.6,188000.0
janus-inmemory/docker/docker-stats-1.txt,janus-inmemory_janusgraph_1,108.0,948436992.0,30100000.0
janus-inmemory/docker/docker-stats-1.txt,janus-inmemory_repoSystem_1,108.0,188009676.8,202000.0
janus-inmemory/docker/docker-stats-1.txt,janus-inmemory_janusgraph_1,111.0,948436992.0,31600000.0
janus-inmemory/docker/docker-stats-1.txt,janus-inmemory_repoSystem_1,111.0,188219392.0,212000.0
janus-inmemory/docker/docker-stats-1.txt,janus-inmemory_janusgraph_1,115.0,948541849.6,33400000.0
janus-inmemory/docker/docker-stats-1.txt,janus-inmemory_repoSystem_1,115.0,188114534.4,220000.0
janus-inmemory/docker/docker-stats-1.txt,janus-inmemory_janusgraph_1,119.0,948436992.0,34700000.0
janus-inmemory/docker/docker-stats-1.txt,janus-inmemory_repoSystem_1,119.0,188114534.4,228000.0
janus-inmemory/docker/docker-stats-1.txt,janus-inmemory_janusgraph_1,122.0,948436992.0,35800000.0
janus-inmemory/docker/docker-stats-1.txt,janus-inmemory_repoSystem_1,122.0,188114534.4,232000.0
janus-inmemory/docker/docker-stats-1.txt,janus-inmemory_janusgraph_1,126.0,948436992.0,36900000.0
janus-inmemory/docker/docker-stats-1.txt,janus-inmemory_repoSystem_1,126.0,188114534.4,238000.0
janus-inmemory/docker/docker-stats-1.txt,janus-inmemory_janusgraph_1,130.0,948436992.0,37900000.0
janus-inmemory/docker/docker-stats-1.txt,janus-inmemory_repoSystem_1,130.0,188324249.6,248000.0
janus-inmemory/docker/docker-stats-1.txt,janus-inmemory_janusgraph_1,133.0,948436992.0,39300000.0
janus-inmemory/docker/docker-stats-1.txt,janus-inmemory_repoSystem_1,133.0,188219392.0,251000.0
janus-inmemory/docker/docker-stats-1.txt,janus-inmemory_janusgraph_1,137.0,948436992.0,40200000.0
janus-inmemory/docker/docker-stats-1.txt,janus-inmemory_repoSystem_1,137.0,188219392.0,260000.0
janus-inmemory/docker/docker-stats-1.txt,janus-inmemory_janusgraph_1,140.0,948436992.0,42000000.0
janus-inmemory/docker/docker-stats-1.txt,janus-inmemory_repoSystem_1,140.0,188324249.6,266000.0
janus-inmemory/docker/docker-stats-1.txt,janus-inmemory_janusgraph_1,144.0,948436992.0,43300000.0
janus-inmemory/docker/docker-stats-1.txt,janus-inmemory_repoSystem_1,144.0,188429107.2,274000.0
janus-inmemory/docker/docker-stats-1.txt,janus-inmemory_janusgraph_1,148.0,948436992.0,44200000.0
janus-inmemory/docker/docker-stats-1.txt,janus-inmemory_repoSystem_1,148.0,188429107.2,289000.0
janus-inmemory/docker/docker-stats-1.txt,janus-inmemory_janusgraph_1,151.0,948541849.6,45800000.0
janus-inmemory/docker/docker-stats-1.txt,janus-inmemory_repoSystem_1,151.0,188638822.4,298000.0
janus-inmemory/docker/docker-stats-1.txt,janus-inmemory_janusgraph_1,155.0,948436992.0,47700000.0
janus-inmemory/docker/docker-stats-1.txt,janus-inmemory_repoSystem_1,155.0,188533964.8,305000.0
janus-inmemory/docker/docker-stats-1.txt,janus-inmemory_janusgraph_1,158.0,948436992.0,49000000.0
janus-inmemory/docker/docker-stats-1.txt,janus-inmemory_repoSystem_1,158.0,188638822.4,315000.0
janus-inmemory/docker/docker-stats-1.txt,janus-inmemory_janusgraph_1,162.0,948541849.6,50500000.0
janus-inmemory/docker/docker-stats-1.txt,janus-inmemory_repoSystem_1,162.0,188848537.6,326000.0
janus-inmemory/docker/docker-stats-1.txt,janus-inmemory_janusgraph_1,166.0,948436992.0,51500000.0
janus-inmemory/docker/docker-stats-1.txt,janus-inmemory_repoSystem_1,166.0,188743680.0,333000.0
janus-inmemory/docker/docker-stats-1.txt,janus-inmemory_janusgraph_1,169.0,948436992.0,52500000.0
janus-inmemory/docker/docker-stats-1.txt,janus-inmemory_repoSystem_1,169.0,188743680.0,338000.0
janus-inmemory/docker/docker-stats-1.txt,janus-inmemory_janusgraph_1,173.0,948436992.0,53200000.0
janus-inmemory/docker/docker-stats-1.txt,janus-inmemory_repoSystem_1,173.0,188638822.4,340000.0
janus-inmemory/docker/docker-stats-2.txt,janus-inmemory_janusgraph_1,0.0,109366476.8,2020.0
janus-inmemory/docker/docker-stats-2.txt,janus-inmemory_repoSystem_1,0.0,88258641.92,7120.0
janus-inmemory/docker/docker-stats-2.txt,janus-inmemory_janusgraph_1,4.0,649173401.6,11300.0
janus-inmemory/docker/docker-stats-2.txt,janus-inmemory_repoSystem_1,4.0,191784550.4,12000.0
janus-inmemory/docker/docker-stats-2.txt,janus-inmemory_janusgraph_1,8.0,774478233.6,13300.0
janus-inmemory/docker/docker-stats-2.txt,janus-inmemory_repoSystem_1,8.0,191784550.4,12800.0
janus-inmemory/docker/docker-stats-2.txt,janus-inmemory_janusgraph_1,11.0,178467635.2,13300.0
janus-inmemory/docker/docker-stats-2.txt,janus-inmemory_repoSystem_1,11.0,172700467.2,13000.0
janus-inmemory/docker/docker-stats-2.txt,janus-inmemory_janusgraph_1,15.0,755184435.2,14100.0
janus-inmemory/docker/docker-stats-2.txt,janus-inmemory_repoSystem_1,15.0,172700467.2,13300.0
janus-inmemory/docker/docker-stats-2.txt,janus-inmemory_janusgraph_1,18.0,773010227.2,15600.0
janus-inmemory/docker/docker-stats-2.txt,janus-inmemory_repoSystem_1,18.0,172700467.2,14000.0
janus-inmemory/docker/docker-stats-2.txt,janus-inmemory_janusgraph_1,22.0,778253107.2,63900.0
janus-inmemory/docker/docker-stats-2.txt,janus-inmemory_repoSystem_1,22.0,193567129.6,33000.0
janus-inmemory/docker/docker-stats-2.txt,janus-inmemory_janusgraph_1,26.0,784020275.2,398000.0
janus-inmemory/docker/docker-stats-2.txt,janus-inmemory_repoSystem_1,26.0,183395942.4,38800.0
janus-inmemory/docker/docker-stats-2.txt,janus-inmemory_janusgraph_1,29.0,786851430.4,818000.0
janus-inmemory/docker/docker-stats-2.txt,janus-inmemory_repoSystem_1,29.0,183500800.0,43800.0
janus-inmemory/docker/docker-stats-2.txt,janus-inmemory_janusgraph_1,33.0,777099673.6,1410000.0
janus-inmemory/docker/docker-stats-2.txt,janus-inmemory_repoSystem_1,33.0,185283379.2,51200.0
janus-inmemory/docker/docker-stats-2.txt,janus-inmemory_janusgraph_1,37.0,778148249.6,1960000.0
janus-inmemory/docker/docker-stats-2.txt,janus-inmemory_repoSystem_1,37.0,185702809.6,58900.0
janus-inmemory/docker/docker-stats-2.txt,janus-inmemory_janusgraph_1,40.0,804467507.2,3200000.0
janus-inmemory/docker/docker-stats-2.txt,janus-inmemory_repoSystem_1,40.0,186122240.0,65500.0
janus-inmemory/docker/docker-stats-2.txt,janus-inmemory_janusgraph_1,44.0,814114406.4,4490000.0
janus-inmemory/docker/docker-stats-2.txt,janus-inmemory_repoSystem_1,44.0,186541670.4,75700.0
janus-inmemory/docker/docker-stats-2.txt,janus-inmemory_janusgraph_1,48.0,806774374.4,5940000.0
janus-inmemory/docker/docker-stats-2.txt,janus-inmemory_repoSystem_1,48.0,186751385.6,84700.0
janus-inmemory/docker/docker-stats-2.txt,janus-inmemory_janusgraph_1,51.0,919496294.4,8530000.0
janus-inmemory/docker/docker-stats-2.txt,janus-inmemory_repoSystem_1,51.0,186856243.2,89200.0
janus-inmemory/docker/docker-stats-2.txt,janus-inmemory_janusgraph_1,55.0,919391436.8,10700000.0
janus-inmemory/docker/docker-stats-2.txt,janus-inmemory_repoSystem_1,55.0,187065958.4,93700.0
janus-inmemory/docker/docker-stats-2.txt,janus-inmemory_janusgraph_1,58.0,933756928.0,12900000.0
janus-inmemory/docker/docker-stats-2.txt,janus-inmemory_repoSystem_1,58.0,187275673.6,99900.0
janus-inmemory/docker/docker-stats-2.txt,janus-inmemory_janusgraph_1,62.0,933756928.0,14300000.0
janus-inmemory/docker/docker-stats-2.txt,janus-inmemory_repoSystem_1,62.0,187485388.8,108000.0
janus-inmemory/docker/docker-stats-2.txt,janus-inmemory_janusgraph_1,66.0,941516390.4,15900000.0
janus-inmemory/docker/docker-stats-2.txt,janus-inmemory_repoSystem_1,66.0,187904819.2,118000.0
janus-inmemory/docker/docker-stats-2.txt,janus-inmemory_janusgraph_1,69.0,941516390.4,17100000.0
janus-inmemory/docker/docker-stats-2.txt,janus-inmemory_repoSystem_1,69.0,188114534.4,127000.0
janus-inmemory/docker/docker-stats-2.txt,janus-inmemory_janusgraph_1,73.0,941516390.4,18000000.0
janus-inmemory/docker/docker-stats-2.txt,janus-inmemory_repoSystem_1,73.0,188324249.6,133000.0
janus-inmemory/docker/docker-stats-2.txt,janus-inmemory_janusgraph_1,76.0,946339840.0,19300000.0
janus-inmemory/docker/docker-stats-2.txt,janus-inmemory_repoSystem_1,76.0,188219392.0,137000.0
janus-inmemory/docker/docker-stats-2.txt,janus-inmemory_janusgraph_1,80.0,946339840.0,20200000.0
janus-inmemory/docker/docker-stats-2.txt,janus-inmemory_repoSystem_1,80.0,188429107.2,145000.0
janus-inmemory/docker/docker-stats-2.txt,janus-inmemory_janusgraph_1,84.0,946339840.0,22000000.0
janus-inmemory/docker/docker-stats-2.txt,janus-inmemory_repoSystem_1,84.0,188533964.8,150000.0
janus-inmemory/docker/docker-stats-2.txt,janus-inmemory_janusgraph_1,87.0,947702988.8,22900000.0
janus-inmemory/docker/docker-stats-2.txt,janus-inmemory_repoSystem_1,87.0,188533964.8,162000.0
janus-inmemory/docker/docker-stats-2.txt,janus-inmemory_janusgraph_1,91.0,947702988.8,24400000.0
janus-inmemory/docker/docker-stats-2.txt,janus-inmemory_repoSystem_1,91.0,188953395.2,174000.0
janus-inmemory/docker/docker-stats-2.txt,janus-inmemory_janusgraph_1,94.0,948122419.2,25900000.0
janus-inmemory/docker/docker-stats-2.txt,janus-inmemory_repoSystem_1,94.0,189058252.8,183000.0
janus-inmemory/docker/docker-stats-2.txt,janus-inmemory_janusgraph_1,98.0,948017561.6,27800000.0
janus-inmemory/docker/docker-stats-2.txt,janus-inmemory_repoSystem_1,98.0,189477683.2,193000.0
janus-inmemory/docker/docker-stats-2.txt,janus-inmemory_janusgraph_1,102.0,948227276.8,29400000.0
janus-inmemory/docker/docker-stats-2.txt,janus-inmemory_repoSystem_1,102.0,189267968.0,202000.0
janus-inmemory/docker/docker-stats-2.txt,janus-inmemory_janusgraph_1,105.0,948017561.6,30200000.0
janus-inmemory/docker/docker-stats-2.txt,janus-inmemory_repoSystem_1,105.0,189687398.4,214000.0
janus-inmemory/docker/docker-stats-2.txt,janus-inmemory_janusgraph_1,109.0,948017561.6,32100000.0
janus-inmemory/docker/docker-stats-2.txt,janus-inmemory_repoSystem_1,109.0,189582540.8,223000.0
janus-inmemory/docker/docker-stats-2.txt,janus-inmemory_janusgraph_1,112.0,948017561.6,33600000.0
janus-inmemory/docker/docker-stats-2.txt,janus-inmemory_repoSystem_1,112.0,189477683.2,233000.0
janus-inmemory/docker/docker-stats-2.txt,janus-inmemory_janusgraph_1,116.0,948017561.6,34700000.0
janus-inmemory/docker/docker-stats-2.txt,janus-inmemory_repoSystem_1,116.0,189582540.8,240000.0
janus-inmemory/docker/docker-stats-2.txt,janus-inmemory_janusgraph_1,120.0,948017561.6,35800000.0
janus-inmemory/docker/docker-stats-2.txt,janus-inmemory_repoSystem_1,120.0,189792256.0,253000.0
janus-inmemory/docker/docker-stats-2.txt,janus-inmemory_janusgraph_1,123.0,948017561.6,37700000.0
janus-inmemory/docker/docker-stats-2.txt,janus-inmemory_repoSystem_1,123.0,189792256.0,260000.0
janus-inmemory/docker/docker-stats-2.txt,janus-inmemory_janusgraph_1,127.0,948017561.6,38700000.0
janus-inmemory/docker/docker-stats-2.txt,janus-inmemory_repoSystem_1,127.0,189897113.6,272000.0
janus-inmemory/docker/docker-stats-2.txt,janus-inmemory_janusgraph_1,130.0,948017561.6,40600000.0
janus-inmemory/docker/docker-stats-2.txt,janus-inmemory_repoSystem_1,130.0,189897113.6,282000.0
janus-inmemory/docker/docker-stats-2.txt,janus-inmemory_janusgraph_1,134.0,948017561.6,41700000.0
janus-inmemory/docker/docker-stats-2.txt,janus-inmemory_repoSystem_1,134.0,190106828.8,294000.0
janus-inmemory/docker/docker-stats-2.txt,janus-inmemory_janusgraph_1,138.0,948017561.6,43300000.0
janus-inmemory/docker/docker-stats-2.txt,janus-inmemory_repoSystem_1,138.0,189897113.6,300000.0
janus-inmemory/docker/docker-stats-2.txt,janus-inmemory_janusgraph_1,141.0,948017561.6,44500000.0
janus-inmemory/docker/docker-stats-2.txt,janus-inmemory_repoSystem_1,141.0,189897113.6,306000.0
janus-inmemory/docker/docker-stats-2.txt,janus-inmemory_janusgraph_1,145.0,948017561.6,45700000.0
janus-inmemory/docker/docker-stats-2.txt,janus-inmemory_repoSystem_1,145.0,189897113.6,311000.0
janus-inmemory/docker/docker-stats-2.txt,janus-inmemory_janusgraph_1,148.0,948227276.8,46700000.0
janus-inmemory/docker/docker-stats-2.txt,janus-inmemory_repoSystem_1,148.0,189897113.6,317000.0
janus-inmemory/docker/docker-stats-2.txt,janus-inmemory_janusgraph_1,152.0,948122419.2,48100000.0
janus-inmemory/docker/docker-stats-2.txt,janus-inmemory_repoSystem_1,152.0,190001971.2,324000.0
janus-inmemory/docker/docker-stats-2.txt,janus-inmemory_janusgraph_1,156.0,948122419.2,49600000.0
janus-inmemory/docker/docker-stats-2.txt,janus-inmemory_repoSystem_1,156.0,189897113.6,334000.0
janus-inmemory/docker/docker-stats-2.txt,janus-inmemory_janusgraph_1,159.0,948122419.2,51000000.0
janus-inmemory/docker/docker-stats-2.txt,janus-inmemory_repoSystem_1,159.0,190106828.8,343000.0
janus-inmemory/docker/docker-stats-2.txt,janus-inmemory_janusgraph_1,163.0,948122419.2,51900000.0
janus-inmemory/docker/docker-stats-2.txt,janus-inmemory_repoSystem_1,163.0,190001971.2,359000.0
janus-inmemory/docker/docker-stats-2.txt,janus-inmemory_janusgraph_1,166.0,953994444.8,53900000.0
janus-inmemory/docker/docker-stats-2.txt,janus-inmemory_repoSystem_1,166.0,190001971.2,365000.0
janus-inmemory/docker/docker-stats-2.txt,janus-inmemory_janusgraph_1,170.0,953994444.8,54900000.0
janus-inmemory/docker/docker-stats-2.txt,janus-inmemory_repoSystem_1,170.0,223032115.2,378000.0
janus-inmemory/docker/docker-stats-2.txt,janus-inmemory_janusgraph_1,174.0,954099302.4,55400000.0
janus-inmemory/docker/docker-stats-2.txt,janus-inmemory_repoSystem_1,174.0,223032115.2,378000.0
janus-inmemory/docker/docker-stats-3.txt,janus-inmemory_janusgraph_1,0.0,90922024.96,3380.0
janus-inmemory/docker/docker-stats-3.txt,janus-inmemory_repoSystem_1,0.0,95284101.12,8119.999999999999
janus-inmemory/docker/docker-stats-3.txt,janus-inmemory_janusgraph_1,4.0,696149606.4,11700.0
janus-inmemory/docker/docker-stats-3.txt,janus-inmemory_repoSystem_1,4.0,181927936.0,11200.0
janus-inmemory/docker/docker-stats-3.txt,janus-inmemory_janusgraph_1,8.0,759169024.0,12800.0
janus-inmemory/docker/docker-stats-3.txt,janus-inmemory_repoSystem_1,8.0,195244851.2,13400.0
janus-inmemory/docker/docker-stats-3.txt,janus-inmemory_janusgraph_1,11.0,162109849.6,13100.0
janus-inmemory/docker/docker-stats-3.txt,janus-inmemory_repoSystem_1,11.0,175426764.8,13400.0
janus-inmemory/docker/docker-stats-3.txt,janus-inmemory_janusgraph_1,15.0,722993152.0,13600.0
janus-inmemory/docker/docker-stats-3.txt,janus-inmemory_repoSystem_1,15.0,175426764.8,14200.0
janus-inmemory/docker/docker-stats-3.txt,janus-inmemory_janusgraph_1,19.0,763782758.4,15100.0
janus-inmemory/docker/docker-stats-3.txt,janus-inmemory_repoSystem_1,19.0,175426764.8,14200.0
janus-inmemory/docker/docker-stats-3.txt,janus-inmemory_janusgraph_1,22.0,750780416.0,21000.0
janus-inmemory/docker/docker-stats-3.txt,janus-inmemory_repoSystem_1,22.0,197132288.0,34500.0
janus-inmemory/docker/docker-stats-3.txt,janus-inmemory_janusgraph_1,26.0,761371033.6,362000.0
janus-inmemory/docker/docker-stats-3.txt,janus-inmemory_repoSystem_1,26.0,192833126.4,39000.0
janus-inmemory/docker/docker-stats-3.txt,janus-inmemory_janusgraph_1,29.0,767662489.6,689000.0
janus-inmemory/docker/docker-stats-3.txt,janus-inmemory_repoSystem_1,29.0,187380531.2,45700.0
janus-inmemory/docker/docker-stats-3.txt,janus-inmemory_janusgraph_1,33.0,779616256.0,1350000.0
janus-inmemory/docker/docker-stats-3.txt,janus-inmemory_repoSystem_1,33.0,188638822.4,51300.0
janus-inmemory/docker/docker-stats-3.txt,janus-inmemory_janusgraph_1,37.0,780664832.0,1910000.0
janus-inmemory/docker/docker-stats-3.txt,janus-inmemory_repoSystem_1,37.0,188953395.2,59300.0
janus-inmemory/docker/docker-stats-3.txt,janus-inmemory_janusgraph_1,40.0,781713408.0,2870000.0
janus-inmemory/docker/docker-stats-3.txt,janus-inmemory_repoSystem_1,40.0,189477683.2,68500.0
janus-inmemory/docker/docker-stats-3.txt,janus-inmemory_janusgraph_1,44.0,782132838.4,3910000.0
janus-inmemory/docker/docker-stats-3.txt,janus-inmemory_repoSystem_1,44.0,189687398.4,74800.0
janus-inmemory/docker/docker-stats-3.txt,janus-inmemory_janusgraph_1,48.0,792723456.0,5640000.0
janus-inmemory/docker/docker-stats-3.txt,janus-inmemory_repoSystem_1,48.0,190001971.2,80900.0
janus-inmemory/docker/docker-stats-3.txt,janus-inmemory_janusgraph_1,51.0,905759948.8,8279999.999999999
janus-inmemory/docker/docker-stats-3.txt,janus-inmemory_repoSystem_1,51.0,189897113.6,84600.0
janus-inmemory/docker/docker-stats-3.txt,janus-inmemory_janusgraph_1,55.0,905864806.4,9810000.0
janus-inmemory/docker/docker-stats-3.txt,janus-inmemory_repoSystem_1,55.0,190421401.6,91900.0
janus-inmemory/docker/docker-stats-3.txt,janus-inmemory_janusgraph_1,58.0,918657433.6,12700000.0
janus-inmemory/docker/docker-stats-3.txt,janus-inmemory_repoSystem_1,58.0,190631116.8,99900.0
janus-inmemory/docker/docker-stats-3.txt,janus-inmemory_janusgraph_1,62.0,918657433.6,14200000.0
janus-inmemory/docker/docker-stats-3.txt,janus-inmemory_repoSystem_1,62.0,190945689.6,109000.0
janus-inmemory/docker/docker-stats-3.txt,janus-inmemory_janusgraph_1,66.0,927255756.8,15400000.0
janus-inmemory/docker/docker-stats-3.txt,janus-inmemory_repoSystem_1,66.0,190945689.6,117000.0
janus-inmemory/docker/docker-stats-3.txt,janus-inmemory_janusgraph_1,69.0,927360614.4,17200000.0
janus-inmemory/docker/docker-stats-3.txt,janus-inmemory_repoSystem_1,69.0,191469977.6,124000.0
janus-inmemory/docker/docker-stats-3.txt,janus-inmemory_janusgraph_1,73.0,927360614.4,18300000.0
janus-inmemory/docker/docker-stats-3.txt,janus-inmemory_repoSystem_1,73.0,191365120.0,130000.0
janus-inmemory/docker/docker-stats-3.txt,janus-inmemory_janusgraph_1,77.0,932393779.2,19300000.0
janus-inmemory/docker/docker-stats-3.txt,janus-inmemory_repoSystem_1,77.0,192099123.2,138000.0
janus-inmemory/docker/docker-stats-3.txt,janus-inmemory_janusgraph_1,80.0,932288921.6,20300000.0
janus-inmemory/docker/docker-stats-3.txt,janus-inmemory_repoSystem_1,80.0,192099123.2,142000.0
janus-inmemory/docker/docker-stats-3.txt,janus-inmemory_janusgraph_1,84.0,932288921.6,22000000.0
janus-inmemory/docker/docker-stats-3.txt,janus-inmemory_repoSystem_1,84.0,192099123.2,149000.0
janus-inmemory/docker/docker-stats-3.txt,janus-inmemory_janusgraph_1,87.0,933232640.0,23500000.0
janus-inmemory/docker/docker-stats-3.txt,janus-inmemory_repoSystem_1,87.0,192518553.6,157000.0
janus-inmemory/docker/docker-stats-3.txt,janus-inmemory_janusgraph_1,91.0,933232640.0,24800000.0
janus-inmemory/docker/docker-stats-3.txt,janus-inmemory_repoSystem_1,91.0,192728268.8,166000.0
janus-inmemory/docker/docker-stats-3.txt,janus-inmemory_janusgraph_1,94.0,933652070.4,26300000.0
janus-inmemory/docker/docker-stats-3.txt,janus-inmemory_repoSystem_1,94.0,192833126.4,175000.0
janus-inmemory/docker/docker-stats-3.txt,janus-inmemory_janusgraph_1,98.0,933547212.8,27700000.0
janus-inmemory/docker/docker-stats-3.txt,janus-inmemory_repoSystem_1,98.0,192937984.0,185000.0
janus-inmemory/docker/docker-stats-3.txt,janus-inmemory_janusgraph_1,102.0,933547212.8,29000000.0
janus-inmemory/docker/docker-stats-3.txt,janus-inmemory_repoSystem_1,102.0,192937984.0,196000.0
janus-inmemory/docker/docker-stats-3.txt,janus-inmemory_janusgraph_1,105.0,934071500.8,29900000.0
janus-inmemory/docker/docker-stats-3.txt,janus-inmemory_repoSystem_1,105.0,193357414.4,203000.0
janus-inmemory/docker/docker-stats-3.txt,janus-inmemory_janusgraph_1,109.0,934071500.8,31400000.0
janus-inmemory/docker/docker-stats-3.txt,janus-inmemory_repoSystem_1,109.0,193147699.2,208000.0
janus-inmemory/docker/docker-stats-3.txt,janus-inmemory_janusgraph_1,113.0,934071500.8,32600000.0
janus-inmemory/docker/docker-stats-3.txt,janus-inmemory_repoSystem_1,113.0,193147699.2,212000.0
janus-inmemory/docker/docker-stats-3.txt,janus-inmemory_janusgraph_1,116.0,934071500.8,33800000.0
janus-inmemory/docker/docker-stats-3.txt,janus-inmemory_repoSystem_1,116.0,193252556.8,219000.0
janus-inmemory/docker/docker-stats-3.txt,janus-inmemory_janusgraph_1,120.0,934071500.8,35300000.0
janus-inmemory/docker/docker-stats-3.txt,janus-inmemory_repoSystem_1,120.0,193252556.8,229000.0
janus-inmemory/docker/docker-stats-3.txt,janus-inmemory_janusgraph_1,123.0,934071500.8,36200000.0
janus-inmemory/docker/docker-stats-3.txt,janus-inmemory_repoSystem_1,123.0,193357414.4,238000.0
janus-inmemory/docker/docker-stats-3.txt,janus-inmemory_janusgraph_1,127.0,934071500.8,38000000.0
janus-inmemory/docker/docker-stats-3.txt,janus-inmemory_repoSystem_1,127.0,193357414.4,246000.0
janus-inmemory/docker/docker-stats-3.txt,janus-inmemory_janusgraph_1,131.0,934071500.8,39200000.0
janus-inmemory/docker/docker-stats-3.txt,janus-inmemory_repoSystem_1,131.0,193462272.0,252000.0
janus-inmemory/docker/docker-stats-3.txt,janus-inmemory_janusgraph_1,134.0,934071500.8,40300000.0
janus-inmemory/docker/docker-stats-3.txt,janus-inmemory_repoSystem_1,134.0,193462272.0,258000.0
janus-inmemory/docker/docker-stats-3.txt,janus-inmemory_janusgraph_1,138.0,934071500.8,41200000.0
janus-inmemory/docker/docker-stats-3.txt,janus-inmemory_repoSystem_1,138.0,193462272.0,266000.0
janus-inmemory/docker/docker-stats-3.txt,janus-inmemory_janusgraph_1,141.0,934071500.8,43000000.0
janus-inmemory/docker/docker-stats-3.txt,janus-inmemory_repoSystem_1,141.0,193567129.6,274000.0
janus-inmemory/docker/docker-stats-3.txt,janus-inmemory_janusgraph_1,145.0,934071500.8,44000000.0
janus-inmemory/docker/docker-stats-3.txt,janus-inmemory_repoSystem_1,145.0,193567129.6,281000.0
janus-inmemory/docker/docker-stats-3.txt,janus-inmemory_janusgraph_1,149.0,934071500.8,45300000.0
janus-inmemory/docker/docker-stats-3.txt,janus-inmemory_repoSystem_1,149.0,193567129.6,284000.0
janus-inmemory/docker/docker-stats-3.txt,janus-inmemory_janusgraph_1,152.0,934071500.8,46500000.0
janus-inmemory/docker/docker-stats-3.txt,janus-inmemory_repoSystem_1,152.0,193671987.2,290000.0
janus-inmemory/docker/docker-stats-3.txt,janus-inmemory_janusgraph_1,156.0,934071500.8,47700000.0
janus-inmemory/docker/docker-stats-3.txt,janus-inmemory_repoSystem_1,156.0,193567129.6,296000.0
janus-inmemory/docker/docker-stats-3.txt,janus-inmemory_janusgraph_1,159.0,934071500.8,48900000.0
janus-inmemory/docker/docker-stats-3.txt,janus-inmemory_repoSystem_1,159.0,193567129.6,303000.0
janus-inmemory/docker/docker-stats-3.txt,janus-inmemory_janusgraph_1,163.0,934071500.8,50100000.0
janus-inmemory/docker/docker-stats-3.txt,janus-inmemory_repoSystem_1,163.0,193671987.2,309000.0
janus-inmemory/docker/docker-stats-3.txt,janus-inmemory_janusgraph_1,167.0,934071500.8,50900000.0
janus-inmemory/docker/docker-stats-3.txt,janus-inmemory_repoSystem_1,167.0,193671987.2,316000.0
janus-inmemory/docker/docker-stats-3.txt,janus-inmemory_janusgraph_1,170.0,934071500.8,52200000.0
janus-inmemory/docker/docker-stats-3.txt,janus-inmemory_repoSystem_1,170.0,193671987.2,324000.0
janus-inmemory/docker/docker-stats-3.txt,janus-inmemory_janusgraph_1,174.0,934071500.8,52600000.0
janus-inmemory/docker/docker-stats-3.txt,janus-inmemory_repoSystem_1,174.0,194196275.2,324000.0
janus-inmemory/docker/docker-stats-4.txt,janus-inmemory_repoSystem_1,0.0,89317703.68,7270.0
janus-inmemory/docker/docker-stats-4.txt,janus-inmemory_janusgraph_1,0.0,89191874.56,4350.0
janus-inmemory/docker/docker-stats-4.txt,janus-inmemory_repoSystem_1,3.0,159488409.6,11200.0
janus-inmemory/docker/docker-stats-4.txt,janus-inmemory_janusgraph_1,3.0,696569036.8,11600.0
janus-inmemory/docker/docker-stats-4.txt,janus-inmemory_repoSystem_1,7.0,169135308.8,12600.0
janus-inmemory/docker/docker-stats-4.txt,janus-inmemory_janusgraph_1,7.0,769235353.6,12400.0
janus-inmemory/docker/docker-stats-4.txt,janus-inmemory_repoSystem_1,10.0,168715878.4,12600.0
janus-inmemory/docker/docker-stats-4.txt,janus-inmemory_janusgraph_1,10.0,787480576.0,12600.0
janus-inmemory/docker/docker-stats-4.txt,janus-inmemory_repoSystem_1,14.0,168715878.4,13300.0
janus-inmemory/docker/docker-stats-4.txt,janus-inmemory_janusgraph_1,14.0,729389465.6,13100.0
janus-inmemory/docker/docker-stats-4.txt,janus-inmemory_repoSystem_1,18.0,173958758.4,17300.0
janus-inmemory/docker/docker-stats-4.txt,janus-inmemory_janusgraph_1,18.0,769864499.2,13300.0
janus-inmemory/docker/docker-stats-4.txt,janus-inmemory_repoSystem_1,21.0,180669644.8,33600.0
janus-inmemory/docker/docker-stats-4.txt,janus-inmemory_janusgraph_1,21.0,752982425.6,47200.0
janus-inmemory/docker/docker-stats-4.txt,janus-inmemory_repoSystem_1,25.0,180774502.4,39000.0
janus-inmemory/docker/docker-stats-4.txt,janus-inmemory_janusgraph_1,25.0,760951603.2,356000.0
janus-inmemory/docker/docker-stats-4.txt,janus-inmemory_repoSystem_1,29.0,181193932.8,48300.0
janus-inmemory/docker/docker-stats-4.txt,janus-inmemory_janusgraph_1,29.0,766194483.2,679000.0
janus-inmemory/docker/docker-stats-4.txt,janus-inmemory_repoSystem_1,32.0,182976512.0,55100.0
janus-inmemory/docker/docker-stats-4.txt,janus-inmemory_janusgraph_1,32.0,768920780.8,1250000.0
janus-inmemory/docker/docker-stats-4.txt,janus-inmemory_repoSystem_1,36.0,183291084.8,60200.0
janus-inmemory/docker/docker-stats-4.txt,janus-inmemory_janusgraph_1,36.0,790416588.8,2240000.0
janus-inmemory/docker/docker-stats-4.txt,janus-inmemory_repoSystem_1,40.0,183710515.2,71600.0
janus-inmemory/docker/docker-stats-4.txt,janus-inmemory_janusgraph_1,40.0,790940876.8,3020000.0
janus-inmemory/docker/docker-stats-4.txt,janus-inmemory_repoSystem_1,43.0,184129945.6,81200.0
janus-inmemory/docker/docker-stats-4.txt,janus-inmemory_janusgraph_1,43.0,791570022.4,4190000.0000000005
janus-inmemory/docker/docker-stats-4.txt,janus-inmemory_repoSystem_1,47.0,184654233.6,91800.0
janus-inmemory/docker/docker-stats-4.txt,janus-inmemory_janusgraph_1,47.0,902089932.8,5980000.0
janus-inmemory/docker/docker-stats-4.txt,janus-inmemory_repoSystem_1,50.0,184863948.8,101000.0
janus-inmemory/docker/docker-stats-4.txt,janus-inmemory_janusgraph_1,50.0,902089932.8,7990000.0
janus-inmemory/docker/docker-stats-4.txt,janus-inmemory_repoSystem_1,54.0,185597952.0,108000.0
janus-inmemory/docker/docker-stats-4.txt,janus-inmemory_janusgraph_1,54.0,909744537.6,10100000.0
janus-inmemory/docker/docker-stats-4.txt,janus-inmemory_repoSystem_1,58.0,185388236.8,113000.0
janus-inmemory/docker/docker-stats-4.txt,janus-inmemory_janusgraph_1,58.0,920754585.6,12400000.0
janus-inmemory/docker/docker-stats-4.txt,janus-inmemory_repoSystem_1,61.0,185493094.4,117000.0
janus-inmemory/docker/docker-stats-4.txt,janus-inmemory_janusgraph_1,61.0,920754585.6,15000000.0
janus-inmemory/docker/docker-stats-4.txt,janus-inmemory_repoSystem_1,65.0,185597952.0,126000.0
janus-inmemory/docker/docker-stats-4.txt,janus-inmemory_janusgraph_1,65.0,926731468.8,15900000.0
janus-inmemory/docker/docker-stats-4.txt,janus-inmemory_repoSystem_1,68.0,185912524.8,136000.0
janus-inmemory/docker/docker-stats-4.txt,janus-inmemory_janusgraph_1,68.0,926731468.8,17300000.0
janus-inmemory/docker/docker-stats-4.txt,janus-inmemory_repoSystem_1,72.0,186227097.6,145000.0
janus-inmemory/docker/docker-stats-4.txt,janus-inmemory_janusgraph_1,72.0,926731468.8,18600000.0
janus-inmemory/docker/docker-stats-4.txt,janus-inmemory_repoSystem_1,76.0,186227097.6,152000.0
janus-inmemory/docker/docker-stats-4.txt,janus-inmemory_janusgraph_1,76.0,929982054.4,20500000.0
janus-inmemory/docker/docker-stats-4.txt,janus-inmemory_repoSystem_1,79.0,186227097.6,159000.0
janus-inmemory/docker/docker-stats-4.txt,janus-inmemory_janusgraph_1,79.0,929982054.4,21200000.0
janus-inmemory/docker/docker-stats-4.txt,janus-inmemory_repoSystem_1,83.0,186227097.6,165000.0
janus-inmemory/docker/docker-stats-4.txt,janus-inmemory_janusgraph_1,83.0,929982054.4,22400000.0
janus-inmemory/docker/docker-stats-4.txt,janus-inmemory_repoSystem_1,86.0,186436812.8,171000.0
janus-inmemory/docker/docker-stats-4.txt,janus-inmemory_janusgraph_1,86.0,931450060.8,23700000.0
janus-inmemory/docker/docker-stats-4.txt,janus-inmemory_repoSystem_1,90.0,186751385.6,178000.0
janus-inmemory/docker/docker-stats-4.txt,janus-inmemory_janusgraph_1,90.0,931450060.8,25400000.0
janus-inmemory/docker/docker-stats-4.txt,janus-inmemory_repoSystem_1,94.0,186751385.6,192000.0
janus-inmemory/docker/docker-stats-4.txt,janus-inmemory_janusgraph_1,94.0,932603494.4,26600000.0
janus-inmemory/docker/docker-stats-4.txt,janus-inmemory_repoSystem_1,97.0,186751385.6,196000.0
janus-inmemory/docker/docker-stats-4.txt,janus-inmemory_janusgraph_1,97.0,932498636.8,28100000.0
janus-inmemory/docker/docker-stats-4.txt,janus-inmemory_repoSystem_1,101.0,186751385.6,207000.0
janus-inmemory/docker/docker-stats-4.txt,janus-inmemory_janusgraph_1,101.0,932498636.8,29200000.0
janus-inmemory/docker/docker-stats-4.txt,janus-inmemory_repoSystem_1,104.0,187065958.4,212000.0
janus-inmemory/docker/docker-stats-4.txt,janus-inmemory_janusgraph_1,104.0,933022924.8,30400000.0
janus-inmemory/docker/docker-stats-4.txt,janus-inmemory_repoSystem_1,108.0,186856243.2,217000.0
janus-inmemory/docker/docker-stats-4.txt,janus-inmemory_janusgraph_1,108.0,933022924.8,31600000.0
janus-inmemory/docker/docker-stats-4.txt,janus-inmemory_repoSystem_1,112.0,186856243.2,224000.0
janus-inmemory/docker/docker-stats-4.txt,janus-inmemory_janusgraph_1,112.0,933022924.8,32700000.000000004
janus-inmemory/docker/docker-stats-4.txt,janus-inmemory_repoSystem_1,115.0,186961100.8,232000.0
janus-inmemory/docker/docker-stats-4.txt,janus-inmemory_janusgraph_1,115.0,937322086.4,34000000.0
janus-inmemory/docker/docker-stats-4.txt,janus-inmemory_repoSystem_1,119.0,187065958.4,237000.0
janus-inmemory/docker/docker-stats-4.txt,janus-inmemory_janusgraph_1,119.0,937426944.0,35700000.0
janus-inmemory/docker/docker-stats-4.txt,janus-inmemory_repoSystem_1,122.0,187170816.0,247000.0
janus-inmemory/docker/docker-stats-4.txt,janus-inmemory_janusgraph_1,122.0,937426944.0,36700000.0
janus-inmemory/docker/docker-stats-4.txt,janus-inmemory_repoSystem_1,126.0,187275673.6,259000.0
janus-inmemory/docker/docker-stats-4.txt,janus-inmemory_janusgraph_1,126.0,939628953.6,38100000.0
janus-inmemory/docker/docker-stats-4.txt,janus-inmemory_repoSystem_1,130.0,187275673.6,265000.0
janus-inmemory/docker/docker-stats-4.txt,janus-inmemory_janusgraph_1,130.0,939628953.6,39500000.0
janus-inmemory/docker/docker-stats-4.txt,janus-inmemory_repoSystem_1,133.0,187275673.6,273000.0
janus-inmemory/docker/docker-stats-4.txt,janus-inmemory_janusgraph_1,133.0,940467814.4,41200000.0
janus-inmemory/docker/docker-stats-4.txt,janus-inmemory_repoSystem_1,137.0,187275673.6,280000.0
janus-inmemory/docker/docker-stats-4.txt,janus-inmemory_janusgraph_1,137.0,940467814.4,42100000.0
janus-inmemory/docker/docker-stats-4.txt,janus-inmemory_repoSystem_1,140.0,187275673.6,284000.0
janus-inmemory/docker/docker-stats-4.txt,janus-inmemory_janusgraph_1,140.0,940467814.4,43600000.0
janus-inmemory/docker/docker-stats-4.txt,janus-inmemory_repoSystem_1,144.0,187275673.6,289000.0
janus-inmemory/docker/docker-stats-4.txt,janus-inmemory_janusgraph_1,144.0,942984396.8,44800000.0
janus-inmemory/docker/docker-stats-4.txt,janus-inmemory_repoSystem_1,148.0,187275673.6,299000.0
janus-inmemory/docker/docker-stats-4.txt,janus-inmemory_janusgraph_1,148.0,942984396.8,45600000.0
janus-inmemory/docker/docker-stats-4.txt,janus-inmemory_repoSystem_1,151.0,187275673.6,311000.0
janus-inmemory/docker/docker-stats-4.txt,janus-inmemory_janusgraph_1,151.0,942984396.8,47200000.0
janus-inmemory/docker/docker-stats-4.txt,janus-inmemory_repoSystem_1,155.0,187485388.8,321000.0
janus-inmemory/docker/docker-stats-4.txt,janus-inmemory_janusgraph_1,155.0,942984396.8,48600000.0
janus-inmemory/docker/docker-stats-4.txt,janus-inmemory_repoSystem_1,159.0,187380531.2,328000.0
janus-inmemory/docker/docker-stats-4.txt,janus-inmemory_janusgraph_1,159.0,942984396.8,50000000.0
janus-inmemory/docker/docker-stats-4.txt,janus-inmemory_repoSystem_1,162.0,187380531.2,333000.0
janus-inmemory/docker/docker-stats-4.txt,janus-inmemory_janusgraph_1,162.0,943823257.6,51700000.0
janus-inmemory/docker/docker-stats-4.txt,janus-inmemory_repoSystem_1,166.0,187485388.8,343000.0
janus-inmemory/docker/docker-stats-4.txt,janus-inmemory_janusgraph_1,166.0,943823257.6,52600000.0
janus-inmemory/docker/docker-stats-4.txt,janus-inmemory_repoSystem_1,169.0,187485388.8,348000.0
janus-inmemory/docker/docker-stats-4.txt,janus-inmemory_janusgraph_1,169.0,943823257.6,53800000.0
janus-inmemory/docker/docker-stats-4.txt,janus-inmemory_repoSystem_1,173.0,187590246.4,348000.0
janus-inmemory/docker/docker-stats-4.txt,janus-inmemory_janusgraph_1,173.0,943928115.2,54000000.0
janus-inmemory/docker/docker-stats-5.txt,janus-inmemory_janusgraph_1,0.0,205311180.8,6810.0
janus-inmemory/docker/docker-stats-5.txt,janus-inmemory_repoSystem_1,0.0,67140321.28,4210.0
janus-inmemory/docker/docker-stats-5.txt,janus-inmemory_janusgraph_1,3.0,645083955.2,10300.0
janus-inmemory/docker/docker-stats-5.txt,janus-inmemory_repoSystem_1,3.0,153616384.0,11200.0
janus-inmemory/docker/docker-stats-5.txt,janus-inmemory_janusgraph_1,7.0,760637030.4,11700.0
janus-inmemory/docker/docker-stats-5.txt,janus-inmemory_repoSystem_1,7.0,153511526.4,11900.0
janus-inmemory/docker/docker-stats-5.txt,janus-inmemory_janusgraph_1,11.0,173853900.8,12000.0
janus-inmemory/docker/docker-stats-5.txt,janus-inmemory_repoSystem_1,11.0,145332633.6,11900.0
janus-inmemory/docker/docker-stats-5.txt,janus-inmemory_janusgraph_1,14.0,750885273.6,12400.0
janus-inmemory/docker/docker-stats-5.txt,janus-inmemory_repoSystem_1,14.0,145332633.6,12200.0
janus-inmemory/docker/docker-stats-5.txt,janus-inmemory_janusgraph_1,18.0,766928486.4,13900.0
janus-inmemory/docker/docker-stats-5.txt,janus-inmemory_repoSystem_1,18.0,145332633.6,12700.0
janus-inmemory/docker/docker-stats-5.txt,janus-inmemory_janusgraph_1,22.0,764411904.0,34500.0
janus-inmemory/docker/docker-stats-5.txt,janus-inmemory_repoSystem_1,22.0,186856243.2,31900.0
janus-inmemory/docker/docker-stats-5.txt,janus-inmemory_janusgraph_1,25.0,771227648.0,231000.0
janus-inmemory/docker/docker-stats-5.txt,janus-inmemory_repoSystem_1,25.0,171547033.6,40200.0
janus-inmemory/docker/docker-stats-5.txt,janus-inmemory_janusgraph_1,29.0,768920780.8,742000.0
janus-inmemory/docker/docker-stats-5.txt,janus-inmemory_repoSystem_1,29.0,171651891.2,44000.0
janus-inmemory/docker/docker-stats-5.txt,janus-inmemory_janusgraph_1,33.0,782342553.6,1330000.0
janus-inmemory/docker/docker-stats-5.txt,janus-inmemory_repoSystem_1,33.0,173015040.0,51400.0
janus-inmemory/docker/docker-stats-5.txt,janus-inmemory_janusgraph_1,36.0,799014912.0,1850000.0
janus-inmemory/docker/docker-stats-5.txt,janus-inmemory_repoSystem_1,36.0,173329612.8,59200.0
janus-inmemory/docker/docker-stats-5.txt,janus-inmemory_janusgraph_1,40.0,802265497.6,3080000.0
janus-inmemory/docker/docker-stats-5.txt,janus-inmemory_repoSystem_1,40.0,173644185.6,65600.0
janus-inmemory/docker/docker-stats-5.txt,janus-inmemory_janusgraph_1,43.0,818308710.4,4340000.0
janus-inmemory/docker/docker-stats-5.txt,janus-inmemory_repoSystem_1,43.0,173853900.8,73400.0
janus-inmemory/docker/docker-stats-5.txt,janus-inmemory_janusgraph_1,47.0,892757606.4,6280000.0
janus-inmemory/docker/docker-stats-5.txt,janus-inmemory_repoSystem_1,47.0,174168473.6,78900.0
janus-inmemory/docker/docker-stats-5.txt,janus-inmemory_janusgraph_1,51.0,902299648.0,8369999.999999999
janus-inmemory/docker/docker-stats-5.txt,janus-inmemory_repoSystem_1,51.0,174273331.2,84900.0
janus-inmemory/docker/docker-stats-5.txt,janus-inmemory_janusgraph_1,53.0,902194790.4,9950000.0
janus-inmemory/docker/docker-stats-5.txt,janus-inmemory_repoSystem_1,53.0,174692761.6,89600.0
janus-inmemory/docker/docker-stats-5.txt,janus-inmemory_janusgraph_1,57.0,902194790.4,11500000.0
janus-inmemory/docker/docker-stats-5.txt,janus-inmemory_repoSystem_1,57.0,174902476.8,99500.0
janus-inmemory/docker/docker-stats-5.txt,janus-inmemory_janusgraph_1,60.0,914567987.2,13700000.0
janus-inmemory/docker/docker-stats-5.txt,janus-inmemory_repoSystem_1,60.0,175321907.2,109000.0
janus-inmemory/docker/docker-stats-5.txt,janus-inmemory_janusgraph_1,64.0,920125440.0,15700000.0
janus-inmemory/docker/docker-stats-5.txt,janus-inmemory_repoSystem_1,64.0,175531622.4,116000.0
janus-inmemory/docker/docker-stats-5.txt,janus-inmemory_janusgraph_1,68.0,920125440.0,17100000.0
janus-inmemory/docker/docker-stats-5.txt,janus-inmemory_repoSystem_1,68.0,175636480.0,125000.0
janus-inmemory/docker/docker-stats-5.txt,janus-inmemory_janusgraph_1,71.0,920125440.0,18200000.0
janus-inmemory/docker/docker-stats-5.txt,janus-inmemory_repoSystem_1,71.0,175846195.2,132000.0
janus-inmemory/docker/docker-stats-5.txt,janus-inmemory_janusgraph_1,75.0,924529459.2,19300000.0
janus-inmemory/docker/docker-stats-5.txt,janus-inmemory_repoSystem_1,75.0,175951052.8,139000.0
janus-inmemory/docker/docker-stats-5.txt,janus-inmemory_janusgraph_1,78.0,924424601.6,20600000.0
janus-inmemory/docker/docker-stats-5.txt,janus-inmemory_repoSystem_1,78.0,175846195.2,143000.0
janus-inmemory/docker/docker-stats-5.txt,janus-inmemory_janusgraph_1,82.0,924424601.6,21500000.0
janus-inmemory/docker/docker-stats-5.txt,janus-inmemory_repoSystem_1,82.0,176055910.4,154000.0
janus-inmemory/docker/docker-stats-5.txt,janus-inmemory_janusgraph_1,86.0,925368320.0,23100000.0
janus-inmemory/docker/docker-stats-5.txt,janus-inmemory_repoSystem_1,86.0,176055910.4,158000.0
janus-inmemory/docker/docker-stats-5.txt,janus-inmemory_janusgraph_1,89.0,925368320.0,24300000.0
janus-inmemory/docker/docker-stats-5.txt,janus-inmemory_repoSystem_1,89.0,176265625.6,164000.0
janus-inmemory/docker/docker-stats-5.txt,janus-inmemory_janusgraph_1,93.0,925368320.0,25600000.0
janus-inmemory/docker/docker-stats-5.txt,janus-inmemory_repoSystem_1,93.0,176160768.0,170000.0
janus-inmemory/docker/docker-stats-5.txt,janus-inmemory_janusgraph_1,96.0,928723763.2,26900000.0
janus-inmemory/docker/docker-stats-5.txt,janus-inmemory_repoSystem_1,96.0,176475340.8,179000.0
janus-inmemory/docker/docker-stats-5.txt,janus-inmemory_janusgraph_1,100.0,928723763.2,28500000.0
janus-inmemory/docker/docker-stats-5.txt,janus-inmemory_repoSystem_1,100.0,176685056.0,190000.0
janus-inmemory/docker/docker-stats-5.txt,janus-inmemory_janusgraph_1,104.0,928723763.2,29400000.0
janus-inmemory/docker/docker-stats-5.txt,janus-inmemory_repoSystem_1,104.0,176685056.0,198000.0
janus-inmemory/docker/docker-stats-5.txt,janus-inmemory_janusgraph_1,106.0,932603494.4,30700000.0
janus-inmemory/docker/docker-stats-5.txt,janus-inmemory_repoSystem_1,106.0,176685056.0,203000.0
janus-inmemory/docker/docker-stats-5.txt,janus-inmemory_janusgraph_1,110.0,932603494.4,31800000.0
janus-inmemory/docker/docker-stats-5.txt,janus-inmemory_repoSystem_1,110.0,176685056.0,206000.0
janus-inmemory/docker/docker-stats-5.txt,janus-inmemory_janusgraph_1,113.0,932603494.4,32900000.0
janus-inmemory/docker/docker-stats-5.txt,janus-inmemory_repoSystem_1,113.0,176685056.0,212000.0
janus-inmemory/docker/docker-stats-5.txt,janus-inmemory_janusgraph_1,117.0,934176358.4,34400000.0
janus-inmemory/docker/docker-stats-5.txt,janus-inmemory_repoSystem_1,117.0,176894771.2,221000.0
janus-inmemory/docker/docker-stats-5.txt,janus-inmemory_janusgraph_1,121.0,934281216.0,35400000.0
janus-inmemory/docker/docker-stats-5.txt,janus-inmemory_repoSystem_1,121.0,176789913.6,233000.0
janus-inmemory/docker/docker-stats-5.txt,janus-inmemory_janusgraph_1,123.0,934176358.4,36800000.0
janus-inmemory/docker/docker-stats-5.txt,janus-inmemory_repoSystem_1,123.0,176999628.8,240000.0
janus-inmemory/docker/docker-stats-5.txt,janus-inmemory_janusgraph_1,127.0,936063795.2,37900000.0
janus-inmemory/docker/docker-stats-5.txt,janus-inmemory_repoSystem_1,127.0,177104486.4,250000.0
janus-inmemory/docker/docker-stats-5.txt,janus-inmemory_janusgraph_1,131.0,936063795.2,39700000.0
janus-inmemory/docker/docker-stats-5.txt,janus-inmemory_repoSystem_1,131.0,177209344.0,256000.0
janus-inmemory/docker/docker-stats-5.txt,janus-inmemory_janusgraph_1,134.0,936483225.6,41100000.0
janus-inmemory/docker/docker-stats-5.txt,janus-inmemory_repoSystem_1,134.0,177314201.6,269000.0
janus-inmemory/docker/docker-stats-5.txt,janus-inmemory_janusgraph_1,138.0,936483225.6,42300000.0
janus-inmemory/docker/docker-stats-5.txt,janus-inmemory_repoSystem_1,138.0,177314201.6,281000.0
janus-inmemory/docker/docker-stats-5.txt,janus-inmemory_janusgraph_1,141.0,936483225.6,43400000.0
janus-inmemory/docker/docker-stats-5.txt,janus-inmemory_repoSystem_1,141.0,177314201.6,286000.0
janus-inmemory/docker/docker-stats-5.txt,janus-inmemory_janusgraph_1,145.0,937426944.0,44900000.0
janus-inmemory/docker/docker-stats-5.txt,janus-inmemory_repoSystem_1,145.0,177314201.6,291000.0
janus-inmemory/docker/docker-stats-5.txt,janus-inmemory_janusgraph_1,149.0,937426944.0,45700000.0
janus-inmemory/docker/docker-stats-5.txt,janus-inmemory_repoSystem_1,149.0,177314201.6,298000.0
janus-inmemory/docker/docker-stats-5.txt,janus-inmemory_janusgraph_1,152.0,937426944.0,47200000.0
janus-inmemory/docker/docker-stats-5.txt,janus-inmemory_repoSystem_1,152.0,177419059.2,302000.0
janus-inmemory/docker/docker-stats-5.txt,janus-inmemory_janusgraph_1,156.0,940258099.2,48400000.0
janus-inmemory/docker/docker-stats-5.txt,janus-inmemory_repoSystem_1,156.0,177419059.2,310000.0
janus-inmemory/docker/docker-stats-5.txt,janus-inmemory_janusgraph_1,159.0,940258099.2,49800000.0
janus-inmemory/docker/docker-stats-5.txt,janus-inmemory_repoSystem_1,159.0,177419059.2,319000.0
janus-inmemory/docker/docker-stats-5.txt,janus-inmemory_janusgraph_1,163.0,940258099.2,51200000.0
janus-inmemory/docker/docker-stats-5.txt,janus-inmemory_repoSystem_1,163.0,177419059.2,327000.0
janus-inmemory/docker/docker-stats-5.txt,janus-inmemory_janusgraph_1,167.0,940258099.2,52100000.0
janus-inmemory/docker/docker-stats-5.txt,janus-inmemory_repoSystem_1,167.0,177523916.8,336000.0
janus-inmemory/docker/docker-stats-5.txt,janus-inmemory_janusgraph_1,170.0,940258099.2,53300000.0
janus-inmemory/docker/docker-stats-5.txt,janus-inmemory_repoSystem_1,170.0,177523916.8,341000.0
janus-inmemory/docker/docker-stats-5.txt,janus-inmemory_janusgraph_1,174.0,940362956.8,53300000.0
janus-inmemory/docker/docker-stats-5.txt,janus-inmemory_repoSystem_1,174.0,177628774.4,342000.0
janus-inmemory/docker/docker-stats-6.txt,janus-inmemory_janusgraph_1,0.0,88510300.16,2770.0
janus-inmemory/docker/docker-stats-6.txt,janus-inmemory_repoSystem_1,0.0,87293952.0,6920.0
janus-inmemory/docker/docker-stats-6.txt,janus-inmemory_janusgraph_1,3.0,693003878.4,12100.0
janus-inmemory/docker/docker-stats-6.txt,janus-inmemory_repoSystem_1,3.0,145332633.6,10500.0
janus-inmemory/docker/docker-stats-6.txt,janus-inmemory_janusgraph_1,7.0,776260812.8,12800.0
janus-inmemory/docker/docker-stats-6.txt,janus-inmemory_repoSystem_1,7.0,187065958.4,12400.0
janus-inmemory/docker/docker-stats-6.txt,janus-inmemory_janusgraph_1,10.0,162319564.8,13600.0
janus-inmemory/docker/docker-stats-6.txt,janus-inmemory_repoSystem_1,10.0,164416716.8,13200.0
janus-inmemory/docker/docker-stats-6.txt,janus-inmemory_janusgraph_1,14.0,748997836.8,15800.0
janus-inmemory/docker/docker-stats-6.txt,janus-inmemory_repoSystem_1,14.0,164416716.8,15900.0
janus-inmemory/docker/docker-stats-6.txt,janus-inmemory_janusgraph_1,18.0,766613913.6,17500.0
janus-inmemory/docker/docker-stats-6.txt,janus-inmemory_repoSystem_1,18.0,164416716.8,15900.0
janus-inmemory/docker/docker-stats-6.txt,janus-inmemory_janusgraph_1,21.0,767662489.6,24500.0
janus-inmemory/docker/docker-stats-6.txt,janus-inmemory_repoSystem_1,21.0,191155404.8,36700.0
janus-inmemory/docker/docker-stats-6.txt,janus-inmemory_janusgraph_1,25.0,777623961.6,362000.0
janus-inmemory/docker/docker-stats-6.txt,janus-inmemory_repoSystem_1,25.0,191260262.4,41300.0
janus-inmemory/docker/docker-stats-6.txt,janus-inmemory_janusgraph_1,29.0,781608550.4,674000.0
janus-inmemory/docker/docker-stats-6.txt,janus-inmemory_repoSystem_1,29.0,181718220.8,48000.0
janus-inmemory/docker/docker-stats-6.txt,janus-inmemory_janusgraph_1,32.0,795869184.0,1420000.0
janus-inmemory/docker/docker-stats-6.txt,janus-inmemory_repoSystem_1,32.0,182976512.0,53200.0
janus-inmemory/docker/docker-stats-6.txt,janus-inmemory_janusgraph_1,36.0,797127475.2,2270000.0
janus-inmemory/docker/docker-stats-6.txt,janus-inmemory_repoSystem_1,36.0,183081369.6,59300.0
janus-inmemory/docker/docker-stats-6.txt,janus-inmemory_janusgraph_1,40.0,797651763.2,3140000.0
janus-inmemory/docker/docker-stats-6.txt,janus-inmemory_repoSystem_1,40.0,183605657.6,68200.0
janus-inmemory/docker/docker-stats-6.txt,janus-inmemory_janusgraph_1,43.0,898210201.6,4800000.0
janus-inmemory/docker/docker-stats-6.txt,janus-inmemory_repoSystem_1,43.0,184444518.4,78000.0
janus-inmemory/docker/docker-stats-6.txt,janus-inmemory_janusgraph_1,47.0,898210201.6,6280000.0
janus-inmemory/docker/docker-stats-6.txt,janus-inmemory_repoSystem_1,47.0,184863948.8,84900.0
janus-inmemory/docker/docker-stats-6.txt,janus-inmemory_janusgraph_1,50.0,913729126.4,8330000.0
janus-inmemory/docker/docker-stats-6.txt,janus-inmemory_repoSystem_1,50.0,184863948.8,90400.0
janus-inmemory/docker/docker-stats-6.txt,janus-inmemory_janusgraph_1,54.0,913729126.4,11100000.0
janus-inmemory/docker/docker-stats-6.txt,janus-inmemory_repoSystem_1,54.0,184968806.4,93800.0
janus-inmemory/docker/docker-stats-6.txt,janus-inmemory_janusgraph_1,58.0,923271168.0,13000000.0
janus-inmemory/docker/docker-stats-6.txt,janus-inmemory_repoSystem_1,58.0,185283379.2,99700.0
janus-inmemory/docker/docker-stats-6.txt,janus-inmemory_janusgraph_1,61.0,923166310.4,14300000.0
janus-inmemory/docker/docker-stats-6.txt,janus-inmemory_repoSystem_1,61.0,185493094.4,109000.0
janus-inmemory/docker/docker-stats-6.txt,janus-inmemory_janusgraph_1,65.0,929982054.4,15500000.0
janus-inmemory/docker/docker-stats-6.txt,janus-inmemory_repoSystem_1,65.0,186122240.0,121000.0
janus-inmemory/docker/docker-stats-6.txt,janus-inmemory_janusgraph_1,68.0,929877196.8,17300000.0
janus-inmemory/docker/docker-stats-6.txt,janus-inmemory_repoSystem_1,68.0,186227097.6,131000.0
janus-inmemory/docker/docker-stats-6.txt,janus-inmemory_janusgraph_1,72.0,929877196.8,18600000.0
janus-inmemory/docker/docker-stats-6.txt,janus-inmemory_repoSystem_1,72.0,186331955.2,137000.0
janus-inmemory/docker/docker-stats-6.txt,janus-inmemory_janusgraph_1,76.0,936378368.0,19600000.0
janus-inmemory/docker/docker-stats-6.txt,janus-inmemory_repoSystem_1,76.0,186751385.6,148000.0
janus-inmemory/docker/docker-stats-6.txt,janus-inmemory_janusgraph_1,79.0,936378368.0,21200000.0
janus-inmemory/docker/docker-stats-6.txt,janus-inmemory_repoSystem_1,79.0,186541670.4,152000.0
janus-inmemory/docker/docker-stats-6.txt,janus-inmemory_janusgraph_1,83.0,936378368.0,22300000.0
janus-inmemory/docker/docker-stats-6.txt,janus-inmemory_repoSystem_1,83.0,186541670.4,157000.0
janus-inmemory/docker/docker-stats-6.txt,janus-inmemory_janusgraph_1,87.0,939838668.8,23300000.0
janus-inmemory/docker/docker-stats-6.txt,janus-inmemory_repoSystem_1,87.0,186541670.4,163000.0
janus-inmemory/docker/docker-stats-6.txt,janus-inmemory_janusgraph_1,90.0,939838668.8,24700000.0
janus-inmemory/docker/docker-stats-6.txt,janus-inmemory_repoSystem_1,90.0,186751385.6,170000.0
janus-inmemory/docker/docker-stats-6.txt,janus-inmemory_janusgraph_1,94.0,939838668.8,25800000.0
janus-inmemory/docker/docker-stats-6.txt,janus-inmemory_repoSystem_1,94.0,186751385.6,175000.0
janus-inmemory/docker/docker-stats-6.txt,janus-inmemory_janusgraph_1,97.0,944137830.4,26900000.0
janus-inmemory/docker/docker-stats-6.txt,janus-inmemory_repoSystem_1,97.0,186751385.6,182000.0
janus-inmemory/docker/docker-stats-6.txt,janus-inmemory_janusgraph_1,101.0,944137830.4,27900000.0
janus-inmemory/docker/docker-stats-6.txt,janus-inmemory_repoSystem_1,101.0,186856243.2,189000.0
janus-inmemory/docker/docker-stats-6.txt,janus-inmemory_janusgraph_1,105.0,944137830.4,29000000.0
janus-inmemory/docker/docker-stats-6.txt,janus-inmemory_repoSystem_1,105.0,187065958.4,196000.0
janus-inmemory/docker/docker-stats-6.txt,janus-inmemory_janusgraph_1,108.0,945291264.0,30400000.0
janus-inmemory/docker/docker-stats-6.txt,janus-inmemory_repoSystem_1,108.0,187170816.0,206000.0
janus-inmemory/docker/docker-stats-6.txt,janus-inmemory_janusgraph_1,112.0,945291264.0,32000000.0
janus-inmemory/docker/docker-stats-6.txt,janus-inmemory_repoSystem_1,112.0,187275673.6,209000.0
janus-inmemory/docker/docker-stats-6.txt,janus-inmemory_janusgraph_1,115.0,945291264.0,33100000.0
janus-inmemory/docker/docker-stats-6.txt,janus-inmemory_repoSystem_1,115.0,187170816.0,215000.0
janus-inmemory/docker/docker-stats-6.txt,janus-inmemory_janusgraph_1,119.0,945605836.8,34000000.0
janus-inmemory/docker/docker-stats-6.txt,janus-inmemory_repoSystem_1,119.0,187170816.0,221000.0
janus-inmemory/docker/docker-stats-6.txt,janus-inmemory_janusgraph_1,123.0,945605836.8,35600000.0
janus-inmemory/docker/docker-stats-6.txt,janus-inmemory_repoSystem_1,123.0,187170816.0,226000.0
janus-inmemory/docker/docker-stats-6.txt,janus-inmemory_janusgraph_1,126.0,945605836.8,36600000.0
janus-inmemory/docker/docker-stats-6.txt,janus-inmemory_repoSystem_1,126.0,187485388.8,241000.0
janus-inmemory/docker/docker-stats-6.txt,janus-inmemory_janusgraph_1,130.0,945710694.4,38500000.0
janus-inmemory/docker/docker-stats-6.txt,janus-inmemory_repoSystem_1,130.0,187695104.0,247000.0
janus-inmemory/docker/docker-stats-6.txt,janus-inmemory_janusgraph_1,133.0,945710694.4,39900000.0
janus-inmemory/docker/docker-stats-6.txt,janus-inmemory_repoSystem_1,133.0,187590246.4,255000.0
janus-inmemory/docker/docker-stats-6.txt,janus-inmemory_janusgraph_1,137.0,948856422.4,40900000.0
janus-inmemory/docker/docker-stats-6.txt,janus-inmemory_repoSystem_1,137.0,187904819.2,271000.0
janus-inmemory/docker/docker-stats-6.txt,janus-inmemory_janusgraph_1,141.0,948856422.4,42600000.0
janus-inmemory/docker/docker-stats-6.txt,janus-inmemory_repoSystem_1,141.0,187904819.2,277000.0
janus-inmemory/docker/docker-stats-6.txt,janus-inmemory_janusgraph_1,144.0,948856422.4,43800000.0
janus-inmemory/docker/docker-stats-6.txt,janus-inmemory_repoSystem_1,144.0,187799961.6,289000.0
janus-inmemory/docker/docker-stats-6.txt,janus-inmemory_janusgraph_1,148.0,950114713.6,45500000.0
janus-inmemory/docker/docker-stats-6.txt,janus-inmemory_repoSystem_1,148.0,187799961.6,296000.0
janus-inmemory/docker/docker-stats-6.txt,janus-inmemory_janusgraph_1,151.0,950114713.6,46800000.0
janus-inmemory/docker/docker-stats-6.txt,janus-inmemory_repoSystem_1,151.0,187799961.6,301000.0
janus-inmemory/docker/docker-stats-6.txt,janus-inmemory_janusgraph_1,155.0,950743859.2,47700000.0
janus-inmemory/docker/docker-stats-6.txt,janus-inmemory_repoSystem_1,155.0,187799961.6,305000.0
janus-inmemory/docker/docker-stats-6.txt,janus-inmemory_janusgraph_1,159.0,950639001.6,48800000.0
janus-inmemory/docker/docker-stats-6.txt,janus-inmemory_repoSystem_1,159.0,187799961.6,311000.0
janus-inmemory/docker/docker-stats-6.txt,janus-inmemory_janusgraph_1,162.0,950639001.6,50200000.0
janus-inmemory/docker/docker-stats-6.txt,janus-inmemory_repoSystem_1,162.0,187799961.6,318000.0
janus-inmemory/docker/docker-stats-6.txt,janus-inmemory_janusgraph_1,166.0,951687577.6,51000000.0
janus-inmemory/docker/docker-stats-6.txt,janus-inmemory_repoSystem_1,166.0,187904819.2,327000.0
janus-inmemory/docker/docker-stats-6.txt,janus-inmemory_janusgraph_1,170.0,951687577.6,52800000.0
janus-inmemory/docker/docker-stats-6.txt,janus-inmemory_repoSystem_1,170.0,188219392.0,337000.0
janus-inmemory/docker/docker-stats-6.txt,janus-inmemory_janusgraph_1,173.0,951687577.6,52800000.0
janus-inmemory/docker/docker-stats-6.txt,janus-inmemory_repoSystem_1,173.0,188114534.4,337000.0
janus-inmemory/docker/docker-stats-7.txt,janus-inmemory_janusgraph_1,0.0,94529126.4,4350.0
janus-inmemory/docker/docker-stats-7.txt,janus-inmemory_repoSystem_1,0.0,62589501.44,3070.0
janus-inmemory/docker/docker-stats-7.txt,janus-inmemory_janusgraph_1,4.0,654521139.2,11300.0
janus-inmemory/docker/docker-stats-7.txt,janus-inmemory_repoSystem_1,4.0,121844531.2,9640.0
janus-inmemory/docker/docker-stats-7.txt,janus-inmemory_janusgraph_1,7.0,722364006.4,12200.0
janus-inmemory/docker/docker-stats-7.txt,janus-inmemory_repoSystem_1,7.0,192623411.2,12000.0
janus-inmemory/docker/docker-stats-7.txt,janus-inmemory_janusgraph_1,10.0,783600844.8,12700.0
janus-inmemory/docker/docker-stats-7.txt,janus-inmemory_repoSystem_1,10.0,170917888.0,12400.0
janus-inmemory/docker/docker-stats-7.txt,janus-inmemory_janusgraph_1,14.0,339738624.0,13000.0
janus-inmemory/docker/docker-stats-7.txt,janus-inmemory_repoSystem_1,14.0,170498457.6,12500.0
janus-inmemory/docker/docker-stats-7.txt,janus-inmemory_janusgraph_1,17.0,741972377.6,13400.0
janus-inmemory/docker/docker-stats-7.txt,janus-inmemory_repoSystem_1,17.0,170498457.6,13200.0
janus-inmemory/docker/docker-stats-7.txt,janus-inmemory_janusgraph_1,21.0,762943897.6,15400.0
janus-inmemory/docker/docker-stats-7.txt,janus-inmemory_repoSystem_1,21.0,196712857.6,30500.0
janus-inmemory/docker/docker-stats-7.txt,janus-inmemory_janusgraph_1,25.0,767138201.6,168000.0
janus-inmemory/docker/docker-stats-7.txt,janus-inmemory_repoSystem_1,25.0,196922572.8,34200.0
janus-inmemory/docker/docker-stats-7.txt,janus-inmemory_janusgraph_1,29.0,772171366.4,435000.0
janus-inmemory/docker/docker-stats-7.txt,janus-inmemory_repoSystem_1,29.0,197132288.0,40500.0
janus-inmemory/docker/docker-stats-7.txt,janus-inmemory_janusgraph_1,32.0,785278566.4,989000.0
janus-inmemory/docker/docker-stats-7.txt,janus-inmemory_repoSystem_1,32.0,192728268.8,45500.0
janus-inmemory/docker/docker-stats-7.txt,janus-inmemory_janusgraph_1,36.0,799014912.0,1470000.0
janus-inmemory/docker/docker-stats-7.txt,janus-inmemory_repoSystem_1,36.0,192937984.0,53000.0
janus-inmemory/docker/docker-stats-7.txt,janus-inmemory_janusgraph_1,39.0,800378060.8,2330000.0
janus-inmemory/docker/docker-stats-7.txt,janus-inmemory_repoSystem_1,39.0,193462272.0,62000.0
janus-inmemory/docker/docker-stats-7.txt,janus-inmemory_janusgraph_1,43.0,797232332.8,3640000.0
janus-inmemory/docker/docker-stats-7.txt,janus-inmemory_repoSystem_1,43.0,193671987.2,67400.0
janus-inmemory/docker/docker-stats-7.txt,janus-inmemory_janusgraph_1,47.0,897685913.6,5300000.0
janus-inmemory/docker/docker-stats-7.txt,janus-inmemory_repoSystem_1,47.0,193986560.0,75200.0
janus-inmemory/docker/docker-stats-7.txt,janus-inmemory_janusgraph_1,50.0,897685913.6,6800000.0
janus-inmemory/docker/docker-stats-7.txt,janus-inmemory_repoSystem_1,50.0,194091417.6,81500.0
janus-inmemory/docker/docker-stats-7.txt,janus-inmemory_janusgraph_1,54.0,903767654.4,9510000.0
janus-inmemory/docker/docker-stats-7.txt,janus-inmemory_repoSystem_1,54.0,194510848.0,86000.0
janus-inmemory/docker/docker-stats-7.txt,janus-inmemory_janusgraph_1,58.0,903767654.4,11100000.0
janus-inmemory/docker/docker-stats-7.txt,janus-inmemory_repoSystem_1,58.0,194615705.6,95000.0
janus-inmemory/docker/docker-stats-7.txt,janus-inmemory_janusgraph_1,61.0,919496294.4,13300000.0
janus-inmemory/docker/docker-stats-7.txt,janus-inmemory_repoSystem_1,61.0,195035136.0,104000.0
janus-inmemory/docker/docker-stats-7.txt,janus-inmemory_janusgraph_1,65.0,919496294.4,14900000.0
janus-inmemory/docker/docker-stats-7.txt,janus-inmemory_repoSystem_1,65.0,195454566.4,116000.0
janus-inmemory/docker/docker-stats-7.txt,janus-inmemory_janusgraph_1,68.0,925473177.6,16600000.000000002
janus-inmemory/docker/docker-stats-7.txt,janus-inmemory_repoSystem_1,68.0,195559424.0,122000.0
janus-inmemory/docker/docker-stats-7.txt,janus-inmemory_janusgraph_1,72.0,925473177.6,17700000.0
janus-inmemory/docker/docker-stats-7.txt,janus-inmemory_repoSystem_1,72.0,195559424.0,127000.0
janus-inmemory/docker/docker-stats-7.txt,janus-inmemory_janusgraph_1,76.0,925473177.6,18600000.0
janus-inmemory/docker/docker-stats-7.txt,janus-inmemory_repoSystem_1,76.0,195873996.8,135000.0
janus-inmemory/docker/docker-stats-7.txt,janus-inmemory_janusgraph_1,79.0,930086912.0,19700000.0
janus-inmemory/docker/docker-stats-7.txt,janus-inmemory_repoSystem_1,79.0,196083712.0,140000.0
janus-inmemory/docker/docker-stats-7.txt,janus-inmemory_janusgraph_1,83.0,930086912.0,21400000.0
janus-inmemory/docker/docker-stats-7.txt,janus-inmemory_repoSystem_1,83.0,195978854.4,146000.0
janus-inmemory/docker/docker-stats-7.txt,janus-inmemory_janusgraph_1,86.0,930086912.0,22300000.0
janus-inmemory/docker/docker-stats-7.txt,janus-inmemory_repoSystem_1,86.0,196188569.6,158000.0
janus-inmemory/docker/docker-stats-7.txt,janus-inmemory_janusgraph_1,90.0,932184064.0,24200000.0
janus-inmemory/docker/docker-stats-7.txt,janus-inmemory_repoSystem_1,90.0,196293427.2,166000.0
janus-inmemory/docker/docker-stats-7.txt,janus-inmemory_janusgraph_1,94.0,932184064.0,25000000.0
janus-inmemory/docker/docker-stats-7.txt,janus-inmemory_repoSystem_1,94.0,196293427.2,172000.0
janus-inmemory/docker/docker-stats-7.txt,janus-inmemory_janusgraph_1,97.0,935539507.2,26400000.0
janus-inmemory/docker/docker-stats-7.txt,janus-inmemory_repoSystem_1,97.0,196293427.2,176000.0
janus-inmemory/docker/docker-stats-7.txt,janus-inmemory_janusgraph_1,101.0,935434649.6,27700000.0
janus-inmemory/docker/docker-stats-7.txt,janus-inmemory_repoSystem_1,101.0,196293427.2,181000.0
janus-inmemory/docker/docker-stats-7.txt,janus-inmemory_janusgraph_1,104.0,935434649.6,28500000.0
janus-inmemory/docker/docker-stats-7.txt,janus-inmemory_repoSystem_1,104.0,196398284.8,189000.0
janus-inmemory/docker/docker-stats-7.txt,janus-inmemory_janusgraph_1,108.0,937322086.4,30200000.0
janus-inmemory/docker/docker-stats-7.txt,janus-inmemory_repoSystem_1,108.0,196608000.0,196000.0
janus-inmemory/docker/docker-stats-7.txt,janus-inmemory_janusgraph_1,112.0,937322086.4,31700000.0
janus-inmemory/docker/docker-stats-7.txt,janus-inmemory_repoSystem_1,112.0,196922572.8,205000.0
janus-inmemory/docker/docker-stats-7.txt,janus-inmemory_janusgraph_1,115.0,937322086.4,32600000.0
janus-inmemory/docker/docker-stats-7.txt,janus-inmemory_repoSystem_1,115.0,196712857.6,214000.0
janus-inmemory/docker/docker-stats-7.txt,janus-inmemory_janusgraph_1,119.0,938160947.2,34300000.0
janus-inmemory/docker/docker-stats-7.txt,janus-inmemory_repoSystem_1,119.0,196922572.8,220000.0
janus-inmemory/docker/docker-stats-7.txt,janus-inmemory_janusgraph_1,122.0,938265804.8,35400000.0
janus-inmemory/docker/docker-stats-7.txt,janus-inmemory_repoSystem_1,122.0,196922572.8,228000.0
janus-inmemory/docker/docker-stats-7.txt,janus-inmemory_janusgraph_1,126.0,938265804.8,36800000.0
janus-inmemory/docker/docker-stats-7.txt,janus-inmemory_repoSystem_1,126.0,197027430.4,234000.0
janus-inmemory/docker/docker-stats-7.txt,janus-inmemory_janusgraph_1,130.0,940153241.6,37800000.0
janus-inmemory/docker/docker-stats-7.txt,janus-inmemory_repoSystem_1,130.0,197027430.4,240000.0
janus-inmemory/docker/docker-stats-7.txt,janus-inmemory_janusgraph_1,133.0,940153241.6,39000000.0
janus-inmemory/docker/docker-stats-7.txt,janus-inmemory_repoSystem_1,133.0,197132288.0,246000.0
janus-inmemory/docker/docker-stats-7.txt,janus-inmemory_janusgraph_1,137.0,940153241.6,40400000.0
janus-inmemory/docker/docker-stats-7.txt,janus-inmemory_repoSystem_1,137.0,197027430.4,253000.0
janus-inmemory/docker/docker-stats-7.txt,janus-inmemory_janusgraph_1,140.0,941096960.0,41700000.0
janus-inmemory/docker/docker-stats-7.txt,janus-inmemory_repoSystem_1,140.0,197132288.0,263000.0
janus-inmemory/docker/docker-stats-7.txt,janus-inmemory_janusgraph_1,144.0,941096960.0,42700000.0
janus-inmemory/docker/docker-stats-7.txt,janus-inmemory_repoSystem_1,144.0,197342003.2,272000.0
janus-inmemory/docker/docker-stats-7.txt,janus-inmemory_janusgraph_1,148.0,942145536.0,44600000.0
janus-inmemory/docker/docker-stats-7.txt,janus-inmemory_repoSystem_1,148.0,197446860.8,282000.0
janus-inmemory/docker/docker-stats-7.txt,janus-inmemory_janusgraph_1,151.0,941935820.8,45900000.0
janus-inmemory/docker/docker-stats-7.txt,janus-inmemory_repoSystem_1,151.0,197342003.2,288000.0
janus-inmemory/docker/docker-stats-7.txt,janus-inmemory_janusgraph_1,155.0,941935820.8,46900000.0
janus-inmemory/docker/docker-stats-7.txt,janus-inmemory_repoSystem_1,155.0,197342003.2,294000.0
janus-inmemory/docker/docker-stats-7.txt,janus-inmemory_janusgraph_1,158.0,944766976.0,48300000.0
janus-inmemory/docker/docker-stats-7.txt,janus-inmemory_repoSystem_1,158.0,197342003.2,299000.0
janus-inmemory/docker/docker-stats-7.txt,janus-inmemory_janusgraph_1,162.0,944766976.0,49400000.0
janus-inmemory/docker/docker-stats-7.txt,janus-inmemory_repoSystem_1,162.0,197342003.2,304000.0
janus-inmemory/docker/docker-stats-7.txt,janus-inmemory_janusgraph_1,166.0,944766976.0,50400000.0
janus-inmemory/docker/docker-stats-7.txt,janus-inmemory_repoSystem_1,166.0,197342003.2,316000.0
janus-inmemory/docker/docker-stats-7.txt,janus-inmemory_janusgraph_1,169.0,944766976.0,52200000.0
janus-inmemory/docker/docker-stats-7.txt,janus-inmemory_repoSystem_1,169.0,197342003.2,322000.0
janus-inmemory/docker/docker-stats-7.txt,janus-inmemory_janusgraph_1,173.0,944766976.0,53000000.0
janus-inmemory/docker/docker-stats-7.txt,janus-inmemory_repoSystem_1,173.0,197446860.8,330000.0
janus-inmemory/docker/docker-stats-7.txt,janus-inmemory_janusgraph_1,176.0,944766976.0,53000000.0
janus-inmemory/docker/docker-stats-7.txt,janus-inmemory_repoSystem_1,176.0,197551718.4,330000.0
janus-inmemory/docker/docker-stats-8.txt,janus-inmemory_repoSystem_1,0.0,93795123.2,7400.0
janus-inmemory/docker/docker-stats-8.txt,janus-inmemory_janusgraph_1,0.0,83319848.96,3100.0
janus-inmemory/docker/docker-stats-8.txt,janus-inmemory_repoSystem_1,4.0,176370483.2,12100.0
janus-inmemory/docker/docker-stats-8.txt,janus-inmemory_janusgraph_1,4.0,658715443.2,10800.0
janus-inmemory/docker/docker-stats-8.txt,janus-inmemory_repoSystem_1,8.0,176370483.2,12800.0
janus-inmemory/docker/docker-stats-8.txt,janus-inmemory_janusgraph_1,8.0,787585433.6,12700.0
janus-inmemory/docker/docker-stats-8.txt,janus-inmemory_repoSystem_1,11.0,170079027.2,12800.0
janus-inmemory/docker/docker-stats-8.txt,janus-inmemory_janusgraph_1,11.0,64340623.36,12800.0
janus-inmemory/docker/docker-stats-8.txt,janus-inmemory_repoSystem_1,15.0,170079027.2,13600.0
janus-inmemory/docker/docker-stats-8.txt,janus-inmemory_janusgraph_1,15.0,405903769.6,13000.0
janus-inmemory/docker/docker-stats-8.txt,janus-inmemory_repoSystem_1,19.0,170079027.2,13600.0
janus-inmemory/docker/docker-stats-8.txt,janus-inmemory_janusgraph_1,19.0,770913075.2,14500.0
janus-inmemory/docker/docker-stats-8.txt,janus-inmemory_repoSystem_1,22.0,188743680.0,34600.0
janus-inmemory/docker/docker-stats-8.txt,janus-inmemory_janusgraph_1,22.0,766509056.0,19900.0
janus-inmemory/docker/docker-stats-8.txt,janus-inmemory_repoSystem_1,26.0,183081369.6,40700.0
janus-inmemory/docker/docker-stats-8.txt,janus-inmemory_janusgraph_1,26.0,775212236.8,226000.0
janus-inmemory/docker/docker-stats-8.txt,janus-inmemory_repoSystem_1,29.0,183186227.2,44600.0
janus-inmemory/docker/docker-stats-8.txt,janus-inmemory_janusgraph_1,29.0,782237696.0,737000.0
janus-inmemory/docker/docker-stats-8.txt,janus-inmemory_repoSystem_1,33.0,183920230.4,50300.0
janus-inmemory/docker/docker-stats-8.txt,janus-inmemory_janusgraph_1,33.0,783810560.0,1340000.0
janus-inmemory/docker/docker-stats-8.txt,janus-inmemory_repoSystem_1,37.0,184129945.6,57400.0
janus-inmemory/docker/docker-stats-8.txt,janus-inmemory_janusgraph_1,37.0,784859136.0,2200000.0
janus-inmemory/docker/docker-stats-8.txt,janus-inmemory_repoSystem_1,40.0,184549376.0,64000.0
janus-inmemory/docker/docker-stats-8.txt,janus-inmemory_janusgraph_1,40.0,785907712.0,3250000.0
janus-inmemory/docker/docker-stats-8.txt,janus-inmemory_repoSystem_1,44.0,185073664.0,73800.0
janus-inmemory/docker/docker-stats-8.txt,janus-inmemory_janusgraph_1,44.0,795030323.2,4810000.0
janus-inmemory/docker/docker-stats-8.txt,janus-inmemory_repoSystem_1,48.0,185178521.6,79500.0
janus-inmemory/docker/docker-stats-8.txt,janus-inmemory_janusgraph_1,48.0,795135180.8,6910000.0
janus-inmemory/docker/docker-stats-8.txt,janus-inmemory_repoSystem_1,51.0,185283379.2,86700.0
janus-inmemory/docker/docker-stats-8.txt,janus-inmemory_janusgraph_1,51.0,906703667.2,8400000.0
janus-inmemory/docker/docker-stats-8.txt,janus-inmemory_repoSystem_1,55.0,185493094.4,92600.0
janus-inmemory/docker/docker-stats-8.txt,janus-inmemory_janusgraph_1,55.0,906703667.2,10600000.0
janus-inmemory/docker/docker-stats-8.txt,janus-inmemory_repoSystem_1,58.0,185807667.2,100000.0
janus-inmemory/docker/docker-stats-8.txt,janus-inmemory_janusgraph_1,58.0,923480883.2,12600000.0
janus-inmemory/docker/docker-stats-8.txt,janus-inmemory_repoSystem_1,62.0,186436812.8,112000.0
janus-inmemory/docker/docker-stats-8.txt,janus-inmemory_janusgraph_1,62.0,923480883.2,14100000.0
janus-inmemory/docker/docker-stats-8.txt,janus-inmemory_repoSystem_1,66.0,186331955.2,118000.0
janus-inmemory/docker/docker-stats-8.txt,janus-inmemory_janusgraph_1,66.0,929352908.8,15900000.0
janus-inmemory/docker/docker-stats-8.txt,janus-inmemory_repoSystem_1,69.0,186541670.4,125000.0
janus-inmemory/docker/docker-stats-8.txt,janus-inmemory_janusgraph_1,69.0,929352908.8,17000000.0
janus-inmemory/docker/docker-stats-8.txt,janus-inmemory_repoSystem_1,73.0,187065958.4,136000.0
janus-inmemory/docker/docker-stats-8.txt,janus-inmemory_janusgraph_1,73.0,929352908.8,18000000.0
janus-inmemory/docker/docker-stats-8.txt,janus-inmemory_repoSystem_1,76.0,186961100.8,139000.0
janus-inmemory/docker/docker-stats-8.txt,janus-inmemory_janusgraph_1,76.0,933337497.6,19600000.0
janus-inmemory/docker/docker-stats-8.txt,janus-inmemory_repoSystem_1,80.0,186961100.8,145000.0
janus-inmemory/docker/docker-stats-8.txt,janus-inmemory_janusgraph_1,80.0,933337497.6,20700000.0
janus-inmemory/docker/docker-stats-8.txt,janus-inmemory_repoSystem_1,84.0,186961100.8,149000.0
janus-inmemory/docker/docker-stats-8.txt,janus-inmemory_janusgraph_1,84.0,933337497.6,22000000.0
janus-inmemory/docker/docker-stats-8.txt,janus-inmemory_repoSystem_1,87.0,186961100.8,155000.0
janus-inmemory/docker/docker-stats-8.txt,janus-inmemory_janusgraph_1,87.0,935015219.2,23100000.0
janus-inmemory/docker/docker-stats-8.txt,janus-inmemory_repoSystem_1,91.0,187380531.2,163000.0
janus-inmemory/docker/docker-stats-8.txt,janus-inmemory_janusgraph_1,91.0,935015219.2,24400000.0
janus-inmemory/docker/docker-stats-8.txt,janus-inmemory_repoSystem_1,94.0,187275673.6,170000.0
janus-inmemory/docker/docker-stats-8.txt,janus-inmemory_janusgraph_1,94.0,935015219.2,25100000.0
janus-inmemory/docker/docker-stats-8.txt,janus-inmemory_repoSystem_1,98.0,187380531.2,175000.0
janus-inmemory/docker/docker-stats-8.txt,janus-inmemory_janusgraph_1,98.0,935224934.4,26700000.0
janus-inmemory/docker/docker-stats-8.txt,janus-inmemory_repoSystem_1,102.0,187485388.8,181000.0
janus-inmemory/docker/docker-stats-8.txt,janus-inmemory_janusgraph_1,102.0,935224934.4,28000000.0
janus-inmemory/docker/docker-stats-8.txt,janus-inmemory_repoSystem_1,105.0,187695104.0,187000.0
janus-inmemory/docker/docker-stats-8.txt,janus-inmemory_janusgraph_1,105.0,935224934.4,28700000.0
janus-inmemory/docker/docker-stats-8.txt,janus-inmemory_repoSystem_1,109.0,187590246.4,193000.0
janus-inmemory/docker/docker-stats-8.txt,janus-inmemory_janusgraph_1,109.0,935224934.4,29900000.0
janus-inmemory/docker/docker-stats-8.txt,janus-inmemory_repoSystem_1,113.0,187799961.6,199000.0
janus-inmemory/docker/docker-stats-8.txt,janus-inmemory_janusgraph_1,113.0,935224934.4,31100000.0
janus-inmemory/docker/docker-stats-8.txt,janus-inmemory_repoSystem_1,116.0,187799961.6,206000.0
janus-inmemory/docker/docker-stats-8.txt,janus-inmemory_janusgraph_1,116.0,935224934.4,32200000.000000004
janus-inmemory/docker/docker-stats-8.txt,janus-inmemory_repoSystem_1,120.0,187799961.6,214000.0
janus-inmemory/docker/docker-stats-8.txt,janus-inmemory_janusgraph_1,120.0,935224934.4,33500000.0
janus-inmemory/docker/docker-stats-8.txt,janus-inmemory_repoSystem_1,123.0,187904819.2,219000.0
janus-inmemory/docker/docker-stats-8.txt,janus-inmemory_janusgraph_1,123.0,935224934.4,34600000.0
janus-inmemory/docker/docker-stats-8.txt,janus-inmemory_repoSystem_1,127.0,188219392.0,229000.0
janus-inmemory/docker/docker-stats-8.txt,janus-inmemory_janusgraph_1,127.0,935224934.4,36300000.0
janus-inmemory/docker/docker-stats-8.txt,janus-inmemory_repoSystem_1,131.0,188009676.8,239000.0
janus-inmemory/docker/docker-stats-8.txt,janus-inmemory_janusgraph_1,131.0,935224934.4,37400000.0
janus-inmemory/docker/docker-stats-8.txt,janus-inmemory_repoSystem_1,134.0,188009676.8,242000.0
janus-inmemory/docker/docker-stats-8.txt,janus-inmemory_janusgraph_1,134.0,935224934.4,38900000.0
janus-inmemory/docker/docker-stats-8.txt,janus-inmemory_repoSystem_1,138.0,188009676.8,250000.0
janus-inmemory/docker/docker-stats-8.txt,janus-inmemory_janusgraph_1,138.0,935224934.4,39700000.0
janus-inmemory/docker/docker-stats-8.txt,janus-inmemory_repoSystem_1,141.0,188009676.8,255000.0
janus-inmemory/docker/docker-stats-8.txt,janus-inmemory_janusgraph_1,141.0,935224934.4,40900000.0
janus-inmemory/docker/docker-stats-8.txt,janus-inmemory_repoSystem_1,145.0,188219392.0,259000.0
janus-inmemory/docker/docker-stats-8.txt,janus-inmemory_janusgraph_1,145.0,935224934.4,42500000.0
janus-inmemory/docker/docker-stats-8.txt,janus-inmemory_repoSystem_1,149.0,188429107.2,273000.0
janus-inmemory/docker/docker-stats-8.txt,janus-inmemory_janusgraph_1,149.0,935224934.4,43500000.0
janus-inmemory/docker/docker-stats-8.txt,janus-inmemory_repoSystem_1,152.0,188324249.6,280000.0
janus-inmemory/docker/docker-stats-8.txt,janus-inmemory_janusgraph_1,152.0,935224934.4,44900000.0
janus-inmemory/docker/docker-stats-8.txt,janus-inmemory_repoSystem_1,156.0,188533964.8,288000.0
janus-inmemory/docker/docker-stats-8.txt,janus-inmemory_janusgraph_1,156.0,935224934.4,46100000.0
janus-inmemory/docker/docker-stats-8.txt,janus-inmemory_repoSystem_1,159.0,188638822.4,299000.0
janus-inmemory/docker/docker-stats-8.txt,janus-inmemory_janusgraph_1,159.0,935224934.4,47600000.0
janus-inmemory/docker/docker-stats-8.txt,janus-inmemory_repoSystem_1,163.0,188848537.6,304000.0
janus-inmemory/docker/docker-stats-8.txt,janus-inmemory_janusgraph_1,163.0,935224934.4,49300000.0
janus-inmemory/docker/docker-stats-8.txt,janus-inmemory_repoSystem_1,167.0,188743680.0,311000.0
janus-inmemory/docker/docker-stats-8.txt,janus-inmemory_janusgraph_1,167.0,935224934.4,50100000.0
janus-inmemory/docker/docker-stats-8.txt,janus-inmemory_repoSystem_1,170.0,188743680.0,322000.0
janus-inmemory/docker/docker-stats-8.txt,janus-inmemory_janusgraph_1,170.0,935224934.4,51400000.0
janus-inmemory/docker/docker-stats-8.txt,janus-inmemory_repoSystem_1,174.0,188638822.4,324000.0
janus-inmemory/docker/docker-stats-8.txt,janus-inmemory_janusgraph_1,174.0,935224934.4,52100000.0
janus-inmemory/docker/docker-stats-9.txt,janus-inmemory_repoSystem_1,0.0,89013616.64,7330.0
janus-inmemory/docker/docker-stats-9.txt,janus-inmemory_janusgraph_1,0.0,85301657.6,4370.0
janus-inmemory/docker/docker-stats-9.txt,janus-inmemory_repoSystem_1,4.0,159698124.8,11300.0
janus-inmemory/docker/docker-stats-9.txt,janus-inmemory_janusgraph_1,4.0,643406233.6,11200.0
janus-inmemory/docker/docker-stats-9.txt,janus-inmemory_repoSystem_1,7.0,178467635.2,11900.0
janus-inmemory/docker/docker-stats-9.txt,janus-inmemory_janusgraph_1,7.0,758959308.8,12300.0
janus-inmemory/docker/docker-stats-9.txt,janus-inmemory_repoSystem_1,11.0,163158425.6,11900.0
janus-inmemory/docker/docker-stats-9.txt,janus-inmemory_janusgraph_1,11.0,781923123.2,12300.0
janus-inmemory/docker/docker-stats-9.txt,janus-inmemory_repoSystem_1,14.0,163158425.6,12700.0
janus-inmemory/docker/docker-stats-9.txt,janus-inmemory_janusgraph_1,14.0,680630681.6,12800.0
janus-inmemory/docker/docker-stats-9.txt,janus-inmemory_repoSystem_1,18.0,172176179.2,16900.0
janus-inmemory/docker/docker-stats-9.txt,janus-inmemory_janusgraph_1,18.0,755184435.2,13100.0
janus-inmemory/docker/docker-stats-9.txt,janus-inmemory_repoSystem_1,22.0,178887065.6,34200.0
janus-inmemory/docker/docker-stats-9.txt,janus-inmemory_janusgraph_1,22.0,754555289.6,20300.0
janus-inmemory/docker/docker-stats-9.txt,janus-inmemory_repoSystem_1,25.0,179096780.8,38500.0
janus-inmemory/docker/docker-stats-9.txt,janus-inmemory_janusgraph_1,25.0,764831334.4,337000.0
janus-inmemory/docker/docker-stats-9.txt,janus-inmemory_repoSystem_1,29.0,179201638.4,43500.0
janus-inmemory/docker/docker-stats-9.txt,janus-inmemory_janusgraph_1,29.0,770808217.6,773000.0
janus-inmemory/docker/docker-stats-9.txt,janus-inmemory_repoSystem_1,32.0,180879360.0,50800.0
janus-inmemory/docker/docker-stats-9.txt,janus-inmemory_janusgraph_1,32.0,779721113.6,1150000.0
janus-inmemory/docker/docker-stats-9.txt,janus-inmemory_repoSystem_1,35.0,181193932.8,56600.0
janus-inmemory/docker/docker-stats-9.txt,janus-inmemory_janusgraph_1,35.0,794296320.0,1600000.0
janus-inmemory/docker/docker-stats-9.txt,janus-inmemory_repoSystem_1,39.0,181508505.6,64599.99999999999
janus-inmemory/docker/docker-stats-9.txt,janus-inmemory_janusgraph_1,39.0,795659468.8,2430000.0
janus-inmemory/docker/docker-stats-9.txt,janus-inmemory_repoSystem_1,42.0,181823078.4,72500.0
janus-inmemory/docker/docker-stats-9.txt,janus-inmemory_janusgraph_1,42.0,798490624.0,3610000.0
janus-inmemory/docker/docker-stats-9.txt,janus-inmemory_repoSystem_1,46.0,182347366.4,84600.0
janus-inmemory/docker/docker-stats-9.txt,janus-inmemory_janusgraph_1,46.0,910478540.8,5210000.0
janus-inmemory/docker/docker-stats-9.txt,janus-inmemory_repoSystem_1,50.0,182557081.6,92800.0
janus-inmemory/docker/docker-stats-9.txt,janus-inmemory_janusgraph_1,50.0,910478540.8,7190000.0
janus-inmemory/docker/docker-stats-9.txt,janus-inmemory_repoSystem_1,53.0,182871654.4,100000.0
janus-inmemory/docker/docker-stats-9.txt,janus-inmemory_janusgraph_1,53.0,916035993.6,8690000.0
janus-inmemory/docker/docker-stats-9.txt,janus-inmemory_repoSystem_1,57.0,182871654.4,105000.0
janus-inmemory/docker/docker-stats-9.txt,janus-inmemory_janusgraph_1,57.0,915721420.8,10900000.0
janus-inmemory/docker/docker-stats-9.txt,janus-inmemory_repoSystem_1,60.0,183186227.2,112000.0
janus-inmemory/docker/docker-stats-9.txt,janus-inmemory_janusgraph_1,60.0,925473177.6,13100000.0
janus-inmemory/docker/docker-stats-9.txt,janus-inmemory_repoSystem_1,64.0,183500800.0,122000.0
janus-inmemory/docker/docker-stats-9.txt,janus-inmemory_janusgraph_1,64.0,925473177.6,15300000.0
janus-inmemory/docker/docker-stats-9.txt,janus-inmemory_repoSystem_1,68.0,183710515.2,130000.0
janus-inmemory/docker/docker-stats-9.txt,janus-inmemory_janusgraph_1,68.0,931764633.6,17100000.0
janus-inmemory/docker/docker-stats-9.txt,janus-inmemory_repoSystem_1,71.0,183920230.4,139000.0
janus-inmemory/docker/docker-stats-9.txt,janus-inmemory_janusgraph_1,71.0,931764633.6,18100000.0
janus-inmemory/docker/docker-stats-9.txt,janus-inmemory_repoSystem_1,75.0,184025088.0,146000.0
janus-inmemory/docker/docker-stats-9.txt,janus-inmemory_janusgraph_1,75.0,937846374.4,19800000.0
janus-inmemory/docker/docker-stats-9.txt,janus-inmemory_repoSystem_1,78.0,184339660.8,159000.0
janus-inmemory/docker/docker-stats-9.txt,janus-inmemory_janusgraph_1,78.0,937846374.4,20900000.0
janus-inmemory/docker/docker-stats-9.txt,janus-inmemory_repoSystem_1,82.0,184339660.8,167000.0
janus-inmemory/docker/docker-stats-9.txt,janus-inmemory_janusgraph_1,82.0,937846374.4,22200000.0
janus-inmemory/docker/docker-stats-9.txt,janus-inmemory_repoSystem_1,86.0,184549376.0,173000.0
janus-inmemory/docker/docker-stats-9.txt,janus-inmemory_janusgraph_1,86.0,941726105.6,23500000.0
janus-inmemory/docker/docker-stats-9.txt,janus-inmemory_repoSystem_1,89.0,184654233.6,179000.0
janus-inmemory/docker/docker-stats-9.txt,janus-inmemory_janusgraph_1,89.0,941726105.6,24600000.0
janus-inmemory/docker/docker-stats-9.txt,janus-inmemory_repoSystem_1,93.0,184549376.0,185000.0
janus-inmemory/docker/docker-stats-9.txt,janus-inmemory_janusgraph_1,93.0,941726105.6,25700000.0
janus-inmemory/docker/docker-stats-9.txt,janus-inmemory_repoSystem_1,96.0,184759091.2,194000.0
janus-inmemory/docker/docker-stats-9.txt,janus-inmemory_janusgraph_1,96.0,945081548.8,27200000.0
janus-inmemory/docker/docker-stats-9.txt,janus-inmemory_repoSystem_1,100.0,184759091.2,203000.0
janus-inmemory/docker/docker-stats-9.txt,janus-inmemory_janusgraph_1,100.0,945081548.8,28600000.0
janus-inmemory/docker/docker-stats-9.txt,janus-inmemory_repoSystem_1,104.0,184968806.4,211000.0
janus-inmemory/docker/docker-stats-9.txt,janus-inmemory_janusgraph_1,104.0,945710694.4,30500000.0
janus-inmemory/docker/docker-stats-9.txt,janus-inmemory_repoSystem_1,107.0,184968806.4,222000.0
janus-inmemory/docker/docker-stats-9.txt,janus-inmemory_janusgraph_1,107.0,945710694.4,31500000.0
janus-inmemory/docker/docker-stats-9.txt,janus-inmemory_repoSystem_1,111.0,184968806.4,232000.0
janus-inmemory/docker/docker-stats-9.txt,janus-inmemory_janusgraph_1,111.0,945815552.0,33400000.0
janus-inmemory/docker/docker-stats-9.txt,janus-inmemory_repoSystem_1,114.0,185073664.0,238000.0
janus-inmemory/docker/docker-stats-9.txt,janus-inmemory_janusgraph_1,114.0,946234982.4,34600000.0
janus-inmemory/docker/docker-stats-9.txt,janus-inmemory_repoSystem_1,118.0,185283379.2,247000.0
janus-inmemory/docker/docker-stats-9.txt,janus-inmemory_janusgraph_1,118.0,946234982.4,36000000.0
janus-inmemory/docker/docker-stats-9.txt,janus-inmemory_repoSystem_1,122.0,185178521.6,256000.0
janus-inmemory/docker/docker-stats-9.txt,janus-inmemory_janusgraph_1,122.0,946549555.2,37500000.0
janus-inmemory/docker/docker-stats-9.txt,janus-inmemory_repoSystem_1,125.0,185178521.6,263000.0
janus-inmemory/docker/docker-stats-9.txt,janus-inmemory_janusgraph_1,125.0,946339840.0,38100000.0
janus-inmemory/docker/docker-stats-9.txt,janus-inmemory_repoSystem_1,129.0,185178521.6,267000.0
janus-inmemory/docker/docker-stats-9.txt,janus-inmemory_janusgraph_1,129.0,946339840.0,39700000.0
janus-inmemory/docker/docker-stats-9.txt,janus-inmemory_repoSystem_1,132.0,185178521.6,272000.0
janus-inmemory/docker/docker-stats-9.txt,janus-inmemory_janusgraph_1,132.0,946339840.0,40800000.0
janus-inmemory/docker/docker-stats-9.txt,janus-inmemory_repoSystem_1,136.0,185283379.2,280000.0
janus-inmemory/docker/docker-stats-9.txt,janus-inmemory_janusgraph_1,136.0,949170995.2,41800000.0
janus-inmemory/docker/docker-stats-9.txt,janus-inmemory_repoSystem_1,140.0,185283379.2,286000.0
janus-inmemory/docker/docker-stats-9.txt,janus-inmemory_janusgraph_1,140.0,949170995.2,42900000.0
janus-inmemory/docker/docker-stats-9.txt,janus-inmemory_repoSystem_1,142.0,185283379.2,290000.0
janus-inmemory/docker/docker-stats-9.txt,janus-inmemory_janusgraph_1,142.0,949170995.2,44000000.0
janus-inmemory/docker/docker-stats-9.txt,janus-inmemory_repoSystem_1,146.0,185283379.2,295000.0
janus-inmemory/docker/docker-stats-9.txt,janus-inmemory_janusgraph_1,146.0,949275852.8,45300000.0
janus-inmemory/docker/docker-stats-9.txt,janus-inmemory_repoSystem_1,149.0,185283379.2,305000.0
janus-inmemory/docker/docker-stats-9.txt,janus-inmemory_janusgraph_1,149.0,949275852.8,46200000.0
janus-inmemory/docker/docker-stats-9.txt,janus-inmemory_repoSystem_1,153.0,185283379.2,312000.0
janus-inmemory/docker/docker-stats-9.txt,janus-inmemory_janusgraph_1,153.0,949275852.8,47700000.0
janus-inmemory/docker/docker-stats-9.txt,janus-inmemory_repoSystem_1,157.0,185283379.2,315000.0
janus-inmemory/docker/docker-stats-9.txt,janus-inmemory_janusgraph_1,157.0,949800140.8,49100000.0
janus-inmemory/docker/docker-stats-9.txt,janus-inmemory_repoSystem_1,160.0,185283379.2,321000.0
janus-inmemory/docker/docker-stats-9.txt,janus-inmemory_janusgraph_1,160.0,949800140.8,50300000.0
janus-inmemory/docker/docker-stats-9.txt,janus-inmemory_repoSystem_1,164.0,185283379.2,329000.0
janus-inmemory/docker/docker-stats-9.txt,janus-inmemory_janusgraph_1,164.0,949800140.8,51100000.0
janus-inmemory/docker/docker-stats-9.txt,janus-inmemory_repoSystem_1,167.0,185493094.4,336000.0
janus-inmemory/docker/docker-stats-9.txt,janus-inmemory_janusgraph_1,167.0,951373004.8,52500000.0
janus-inmemory/docker/docker-stats-9.txt,janus-inmemory_repoSystem_1,171.0,185388236.8,340000.0
janus-inmemory/docker/docker-stats-9.txt,janus-inmemory_janusgraph_1,171.0,951477862.4,53400000.0
janus-inmemory/docker/docker-stats-9.txt,janus-inmemory_repoSystem_1,175.0,185493094.4,340000.0
janus-inmemory/docker/docker-stats-9.txt,janus-inmemory_janusgraph_1,175.0,951477862.4,53400000.0
