file,machine,seconds,memory_bytes,netIO_bytes
cdo/docker/docker-stats-10.txt,cdo_repoHistory_1,0.0,62704844.8,1620.0
cdo/docker/docker-stats-10.txt,cdo_repoSystem_1,0.0,89066045.44,7390.0
cdo/docker/docker-stats-10.txt,cdo_repoHistory_1,4.0,178467635.2,11500.0
cdo/docker/docker-stats-10.txt,cdo_repoSystem_1,4.0,171337318.4,10900.0
cdo/docker/docker-stats-10.txt,cdo_repoHistory_1,7.0,178467635.2,12500.0
cdo/docker/docker-stats-10.txt,cdo_repoSystem_1,7.0,184339660.8,12500.0
cdo/docker/docker-stats-10.txt,cdo_repoHistory_1,11.0,169030451.2,12600.0
cdo/docker/docker-stats-10.txt,cdo_repoSystem_1,11.0,178677350.4,12500.0
cdo/docker/docker-stats-10.txt,cdo_repoHistory_1,14.0,169030451.2,13000.0
cdo/docker/docker-stats-10.txt,cdo_repoSystem_1,14.0,178677350.4,12800.0
cdo/docker/docker-stats-10.txt,cdo_repoHistory_1,18.0,185178521.6,17400.0
cdo/docker/docker-stats-10.txt,cdo_repoSystem_1,18.0,178677350.4,13300.0
cdo/docker/docker-stats-10.txt,cdo_repoHistory_1,22.0,178991923.2,17400.0
cdo/docker/docker-stats-10.txt,cdo_repoSystem_1,22.0,192728268.8,33500.0
cdo/docker/docker-stats-10.txt,cdo_repoHistory_1,25.0,178991923.2,17500.0
cdo/docker/docker-stats-10.txt,cdo_repoSystem_1,25.0,192937984.0,38000.0
cdo/docker/docker-stats-10.txt,cdo_repoHistory_1,29.0,187590246.4,870000.0
cdo/docker/docker-stats-10.txt,cdo_repoSystem_1,29.0,193042841.6,43300.0
cdo/docker/docker-stats-10.txt,cdo_repoHistory_1,32.0,195139993.6,872000.0
cdo/docker/docker-stats-10.txt,cdo_repoSystem_1,32.0,193881702.4,50900.0
cdo/docker/docker-stats-10.txt,cdo_repoHistory_1,36.0,186541670.4,872000.0
cdo/docker/docker-stats-10.txt,cdo_repoSystem_1,36.0,194196275.2,56500.0
cdo/docker/docker-stats-10.txt,cdo_repoHistory_1,40.0,246205644.8,1600000.0
cdo/docker/docker-stats-10.txt,cdo_repoSystem_1,40.0,194615705.6,64800.0
cdo/docker/docker-stats-10.txt,cdo_repoHistory_1,43.0,236873318.4,1600000.0
cdo/docker/docker-stats-10.txt,cdo_repoSystem_1,43.0,195035136.0,72700.0
cdo/docker/docker-stats-10.txt,cdo_repoHistory_1,47.0,236873318.4,1600000.0
cdo/docker/docker-stats-10.txt,cdo_repoSystem_1,47.0,195244851.2,78800.0
cdo/docker/docker-stats-10.txt,cdo_repoHistory_1,51.0,236873318.4,1600000.0
cdo/docker/docker-stats-10.txt,cdo_repoSystem_1,51.0,195244851.2,85600.0
cdo/docker/docker-stats-10.txt,cdo_repoHistory_1,54.0,268016025.6,2440000.0
cdo/docker/docker-stats-10.txt,cdo_repoSystem_1,54.0,195559424.0,89700.0
cdo/docker/docker-stats-10.txt,cdo_repoHistory_1,58.0,268016025.6,2450000.0
cdo/docker/docker-stats-10.txt,cdo_repoSystem_1,58.0,195769139.2,98900.0
cdo/docker/docker-stats-10.txt,cdo_repoHistory_1,62.0,277767782.4,3220000.0
cdo/docker/docker-stats-10.txt,cdo_repoSystem_1,62.0,196188569.6,109000.0
cdo/docker/docker-stats-10.txt,cdo_repoHistory_1,65.0,272839475.2,3220000.0
cdo/docker/docker-stats-10.txt,cdo_repoSystem_1,65.0,196293427.2,115000.0
cdo/docker/docker-stats-10.txt,cdo_repoHistory_1,69.0,272839475.2,3220000.0
cdo/docker/docker-stats-10.txt,cdo_repoSystem_1,69.0,196188569.6,121000.0
cdo/docker/docker-stats-10.txt,cdo_repoHistory_1,72.0,272839475.2,3220000.0
cdo/docker/docker-stats-10.txt,cdo_repoSystem_1,72.0,196398284.8,128000.0
cdo/docker/docker-stats-10.txt,cdo_repoHistory_1,76.0,315726233.6,3960000.0
cdo/docker/docker-stats-10.txt,cdo_repoSystem_1,76.0,196608000.0,134000.0
cdo/docker/docker-stats-10.txt,cdo_repoHistory_1,80.0,315726233.6,3960000.0
cdo/docker/docker-stats-10.txt,cdo_repoSystem_1,80.0,197132288.0,146000.0
cdo/docker/docker-stats-10.txt,cdo_repoHistory_1,83.0,323485696.0,4790000.0
cdo/docker/docker-stats-10.txt,cdo_repoSystem_1,83.0,196922572.8,150000.0
cdo/docker/docker-stats-10.txt,cdo_repoHistory_1,87.0,323485696.0,4790000.0
cdo/docker/docker-stats-10.txt,cdo_repoSystem_1,87.0,197132288.0,157000.0
cdo/docker/docker-stats-10.txt,cdo_repoHistory_1,91.0,323485696.0,4790000.0
cdo/docker/docker-stats-10.txt,cdo_repoSystem_1,91.0,197027430.4,161000.0
cdo/docker/docker-stats-10.txt,cdo_repoHistory_1,94.0,348336947.2,5460000.0
cdo/docker/docker-stats-10.txt,cdo_repoSystem_1,94.0,197132288.0,168000.0
cdo/docker/docker-stats-10.txt,cdo_repoHistory_1,98.0,348336947.2,5460000.0
cdo/docker/docker-stats-10.txt,cdo_repoSystem_1,98.0,197446860.8,179000.0
cdo/docker/docker-stats-10.txt,cdo_repoHistory_1,102.0,348336947.2,5460000.0
cdo/docker/docker-stats-10.txt,cdo_repoSystem_1,102.0,197656576.0,187000.0
cdo/docker/docker-stats-10.txt,cdo_repoHistory_1,105.0,353055539.2,6310000.0
cdo/docker/docker-stats-10.txt,cdo_repoSystem_1,105.0,197551718.4,195000.0
cdo/docker/docker-stats-10.txt,cdo_repoHistory_1,109.0,349385523.2,6310000.0
cdo/docker/docker-stats-10.txt,cdo_repoSystem_1,109.0,197761433.6,199000.0
cdo/docker/docker-stats-10.txt,cdo_repoHistory_1,113.0,349280665.6,6310000.0
cdo/docker/docker-stats-10.txt,cdo_repoSystem_1,113.0,197551718.4,205000.0
cdo/docker/docker-stats-10.txt,cdo_repoHistory_1,116.0,350853529.6,7060000.0
cdo/docker/docker-stats-10.txt,cdo_repoSystem_1,116.0,197971148.8,214000.0
cdo/docker/docker-stats-10.txt,cdo_repoHistory_1,120.0,350853529.6,7060000.0
cdo/docker/docker-stats-10.txt,cdo_repoSystem_1,120.0,198076006.4,230000.0
cdo/docker/docker-stats-10.txt,cdo_repoHistory_1,123.0,350853529.6,7060000.0
cdo/docker/docker-stats-10.txt,cdo_repoSystem_1,123.0,198076006.4,238000.0
cdo/docker/docker-stats-10.txt,cdo_repoHistory_1,127.0,350853529.6,7060000.0
cdo/docker/docker-stats-10.txt,cdo_repoSystem_1,127.0,197971148.8,241000.0
cdo/docker/docker-stats-10.txt,cdo_repoHistory_1,131.0,369623040.0,8070000.0
cdo/docker/docker-stats-10.txt,cdo_repoSystem_1,131.0,197971148.8,248000.0
cdo/docker/docker-stats-10.txt,cdo_repoHistory_1,134.0,369623040.0,8070000.0
cdo/docker/docker-stats-10.txt,cdo_repoSystem_1,134.0,197971148.8,252000.0
cdo/docker/docker-stats-10.txt,cdo_repoHistory_1,138.0,369623040.0,8070000.0
cdo/docker/docker-stats-10.txt,cdo_repoSystem_1,138.0,198180864.0,258000.0
cdo/docker/docker-stats-10.txt,cdo_repoHistory_1,141.0,389650841.6,8800000.0
cdo/docker/docker-stats-10.txt,cdo_repoSystem_1,141.0,198076006.4,269000.0
cdo/docker/docker-stats-10.txt,cdo_repoHistory_1,145.0,389650841.6,8800000.0
cdo/docker/docker-stats-10.txt,cdo_repoSystem_1,145.0,198285721.6,278000.0
cdo/docker/docker-stats-10.txt,cdo_repoHistory_1,149.0,389650841.6,8800000.0
cdo/docker/docker-stats-10.txt,cdo_repoSystem_1,149.0,198285721.6,287000.0
cdo/docker/docker-stats-10.txt,cdo_repoHistory_1,152.0,390175129.6,9690000.0
cdo/docker/docker-stats-10.txt,cdo_repoSystem_1,152.0,198390579.2,300000.0
cdo/docker/docker-stats-10.txt,cdo_repoHistory_1,156.0,383778816.0,9690000.0
cdo/docker/docker-stats-10.txt,cdo_repoSystem_1,156.0,198390579.2,311000.0
cdo/docker/docker-stats-10.txt,cdo_repoHistory_1,160.0,383778816.0,9690000.0
cdo/docker/docker-stats-10.txt,cdo_repoSystem_1,160.0,198390579.2,314000.0
cdo/docker/docker-stats-10.txt,cdo_repoHistory_1,163.0,384303104.0,10500000.0
cdo/docker/docker-stats-10.txt,cdo_repoSystem_1,163.0,198390579.2,321000.0
cdo/docker/docker-stats-10.txt,cdo_repoHistory_1,167.0,384303104.0,10500000.0
cdo/docker/docker-stats-10.txt,cdo_repoSystem_1,167.0,198390579.2,333000.0
cdo/docker/docker-stats-10.txt,cdo_repoHistory_1,170.0,384303104.0,10500000.0
cdo/docker/docker-stats-10.txt,cdo_repoSystem_1,170.0,198390579.2,339000.0
cdo/docker/docker-stats-1.txt,cdo_repoSystem_1,0.0,115448217.6,9390.0
cdo/docker/docker-stats-1.txt,cdo_repoHistory_1,0.0,80981524.48,7750.0
cdo/docker/docker-stats-1.txt,cdo_repoSystem_1,4.0,146590924.8,12300.0
cdo/docker/docker-stats-1.txt,cdo_repoHistory_1,4.0,183500800.0,12500.0
cdo/docker/docker-stats-1.txt,cdo_repoSystem_1,8.0,145332633.6,13100.0
cdo/docker/docker-stats-1.txt,cdo_repoHistory_1,8.0,183500800.0,12900.0
cdo/docker/docker-stats-1.txt,cdo_repoSystem_1,11.0,144913203.2,13400.0
cdo/docker/docker-stats-1.txt,cdo_repoHistory_1,11.0,177838489.6,12900.0
cdo/docker/docker-stats-1.txt,cdo_repoSystem_1,15.0,144913203.2,13900.0
cdo/docker/docker-stats-1.txt,cdo_repoHistory_1,15.0,177838489.6,13700.0
cdo/docker/docker-stats-1.txt,cdo_repoSystem_1,18.0,180669644.8,17700.0
cdo/docker/docker-stats-1.txt,cdo_repoHistory_1,18.0,181927936.0,19400.0
cdo/docker/docker-stats-1.txt,cdo_repoSystem_1,22.0,187380531.2,37900.0
cdo/docker/docker-stats-1.txt,cdo_repoHistory_1,22.0,181927936.0,19400.0
cdo/docker/docker-stats-1.txt,cdo_repoSystem_1,26.0,169764454.4,42900.0
cdo/docker/docker-stats-1.txt,cdo_repoHistory_1,26.0,181927936.0,19700.0
cdo/docker/docker-stats-1.txt,cdo_repoSystem_1,30.0,170603315.2,48100.0
cdo/docker/docker-stats-1.txt,cdo_repoHistory_1,30.0,196503142.4,862000.0
cdo/docker/docker-stats-1.txt,cdo_repoSystem_1,33.0,175951052.8,54100.0
cdo/docker/docker-stats-1.txt,cdo_repoHistory_1,33.0,195769139.2,863000.0
cdo/docker/docker-stats-1.txt,cdo_repoSystem_1,37.0,176370483.2,61200.0
cdo/docker/docker-stats-1.txt,cdo_repoHistory_1,37.0,195769139.2,863000.0
cdo/docker/docker-stats-1.txt,cdo_repoSystem_1,40.0,176685056.0,70500.0
cdo/docker/docker-stats-1.txt,cdo_repoHistory_1,40.0,236663603.2,1540000.0
cdo/docker/docker-stats-1.txt,cdo_repoSystem_1,44.0,176999628.8,76800.0
cdo/docker/docker-stats-1.txt,cdo_repoHistory_1,44.0,236663603.2,1540000.0
cdo/docker/docker-stats-1.txt,cdo_repoSystem_1,48.0,177209344.0,87500.0
cdo/docker/docker-stats-1.txt,cdo_repoHistory_1,48.0,236663603.2,1540000.0
cdo/docker/docker-stats-1.txt,cdo_repoSystem_1,51.0,177628774.4,98900.0
cdo/docker/docker-stats-1.txt,cdo_repoHistory_1,51.0,248407654.4,2320000.0
cdo/docker/docker-stats-1.txt,cdo_repoSystem_1,55.0,177838489.6,105000.0
cdo/docker/docker-stats-1.txt,cdo_repoHistory_1,55.0,248407654.4,2320000.0
cdo/docker/docker-stats-1.txt,cdo_repoSystem_1,59.0,177943347.2,111000.0
cdo/docker/docker-stats-1.txt,cdo_repoHistory_1,59.0,248407654.4,2320000.0
cdo/docker/docker-stats-1.txt,cdo_repoSystem_1,62.0,177943347.2,117000.0
cdo/docker/docker-stats-1.txt,cdo_repoHistory_1,62.0,267072307.2,3060000.0
cdo/docker/docker-stats-1.txt,cdo_repoSystem_1,66.0,178153062.4,123000.0
cdo/docker/docker-stats-1.txt,cdo_repoHistory_1,66.0,267072307.2,3060000.0
cdo/docker/docker-stats-1.txt,cdo_repoSystem_1,70.0,178153062.4,130000.0
cdo/docker/docker-stats-1.txt,cdo_repoHistory_1,70.0,267072307.2,3060000.0
cdo/docker/docker-stats-1.txt,cdo_repoSystem_1,74.0,178362777.6,136000.0
cdo/docker/docker-stats-1.txt,cdo_repoHistory_1,74.0,317718528.0,3730000.0
cdo/docker/docker-stats-1.txt,cdo_repoSystem_1,77.0,178677350.4,142000.0
cdo/docker/docker-stats-1.txt,cdo_repoHistory_1,77.0,313209651.2,3730000.0
cdo/docker/docker-stats-1.txt,cdo_repoSystem_1,81.0,178677350.4,149000.0
cdo/docker/docker-stats-1.txt,cdo_repoHistory_1,81.0,323695411.2,4400000.0
cdo/docker/docker-stats-1.txt,cdo_repoSystem_1,85.0,179096780.8,157000.0
cdo/docker/docker-stats-1.txt,cdo_repoHistory_1,85.0,318662246.4,4400000.0
cdo/docker/docker-stats-1.txt,cdo_repoSystem_1,88.0,179096780.8,166000.0
cdo/docker/docker-stats-1.txt,cdo_repoHistory_1,88.0,318662246.4,4400000.0
cdo/docker/docker-stats-1.txt,cdo_repoSystem_1,92.0,179201638.4,175000.0
cdo/docker/docker-stats-1.txt,cdo_repoHistory_1,92.0,343198924.8,5150000.0
cdo/docker/docker-stats-1.txt,cdo_repoSystem_1,96.0,179516211.2,181000.0
cdo/docker/docker-stats-1.txt,cdo_repoHistory_1,96.0,343198924.8,5150000.0
cdo/docker/docker-stats-1.txt,cdo_repoSystem_1,99.0,179411353.6,185000.0
cdo/docker/docker-stats-1.txt,cdo_repoHistory_1,99.0,343198924.8,5150000.0
cdo/docker/docker-stats-1.txt,cdo_repoSystem_1,103.0,179411353.6,191000.0
cdo/docker/docker-stats-1.txt,cdo_repoHistory_1,103.0,343198924.8,5150000.0
cdo/docker/docker-stats-1.txt,cdo_repoSystem_1,107.0,179411353.6,197000.0
cdo/docker/docker-stats-1.txt,cdo_repoHistory_1,107.0,352636108.8,6210000.0
cdo/docker/docker-stats-1.txt,cdo_repoSystem_1,111.0,179516211.2,204000.0
cdo/docker/docker-stats-1.txt,cdo_repoHistory_1,111.0,358612992.0,6210000.0
cdo/docker/docker-stats-1.txt,cdo_repoSystem_1,114.0,179516211.2,210000.0
cdo/docker/docker-stats-1.txt,cdo_repoHistory_1,114.0,358612992.0,6210000.0
cdo/docker/docker-stats-1.txt,cdo_repoSystem_1,118.0,179621068.8,220000.0
cdo/docker/docker-stats-1.txt,cdo_repoHistory_1,118.0,375704780.8,6910000.0
cdo/docker/docker-stats-1.txt,cdo_repoSystem_1,122.0,179725926.4,225000.0
cdo/docker/docker-stats-1.txt,cdo_repoHistory_1,122.0,364380160.0,6910000.0
cdo/docker/docker-stats-1.txt,cdo_repoSystem_1,125.0,179621068.8,228000.0
cdo/docker/docker-stats-1.txt,cdo_repoHistory_1,125.0,364380160.0,6910000.0
cdo/docker/docker-stats-1.txt,cdo_repoSystem_1,129.0,179621068.8,233000.0
cdo/docker/docker-stats-1.txt,cdo_repoHistory_1,129.0,367001600.0,7590000.0
cdo/docker/docker-stats-1.txt,cdo_repoSystem_1,133.0,179725926.4,241000.0
cdo/docker/docker-stats-1.txt,cdo_repoHistory_1,133.0,367001600.0,7590000.0
cdo/docker/docker-stats-1.txt,cdo_repoSystem_1,136.0,179830784.0,248000.0
cdo/docker/docker-stats-1.txt,cdo_repoHistory_1,136.0,367001600.0,7600000.0
cdo/docker/docker-stats-1.txt,cdo_repoSystem_1,140.0,179725926.4,253000.0
cdo/docker/docker-stats-1.txt,cdo_repoHistory_1,140.0,384932249.6,8240000.0
cdo/docker/docker-stats-1.txt,cdo_repoSystem_1,144.0,179725926.4,258000.0
cdo/docker/docker-stats-1.txt,cdo_repoHistory_1,144.0,384827392.0,8240000.0
cdo/docker/docker-stats-1.txt,cdo_repoSystem_1,147.0,179830784.0,265000.0
cdo/docker/docker-stats-1.txt,cdo_repoHistory_1,147.0,384827392.0,8240000.0
cdo/docker/docker-stats-1.txt,cdo_repoSystem_1,151.0,180145356.8,277000.0
cdo/docker/docker-stats-1.txt,cdo_repoHistory_1,151.0,386085683.2,8920000.0
cdo/docker/docker-stats-1.txt,cdo_repoSystem_1,155.0,180250214.4,286000.0
cdo/docker/docker-stats-1.txt,cdo_repoHistory_1,155.0,386085683.2,8920000.0
cdo/docker/docker-stats-1.txt,cdo_repoSystem_1,158.0,180145356.8,295000.0
cdo/docker/docker-stats-1.txt,cdo_repoHistory_1,158.0,386714828.8,9720000.0
cdo/docker/docker-stats-1.txt,cdo_repoSystem_1,162.0,180145356.8,300000.0
cdo/docker/docker-stats-1.txt,cdo_repoHistory_1,162.0,386400256.0,9720000.0
cdo/docker/docker-stats-1.txt,cdo_repoSystem_1,166.0,180145356.8,307000.0
cdo/docker/docker-stats-1.txt,cdo_repoHistory_1,166.0,386400256.0,9720000.0
cdo/docker/docker-stats-1.txt,cdo_repoSystem_1,169.0,180145356.8,315000.0
cdo/docker/docker-stats-1.txt,cdo_repoHistory_1,169.0,396676300.8,10400000.0
cdo/docker/docker-stats-2.txt,cdo_repoSystem_1,0.0,60932751.36,3300.0
cdo/docker/docker-stats-2.txt,cdo_repoHistory_1,0.0,85731573.76,8090.0
cdo/docker/docker-stats-2.txt,cdo_repoSystem_1,4.0,160117555.2,11800.0
cdo/docker/docker-stats-2.txt,cdo_repoHistory_1,4.0,168191590.4,11000.0
cdo/docker/docker-stats-2.txt,cdo_repoSystem_1,8.0,160117555.2,12500.0
cdo/docker/docker-stats-2.txt,cdo_repoHistory_1,8.0,166409011.2,12900.0
cdo/docker/docker-stats-2.txt,cdo_repoSystem_1,11.0,150890086.4,12500.0
cdo/docker/docker-stats-2.txt,cdo_repoHistory_1,11.0,166094438.4,12900.0
cdo/docker/docker-stats-2.txt,cdo_repoSystem_1,15.0,150890086.4,13200.0
cdo/docker/docker-stats-2.txt,cdo_repoHistory_1,15.0,165989580.8,13400.0
cdo/docker/docker-stats-2.txt,cdo_repoSystem_1,18.0,169974169.6,17500.0
cdo/docker/docker-stats-2.txt,cdo_repoHistory_1,18.0,165989580.8,13900.0
cdo/docker/docker-stats-2.txt,cdo_repoSystem_1,22.0,183395942.4,35700.0
cdo/docker/docker-stats-2.txt,cdo_repoHistory_1,22.0,174273331.2,18100.0
cdo/docker/docker-stats-2.txt,cdo_repoSystem_1,26.0,183500800.0,40100.0
cdo/docker/docker-stats-2.txt,cdo_repoHistory_1,26.0,174273331.2,18100.0
cdo/docker/docker-stats-2.txt,cdo_repoSystem_1,29.0,183710515.2,43900.0
cdo/docker/docker-stats-2.txt,cdo_repoHistory_1,29.0,184863948.8,826000.0
cdo/docker/docker-stats-2.txt,cdo_repoSystem_1,33.0,176475340.8,49700.0
cdo/docker/docker-stats-2.txt,cdo_repoHistory_1,33.0,196188569.6,827000.0
cdo/docker/docker-stats-2.txt,cdo_repoSystem_1,37.0,176999628.8,59100.0
cdo/docker/docker-stats-2.txt,cdo_repoHistory_1,37.0,189058252.8,827000.0
cdo/docker/docker-stats-2.txt,cdo_repoSystem_1,40.0,177314201.6,67400.0
cdo/docker/docker-stats-2.txt,cdo_repoHistory_1,40.0,218942668.8,1520000.0
cdo/docker/docker-stats-2.txt,cdo_repoSystem_1,44.0,177733632.0,76900.0
cdo/docker/docker-stats-2.txt,cdo_repoHistory_1,44.0,230372147.2,1520000.0
cdo/docker/docker-stats-2.txt,cdo_repoSystem_1,48.0,177943347.2,84700.0
cdo/docker/docker-stats-2.txt,cdo_repoHistory_1,48.0,230372147.2,1530000.0
cdo/docker/docker-stats-2.txt,cdo_repoSystem_1,51.0,178257920.0,90100.0
cdo/docker/docker-stats-2.txt,cdo_repoHistory_1,51.0,245052211.2,2290000.0
cdo/docker/docker-stats-2.txt,cdo_repoSystem_1,55.0,178467635.2,95800.0
cdo/docker/docker-stats-2.txt,cdo_repoHistory_1,55.0,239180185.6,2290000.0
cdo/docker/docker-stats-2.txt,cdo_repoSystem_1,59.0,178362777.6,100000.0
cdo/docker/docker-stats-2.txt,cdo_repoHistory_1,59.0,239180185.6,2290000.0
cdo/docker/docker-stats-2.txt,cdo_repoSystem_1,62.0,178677350.4,107000.0
cdo/docker/docker-stats-2.txt,cdo_repoHistory_1,62.0,251029094.4,3010000.0
cdo/docker/docker-stats-2.txt,cdo_repoSystem_1,66.0,178677350.4,114000.0
cdo/docker/docker-stats-2.txt,cdo_repoHistory_1,66.0,251029094.4,3010000.0
cdo/docker/docker-stats-2.txt,cdo_repoSystem_1,70.0,178782208.0,119000.0
cdo/docker/docker-stats-2.txt,cdo_repoHistory_1,70.0,251029094.4,3010000.0
cdo/docker/docker-stats-2.txt,cdo_repoSystem_1,74.0,178887065.6,124000.0
cdo/docker/docker-stats-2.txt,cdo_repoHistory_1,74.0,298739302.4,3670000.0
cdo/docker/docker-stats-2.txt,cdo_repoSystem_1,77.0,179306496.0,134000.0
cdo/docker/docker-stats-2.txt,cdo_repoHistory_1,77.0,298739302.4,3670000.0
cdo/docker/docker-stats-2.txt,cdo_repoSystem_1,81.0,179306496.0,142000.0
cdo/docker/docker-stats-2.txt,cdo_repoHistory_1,81.0,298739302.4,3670000.0
cdo/docker/docker-stats-2.txt,cdo_repoSystem_1,85.0,179411353.6,147000.0
cdo/docker/docker-stats-2.txt,cdo_repoHistory_1,85.0,305974476.8,4410000.0
cdo/docker/docker-stats-2.txt,cdo_repoSystem_1,88.0,179411353.6,152000.0
cdo/docker/docker-stats-2.txt,cdo_repoHistory_1,88.0,300207308.8,4410000.0
cdo/docker/docker-stats-2.txt,cdo_repoSystem_1,92.0,179621068.8,158000.0
cdo/docker/docker-stats-2.txt,cdo_repoHistory_1,92.0,300207308.8,4410000.0
cdo/docker/docker-stats-2.txt,cdo_repoSystem_1,96.0,179725926.4,163000.0
cdo/docker/docker-stats-2.txt,cdo_repoHistory_1,96.0,330720870.4,5130000.0
cdo/docker/docker-stats-2.txt,cdo_repoSystem_1,99.0,180145356.8,177000.0
cdo/docker/docker-stats-2.txt,cdo_repoHistory_1,99.0,330720870.4,5130000.0
cdo/docker/docker-stats-2.txt,cdo_repoSystem_1,103.0,179935641.6,183000.0
cdo/docker/docker-stats-2.txt,cdo_repoHistory_1,103.0,331350016.0,5900000.0
cdo/docker/docker-stats-2.txt,cdo_repoSystem_1,107.0,180250214.4,190000.0
cdo/docker/docker-stats-2.txt,cdo_repoHistory_1,107.0,331454873.6,5900000.0
cdo/docker/docker-stats-2.txt,cdo_repoSystem_1,111.0,180250214.4,195000.0
cdo/docker/docker-stats-2.txt,cdo_repoHistory_1,111.0,331350016.0,5900000.0
cdo/docker/docker-stats-2.txt,cdo_repoSystem_1,114.0,180145356.8,200000.0
cdo/docker/docker-stats-2.txt,cdo_repoHistory_1,114.0,331559731.2,6620000.0
cdo/docker/docker-stats-2.txt,cdo_repoSystem_1,118.0,180564787.2,212000.0
cdo/docker/docker-stats-2.txt,cdo_repoHistory_1,118.0,340472627.2,6620000.0
cdo/docker/docker-stats-2.txt,cdo_repoSystem_1,122.0,180669644.8,221000.0
cdo/docker/docker-stats-2.txt,cdo_repoHistory_1,122.0,336278323.2,6620000.0
cdo/docker/docker-stats-2.txt,cdo_repoSystem_1,125.0,180774502.4,229000.0
cdo/docker/docker-stats-2.txt,cdo_repoHistory_1,125.0,369098752.0,7410000.0
cdo/docker/docker-stats-2.txt,cdo_repoSystem_1,129.0,180774502.4,240000.0
cdo/docker/docker-stats-2.txt,cdo_repoHistory_1,129.0,368889036.8,7410000.0
cdo/docker/docker-stats-2.txt,cdo_repoSystem_1,133.0,180879360.0,249000.0
cdo/docker/docker-stats-2.txt,cdo_repoHistory_1,133.0,368889036.8,7410000.0
cdo/docker/docker-stats-2.txt,cdo_repoSystem_1,137.0,180879360.0,259000.0
cdo/docker/docker-stats-2.txt,cdo_repoHistory_1,137.0,370671616.0,8189999.999999999
cdo/docker/docker-stats-2.txt,cdo_repoSystem_1,140.0,180879360.0,268000.0
cdo/docker/docker-stats-2.txt,cdo_repoHistory_1,140.0,370671616.0,8189999.999999999
cdo/docker/docker-stats-2.txt,cdo_repoSystem_1,144.0,180984217.6,276000.0
cdo/docker/docker-stats-2.txt,cdo_repoHistory_1,144.0,370671616.0,8189999.999999999
cdo/docker/docker-stats-2.txt,cdo_repoSystem_1,148.0,180984217.6,288000.0
cdo/docker/docker-stats-2.txt,cdo_repoHistory_1,148.0,383464243.2,8980000.0
cdo/docker/docker-stats-2.txt,cdo_repoSystem_1,151.0,181193932.8,298000.0
cdo/docker/docker-stats-2.txt,cdo_repoHistory_1,151.0,383464243.2,8980000.0
cdo/docker/docker-stats-2.txt,cdo_repoSystem_1,155.0,181193932.8,304000.0
cdo/docker/docker-stats-2.txt,cdo_repoHistory_1,155.0,383673958.4,9800000.0
cdo/docker/docker-stats-2.txt,cdo_repoSystem_1,159.0,181193932.8,314000.0
cdo/docker/docker-stats-2.txt,cdo_repoHistory_1,159.0,383673958.4,9800000.0
cdo/docker/docker-stats-2.txt,cdo_repoSystem_1,162.0,181193932.8,321000.0
cdo/docker/docker-stats-2.txt,cdo_repoHistory_1,162.0,383673958.4,9800000.0
cdo/docker/docker-stats-2.txt,cdo_repoSystem_1,166.0,181193932.8,333000.0
cdo/docker/docker-stats-2.txt,cdo_repoHistory_1,166.0,392586854.4,10500000.0
cdo/docker/docker-stats-2.txt,cdo_repoSystem_1,170.0,181508505.6,343000.0
cdo/docker/docker-stats-2.txt,cdo_repoHistory_1,170.0,392377139.2,10500000.0
cdo/docker/docker-stats-2.txt,cdo_repoSystem_1,173.0,181298790.4,344000.0
cdo/docker/docker-stats-2.txt,cdo_repoHistory_1,173.0,392691712.0,10500000.0
cdo/docker/docker-stats-3.txt,cdo_repoHistory_1,0.0,61624811.52,1650.0
cdo/docker/docker-stats-3.txt,cdo_repoSystem_1,0.0,80320921.6,7120.0
cdo/docker/docker-stats-3.txt,cdo_repoHistory_1,3.0,163892428.8,11900.0
cdo/docker/docker-stats-3.txt,cdo_repoSystem_1,3.0,159593267.2,10900.0
cdo/docker/docker-stats-3.txt,cdo_repoHistory_1,7.0,163892428.8,13000.0
cdo/docker/docker-stats-3.txt,cdo_repoSystem_1,7.0,173015040.0,12700.0
cdo/docker/docker-stats-3.txt,cdo_repoHistory_1,10.0,163472998.4,13200.0
cdo/docker/docker-stats-3.txt,cdo_repoSystem_1,10.0,169135308.8,12700.0
cdo/docker/docker-stats-3.txt,cdo_repoHistory_1,14.0,163472998.4,13800.0
cdo/docker/docker-stats-3.txt,cdo_repoSystem_1,14.0,168820736.0,13200.0
cdo/docker/docker-stats-3.txt,cdo_repoHistory_1,18.0,163472998.4,14000.0
cdo/docker/docker-stats-3.txt,cdo_repoSystem_1,18.0,176685056.0,17700.0
cdo/docker/docker-stats-3.txt,cdo_repoHistory_1,21.0,170498457.6,19500.0
cdo/docker/docker-stats-3.txt,cdo_repoSystem_1,21.0,185073664.0,34400.0
cdo/docker/docker-stats-3.txt,cdo_repoHistory_1,25.0,170498457.6,19500.0
cdo/docker/docker-stats-3.txt,cdo_repoSystem_1,25.0,185178521.6,39000.0
cdo/docker/docker-stats-3.txt,cdo_repoHistory_1,29.0,178467635.2,873000.0
cdo/docker/docker-stats-3.txt,cdo_repoSystem_1,29.0,185388236.8,44300.0
cdo/docker/docker-stats-3.txt,cdo_repoHistory_1,32.0,188009676.8,874000.0
cdo/docker/docker-stats-3.txt,cdo_repoSystem_1,32.0,186122240.0,49900.0
cdo/docker/docker-stats-3.txt,cdo_repoHistory_1,36.0,188009676.8,874000.0
cdo/docker/docker-stats-3.txt,cdo_repoSystem_1,36.0,186541670.4,57000.0
cdo/docker/docker-stats-3.txt,cdo_repoHistory_1,39.0,220096102.4,1620000.0
cdo/docker/docker-stats-3.txt,cdo_repoSystem_1,39.0,186856243.2,65000.0
cdo/docker/docker-stats-3.txt,cdo_repoHistory_1,43.0,231211008.0,1620000.0
cdo/docker/docker-stats-3.txt,cdo_repoSystem_1,43.0,187275673.6,76200.0
cdo/docker/docker-stats-3.txt,cdo_repoHistory_1,47.0,231211008.0,1620000.0
cdo/docker/docker-stats-3.txt,cdo_repoSystem_1,47.0,187695104.0,82800.0
cdo/docker/docker-stats-3.txt,cdo_repoHistory_1,50.0,231211008.0,1620000.0
cdo/docker/docker-stats-3.txt,cdo_repoSystem_1,50.0,187695104.0,88900.0
cdo/docker/docker-stats-3.txt,cdo_repoHistory_1,54.0,231211008.0,1620000.0
cdo/docker/docker-stats-3.txt,cdo_repoSystem_1,54.0,188114534.4,93100.0
cdo/docker/docker-stats-3.txt,cdo_repoHistory_1,58.0,284793241.6,2700000.0
cdo/docker/docker-stats-3.txt,cdo_repoSystem_1,58.0,188114534.4,98500.0
cdo/docker/docker-stats-3.txt,cdo_repoHistory_1,61.0,272105472.0,2700000.0
cdo/docker/docker-stats-3.txt,cdo_repoSystem_1,61.0,188429107.2,107000.0
cdo/docker/docker-stats-3.txt,cdo_repoHistory_1,65.0,280284364.8,3390000.0
cdo/docker/docker-stats-3.txt,cdo_repoSystem_1,65.0,188429107.2,111000.0
cdo/docker/docker-stats-3.txt,cdo_repoHistory_1,67.0,280494080.0,3390000.0
cdo/docker/docker-stats-3.txt,cdo_repoSystem_1,67.0,188429107.2,116000.0
cdo/docker/docker-stats-3.txt,cdo_repoHistory_1,71.0,268750028.8,3390000.0
cdo/docker/docker-stats-3.txt,cdo_repoSystem_1,71.0,188743680.0,123000.0
cdo/docker/docker-stats-3.txt,cdo_repoHistory_1,75.0,268750028.8,3390000.0
cdo/docker/docker-stats-3.txt,cdo_repoSystem_1,75.0,188848537.6,129000.0
cdo/docker/docker-stats-3.txt,cdo_repoHistory_1,78.0,304925900.8,4179999.9999999995
cdo/docker/docker-stats-3.txt,cdo_repoSystem_1,78.0,189267968.0,140000.0
cdo/docker/docker-stats-3.txt,cdo_repoHistory_1,82.0,304925900.8,4179999.9999999995
cdo/docker/docker-stats-3.txt,cdo_repoSystem_1,82.0,189477683.2,152000.0
cdo/docker/docker-stats-3.txt,cdo_repoHistory_1,86.0,304925900.8,4179999.9999999995
cdo/docker/docker-stats-3.txt,cdo_repoSystem_1,86.0,189477683.2,157000.0
cdo/docker/docker-stats-3.txt,cdo_repoHistory_1,89.0,360500428.8,5050000.0
cdo/docker/docker-stats-3.txt,cdo_repoSystem_1,89.0,189687398.4,162000.0
cdo/docker/docker-stats-3.txt,cdo_repoHistory_1,93.0,360500428.8,5050000.0
cdo/docker/docker-stats-3.txt,cdo_repoSystem_1,93.0,189687398.4,167000.0
cdo/docker/docker-stats-3.txt,cdo_repoHistory_1,97.0,360500428.8,5050000.0
cdo/docker/docker-stats-3.txt,cdo_repoSystem_1,97.0,190001971.2,175000.0
cdo/docker/docker-stats-3.txt,cdo_repoHistory_1,100.0,361968435.2,5830000.0
cdo/docker/docker-stats-3.txt,cdo_repoSystem_1,100.0,190001971.2,185000.0
cdo/docker/docker-stats-3.txt,cdo_repoHistory_1,104.0,361968435.2,5830000.0
cdo/docker/docker-stats-3.txt,cdo_repoSystem_1,104.0,190001971.2,195000.0
cdo/docker/docker-stats-3.txt,cdo_repoHistory_1,108.0,361968435.2,5830000.0
cdo/docker/docker-stats-3.txt,cdo_repoSystem_1,108.0,190106828.8,208000.0
cdo/docker/docker-stats-3.txt,cdo_repoHistory_1,111.0,367001600.0,6720000.0
cdo/docker/docker-stats-3.txt,cdo_repoSystem_1,111.0,190316544.0,215000.0
cdo/docker/docker-stats-3.txt,cdo_repoHistory_1,115.0,367001600.0,6720000.0
cdo/docker/docker-stats-3.txt,cdo_repoSystem_1,115.0,190421401.6,225000.0
cdo/docker/docker-stats-3.txt,cdo_repoHistory_1,119.0,367001600.0,6720000.0
cdo/docker/docker-stats-3.txt,cdo_repoSystem_1,119.0,190631116.8,236000.0
cdo/docker/docker-stats-3.txt,cdo_repoHistory_1,122.0,388077977.6,7570000.0
cdo/docker/docker-stats-3.txt,cdo_repoSystem_1,122.0,190526259.2,244000.0
cdo/docker/docker-stats-3.txt,cdo_repoHistory_1,126.0,388077977.6,7570000.0
cdo/docker/docker-stats-3.txt,cdo_repoSystem_1,126.0,190631116.8,256000.0
cdo/docker/docker-stats-3.txt,cdo_repoHistory_1,129.0,388077977.6,7570000.0
cdo/docker/docker-stats-3.txt,cdo_repoSystem_1,129.0,190631116.8,263000.0
cdo/docker/docker-stats-3.txt,cdo_repoHistory_1,133.0,391957708.8,8440000.0
cdo/docker/docker-stats-3.txt,cdo_repoSystem_1,133.0,190631116.8,269000.0
cdo/docker/docker-stats-3.txt,cdo_repoHistory_1,137.0,387553689.6,8440000.0
cdo/docker/docker-stats-3.txt,cdo_repoSystem_1,137.0,190631116.8,276000.0
cdo/docker/docker-stats-3.txt,cdo_repoHistory_1,139.0,387553689.6,8440000.0
cdo/docker/docker-stats-3.txt,cdo_repoSystem_1,139.0,190631116.8,282000.0
cdo/docker/docker-stats-3.txt,cdo_repoHistory_1,143.0,399192883.2,9190000.0
cdo/docker/docker-stats-3.txt,cdo_repoSystem_1,143.0,190631116.8,288000.0
cdo/docker/docker-stats-3.txt,cdo_repoHistory_1,146.0,399192883.2,9190000.0
cdo/docker/docker-stats-3.txt,cdo_repoSystem_1,146.0,190631116.8,293000.0
cdo/docker/docker-stats-3.txt,cdo_repoHistory_1,150.0,399192883.2,9190000.0
cdo/docker/docker-stats-3.txt,cdo_repoSystem_1,150.0,190840832.0,302000.0
cdo/docker/docker-stats-3.txt,cdo_repoHistory_1,154.0,399192883.2,9960000.0
cdo/docker/docker-stats-3.txt,cdo_repoSystem_1,154.0,190735974.4,311000.0
cdo/docker/docker-stats-3.txt,cdo_repoHistory_1,157.0,399192883.2,9960000.0
cdo/docker/docker-stats-3.txt,cdo_repoSystem_1,157.0,190735974.4,316000.0
cdo/docker/docker-stats-3.txt,cdo_repoHistory_1,161.0,399192883.2,9960000.0
cdo/docker/docker-stats-3.txt,cdo_repoSystem_1,161.0,190840832.0,325000.0
cdo/docker/docker-stats-3.txt,cdo_repoHistory_1,164.0,409783500.8,10800000.0
cdo/docker/docker-stats-3.txt,cdo_repoSystem_1,164.0,190840832.0,330000.0
cdo/docker/docker-stats-3.txt,cdo_repoHistory_1,168.0,409783500.8,10800000.0
cdo/docker/docker-stats-3.txt,cdo_repoSystem_1,168.0,190840832.0,338000.0
cdo/docker/docker-stats-3.txt,cdo_repoHistory_1,172.0,409783500.8,10800000.0
cdo/docker/docker-stats-3.txt,cdo_repoSystem_1,172.0,190945689.6,338000.0
cdo/docker/docker-stats-4.txt,cdo_repoSystem_1,0.0,70128762.88,3020.0
cdo/docker/docker-stats-4.txt,cdo_repoHistory_1,0.0,91802828.8,7160.0
cdo/docker/docker-stats-4.txt,cdo_repoSystem_1,4.0,187275673.6,11300.0
cdo/docker/docker-stats-4.txt,cdo_repoHistory_1,4.0,154664960.0,11000.0
cdo/docker/docker-stats-4.txt,cdo_repoSystem_1,7.0,187275673.6,12100.0
cdo/docker/docker-stats-4.txt,cdo_repoHistory_1,7.0,170288742.4,12500.0
cdo/docker/docker-stats-4.txt,cdo_repoSystem_1,11.0,175321907.2,12300.0
cdo/docker/docker-stats-4.txt,cdo_repoHistory_1,11.0,157810688.0,12500.0
cdo/docker/docker-stats-4.txt,cdo_repoSystem_1,15.0,175321907.2,13000.0
cdo/docker/docker-stats-4.txt,cdo_repoHistory_1,15.0,157810688.0,12800.0
cdo/docker/docker-stats-4.txt,cdo_repoSystem_1,18.0,190211686.4,17000.0
cdo/docker/docker-stats-4.txt,cdo_repoHistory_1,18.0,157810688.0,13300.0
cdo/docker/docker-stats-4.txt,cdo_repoSystem_1,22.0,203318886.4,33300.0
cdo/docker/docker-stats-4.txt,cdo_repoHistory_1,22.0,172805324.8,17600.0
cdo/docker/docker-stats-4.txt,cdo_repoSystem_1,26.0,198705152.0,37800.0
cdo/docker/docker-stats-4.txt,cdo_repoHistory_1,26.0,172805324.8,17600.0
cdo/docker/docker-stats-4.txt,cdo_repoSystem_1,29.0,193252556.8,44900.0
cdo/docker/docker-stats-4.txt,cdo_repoHistory_1,29.0,172805324.8,17700.0
cdo/docker/docker-stats-4.txt,cdo_repoSystem_1,33.0,194405990.4,51700.0
cdo/docker/docker-stats-4.txt,cdo_repoHistory_1,33.0,196293427.2,872000.0
cdo/docker/docker-stats-4.txt,cdo_repoSystem_1,36.0,194720563.2,58200.0
cdo/docker/docker-stats-4.txt,cdo_repoHistory_1,36.0,180355072.0,872000.0
cdo/docker/docker-stats-4.txt,cdo_repoSystem_1,40.0,195035136.0,64800.0
cdo/docker/docker-stats-4.txt,cdo_repoHistory_1,40.0,236034457.6,1660000.0
cdo/docker/docker-stats-4.txt,cdo_repoSystem_1,44.0,195559424.0,76800.0
cdo/docker/docker-stats-4.txt,cdo_repoHistory_1,44.0,236034457.6,1660000.0
cdo/docker/docker-stats-4.txt,cdo_repoSystem_1,47.0,195664281.6,86200.0
cdo/docker/docker-stats-4.txt,cdo_repoHistory_1,47.0,236034457.6,1660000.0
cdo/docker/docker-stats-4.txt,cdo_repoSystem_1,51.0,196083712.0,92500.0
cdo/docker/docker-stats-4.txt,cdo_repoHistory_1,51.0,274202624.0,2450000.0
cdo/docker/docker-stats-4.txt,cdo_repoSystem_1,55.0,196712857.6,102000.0
cdo/docker/docker-stats-4.txt,cdo_repoHistory_1,55.0,255957401.6,2450000.0
cdo/docker/docker-stats-4.txt,cdo_repoSystem_1,58.0,196608000.0,107000.0
cdo/docker/docker-stats-4.txt,cdo_repoHistory_1,58.0,255957401.6,2450000.0
cdo/docker/docker-stats-4.txt,cdo_repoSystem_1,62.0,196817715.2,113000.0
cdo/docker/docker-stats-4.txt,cdo_repoHistory_1,62.0,286995251.2,3200000.0
cdo/docker/docker-stats-4.txt,cdo_repoSystem_1,66.0,197027430.4,121000.0
cdo/docker/docker-stats-4.txt,cdo_repoHistory_1,66.0,279550361.6,3200000.0
cdo/docker/docker-stats-4.txt,cdo_repoSystem_1,69.0,196922572.8,126000.0
cdo/docker/docker-stats-4.txt,cdo_repoHistory_1,69.0,279445504.0,3200000.0
cdo/docker/docker-stats-4.txt,cdo_repoSystem_1,73.0,198180864.0,131000.0
cdo/docker/docker-stats-4.txt,cdo_repoHistory_1,73.0,322017689.6,3940000.0
cdo/docker/docker-stats-4.txt,cdo_repoSystem_1,77.0,198180864.0,137000.0
cdo/docker/docker-stats-4.txt,cdo_repoHistory_1,77.0,316565094.4,3940000.0
cdo/docker/docker-stats-4.txt,cdo_repoSystem_1,80.0,198390579.2,144000.0
cdo/docker/docker-stats-4.txt,cdo_repoHistory_1,80.0,316565094.4,3940000.0
cdo/docker/docker-stats-4.txt,cdo_repoSystem_1,84.0,198495436.8,156000.0
cdo/docker/docker-stats-4.txt,cdo_repoHistory_1,84.0,327155712.0,4700000.0
cdo/docker/docker-stats-4.txt,cdo_repoSystem_1,87.0,198810009.6,165000.0
cdo/docker/docker-stats-4.txt,cdo_repoHistory_1,87.0,327155712.0,4700000.0
cdo/docker/docker-stats-4.txt,cdo_repoSystem_1,91.0,199019724.8,175000.0
cdo/docker/docker-stats-4.txt,cdo_repoHistory_1,91.0,327155712.0,4700000.0
cdo/docker/docker-stats-4.txt,cdo_repoSystem_1,95.0,199124582.4,181000.0
cdo/docker/docker-stats-4.txt,cdo_repoHistory_1,95.0,350434099.2,5540000.0
cdo/docker/docker-stats-4.txt,cdo_repoSystem_1,98.0,199019724.8,188000.0
cdo/docker/docker-stats-4.txt,cdo_repoHistory_1,98.0,350434099.2,5540000.0
cdo/docker/docker-stats-4.txt,cdo_repoSystem_1,102.0,199019724.8,194000.0
cdo/docker/docker-stats-4.txt,cdo_repoHistory_1,102.0,350434099.2,5540000.0
cdo/docker/docker-stats-4.txt,cdo_repoSystem_1,106.0,199019724.8,201000.0
cdo/docker/docker-stats-4.txt,cdo_repoHistory_1,106.0,352216678.4,6250000.0
cdo/docker/docker-stats-4.txt,cdo_repoSystem_1,109.0,199019724.8,207000.0
cdo/docker/docker-stats-4.txt,cdo_repoHistory_1,109.0,352216678.4,6250000.0
cdo/docker/docker-stats-4.txt,cdo_repoSystem_1,113.0,199019724.8,213000.0
cdo/docker/docker-stats-4.txt,cdo_repoHistory_1,113.0,363436441.6,6990000.0
cdo/docker/docker-stats-4.txt,cdo_repoSystem_1,116.0,199229440.0,226000.0
cdo/docker/docker-stats-4.txt,cdo_repoHistory_1,116.0,363226726.4,6990000.0
cdo/docker/docker-stats-4.txt,cdo_repoSystem_1,120.0,199229440.0,236000.0
cdo/docker/docker-stats-4.txt,cdo_repoHistory_1,120.0,363226726.4,6990000.0
cdo/docker/docker-stats-4.txt,cdo_repoSystem_1,124.0,199124582.4,245000.0
cdo/docker/docker-stats-4.txt,cdo_repoHistory_1,124.0,363226726.4,6990000.0
cdo/docker/docker-stats-4.txt,cdo_repoSystem_1,127.0,199229440.0,254000.0
cdo/docker/docker-stats-4.txt,cdo_repoHistory_1,127.0,372349337.6,7860000.0
cdo/docker/docker-stats-4.txt,cdo_repoSystem_1,131.0,199229440.0,265000.0
cdo/docker/docker-stats-4.txt,cdo_repoHistory_1,131.0,372454195.2,7860000.0
cdo/docker/docker-stats-4.txt,cdo_repoSystem_1,135.0,199229440.0,270000.0
cdo/docker/docker-stats-4.txt,cdo_repoHistory_1,135.0,372349337.6,7860000.0
cdo/docker/docker-stats-4.txt,cdo_repoSystem_1,138.0,199229440.0,276000.0
cdo/docker/docker-stats-4.txt,cdo_repoHistory_1,138.0,391852851.2,8690000.0
cdo/docker/docker-stats-4.txt,cdo_repoSystem_1,142.0,199334297.6,282000.0
cdo/docker/docker-stats-4.txt,cdo_repoHistory_1,142.0,374236774.4,8690000.0
cdo/docker/docker-stats-4.txt,cdo_repoSystem_1,145.0,199229440.0,288000.0
cdo/docker/docker-stats-4.txt,cdo_repoHistory_1,145.0,374236774.4,8690000.0
cdo/docker/docker-stats-4.txt,cdo_repoSystem_1,149.0,199334297.6,300000.0
cdo/docker/docker-stats-4.txt,cdo_repoHistory_1,149.0,383569100.8,9440000.0
cdo/docker/docker-stats-4.txt,cdo_repoSystem_1,153.0,199334297.6,309000.0
cdo/docker/docker-stats-4.txt,cdo_repoHistory_1,153.0,383569100.8,9440000.0
cdo/docker/docker-stats-4.txt,cdo_repoSystem_1,156.0,199334297.6,319000.0
cdo/docker/docker-stats-4.txt,cdo_repoHistory_1,156.0,384093388.8,10200000.0
cdo/docker/docker-stats-4.txt,cdo_repoSystem_1,160.0,199439155.2,326000.0
cdo/docker/docker-stats-4.txt,cdo_repoHistory_1,160.0,384093388.8,10200000.0
cdo/docker/docker-stats-4.txt,cdo_repoSystem_1,164.0,199439155.2,329000.0
cdo/docker/docker-stats-4.txt,cdo_repoHistory_1,164.0,384093388.8,10200000.0
cdo/docker/docker-stats-4.txt,cdo_repoSystem_1,167.0,199439155.2,335000.0
cdo/docker/docker-stats-4.txt,cdo_repoHistory_1,167.0,384093388.8,10200000.0
cdo/docker/docker-stats-4.txt,cdo_repoSystem_1,171.0,199439155.2,338000.0
cdo/docker/docker-stats-4.txt,cdo_repoHistory_1,171.0,392062566.4,11100000.0
cdo/docker/docker-stats-5.txt,cdo_repoSystem_1,0.0,85784002.56,6580.0
cdo/docker/docker-stats-5.txt,cdo_repoHistory_1,0.0,61949870.08,3390.0
cdo/docker/docker-stats-5.txt,cdo_repoSystem_1,4.0,173958758.4,11400.0
cdo/docker/docker-stats-5.txt,cdo_repoHistory_1,4.0,166513868.8,11400.0
cdo/docker/docker-stats-5.txt,cdo_repoSystem_1,7.0,173958758.4,12500.0
cdo/docker/docker-stats-5.txt,cdo_repoHistory_1,7.0,173539328.0,12200.0
cdo/docker/docker-stats-5.txt,cdo_repoSystem_1,11.0,166618726.4,12500.0
cdo/docker/docker-stats-5.txt,cdo_repoHistory_1,11.0,164626432.0,12500.0
cdo/docker/docker-stats-5.txt,cdo_repoSystem_1,15.0,166618726.4,12700.0
cdo/docker/docker-stats-5.txt,cdo_repoHistory_1,15.0,164626432.0,13200.0
cdo/docker/docker-stats-5.txt,cdo_repoSystem_1,18.0,178153062.4,17200.0
cdo/docker/docker-stats-5.txt,cdo_repoHistory_1,18.0,164626432.0,13200.0
cdo/docker/docker-stats-5.txt,cdo_repoSystem_1,22.0,185388236.8,35900.0
cdo/docker/docker-stats-5.txt,cdo_repoHistory_1,22.0,173853900.8,17600.0
cdo/docker/docker-stats-5.txt,cdo_repoSystem_1,25.0,185493094.4,40400.0
cdo/docker/docker-stats-5.txt,cdo_repoHistory_1,25.0,173749043.2,17600.0
cdo/docker/docker-stats-5.txt,cdo_repoSystem_1,29.0,185597952.0,45400.0
cdo/docker/docker-stats-5.txt,cdo_repoHistory_1,29.0,173749043.2,20100.0
cdo/docker/docker-stats-5.txt,cdo_repoSystem_1,32.0,186856243.2,54000.0
cdo/docker/docker-stats-5.txt,cdo_repoHistory_1,32.0,189058252.8,921000.0
cdo/docker/docker-stats-5.txt,cdo_repoSystem_1,35.0,187065958.4,59800.0
cdo/docker/docker-stats-5.txt,cdo_repoHistory_1,35.0,189058252.8,921000.0
cdo/docker/docker-stats-5.txt,cdo_repoSystem_1,39.0,187695104.0,68700.0
cdo/docker/docker-stats-5.txt,cdo_repoHistory_1,39.0,189058252.8,921000.0
cdo/docker/docker-stats-5.txt,cdo_repoSystem_1,43.0,188114534.4,76300.0
cdo/docker/docker-stats-5.txt,cdo_repoHistory_1,43.0,240228761.6,1660000.0
cdo/docker/docker-stats-5.txt,cdo_repoSystem_1,46.0,188219392.0,82200.0
cdo/docker/docker-stats-5.txt,cdo_repoHistory_1,46.0,240228761.6,1660000.0
cdo/docker/docker-stats-5.txt,cdo_repoSystem_1,50.0,188324249.6,87400.0
cdo/docker/docker-stats-5.txt,cdo_repoHistory_1,50.0,240228761.6,1660000.0
cdo/docker/docker-stats-5.txt,cdo_repoSystem_1,54.0,188429107.2,91200.0
cdo/docker/docker-stats-5.txt,cdo_repoHistory_1,54.0,316774809.6,2490000.0
cdo/docker/docker-stats-5.txt,cdo_repoSystem_1,57.0,188743680.0,98400.0
cdo/docker/docker-stats-5.txt,cdo_repoHistory_1,57.0,256901120.0,2490000.0
cdo/docker/docker-stats-5.txt,cdo_repoSystem_1,61.0,188953395.2,109000.0
cdo/docker/docker-stats-5.txt,cdo_repoHistory_1,61.0,256796262.4,2490000.0
cdo/docker/docker-stats-5.txt,cdo_repoSystem_1,64.0,189267968.0,117000.0
cdo/docker/docker-stats-5.txt,cdo_repoHistory_1,64.0,259837132.8,3380000.0
cdo/docker/docker-stats-5.txt,cdo_repoSystem_1,68.0,189163110.4,120000.0
cdo/docker/docker-stats-5.txt,cdo_repoHistory_1,68.0,294754713.6,3380000.0
cdo/docker/docker-stats-5.txt,cdo_repoSystem_1,72.0,189372825.6,125000.0
cdo/docker/docker-stats-5.txt,cdo_repoHistory_1,72.0,294649856.0,3380000.0
cdo/docker/docker-stats-5.txt,cdo_repoSystem_1,75.0,189477683.2,135000.0
cdo/docker/docker-stats-5.txt,cdo_repoHistory_1,75.0,302723891.2,4050000.0
cdo/docker/docker-stats-5.txt,cdo_repoSystem_1,79.0,189582540.8,144000.0
cdo/docker/docker-stats-5.txt,cdo_repoHistory_1,79.0,302723891.2,4050000.0
cdo/docker/docker-stats-5.txt,cdo_repoSystem_1,83.0,189792256.0,153000.0
cdo/docker/docker-stats-5.txt,cdo_repoHistory_1,83.0,302723891.2,4050000.0
cdo/docker/docker-stats-5.txt,cdo_repoSystem_1,86.0,189792256.0,159000.0
cdo/docker/docker-stats-5.txt,cdo_repoHistory_1,86.0,367735603.2,4850000.0
cdo/docker/docker-stats-5.txt,cdo_repoSystem_1,90.0,190001971.2,164000.0
cdo/docker/docker-stats-5.txt,cdo_repoHistory_1,90.0,367735603.2,4850000.0
cdo/docker/docker-stats-5.txt,cdo_repoSystem_1,94.0,190001971.2,170000.0
cdo/docker/docker-stats-5.txt,cdo_repoHistory_1,94.0,367735603.2,4850000.0
cdo/docker/docker-stats-5.txt,cdo_repoSystem_1,97.0,190316544.0,180000.0
cdo/docker/docker-stats-5.txt,cdo_repoHistory_1,97.0,368889036.8,5530000.0
cdo/docker/docker-stats-5.txt,cdo_repoSystem_1,101.0,190421401.6,189000.0
cdo/docker/docker-stats-5.txt,cdo_repoHistory_1,101.0,368889036.8,5530000.0
cdo/docker/docker-stats-5.txt,cdo_repoSystem_1,105.0,190526259.2,200000.0
cdo/docker/docker-stats-5.txt,cdo_repoHistory_1,105.0,368889036.8,5530000.0
cdo/docker/docker-stats-5.txt,cdo_repoSystem_1,108.0,190735974.4,205000.0
cdo/docker/docker-stats-5.txt,cdo_repoHistory_1,108.0,399926886.4,6410000.0
cdo/docker/docker-stats-5.txt,cdo_repoSystem_1,112.0,190526259.2,211000.0
cdo/docker/docker-stats-5.txt,cdo_repoHistory_1,112.0,392062566.4,6410000.0
cdo/docker/docker-stats-5.txt,cdo_repoSystem_1,115.0,190631116.8,217000.0
cdo/docker/docker-stats-5.txt,cdo_repoHistory_1,115.0,392062566.4,6410000.0
cdo/docker/docker-stats-5.txt,cdo_repoSystem_1,119.0,190631116.8,220000.0
cdo/docker/docker-stats-5.txt,cdo_repoHistory_1,119.0,414711808.0,7370000.0
cdo/docker/docker-stats-5.txt,cdo_repoSystem_1,123.0,190840832.0,229000.0
cdo/docker/docker-stats-5.txt,cdo_repoHistory_1,123.0,414397235.2,7370000.0
cdo/docker/docker-stats-5.txt,cdo_repoSystem_1,126.0,190840832.0,239000.0
cdo/docker/docker-stats-5.txt,cdo_repoHistory_1,126.0,400346316.8,7370000.0
cdo/docker/docker-stats-5.txt,cdo_repoSystem_1,130.0,190945689.6,245000.0
cdo/docker/docker-stats-5.txt,cdo_repoHistory_1,130.0,403072614.4,8199999.999999999
cdo/docker/docker-stats-5.txt,cdo_repoSystem_1,134.0,191050547.2,257000.0
cdo/docker/docker-stats-5.txt,cdo_repoHistory_1,134.0,402967756.8,8199999.999999999
cdo/docker/docker-stats-5.txt,cdo_repoSystem_1,137.0,191050547.2,266000.0
cdo/docker/docker-stats-5.txt,cdo_repoHistory_1,137.0,402967756.8,8199999.999999999
cdo/docker/docker-stats-5.txt,cdo_repoSystem_1,141.0,191260262.4,273000.0
cdo/docker/docker-stats-5.txt,cdo_repoHistory_1,141.0,403806617.6,9060000.0
cdo/docker/docker-stats-5.txt,cdo_repoSystem_1,144.0,191260262.4,281000.0
cdo/docker/docker-stats-5.txt,cdo_repoHistory_1,144.0,415236096.0,9060000.0
cdo/docker/docker-stats-5.txt,cdo_repoSystem_1,148.0,191365120.0,291000.0
cdo/docker/docker-stats-5.txt,cdo_repoHistory_1,148.0,415236096.0,9060000.0
cdo/docker/docker-stats-5.txt,cdo_repoSystem_1,152.0,191365120.0,303000.0
cdo/docker/docker-stats-5.txt,cdo_repoHistory_1,152.0,415236096.0,9060000.0
cdo/docker/docker-stats-5.txt,cdo_repoSystem_1,155.0,191574835.2,311000.0
cdo/docker/docker-stats-5.txt,cdo_repoHistory_1,155.0,415760384.0,9910000.0
cdo/docker/docker-stats-5.txt,cdo_repoSystem_1,159.0,191469977.6,316000.0
cdo/docker/docker-stats-5.txt,cdo_repoHistory_1,159.0,415760384.0,9910000.0
cdo/docker/docker-stats-5.txt,cdo_repoSystem_1,163.0,191469977.6,324000.0
cdo/docker/docker-stats-5.txt,cdo_repoHistory_1,163.0,416389529.6,10700000.0
cdo/docker/docker-stats-5.txt,cdo_repoSystem_1,166.0,191469977.6,332000.0
cdo/docker/docker-stats-5.txt,cdo_repoHistory_1,166.0,416494387.2,10700000.0
cdo/docker/docker-stats-5.txt,cdo_repoSystem_1,170.0,191469977.6,337000.0
cdo/docker/docker-stats-5.txt,cdo_repoHistory_1,170.0,416494387.2,10700000.0
cdo/docker/docker-stats-5.txt,cdo_repoSystem_1,173.0,191574835.2,338000.0
cdo/docker/docker-stats-5.txt,cdo_repoHistory_1,173.0,409049497.6,10700000.0
cdo/docker/docker-stats-6.txt,cdo_repoHistory_1,0.0,88562728.96,6590.0
cdo/docker/docker-stats-6.txt,cdo_repoSystem_1,0.0,63931678.72,3410.0
cdo/docker/docker-stats-6.txt,cdo_repoHistory_1,4.0,149526937.6,10800.0
cdo/docker/docker-stats-6.txt,cdo_repoSystem_1,4.0,180984217.6,12200.0
cdo/docker/docker-stats-6.txt,cdo_repoHistory_1,8.0,170498457.6,12700.0
cdo/docker/docker-stats-6.txt,cdo_repoSystem_1,8.0,180984217.6,12800.0
cdo/docker/docker-stats-6.txt,cdo_repoHistory_1,11.0,165360435.2,12700.0
cdo/docker/docker-stats-6.txt,cdo_repoSystem_1,11.0,168191590.4,12800.0
cdo/docker/docker-stats-6.txt,cdo_repoHistory_1,15.0,165360435.2,13200.0
cdo/docker/docker-stats-6.txt,cdo_repoSystem_1,15.0,168191590.4,13100.0
cdo/docker/docker-stats-6.txt,cdo_repoHistory_1,18.0,165360435.2,13500.0
cdo/docker/docker-stats-6.txt,cdo_repoSystem_1,18.0,189058252.8,17600.0
cdo/docker/docker-stats-6.txt,cdo_repoHistory_1,22.0,165884723.2,19100.0
cdo/docker/docker-stats-6.txt,cdo_repoSystem_1,22.0,194510848.0,34400.0
cdo/docker/docker-stats-6.txt,cdo_repoHistory_1,26.0,165884723.2,19400.0
cdo/docker/docker-stats-6.txt,cdo_repoSystem_1,26.0,183395942.4,39100.0
cdo/docker/docker-stats-6.txt,cdo_repoHistory_1,29.0,182766796.8,872000.0
cdo/docker/docker-stats-6.txt,cdo_repoSystem_1,29.0,183500800.0,45000.0
cdo/docker/docker-stats-6.txt,cdo_repoHistory_1,33.0,189582540.8,874000.0
cdo/docker/docker-stats-6.txt,cdo_repoSystem_1,33.0,185388236.8,51600.0
cdo/docker/docker-stats-6.txt,cdo_repoHistory_1,37.0,183500800.0,874000.0
cdo/docker/docker-stats-6.txt,cdo_repoSystem_1,37.0,185702809.6,59100.0
cdo/docker/docker-stats-6.txt,cdo_repoHistory_1,40.0,206254899.2,1610000.0
cdo/docker/docker-stats-6.txt,cdo_repoSystem_1,40.0,186227097.6,69100.0
cdo/docker/docker-stats-6.txt,cdo_repoHistory_1,43.0,218523238.4,1610000.0
cdo/docker/docker-stats-6.txt,cdo_repoSystem_1,43.0,186227097.6,72900.0
cdo/docker/docker-stats-6.txt,cdo_repoHistory_1,47.0,218523238.4,1610000.0
cdo/docker/docker-stats-6.txt,cdo_repoSystem_1,47.0,186751385.6,78300.0
cdo/docker/docker-stats-6.txt,cdo_repoHistory_1,50.0,218523238.4,1610000.0
cdo/docker/docker-stats-6.txt,cdo_repoSystem_1,50.0,186646528.0,84500.0
cdo/docker/docker-stats-6.txt,cdo_repoHistory_1,54.0,239704473.6,2450000.0
cdo/docker/docker-stats-6.txt,cdo_repoSystem_1,54.0,187065958.4,88700.0
cdo/docker/docker-stats-6.txt,cdo_repoHistory_1,58.0,239704473.6,2450000.0
cdo/docker/docker-stats-6.txt,cdo_repoSystem_1,58.0,187275673.6,96700.0
cdo/docker/docker-stats-6.txt,cdo_repoHistory_1,61.0,239704473.6,2460000.0
cdo/docker/docker-stats-6.txt,cdo_repoSystem_1,61.0,187380531.2,104000.0
cdo/docker/docker-stats-6.txt,cdo_repoHistory_1,65.0,248827084.8,3210000.0
cdo/docker/docker-stats-6.txt,cdo_repoSystem_1,65.0,187590246.4,112000.0
cdo/docker/docker-stats-6.txt,cdo_repoHistory_1,68.0,248827084.8,3210000.0
cdo/docker/docker-stats-6.txt,cdo_repoSystem_1,68.0,187799961.6,121000.0
cdo/docker/docker-stats-6.txt,cdo_repoHistory_1,72.0,299053875.2,3950000.0
cdo/docker/docker-stats-6.txt,cdo_repoSystem_1,72.0,188009676.8,128000.0
cdo/docker/docker-stats-6.txt,cdo_repoHistory_1,76.0,290560409.6,3950000.0
cdo/docker/docker-stats-6.txt,cdo_repoSystem_1,76.0,188114534.4,134000.0
cdo/docker/docker-stats-6.txt,cdo_repoHistory_1,79.0,290560409.6,3950000.0
cdo/docker/docker-stats-6.txt,cdo_repoSystem_1,79.0,188114534.4,139000.0
cdo/docker/docker-stats-6.txt,cdo_repoHistory_1,83.0,299158732.8,4720000.0
cdo/docker/docker-stats-6.txt,cdo_repoSystem_1,83.0,188219392.0,146000.0
cdo/docker/docker-stats-6.txt,cdo_repoHistory_1,87.0,294440140.8,4720000.0
cdo/docker/docker-stats-6.txt,cdo_repoSystem_1,87.0,188638822.4,158000.0
cdo/docker/docker-stats-6.txt,cdo_repoHistory_1,90.0,294440140.8,4720000.0
cdo/docker/docker-stats-6.txt,cdo_repoSystem_1,90.0,188533964.8,168000.0
cdo/docker/docker-stats-6.txt,cdo_repoHistory_1,94.0,294544998.4,5160000.0
cdo/docker/docker-stats-6.txt,cdo_repoSystem_1,94.0,188953395.2,178000.0
cdo/docker/docker-stats-6.txt,cdo_repoHistory_1,97.0,315097088.0,5540000.0
cdo/docker/docker-stats-6.txt,cdo_repoSystem_1,97.0,188743680.0,186000.0
cdo/docker/docker-stats-6.txt,cdo_repoHistory_1,101.0,315097088.0,5540000.0
cdo/docker/docker-stats-6.txt,cdo_repoSystem_1,101.0,188743680.0,189000.0
cdo/docker/docker-stats-6.txt,cdo_repoHistory_1,105.0,320235110.4,6340000.0
cdo/docker/docker-stats-6.txt,cdo_repoSystem_1,105.0,188848537.6,196000.0
cdo/docker/docker-stats-6.txt,cdo_repoHistory_1,108.0,320969113.6,6340000.0
cdo/docker/docker-stats-6.txt,cdo_repoSystem_1,108.0,188953395.2,202000.0
cdo/docker/docker-stats-6.txt,cdo_repoHistory_1,112.0,320969113.6,6340000.0
cdo/docker/docker-stats-6.txt,cdo_repoSystem_1,112.0,189058252.8,209000.0
cdo/docker/docker-stats-6.txt,cdo_repoHistory_1,116.0,343198924.8,7110000.0
cdo/docker/docker-stats-6.txt,cdo_repoSystem_1,116.0,189372825.6,223000.0
cdo/docker/docker-stats-6.txt,cdo_repoHistory_1,119.0,348127232.0,7110000.0
cdo/docker/docker-stats-6.txt,cdo_repoSystem_1,119.0,189372825.6,230000.0
cdo/docker/docker-stats-6.txt,cdo_repoHistory_1,123.0,348127232.0,7110000.0
cdo/docker/docker-stats-6.txt,cdo_repoSystem_1,123.0,189372825.6,237000.0
cdo/docker/docker-stats-6.txt,cdo_repoHistory_1,126.0,348127232.0,7110000.0
cdo/docker/docker-stats-6.txt,cdo_repoSystem_1,126.0,189372825.6,240000.0
cdo/docker/docker-stats-6.txt,cdo_repoHistory_1,130.0,350958387.2,8180000.0
cdo/docker/docker-stats-6.txt,cdo_repoSystem_1,130.0,189372825.6,245000.0
cdo/docker/docker-stats-6.txt,cdo_repoHistory_1,134.0,350748672.0,8180000.0
cdo/docker/docker-stats-6.txt,cdo_repoSystem_1,134.0,189477683.2,256000.0
cdo/docker/docker-stats-6.txt,cdo_repoHistory_1,137.0,350748672.0,8180000.0
cdo/docker/docker-stats-6.txt,cdo_repoSystem_1,137.0,189582540.8,265000.0
cdo/docker/docker-stats-6.txt,cdo_repoHistory_1,141.0,372559052.8,8950000.0
cdo/docker/docker-stats-6.txt,cdo_repoSystem_1,141.0,189687398.4,274000.0
cdo/docker/docker-stats-6.txt,cdo_repoHistory_1,144.0,372559052.8,8950000.0
cdo/docker/docker-stats-6.txt,cdo_repoSystem_1,144.0,189792256.0,281000.0
cdo/docker/docker-stats-6.txt,cdo_repoHistory_1,148.0,372559052.8,8950000.0
cdo/docker/docker-stats-6.txt,cdo_repoSystem_1,148.0,189792256.0,291000.0
cdo/docker/docker-stats-6.txt,cdo_repoHistory_1,152.0,372873625.6,9740000.0
cdo/docker/docker-stats-6.txt,cdo_repoSystem_1,152.0,189792256.0,295000.0
cdo/docker/docker-stats-6.txt,cdo_repoHistory_1,155.0,372873625.6,9740000.0
cdo/docker/docker-stats-6.txt,cdo_repoSystem_1,155.0,189792256.0,301000.0
cdo/docker/docker-stats-6.txt,cdo_repoHistory_1,159.0,372873625.6,9740000.0
cdo/docker/docker-stats-6.txt,cdo_repoSystem_1,159.0,189792256.0,311000.0
cdo/docker/docker-stats-6.txt,cdo_repoHistory_1,163.0,383673958.4,10500000.0
cdo/docker/docker-stats-6.txt,cdo_repoSystem_1,163.0,189792256.0,315000.0
cdo/docker/docker-stats-6.txt,cdo_repoHistory_1,166.0,383673958.4,10500000.0
cdo/docker/docker-stats-6.txt,cdo_repoSystem_1,166.0,189792256.0,320000.0
cdo/docker/docker-stats-6.txt,cdo_repoHistory_1,170.0,383673958.4,10500000.0
cdo/docker/docker-stats-6.txt,cdo_repoSystem_1,170.0,189897113.6,329000.0
cdo/docker/docker-stats-6.txt,cdo_repoHistory_1,173.0,383778816.0,10500000.0
cdo/docker/docker-stats-6.txt,cdo_repoSystem_1,173.0,189897113.6,330000.0
cdo/docker/docker-stats-7.txt,cdo_repoSystem_1,0.0,89904906.24,6750.0
cdo/docker/docker-stats-7.txt,cdo_repoHistory_1,0.0,64739082.24,2100.0
cdo/docker/docker-stats-7.txt,cdo_repoSystem_1,3.0,176894771.2,10600.0
cdo/docker/docker-stats-7.txt,cdo_repoHistory_1,3.0,170393600.0,11800.0
cdo/docker/docker-stats-7.txt,cdo_repoSystem_1,7.0,180250214.4,12300.0
cdo/docker/docker-stats-7.txt,cdo_repoHistory_1,7.0,170393600.0,12900.0
cdo/docker/docker-stats-7.txt,cdo_repoSystem_1,11.0,164521574.4,12600.0
cdo/docker/docker-stats-7.txt,cdo_repoHistory_1,11.0,162634137.6,12900.0
cdo/docker/docker-stats-7.txt,cdo_repoSystem_1,14.0,164521574.4,13900.0
cdo/docker/docker-stats-7.txt,cdo_repoHistory_1,14.0,162634137.6,13200.0
cdo/docker/docker-stats-7.txt,cdo_repoSystem_1,18.0,175531622.4,20000.0
cdo/docker/docker-stats-7.txt,cdo_repoHistory_1,18.0,162634137.6,15900.0
cdo/docker/docker-stats-7.txt,cdo_repoSystem_1,21.0,182976512.0,38400.0
cdo/docker/docker-stats-7.txt,cdo_repoHistory_1,21.0,165989580.8,20800.0
cdo/docker/docker-stats-7.txt,cdo_repoSystem_1,25.0,177419059.2,41100.0
cdo/docker/docker-stats-7.txt,cdo_repoHistory_1,25.0,165989580.8,20800.0
cdo/docker/docker-stats-7.txt,cdo_repoSystem_1,29.0,177628774.4,46100.0
cdo/docker/docker-stats-7.txt,cdo_repoHistory_1,29.0,173434470.4,854000.0
cdo/docker/docker-stats-7.txt,cdo_repoSystem_1,32.0,178677350.4,53300.0
cdo/docker/docker-stats-7.txt,cdo_repoHistory_1,32.0,183815372.8,856000.0
cdo/docker/docker-stats-7.txt,cdo_repoSystem_1,36.0,178991923.2,61100.0
cdo/docker/docker-stats-7.txt,cdo_repoHistory_1,36.0,183815372.8,856000.0
cdo/docker/docker-stats-7.txt,cdo_repoSystem_1,39.0,179516211.2,69400.0
cdo/docker/docker-stats-7.txt,cdo_repoHistory_1,39.0,183815372.8,856000.0
cdo/docker/docker-stats-7.txt,cdo_repoSystem_1,43.0,179830784.0,74800.0
cdo/docker/docker-stats-7.txt,cdo_repoHistory_1,43.0,236558745.6,1630000.0
cdo/docker/docker-stats-7.txt,cdo_repoSystem_1,47.0,180250214.4,84200.0
cdo/docker/docker-stats-7.txt,cdo_repoHistory_1,47.0,236453888.0,1630000.0
cdo/docker/docker-stats-7.txt,cdo_repoSystem_1,50.0,180250214.4,89300.0
cdo/docker/docker-stats-7.txt,cdo_repoHistory_1,50.0,236453888.0,1630000.0
cdo/docker/docker-stats-7.txt,cdo_repoSystem_1,54.0,180669644.8,95200.0
cdo/docker/docker-stats-7.txt,cdo_repoHistory_1,54.0,284583526.4,2400000.0
cdo/docker/docker-stats-7.txt,cdo_repoSystem_1,58.0,180564787.2,98800.0
cdo/docker/docker-stats-7.txt,cdo_repoHistory_1,58.0,250819379.2,2400000.0
cdo/docker/docker-stats-7.txt,cdo_repoSystem_1,61.0,180774502.4,106000.0
cdo/docker/docker-stats-7.txt,cdo_repoHistory_1,61.0,266757734.4,3110000.0
cdo/docker/docker-stats-7.txt,cdo_repoSystem_1,65.0,181089075.2,114000.0
cdo/docker/docker-stats-7.txt,cdo_repoHistory_1,65.0,253965107.2,3110000.0
cdo/docker/docker-stats-7.txt,cdo_repoSystem_1,69.0,181089075.2,120000.0
cdo/docker/docker-stats-7.txt,cdo_repoHistory_1,69.0,253965107.2,3110000.0
cdo/docker/docker-stats-7.txt,cdo_repoSystem_1,72.0,181298790.4,127000.0
cdo/docker/docker-stats-7.txt,cdo_repoHistory_1,72.0,288043827.2,3850000.0
cdo/docker/docker-stats-7.txt,cdo_repoSystem_1,76.0,181403648.0,133000.0
cdo/docker/docker-stats-7.txt,cdo_repoHistory_1,76.0,288568115.2,3860000.0
cdo/docker/docker-stats-7.txt,cdo_repoSystem_1,80.0,182137651.2,143000.0
cdo/docker/docker-stats-7.txt,cdo_repoHistory_1,80.0,288568115.2,3860000.0
cdo/docker/docker-stats-7.txt,cdo_repoSystem_1,83.0,182137651.2,148000.0
cdo/docker/docker-stats-7.txt,cdo_repoHistory_1,83.0,329043148.8,4670000.0
cdo/docker/docker-stats-7.txt,cdo_repoSystem_1,87.0,182347366.4,155000.0
cdo/docker/docker-stats-7.txt,cdo_repoHistory_1,87.0,329043148.8,4670000.0
cdo/docker/docker-stats-7.txt,cdo_repoSystem_1,91.0,182347366.4,163000.0
cdo/docker/docker-stats-7.txt,cdo_repoHistory_1,91.0,329043148.8,4670000.0
cdo/docker/docker-stats-7.txt,cdo_repoSystem_1,94.0,182347366.4,168000.0
cdo/docker/docker-stats-7.txt,cdo_repoHistory_1,94.0,334810316.8,5400000.0
cdo/docker/docker-stats-7.txt,cdo_repoSystem_1,98.0,182347366.4,174000.0
cdo/docker/docker-stats-7.txt,cdo_repoHistory_1,98.0,334810316.8,5400000.0
cdo/docker/docker-stats-7.txt,cdo_repoSystem_1,101.0,182347366.4,179000.0
cdo/docker/docker-stats-7.txt,cdo_repoHistory_1,101.0,334810316.8,5400000.0
cdo/docker/docker-stats-7.txt,cdo_repoSystem_1,105.0,182661939.2,184000.0
cdo/docker/docker-stats-7.txt,cdo_repoHistory_1,105.0,335649177.6,6140000.0
cdo/docker/docker-stats-7.txt,cdo_repoSystem_1,109.0,182871654.4,195000.0
cdo/docker/docker-stats-7.txt,cdo_repoHistory_1,109.0,335649177.6,6140000.0
cdo/docker/docker-stats-7.txt,cdo_repoSystem_1,111.0,182766796.8,200000.0
cdo/docker/docker-stats-7.txt,cdo_repoHistory_1,111.0,335649177.6,6140000.0
cdo/docker/docker-stats-7.txt,cdo_repoSystem_1,115.0,182976512.0,213000.0
cdo/docker/docker-stats-7.txt,cdo_repoHistory_1,115.0,372244480.0,6960000.0
cdo/docker/docker-stats-7.txt,cdo_repoSystem_1,118.0,182976512.0,219000.0
cdo/docker/docker-stats-7.txt,cdo_repoHistory_1,118.0,383254528.0,6960000.0
cdo/docker/docker-stats-7.txt,cdo_repoSystem_1,122.0,183081369.6,231000.0
cdo/docker/docker-stats-7.txt,cdo_repoHistory_1,122.0,377487360.0,6960000.0
cdo/docker/docker-stats-7.txt,cdo_repoSystem_1,126.0,183081369.6,238000.0
cdo/docker/docker-stats-7.txt,cdo_repoHistory_1,126.0,396571443.2,7770000.0
cdo/docker/docker-stats-7.txt,cdo_repoSystem_1,129.0,183081369.6,243000.0
cdo/docker/docker-stats-7.txt,cdo_repoHistory_1,129.0,396361728.0,7770000.0
cdo/docker/docker-stats-7.txt,cdo_repoSystem_1,133.0,183186227.2,248000.0
cdo/docker/docker-stats-7.txt,cdo_repoHistory_1,133.0,379374796.8,7770000.0
cdo/docker/docker-stats-7.txt,cdo_repoSystem_1,137.0,183186227.2,258000.0
cdo/docker/docker-stats-7.txt,cdo_repoHistory_1,137.0,380108800.0,8490000.0
cdo/docker/docker-stats-7.txt,cdo_repoSystem_1,140.0,183395942.4,267000.0
cdo/docker/docker-stats-7.txt,cdo_repoHistory_1,140.0,380108800.0,8490000.0
cdo/docker/docker-stats-7.txt,cdo_repoSystem_1,144.0,183291084.8,273000.0
cdo/docker/docker-stats-7.txt,cdo_repoHistory_1,144.0,380003942.4,8490000.0
cdo/docker/docker-stats-7.txt,cdo_repoSystem_1,147.0,183291084.8,280000.0
cdo/docker/docker-stats-7.txt,cdo_repoHistory_1,147.0,381157376.0,9310000.0
cdo/docker/docker-stats-7.txt,cdo_repoSystem_1,151.0,183291084.8,285000.0
cdo/docker/docker-stats-7.txt,cdo_repoHistory_1,151.0,381157376.0,9310000.0
cdo/docker/docker-stats-7.txt,cdo_repoSystem_1,155.0,183395942.4,291000.0
cdo/docker/docker-stats-7.txt,cdo_repoHistory_1,155.0,381157376.0,9310000.0
cdo/docker/docker-stats-7.txt,cdo_repoSystem_1,158.0,183500800.0,302000.0
cdo/docker/docker-stats-7.txt,cdo_repoHistory_1,158.0,389231411.2,10000000.0
cdo/docker/docker-stats-7.txt,cdo_repoSystem_1,162.0,183500800.0,306000.0
cdo/docker/docker-stats-7.txt,cdo_repoHistory_1,162.0,389231411.2,10000000.0
cdo/docker/docker-stats-7.txt,cdo_repoSystem_1,165.0,183500800.0,317000.0
cdo/docker/docker-stats-7.txt,cdo_repoHistory_1,165.0,389231411.2,10000000.0
cdo/docker/docker-stats-7.txt,cdo_repoSystem_1,169.0,183500800.0,325000.0
cdo/docker/docker-stats-7.txt,cdo_repoHistory_1,169.0,389336268.8,10800000.0
cdo/docker/docker-stats-7.txt,cdo_repoSystem_1,173.0,183605657.6,326000.0
cdo/docker/docker-stats-7.txt,cdo_repoHistory_1,173.0,389441126.4,10800000.0
cdo/docker/docker-stats-8.txt,cdo_repoHistory_1,0.0,82124472.32,6740.0
cdo/docker/docker-stats-8.txt,cdo_repoSystem_1,0.0,62956503.04,2009.9999999999998
cdo/docker/docker-stats-8.txt,cdo_repoHistory_1,4.0,173015040.0,10600.0
cdo/docker/docker-stats-8.txt,cdo_repoSystem_1,4.0,179935641.6,11800.0
cdo/docker/docker-stats-8.txt,cdo_repoHistory_1,7.0,182766796.8,12300.0
cdo/docker/docker-stats-8.txt,cdo_repoSystem_1,7.0,179935641.6,12400.0
cdo/docker/docker-stats-8.txt,cdo_repoHistory_1,11.0,182452224.0,12800.0
cdo/docker/docker-stats-8.txt,cdo_repoSystem_1,11.0,170288742.4,12700.0
cdo/docker/docker-stats-8.txt,cdo_repoHistory_1,15.0,182452224.0,13100.0
cdo/docker/docker-stats-8.txt,cdo_repoSystem_1,15.0,170288742.4,13500.0
cdo/docker/docker-stats-8.txt,cdo_repoHistory_1,18.0,182452224.0,13600.0
cdo/docker/docker-stats-8.txt,cdo_repoSystem_1,18.0,179516211.2,17500.0
cdo/docker/docker-stats-8.txt,cdo_repoHistory_1,22.0,172176179.2,18000.0
cdo/docker/docker-stats-8.txt,cdo_repoSystem_1,22.0,184129945.6,34300.0
cdo/docker/docker-stats-8.txt,cdo_repoHistory_1,25.0,172176179.2,18000.0
cdo/docker/docker-stats-8.txt,cdo_repoSystem_1,25.0,184339660.8,40000.0
cdo/docker/docker-stats-8.txt,cdo_repoHistory_1,29.0,182032793.6,871000.0
cdo/docker/docker-stats-8.txt,cdo_repoSystem_1,29.0,184549376.0,44200.0
cdo/docker/docker-stats-8.txt,cdo_repoHistory_1,33.0,188324249.6,872000.0
cdo/docker/docker-stats-8.txt,cdo_repoSystem_1,33.0,186436812.8,50800.0
cdo/docker/docker-stats-8.txt,cdo_repoHistory_1,36.0,188219392.0,872000.0
cdo/docker/docker-stats-8.txt,cdo_repoSystem_1,36.0,186646528.0,56500.0
cdo/docker/docker-stats-8.txt,cdo_repoHistory_1,40.0,196922572.8,1260000.0
cdo/docker/docker-stats-8.txt,cdo_repoSystem_1,40.0,187065958.4,68200.0
cdo/docker/docker-stats-8.txt,cdo_repoHistory_1,44.0,234147020.8,1620000.0
cdo/docker/docker-stats-8.txt,cdo_repoSystem_1,44.0,187380531.2,74500.0
cdo/docker/docker-stats-8.txt,cdo_repoHistory_1,47.0,227226419.2,1620000.0
cdo/docker/docker-stats-8.txt,cdo_repoSystem_1,47.0,187485388.8,78200.0
cdo/docker/docker-stats-8.txt,cdo_repoHistory_1,51.0,230057574.4,2049999.9999999998
cdo/docker/docker-stats-8.txt,cdo_repoSystem_1,51.0,187590246.4,84300.0
cdo/docker/docker-stats-8.txt,cdo_repoHistory_1,54.0,256691404.8,2460000.0
cdo/docker/docker-stats-8.txt,cdo_repoSystem_1,54.0,188009676.8,89100.0
cdo/docker/docker-stats-8.txt,cdo_repoHistory_1,58.0,256691404.8,2460000.0
cdo/docker/docker-stats-8.txt,cdo_repoSystem_1,58.0,188219392.0,97500.0
cdo/docker/docker-stats-8.txt,cdo_repoHistory_1,62.0,256691404.8,2460000.0
cdo/docker/docker-stats-8.txt,cdo_repoSystem_1,62.0,188638822.4,109000.0
cdo/docker/docker-stats-8.txt,cdo_repoHistory_1,65.0,292133273.6,3250000.0
cdo/docker/docker-stats-8.txt,cdo_repoSystem_1,65.0,188743680.0,116000.0
cdo/docker/docker-stats-8.txt,cdo_repoHistory_1,69.0,292028416.0,3250000.0
cdo/docker/docker-stats-8.txt,cdo_repoSystem_1,69.0,189058252.8,126000.0
cdo/docker/docker-stats-8.txt,cdo_repoHistory_1,73.0,293391564.8,3940000.0
cdo/docker/docker-stats-8.txt,cdo_repoSystem_1,73.0,189163110.4,136000.0
cdo/docker/docker-stats-8.txt,cdo_repoHistory_1,76.0,311741644.8,4090000.0
cdo/docker/docker-stats-8.txt,cdo_repoSystem_1,76.0,189372825.6,142000.0
cdo/docker/docker-stats-8.txt,cdo_repoHistory_1,80.0,311741644.8,4090000.0
cdo/docker/docker-stats-8.txt,cdo_repoSystem_1,80.0,189267968.0,147000.0
cdo/docker/docker-stats-8.txt,cdo_repoHistory_1,84.0,311741644.8,4090000.0
cdo/docker/docker-stats-8.txt,cdo_repoSystem_1,84.0,189372825.6,154000.0
cdo/docker/docker-stats-8.txt,cdo_repoHistory_1,87.0,334495744.0,4750000.0
cdo/docker/docker-stats-8.txt,cdo_repoSystem_1,87.0,189477683.2,160000.0
cdo/docker/docker-stats-8.txt,cdo_repoHistory_1,91.0,334495744.0,4750000.0
cdo/docker/docker-stats-8.txt,cdo_repoSystem_1,91.0,190001971.2,174000.0
cdo/docker/docker-stats-8.txt,cdo_repoHistory_1,94.0,341835776.0,5610000.0
cdo/docker/docker-stats-8.txt,cdo_repoSystem_1,94.0,190316544.0,182000.0
cdo/docker/docker-stats-8.txt,cdo_repoHistory_1,98.0,341835776.0,5610000.0
cdo/docker/docker-stats-8.txt,cdo_repoSystem_1,98.0,190106828.8,190000.0
cdo/docker/docker-stats-8.txt,cdo_repoHistory_1,102.0,341835776.0,5610000.0
cdo/docker/docker-stats-8.txt,cdo_repoSystem_1,102.0,190106828.8,198000.0
cdo/docker/docker-stats-8.txt,cdo_repoHistory_1,105.0,367421030.4,6380000.0
cdo/docker/docker-stats-8.txt,cdo_repoSystem_1,105.0,190106828.8,204000.0
cdo/docker/docker-stats-8.txt,cdo_repoHistory_1,109.0,367421030.4,6380000.0
cdo/docker/docker-stats-8.txt,cdo_repoSystem_1,109.0,190421401.6,210000.0
cdo/docker/docker-stats-8.txt,cdo_repoHistory_1,113.0,367421030.4,6380000.0
cdo/docker/docker-stats-8.txt,cdo_repoSystem_1,113.0,190316544.0,216000.0
cdo/docker/docker-stats-8.txt,cdo_repoHistory_1,116.0,367525888.0,7080000.0
cdo/docker/docker-stats-8.txt,cdo_repoSystem_1,116.0,190421401.6,223000.0
cdo/docker/docker-stats-8.txt,cdo_repoHistory_1,120.0,367525888.0,7080000.0
cdo/docker/docker-stats-8.txt,cdo_repoSystem_1,120.0,190526259.2,232000.0
cdo/docker/docker-stats-8.txt,cdo_repoHistory_1,123.0,367525888.0,7080000.0
cdo/docker/docker-stats-8.txt,cdo_repoSystem_1,123.0,190526259.2,237000.0
cdo/docker/docker-stats-8.txt,cdo_repoHistory_1,127.0,382835097.6,7900000.0
cdo/docker/docker-stats-8.txt,cdo_repoSystem_1,127.0,190421401.6,243000.0
cdo/docker/docker-stats-8.txt,cdo_repoHistory_1,131.0,382835097.6,7900000.0
cdo/docker/docker-stats-8.txt,cdo_repoSystem_1,131.0,190421401.6,250000.0
cdo/docker/docker-stats-8.txt,cdo_repoHistory_1,134.0,382835097.6,7900000.0
cdo/docker/docker-stats-8.txt,cdo_repoSystem_1,134.0,190945689.6,260000.0
cdo/docker/docker-stats-8.txt,cdo_repoHistory_1,138.0,383464243.2,8660000.0
cdo/docker/docker-stats-8.txt,cdo_repoSystem_1,138.0,190735974.4,271000.0
cdo/docker/docker-stats-8.txt,cdo_repoHistory_1,141.0,383464243.2,8660000.0
cdo/docker/docker-stats-8.txt,cdo_repoSystem_1,141.0,190735974.4,282000.0
cdo/docker/docker-stats-8.txt,cdo_repoHistory_1,145.0,383464243.2,8660000.0
cdo/docker/docker-stats-8.txt,cdo_repoSystem_1,145.0,190840832.0,292000.0
cdo/docker/docker-stats-8.txt,cdo_repoHistory_1,149.0,392481996.8,9540000.0
cdo/docker/docker-stats-8.txt,cdo_repoSystem_1,149.0,190735974.4,296000.0
cdo/docker/docker-stats-8.txt,cdo_repoHistory_1,152.0,392481996.8,9540000.0
cdo/docker/docker-stats-8.txt,cdo_repoSystem_1,152.0,190840832.0,305000.0
cdo/docker/docker-stats-8.txt,cdo_repoHistory_1,156.0,392481996.8,9540000.0
cdo/docker/docker-stats-8.txt,cdo_repoSystem_1,156.0,190840832.0,316000.0
cdo/docker/docker-stats-8.txt,cdo_repoHistory_1,160.0,393320857.6,10400000.0
cdo/docker/docker-stats-8.txt,cdo_repoSystem_1,160.0,190945689.6,324000.0
cdo/docker/docker-stats-8.txt,cdo_repoHistory_1,163.0,393006284.8,10400000.0
cdo/docker/docker-stats-8.txt,cdo_repoSystem_1,163.0,190945689.6,329000.0
cdo/docker/docker-stats-8.txt,cdo_repoHistory_1,167.0,393006284.8,10400000.0
cdo/docker/docker-stats-8.txt,cdo_repoSystem_1,167.0,190945689.6,333000.0
cdo/docker/docker-stats-8.txt,cdo_repoHistory_1,170.0,393006284.8,10400000.0
cdo/docker/docker-stats-8.txt,cdo_repoSystem_1,170.0,190945689.6,338000.0
cdo/docker/docker-stats-9.txt,cdo_repoHistory_1,0.0,88216698.88,7060.0
cdo/docker/docker-stats-9.txt,cdo_repoSystem_1,0.0,66049802.24,4400.0
cdo/docker/docker-stats-9.txt,cdo_repoHistory_1,3.0,174063616.0,12400.0
cdo/docker/docker-stats-9.txt,cdo_repoSystem_1,3.0,161690419.2,12300.0
cdo/docker/docker-stats-9.txt,cdo_repoHistory_1,7.0,174063616.0,15300.0
cdo/docker/docker-stats-9.txt,cdo_repoSystem_1,7.0,170813030.4,15300.0
cdo/docker/docker-stats-9.txt,cdo_repoHistory_1,11.0,169240166.4,15300.0
cdo/docker/docker-stats-9.txt,cdo_repoSystem_1,11.0,157915545.6,15300.0
cdo/docker/docker-stats-9.txt,cdo_repoHistory_1,14.0,169240166.4,15900.0
cdo/docker/docker-stats-9.txt,cdo_repoSystem_1,14.0,157915545.6,15900.0
cdo/docker/docker-stats-9.txt,cdo_repoHistory_1,18.0,186017382.4,20200.0
cdo/docker/docker-stats-9.txt,cdo_repoSystem_1,18.0,157915545.6,16100.000000000002
cdo/docker/docker-stats-9.txt,cdo_repoHistory_1,21.0,182137651.2,20200.0
cdo/docker/docker-stats-9.txt,cdo_repoSystem_1,21.0,184025088.0,35500.0
cdo/docker/docker-stats-9.txt,cdo_repoHistory_1,25.0,182137651.2,20200.0
cdo/docker/docker-stats-9.txt,cdo_repoSystem_1,25.0,175636480.0,40800.0
cdo/docker/docker-stats-9.txt,cdo_repoHistory_1,29.0,182137651.2,20300.0
cdo/docker/docker-stats-9.txt,cdo_repoSystem_1,29.0,175846195.2,47600.0
cdo/docker/docker-stats-9.txt,cdo_repoHistory_1,32.0,201326592.0,919000.0
cdo/docker/docker-stats-9.txt,cdo_repoSystem_1,32.0,176475340.8,53400.0
cdo/docker/docker-stats-9.txt,cdo_repoHistory_1,36.0,201326592.0,919000.0
cdo/docker/docker-stats-9.txt,cdo_repoSystem_1,36.0,176999628.8,60300.0
cdo/docker/docker-stats-9.txt,cdo_repoHistory_1,40.0,209715200.0,1790000.0
cdo/docker/docker-stats-9.txt,cdo_repoSystem_1,40.0,177104486.4,68300.0
cdo/docker/docker-stats-9.txt,cdo_repoHistory_1,43.0,245681356.8,1790000.0
cdo/docker/docker-stats-9.txt,cdo_repoSystem_1,43.0,177523916.8,75000.0
cdo/docker/docker-stats-9.txt,cdo_repoHistory_1,47.0,245681356.8,1790000.0
cdo/docker/docker-stats-9.txt,cdo_repoSystem_1,47.0,177838489.6,83100.0
cdo/docker/docker-stats-9.txt,cdo_repoHistory_1,51.0,260780851.2,2520000.0
cdo/docker/docker-stats-9.txt,cdo_repoSystem_1,51.0,177733632.0,86800.0
cdo/docker/docker-stats-9.txt,cdo_repoHistory_1,54.0,247463936.0,2520000.0
cdo/docker/docker-stats-9.txt,cdo_repoSystem_1,54.0,178048204.8,92800.0
cdo/docker/docker-stats-9.txt,cdo_repoHistory_1,58.0,247463936.0,2520000.0
cdo/docker/docker-stats-9.txt,cdo_repoSystem_1,58.0,178467635.2,101000.0
cdo/docker/docker-stats-9.txt,cdo_repoHistory_1,62.0,301570457.6,3290000.0
cdo/docker/docker-stats-9.txt,cdo_repoSystem_1,62.0,178677350.4,111000.0
cdo/docker/docker-stats-9.txt,cdo_repoHistory_1,65.0,301570457.6,3290000.0
cdo/docker/docker-stats-9.txt,cdo_repoSystem_1,65.0,178991923.2,120000.0
cdo/docker/docker-stats-9.txt,cdo_repoHistory_1,69.0,301570457.6,3290000.0
cdo/docker/docker-stats-9.txt,cdo_repoSystem_1,69.0,178887065.6,126000.0
cdo/docker/docker-stats-9.txt,cdo_repoHistory_1,72.0,313419366.4,3990000.0
cdo/docker/docker-stats-9.txt,cdo_repoSystem_1,72.0,178991923.2,131000.0
cdo/docker/docker-stats-9.txt,cdo_repoHistory_1,76.0,308071628.8,3990000.0
cdo/docker/docker-stats-9.txt,cdo_repoSystem_1,76.0,179201638.4,139000.0
cdo/docker/docker-stats-9.txt,cdo_repoHistory_1,80.0,308071628.8,3990000.0
cdo/docker/docker-stats-9.txt,cdo_repoSystem_1,80.0,179516211.2,148000.0
cdo/docker/docker-stats-9.txt,cdo_repoHistory_1,83.0,330406297.6,4740000.0
cdo/docker/docker-stats-9.txt,cdo_repoSystem_1,83.0,179621068.8,156000.0
cdo/docker/docker-stats-9.txt,cdo_repoHistory_1,87.0,330406297.6,4740000.0
cdo/docker/docker-stats-9.txt,cdo_repoSystem_1,87.0,179725926.4,164000.0
cdo/docker/docker-stats-9.txt,cdo_repoHistory_1,91.0,330406297.6,4740000.0
cdo/docker/docker-stats-9.txt,cdo_repoSystem_1,91.0,179830784.0,168000.0
cdo/docker/docker-stats-9.txt,cdo_repoHistory_1,94.0,371195904.0,5520000.0
cdo/docker/docker-stats-9.txt,cdo_repoSystem_1,94.0,179935641.6,174000.0
cdo/docker/docker-stats-9.txt,cdo_repoHistory_1,98.0,371195904.0,5520000.0
cdo/docker/docker-stats-9.txt,cdo_repoSystem_1,98.0,180040499.2,182000.0
cdo/docker/docker-stats-9.txt,cdo_repoHistory_1,102.0,371195904.0,5520000.0
cdo/docker/docker-stats-9.txt,cdo_repoSystem_1,102.0,180459929.6,190000.0
cdo/docker/docker-stats-9.txt,cdo_repoHistory_1,105.0,378221363.2,6300000.0
cdo/docker/docker-stats-9.txt,cdo_repoSystem_1,105.0,180879360.0,201000.0
cdo/docker/docker-stats-9.txt,cdo_repoHistory_1,109.0,378011648.0,6300000.0
cdo/docker/docker-stats-9.txt,cdo_repoSystem_1,109.0,180879360.0,209000.0
cdo/docker/docker-stats-9.txt,cdo_repoHistory_1,113.0,378011648.0,6300000.0
cdo/docker/docker-stats-9.txt,cdo_repoSystem_1,113.0,180984217.6,218000.0
cdo/docker/docker-stats-9.txt,cdo_repoHistory_1,116.0,378535936.0,7230000.0
cdo/docker/docker-stats-9.txt,cdo_repoSystem_1,116.0,180984217.6,225000.0
cdo/docker/docker-stats-9.txt,cdo_repoHistory_1,120.0,374236774.4,7230000.0
cdo/docker/docker-stats-9.txt,cdo_repoSystem_1,120.0,181298790.4,237000.0
cdo/docker/docker-stats-9.txt,cdo_repoHistory_1,123.0,374236774.4,7230000.0
cdo/docker/docker-stats-9.txt,cdo_repoSystem_1,123.0,181193932.8,243000.0
cdo/docker/docker-stats-9.txt,cdo_repoHistory_1,127.0,391538278.4,8080000.0
cdo/docker/docker-stats-9.txt,cdo_repoSystem_1,127.0,181193932.8,256000.0
cdo/docker/docker-stats-9.txt,cdo_repoHistory_1,131.0,391538278.4,8080000.0
cdo/docker/docker-stats-9.txt,cdo_repoSystem_1,131.0,181193932.8,263000.0
cdo/docker/docker-stats-9.txt,cdo_repoHistory_1,134.0,391538278.4,8080000.0
cdo/docker/docker-stats-9.txt,cdo_repoSystem_1,134.0,181193932.8,272000.0
cdo/docker/docker-stats-9.txt,cdo_repoHistory_1,138.0,393425715.2,8910000.0
cdo/docker/docker-stats-9.txt,cdo_repoSystem_1,138.0,181193932.8,278000.0
cdo/docker/docker-stats-9.txt,cdo_repoHistory_1,141.0,393111142.4,8910000.0
cdo/docker/docker-stats-9.txt,cdo_repoSystem_1,141.0,181193932.8,284000.0
cdo/docker/docker-stats-9.txt,cdo_repoHistory_1,145.0,393111142.4,8910000.0
cdo/docker/docker-stats-9.txt,cdo_repoSystem_1,145.0,181193932.8,290000.0
cdo/docker/docker-stats-9.txt,cdo_repoHistory_1,148.0,406532915.2,9700000.0
cdo/docker/docker-stats-9.txt,cdo_repoSystem_1,148.0,181298790.4,297000.0
cdo/docker/docker-stats-9.txt,cdo_repoHistory_1,151.0,406532915.2,9700000.0
cdo/docker/docker-stats-9.txt,cdo_repoSystem_1,151.0,181298790.4,302000.0
cdo/docker/docker-stats-9.txt,cdo_repoHistory_1,155.0,406532915.2,9700000.0
cdo/docker/docker-stats-9.txt,cdo_repoSystem_1,155.0,181298790.4,305000.0
cdo/docker/docker-stats-9.txt,cdo_repoHistory_1,159.0,406952345.6,10400000.0
cdo/docker/docker-stats-9.txt,cdo_repoSystem_1,159.0,181298790.4,313000.0
cdo/docker/docker-stats-9.txt,cdo_repoHistory_1,162.0,406847488.0,10400000.0
cdo/docker/docker-stats-9.txt,cdo_repoSystem_1,162.0,181298790.4,320000.0
cdo/docker/docker-stats-9.txt,cdo_repoHistory_1,166.0,406847488.0,10400000.0
cdo/docker/docker-stats-9.txt,cdo_repoSystem_1,166.0,181298790.4,324000.0
cdo/docker/docker-stats-9.txt,cdo_repoHistory_1,169.0,416389529.6,11200000.0
cdo/docker/docker-stats-9.txt,cdo_repoSystem_1,169.0,181298790.4,329000.0
