elapsedWallClockMillis,totalMemoryBytes
16,1218672
1134,1613872
2140,1613040
3155,1616496
4168,1615248
5181,1609168
6195,1609056
7209,1610056
8222,1612192
9234,1612016
10251,1609176
11265,1609032
12278,1611584
13294,1611640
14307,1613240
15321,1612592
16333,1613176
17355,1613808
18366,1612424
19381,1613776
20391,1611272
21403,1613232
22415,1613048
23430,1613768
24449,1614088
25464,1612992
26480,1612256
27490,1613080
28504,1613976
29519,1614720
30534,1614992
31550,1614384
32568,1615680
33581,1616304
34597,1612072
35610,1614976
36624,1613840
37636,1616664
38651,1615888
39663,1613208
40676,1614832
41691,1613864
42704,1614784
43715,1613656
44729,1613872
45739,1614272
46750,1614624
47763,1614584
48780,1614032
49796,1614216
50816,1614840
51832,1615016
52849,1616056
53865,1616528
54876,1614584
55884,1614200
56896,1614576
57911,1615432
58923,1615728
59933,1614792
60948,1615128
61964,1614184
62976,1615064
63997,1611976
65010,1615320
66030,1615064
67043,1615976
68053,1615928
69066,1613592
70084,1614184
71099,1614456
72113,1614672
73128,1616056
74141,1615328
75154,1614160
76169,1616408
77182,1616648
78195,1616392
79210,1613992
80223,1614744
81235,1615760
82247,1616872
83261,1615472
84275,1613336
85289,1612928
86299,1614912
87307,1614752
88320,1615216
89332,1614648
90347,1616776
91356,1616384
92369,1615624
93382,1613408
94396,1614256
95408,1615800
96423,1616424
97436,1616416
98451,1614384
99479,1616592
100494,1618360
101507,1618592
102528,1620480
103192,1610224
