elapsedWallClockMillis,totalMemoryBytes
17,1217296
1107,1615344
2116,1614376
3123,1615888
4131,1616040
5144,1606120
6156,1611136
7167,1609928
8179,1610976
9192,1612256
10209,1609352
11225,1609416
12236,1612432
13247,1610720
14261,1612224
15279,1611224
16290,1612296
17304,1613168
18317,1613176
19332,1613544
20342,1610728
21354,1611760
22373,1613408
23388,1612552
24402,1613304
25415,1610872
26429,1613640
27442,1613520
28460,1613296
29476,1615096
30486,1610368
31500,1616680
32512,1616088
33526,1616168
34538,1613600
35552,1614424
36565,1614624
37576,1616960
38590,1613128
39603,1613232
40617,1614664
41632,1614440
42646,1615448
43660,1615176
44677,1611768
45689,1614552
46703,1614112
47715,1615376
48731,1615432
49743,1611960
50759,1615544
51774,1613656
52789,1613224
53801,1615960
54812,1614288
55826,1614400
56836,1615904
57848,1614864
58863,1615624
59878,1614152
60891,1615240
61907,1614776
62920,1615048
63935,1611400
64949,1615176
65963,1614712
66977,1616248
67992,1616376
69005,1614008
70015,1612120
71029,1615552
72041,1613744
73053,1615840
74067,1614536
75078,1614544
76098,1617168
77105,1615504
78119,1616496
79131,1613848
80144,1614904
81150,1617312
82164,1613952
83175,1615456
84187,1614376
85200,1612968
86212,1614848
87222,1615792
88233,1614640
89252,1614632
90265,1612816
91277,1614528
92295,1615776
93308,1617816
94328,1613464
95340,1615712
96355,1616584
97370,1616120
98383,1614048
99395,1616392
100407,1619864
101424,1620416
102435,1620120
103211,1610400
