elapsedWallClockMillis,totalMemoryBytes
10,1217576
1112,1614160
2128,1616424
3142,1616232
4155,1616088
5166,1609936
6177,1611608
7192,1611296
8203,1611576
9216,1609800
10227,1609536
11238,1610424
12252,1610656
13265,1611488
14277,1611344
15293,1612504
16308,1612640
17321,1614352
18335,1613368
19349,1613600
20359,1614184
21377,1612712
22387,1612160
23398,1612992
24411,1614160
25424,1612936
26438,1613928
27451,1613712
28461,1613600
29477,1614888
30494,1615448
31506,1615296
32521,1616440
33535,1614888
34549,1612400
35562,1613088
36578,1614008
37587,1617624
38606,1615728
39620,1613408
40632,1614480
41652,1614640
42663,1615504
43675,1615144
44690,1613296
45705,1614488
46724,1616312
47738,1615024
48749,1615024
49761,1613920
50776,1615008
51789,1614800
52802,1614416
53820,1616112
54832,1613984
55843,1614872
56857,1613752
57869,1615064
58886,1615512
59899,1613592
60914,1614848
61925,1615776
62940,1614792
63953,1612248
64967,1615616
65980,1615104
66990,1616096
68004,1614240
69019,1613368
70034,1615568
71047,1613568
72062,1613928
73076,1615488
74093,1614656
75105,1614480
76118,1616104
77132,1617000
78145,1615240
79157,1615584
80173,1615224
81185,1616608
82201,1615920
83215,1616728
84226,1613504
85240,1615032
86257,1613832
87269,1614560
88294,1615152
89307,1616336
90328,1614592
91342,1615176
92354,1615728
93369,1612936
94384,1613984
95403,1616096
96414,1615984
97430,1617456
98441,1611760
99453,1616064
100466,1618632
101479,1618312
102494,1618568
103216,1610328
