elapsedWallClockMillis,totalMemoryBytes
11,1218704
1111,1615184
2121,1615792
3135,1615600
4145,1616040
5158,1609384
6172,1607784
7184,1610216
8198,1612016
9209,1612016
10227,1609792
11240,1611240
12255,1610248
13268,1612352
14283,1612504
15297,1609552
16312,1613408
17326,1613208
18339,1614680
19353,1613944
20364,1613656
21377,1613728
22392,1615048
23406,1614488
24417,1615208
25435,1613352
26449,1613928
27462,1614712
28476,1615480
29490,1613848
30503,1611424
31518,1612568
32534,1613344
33548,1614040
34568,1610720
35583,1613536
36594,1613136
37605,1613592
38620,1615928
39632,1611360
40640,1608920
41650,1611936
42662,1614000
43675,1614472
44682,1611744
45695,1614560
46709,1611656
47720,1614616
48736,1614720
49751,1613760
50759,1615232
51771,1616608
52783,1616272
53796,1616688
54806,1613464
55820,1613504
56835,1614536
57847,1615944
58863,1615976
59879,1615440
60893,1615776
61904,1617536
62919,1618144
63931,1612080
64947,1614264
65959,1614728
66977,1614280
67992,1615608
68999,1611728
70014,1615096
71027,1614552
72043,1615768
73054,1615864
74068,1612952
75087,1613736
76103,1615360
77120,1616000
78133,1613960
79143,1613816
80158,1615304
81178,1614872
82192,1615816
83204,1613768
84219,1615336
85232,1615056
86244,1616208
87257,1617248
88271,1616240
89286,1613232
90307,1614264
91324,1615088
92340,1615208
93350,1611080
94364,1614408
95379,1611944
96396,1615520
97410,1615872
98423,1613448
99437,1614968
100451,1616912
101467,1616728
102480,1616744
103491,1614576
104503,1616752
105516,1617128
106532,1613616
107553,1618488
108566,1616648
109582,1616408
110596,1616760
111610,1617344
112621,1615128
113633,1617104
114644,1617624
115661,1615040
116672,1617560
117684,1618608
118708,1614904
119722,1615984
120741,1617864
121752,1618328
122762,1613104
123774,1616488
124784,1617032
125802,1617264
126812,1618512
127828,1615768
128841,1618320
129853,1617472
130869,1618032
131883,1617592
132896,1614776
133910,1617616
134924,1618184
135938,1618248
136955,1617784
137966,1618728
138979,1619000
139997,1618688
141011,1617672
142028,1620144
143038,1616776
144055,1617144
145068,1619864
146080,1618744
147095,1617416
148111,1617600
149125,1618040
150137,1617584
151152,1616864
152159,1618984
153176,1617416
154191,1618000
155207,1617976
156232,1619328
157248,1613456
158264,1618760
159276,1617800
160294,1618800
161308,1620104
162322,1618336
163338,1618392
164349,1618000
165362,1619680
166376,1620432
167391,1617680
168406,1619296
169422,1618448
170438,1620344
171453,1618416
172468,1615168
173482,1616664
174496,1616728
175511,1617208
176527,1617408
177539,1617360
178556,1618480
179572,1620104
180582,1620088
181598,1611992
182609,1617464
183621,1616536
184633,1617808
185644,1617592
186665,1618704
187678,1616872
188692,1616664
189704,1616024
190718,1616224
191731,1617192
192743,1618152
193760,1617144
194773,1616480
195785,1617664
196801,1617088
197814,1617224
198828,1621856
199839,1621064
200862,1616152
201875,1616008
202884,1616896
203895,1616952
204908,1617560
205923,1617360
206946,1621696
207959,1621608
208970,1621512
209984,1617856
211006,1616384
212020,1618080
213032,1617264
214048,1616560
215069,1622464
216081,1621200
217103,1616480
218115,1617176
219129,1616944
220143,1615824
221156,1617656
222167,1618264
223179,1618928
224193,1622600
225210,1618104
226221,1617032
227235,1617520
228264,1617888
229281,1617752
230300,1617424
231312,1620104
232322,1620448
233340,1617128
234354,1615528
235366,1616808
236380,1616808
237395,1617016
238411,1617928
239432,1621048
240448,1622120
241457,1618520
242469,1613536
243483,1615688
244495,1616920
245519,1618808
246532,1617880
247549,1620344
248561,1621688
249586,1616584
250596,1615256
251612,1616320
252627,1617600
253641,1617616
254656,1620664
255670,1620488
256693,1621064
257707,1618904
258720,1616688
259740,1615760
260753,1617152
261766,1615752
262777,1613744
263790,1621120
264804,1622120
265819,1616584
266833,1616600
267856,1617488
268871,1615736
269886,1614032
270898,1620552
271914,1619672
272930,1622200
273948,1621088
274960,1616312
275972,1615360
276987,1618088
277997,1616888
279011,1616488
280026,1620000
281049,1621920
282062,1615672
283074,1615736
284095,1617160
285110,1618056
286122,1617080
287146,1614320
288153,1620936
289168,1621800
290182,1622248
291196,1615112
292208,1612960
293223,1616440
294246,1616376
295256,1617208
296269,1621648
297292,1619672
298305,1616008
299328,1615600
300339,1616648
301349,1616328
302373,1618664
303383,1618984
304400,1622168
305423,1621312
306440,1620032
307456,1616200
308472,1615456
309484,1617960
310506,1616280
311520,1612096
312535,1620472
313562,1620744
314576,1616024
315587,1616008
316606,1617216
317622,1617608
318644,1617272
319656,1621256
320669,1621744
321683,1621456
322695,1622624
323711,1616720
324721,1616328
325736,1616824
326749,1617456
327766,1615704
328781,1621880
329794,1620640
330806,1617080
331827,1614952
332841,1618488
333858,1617552
334870,1617480
335888,1615848
336902,1621616
337912,1618376
338928,1620536
339942,1616480
340954,1615240
341964,1617680
342973,1617760
343988,1615104
345013,1620544
346028,1620896
347042,1616696
348060,1616952
349075,1618024
350098,1617352
351112,1617488
352125,1619360
353145,1619736
354158,1621240
355172,1616296
356194,1615752
357207,1616336
358220,1615608
359233,1616928
360248,1617208
361261,1620432
362271,1619432
363284,1615568
364296,1615208
365312,1618160
366326,1617168
367333,1617704
368343,1620400
369351,1620216
370364,1623240
371376,1620016
372392,1615416
373407,1615368
374420,1617216
375435,1617280
376448,1616816
377471,1620464
378486,1621176
379501,1616608
380508,1615856
381521,1617424
382533,1616072
383553,1617400
383572,1610168
