Feb 12 02:31:31 CONTAINER ID   NAME      CPU %     MEM USAGE / LIMIT   MEM %     NET I/O   BLOCK I/O   PIDS
Feb 12 02:31:35 CONTAINER ID   NAME                          CPU %     MEM USAGE / LIMIT     MEM %     NET I/O       BLOCK I/O     PIDS
Feb 12 02:31:35 dc94419ce2b6   janus-inmemory_repoSystem_1   187.05%   85.18MiB / 15.07GiB   0.55%     7.27kB / 0B   0B / 0B       30
Feb 12 02:31:35 f88f257851aa   janus-inmemory_janusgraph_1   160.69%   85.06MiB / 15.07GiB   0.55%     4.35kB / 0B   0B / 20.5kB   18
Feb 12 02:31:38 CONTAINER ID   NAME                          CPU %     MEM USAGE / LIMIT     MEM %     NET I/O       BLOCK I/O     PIDS
Feb 12 02:31:38 dc94419ce2b6   janus-inmemory_repoSystem_1   184.91%   152.1MiB / 15.07GiB   0.99%     11.2kB / 0B   0B / 1.76MB   36
Feb 12 02:31:38 f88f257851aa   janus-inmemory_janusgraph_1   185.24%   664.3MiB / 15.07GiB   4.31%     11.6kB / 0B   0B / 77.8kB   21
Feb 12 02:31:42 CONTAINER ID   NAME                          CPU %     MEM USAGE / LIMIT     MEM %     NET I/O       BLOCK I/O     PIDS
Feb 12 02:31:42 dc94419ce2b6   janus-inmemory_repoSystem_1   0.15%     161.3MiB / 15.07GiB   1.05%     12.6kB / 0B   0B / 1.76MB   38
Feb 12 02:31:42 f88f257851aa   janus-inmemory_janusgraph_1   300.92%   733.6MiB / 15.07GiB   4.75%     12.4kB / 0B   0B / 77.8kB   23
Feb 12 02:31:45 CONTAINER ID   NAME                          CPU %     MEM USAGE / LIMIT     MEM %     NET I/O       BLOCK I/O     PIDS
Feb 12 02:31:45 dc94419ce2b6   janus-inmemory_repoSystem_1   0.17%     160.9MiB / 15.07GiB   1.04%     12.6kB / 0B   0B / 1.76MB   33
Feb 12 02:31:45 f88f257851aa   janus-inmemory_janusgraph_1   0.16%     751MiB / 15.07GiB     4.87%     12.6kB / 0B   0B / 77.8kB   23
Feb 12 02:31:49 CONTAINER ID   NAME                          CPU %     MEM USAGE / LIMIT     MEM %     NET I/O       BLOCK I/O     PIDS
Feb 12 02:31:49 dc94419ce2b6   janus-inmemory_repoSystem_1   0.17%     160.9MiB / 15.07GiB   1.04%     13.3kB / 0B   0B / 1.76MB   33
Feb 12 02:31:49 f88f257851aa   janus-inmemory_janusgraph_1   304.31%   695.6MiB / 15.07GiB   4.51%     13.1kB / 0B   0B / 111kB    21
Feb 12 02:31:53 CONTAINER ID   NAME                          CPU %     MEM USAGE / LIMIT     MEM %     NET I/O           BLOCK I/O     PIDS
Feb 12 02:31:53 dc94419ce2b6   janus-inmemory_repoSystem_1   55.36%    165.9MiB / 15.07GiB   1.07%     17.3kB / 2.21kB   0B / 1.76MB   43
Feb 12 02:31:53 f88f257851aa   janus-inmemory_janusgraph_1   27.92%    734.2MiB / 15.07GiB   4.76%     13.3kB / 0B       0B / 111kB    22
Feb 12 02:31:56 CONTAINER ID   NAME                          CPU %     MEM USAGE / LIMIT     MEM %     NET I/O           BLOCK I/O     PIDS
Feb 12 02:31:56 dc94419ce2b6   janus-inmemory_repoSystem_1   4.73%     172.3MiB / 15.07GiB   1.12%     33.6kB / 17.7kB   0B / 1.76MB   43
Feb 12 02:31:56 f88f257851aa   janus-inmemory_janusgraph_1   128.96%   718.1MiB / 15.07GiB   4.65%     47.2kB / 18kB     0B / 111kB    51
Feb 12 02:32:00 CONTAINER ID   NAME                          CPU %     MEM USAGE / LIMIT     MEM %     NET I/O         BLOCK I/O     PIDS
Feb 12 02:32:00 dc94419ce2b6   janus-inmemory_repoSystem_1   2.47%     172.4MiB / 15.07GiB   1.12%     39kB / 20.1kB   0B / 1.76MB   43
Feb 12 02:32:00 f88f257851aa   janus-inmemory_janusgraph_1   209.12%   725.7MiB / 15.07GiB   4.70%     356kB / 171kB   0B / 111kB    51
Feb 12 02:32:04 CONTAINER ID   NAME                          CPU %     MEM USAGE / LIMIT     MEM %     NET I/O           BLOCK I/O     PIDS
Feb 12 02:32:04 dc94419ce2b6   janus-inmemory_repoSystem_1   2.44%     172.8MiB / 15.07GiB   1.12%     48.3kB / 24.8kB   0B / 1.76MB   43
Feb 12 02:32:04 f88f257851aa   janus-inmemory_janusgraph_1   205.43%   730.7MiB / 15.07GiB   4.74%     679kB / 332kB     0B / 111kB    51
Feb 12 02:32:07 CONTAINER ID   NAME                          CPU %     MEM USAGE / LIMIT     MEM %     NET I/O           BLOCK I/O     PIDS
Feb 12 02:32:07 dc94419ce2b6   janus-inmemory_repoSystem_1   2.18%     174.5MiB / 15.07GiB   1.13%     55.1kB / 29.2kB   0B / 1.88MB   43
Feb 12 02:32:07 f88f257851aa   janus-inmemory_janusgraph_1   202.70%   733.3MiB / 15.07GiB   4.75%     1.25MB / 622kB    0B / 111kB    51
Feb 12 02:32:11 CONTAINER ID   NAME                          CPU %     MEM USAGE / LIMIT     MEM %     NET I/O           BLOCK I/O     PIDS
Feb 12 02:32:11 dc94419ce2b6   janus-inmemory_repoSystem_1   12.99%    174.8MiB / 15.07GiB   1.13%     60.2kB / 33.4kB   0B / 1.88MB   43
Feb 12 02:32:11 f88f257851aa   janus-inmemory_janusgraph_1   198.02%   753.8MiB / 15.07GiB   4.88%     2.24MB / 1.13MB   0B / 111kB    51
Feb 12 02:32:15 CONTAINER ID   NAME                          CPU %     MEM USAGE / LIMIT     MEM %     NET I/O           BLOCK I/O     PIDS
Feb 12 02:32:15 dc94419ce2b6   janus-inmemory_repoSystem_1   5.87%     175.2MiB / 15.07GiB   1.14%     71.6kB / 43.5kB   0B / 1.88MB   43
Feb 12 02:32:15 f88f257851aa   janus-inmemory_janusgraph_1   84.04%    754.3MiB / 15.07GiB   4.89%     3.02MB / 1.53MB   0B / 111kB    51
Feb 12 02:32:18 CONTAINER ID   NAME                          CPU %     MEM USAGE / LIMIT     MEM %     NET I/O           BLOCK I/O     PIDS
Feb 12 02:32:18 dc94419ce2b6   janus-inmemory_repoSystem_1   5.09%     175.6MiB / 15.07GiB   1.14%     81.2kB / 52.8kB   0B / 1.88MB   43
Feb 12 02:32:18 f88f257851aa   janus-inmemory_janusgraph_1   196.94%   754.9MiB / 15.07GiB   4.89%     4.19MB / 2.12MB   0B / 111kB    51
Feb 12 02:32:22 CONTAINER ID   NAME                          CPU %     MEM USAGE / LIMIT     MEM %     NET I/O           BLOCK I/O     PIDS
Feb 12 02:32:22 dc94419ce2b6   janus-inmemory_repoSystem_1   3.98%     176.1MiB / 15.07GiB   1.14%     91.8kB / 63kB     0B / 1.88MB   43
Feb 12 02:32:22 f88f257851aa   janus-inmemory_janusgraph_1   82.85%    860.3MiB / 15.07GiB   5.57%     5.98MB / 3.03MB   0B / 111kB    51
Feb 12 02:32:25 CONTAINER ID   NAME                          CPU %     MEM USAGE / LIMIT     MEM %     NET I/O           BLOCK I/O     PIDS
Feb 12 02:32:25 dc94419ce2b6   janus-inmemory_repoSystem_1   2.64%     176.3MiB / 15.07GiB   1.14%     101kB / 71.5kB    0B / 1.88MB   43
Feb 12 02:32:25 f88f257851aa   janus-inmemory_janusgraph_1   65.07%    860.3MiB / 15.07GiB   5.57%     7.99MB / 4.05MB   0B / 111kB    51
Feb 12 02:32:29 CONTAINER ID   NAME                          CPU %     MEM USAGE / LIMIT     MEM %     NET I/O           BLOCK I/O     PIDS
Feb 12 02:32:29 dc94419ce2b6   janus-inmemory_repoSystem_1   1.83%     177MiB / 15.07GiB     1.15%     108kB / 76.6kB    0B / 1.88MB   43
Feb 12 02:32:29 f88f257851aa   janus-inmemory_janusgraph_1   64.50%    867.6MiB / 15.07GiB   5.62%     10.1MB / 5.13MB   0B / 111kB    51
Feb 12 02:32:33 CONTAINER ID   NAME                          CPU %     MEM USAGE / LIMIT     MEM %     NET I/O           BLOCK I/O     PIDS
Feb 12 02:32:33 dc94419ce2b6   janus-inmemory_repoSystem_1   2.37%     176.8MiB / 15.07GiB   1.15%     113kB / 79.7kB    0B / 1.88MB   43
Feb 12 02:32:33 f88f257851aa   janus-inmemory_janusgraph_1   69.94%    878.1MiB / 15.07GiB   5.69%     12.4MB / 6.27MB   0B / 111kB    51
Feb 12 02:32:36 CONTAINER ID   NAME                          CPU %     MEM USAGE / LIMIT     MEM %     NET I/O          BLOCK I/O     PIDS
Feb 12 02:32:36 dc94419ce2b6   janus-inmemory_repoSystem_1   0.62%     176.9MiB / 15.07GiB   1.15%     117kB / 81.3kB   0B / 1.88MB   43
Feb 12 02:32:36 f88f257851aa   janus-inmemory_janusgraph_1   42.51%    878.1MiB / 15.07GiB   5.69%     15MB / 7.6MB     0B / 111kB    51
Feb 12 02:32:40 CONTAINER ID   NAME                          CPU %     MEM USAGE / LIMIT     MEM %     NET I/O           BLOCK I/O     PIDS
Feb 12 02:32:40 dc94419ce2b6   janus-inmemory_repoSystem_1   1.24%     177MiB / 15.07GiB     1.15%     126kB / 87.6kB    0B / 1.88MB   43
Feb 12 02:32:40 f88f257851aa   janus-inmemory_janusgraph_1   50.47%    883.8MiB / 15.07GiB   5.73%     15.9MB / 8.08MB   0B / 111kB    51
Feb 12 02:32:43 CONTAINER ID   NAME                          CPU %     MEM USAGE / LIMIT     MEM %     NET I/O           BLOCK I/O     PIDS
Feb 12 02:32:43 dc94419ce2b6   janus-inmemory_repoSystem_1   4.98%     177.3MiB / 15.07GiB   1.15%     136kB / 97.2kB    0B / 1.88MB   43
Feb 12 02:32:43 f88f257851aa   janus-inmemory_janusgraph_1   44.63%    883.8MiB / 15.07GiB   5.73%     17.3MB / 8.77MB   0B / 111kB    51
Feb 12 02:32:47 CONTAINER ID   NAME                          CPU %     MEM USAGE / LIMIT     MEM %     NET I/O           BLOCK I/O     PIDS
Feb 12 02:32:47 dc94419ce2b6   janus-inmemory_repoSystem_1   1.67%     177.6MiB / 15.07GiB   1.15%     145kB / 106kB     0B / 1.88MB   43
Feb 12 02:32:47 f88f257851aa   janus-inmemory_janusgraph_1   44.65%    883.8MiB / 15.07GiB   5.73%     18.6MB / 9.43MB   0B / 111kB    51
Feb 12 02:32:51 CONTAINER ID   NAME                          CPU %     MEM USAGE / LIMIT     MEM %     NET I/O           BLOCK I/O     PIDS
Feb 12 02:32:51 dc94419ce2b6   janus-inmemory_repoSystem_1   1.87%     177.6MiB / 15.07GiB   1.15%     152kB / 112kB     0B / 1.88MB   43
Feb 12 02:32:51 f88f257851aa   janus-inmemory_janusgraph_1   37.65%    886.9MiB / 15.07GiB   5.75%     20.5MB / 10.4MB   0B / 111kB    51
Feb 12 02:32:54 CONTAINER ID   NAME                          CPU %     MEM USAGE / LIMIT     MEM %     NET I/O           BLOCK I/O     PIDS
Feb 12 02:32:54 dc94419ce2b6   janus-inmemory_repoSystem_1   0.72%     177.6MiB / 15.07GiB   1.15%     159kB / 115kB     0B / 1.88MB   43
Feb 12 02:32:54 f88f257851aa   janus-inmemory_janusgraph_1   39.92%    886.9MiB / 15.07GiB   5.75%     21.2MB / 10.8MB   0B / 111kB    51
Feb 12 02:32:58 CONTAINER ID   NAME                          CPU %     MEM USAGE / LIMIT     MEM %     NET I/O           BLOCK I/O     PIDS
Feb 12 02:32:58 dc94419ce2b6   janus-inmemory_repoSystem_1   0.97%     177.6MiB / 15.07GiB   1.15%     165kB / 119kB     0B / 1.88MB   43
Feb 12 02:32:58 f88f257851aa   janus-inmemory_janusgraph_1   42.65%    886.9MiB / 15.07GiB   5.75%     22.4MB / 11.4MB   0B / 111kB    51
Feb 12 02:33:01 CONTAINER ID   NAME                          CPU %     MEM USAGE / LIMIT     MEM %     NET I/O         BLOCK I/O     PIDS
Feb 12 02:33:01 dc94419ce2b6   janus-inmemory_repoSystem_1   4.45%     177.8MiB / 15.07GiB   1.15%     171kB / 124kB   0B / 1.88MB   43
Feb 12 02:33:01 f88f257851aa   janus-inmemory_janusgraph_1   48.31%    888.3MiB / 15.07GiB   5.76%     23.7MB / 12MB   0B / 111kB    51
Feb 12 02:33:05 CONTAINER ID   NAME                          CPU %     MEM USAGE / LIMIT     MEM %     NET I/O           BLOCK I/O     PIDS
Feb 12 02:33:05 dc94419ce2b6   janus-inmemory_repoSystem_1   2.73%     178.1MiB / 15.07GiB   1.15%     178kB / 129kB     0B / 1.88MB   43
Feb 12 02:33:05 f88f257851aa   janus-inmemory_janusgraph_1   50.55%    888.3MiB / 15.07GiB   5.76%     25.4MB / 12.9MB   0B / 111kB    51
Feb 12 02:33:09 CONTAINER ID   NAME                          CPU %     MEM USAGE / LIMIT     MEM %     NET I/O           BLOCK I/O     PIDS
Feb 12 02:33:09 dc94419ce2b6   janus-inmemory_repoSystem_1   10.30%    178.1MiB / 15.07GiB   1.15%     192kB / 142kB     0B / 1.88MB   43
Feb 12 02:33:09 f88f257851aa   janus-inmemory_janusgraph_1   50.02%    889.4MiB / 15.07GiB   5.76%     26.6MB / 13.4MB   0B / 111kB    51
Feb 12 02:33:12 CONTAINER ID   NAME                          CPU %     MEM USAGE / LIMIT     MEM %     NET I/O           BLOCK I/O     PIDS
Feb 12 02:33:12 dc94419ce2b6   janus-inmemory_repoSystem_1   1.19%     178.1MiB / 15.07GiB   1.15%     196kB / 145kB     0B / 1.88MB   43
Feb 12 02:33:12 f88f257851aa   janus-inmemory_janusgraph_1   38.76%    889.3MiB / 15.07GiB   5.76%     28.1MB / 14.2MB   0B / 111kB    51
Feb 12 02:33:16 CONTAINER ID   NAME                          CPU %     MEM USAGE / LIMIT     MEM %     NET I/O           BLOCK I/O     PIDS
Feb 12 02:33:16 dc94419ce2b6   janus-inmemory_repoSystem_1   1.35%     178.1MiB / 15.07GiB   1.15%     207kB / 155kB     0B / 1.88MB   43
Feb 12 02:33:16 f88f257851aa   janus-inmemory_janusgraph_1   45.11%    889.3MiB / 15.07GiB   5.76%     29.2MB / 14.8MB   0B / 111kB    51
Feb 12 02:33:19 CONTAINER ID   NAME                          CPU %     MEM USAGE / LIMIT     MEM %     NET I/O           BLOCK I/O     PIDS
Feb 12 02:33:19 dc94419ce2b6   janus-inmemory_repoSystem_1   1.31%     178.4MiB / 15.07GiB   1.16%     212kB / 158kB     0B / 1.88MB   43
Feb 12 02:33:19 f88f257851aa   janus-inmemory_janusgraph_1   45.75%    889.8MiB / 15.07GiB   5.77%     30.4MB / 15.4MB   0B / 111kB    51
Feb 12 02:33:23 CONTAINER ID   NAME                          CPU %     MEM USAGE / LIMIT     MEM %     NET I/O         BLOCK I/O     PIDS
Feb 12 02:33:23 dc94419ce2b6   janus-inmemory_repoSystem_1   0.62%     178.2MiB / 15.07GiB   1.15%     217kB / 161kB   0B / 1.88MB   43
Feb 12 02:33:23 f88f257851aa   janus-inmemory_janusgraph_1   36.63%    889.8MiB / 15.07GiB   5.77%     31.6MB / 16MB   0B / 111kB    51
Feb 12 02:33:27 CONTAINER ID   NAME                          CPU %     MEM USAGE / LIMIT     MEM %     NET I/O           BLOCK I/O     PIDS
Feb 12 02:33:27 dc94419ce2b6   janus-inmemory_repoSystem_1   1.60%     178.2MiB / 15.07GiB   1.15%     224kB / 165kB     0B / 1.88MB   43
Feb 12 02:33:27 f88f257851aa   janus-inmemory_janusgraph_1   37.98%    889.8MiB / 15.07GiB   5.77%     32.7MB / 16.6MB   0B / 111kB    51
Feb 12 02:33:30 CONTAINER ID   NAME                          CPU %     MEM USAGE / LIMIT     MEM %     NET I/O         BLOCK I/O     PIDS
Feb 12 02:33:30 dc94419ce2b6   janus-inmemory_repoSystem_1   2.41%     178.3MiB / 15.07GiB   1.16%     232kB / 172kB   0B / 1.88MB   43
Feb 12 02:33:30 f88f257851aa   janus-inmemory_janusgraph_1   49.50%    893.9MiB / 15.07GiB   5.79%     34MB / 17.2MB   0B / 111kB    51
Feb 12 02:33:34 CONTAINER ID   NAME                          CPU %     MEM USAGE / LIMIT     MEM %     NET I/O           BLOCK I/O     PIDS
Feb 12 02:33:34 dc94419ce2b6   janus-inmemory_repoSystem_1   1.45%     178.4MiB / 15.07GiB   1.16%     237kB / 175kB     0B / 1.88MB   43
Feb 12 02:33:34 f88f257851aa   janus-inmemory_janusgraph_1   41.36%    894MiB / 15.07GiB     5.79%     35.7MB / 18.1MB   0B / 111kB    51
Feb 12 02:33:37 CONTAINER ID   NAME                          CPU %     MEM USAGE / LIMIT     MEM %     NET I/O           BLOCK I/O     PIDS
Feb 12 02:33:37 dc94419ce2b6   janus-inmemory_repoSystem_1   0.55%     178.5MiB / 15.07GiB   1.16%     247kB / 184kB     0B / 1.88MB   43
Feb 12 02:33:37 f88f257851aa   janus-inmemory_janusgraph_1   45.46%    894MiB / 15.07GiB     5.79%     36.7MB / 18.5MB   0B / 111kB    51
Feb 12 02:33:41 CONTAINER ID   NAME                          CPU %     MEM USAGE / LIMIT     MEM %     NET I/O           BLOCK I/O     PIDS
Feb 12 02:33:41 dc94419ce2b6   janus-inmemory_repoSystem_1   1.82%     178.6MiB / 15.07GiB   1.16%     259kB / 194kB     0B / 1.88MB   43
Feb 12 02:33:41 f88f257851aa   janus-inmemory_janusgraph_1   49.61%    896.1MiB / 15.07GiB   5.81%     38.1MB / 19.3MB   0B / 111kB    51
Feb 12 02:33:45 CONTAINER ID   NAME                          CPU %     MEM USAGE / LIMIT     MEM %     NET I/O           BLOCK I/O     PIDS
Feb 12 02:33:45 dc94419ce2b6   janus-inmemory_repoSystem_1   1.03%     178.6MiB / 15.07GiB   1.16%     265kB / 200kB     0B / 1.88MB   43
Feb 12 02:33:45 f88f257851aa   janus-inmemory_janusgraph_1   38.40%    896.1MiB / 15.07GiB   5.81%     39.5MB / 19.9MB   0B / 111kB    51
Feb 12 02:33:48 CONTAINER ID   NAME                          CPU %     MEM USAGE / LIMIT     MEM %     NET I/O           BLOCK I/O     PIDS
Feb 12 02:33:48 dc94419ce2b6   janus-inmemory_repoSystem_1   1.31%     178.6MiB / 15.07GiB   1.16%     273kB / 207kB     0B / 1.88MB   43
Feb 12 02:33:48 f88f257851aa   janus-inmemory_janusgraph_1   39.17%    896.9MiB / 15.07GiB   5.81%     41.2MB / 20.8MB   0B / 111kB    51
Feb 12 02:33:52 CONTAINER ID   NAME                          CPU %     MEM USAGE / LIMIT     MEM %     NET I/O           BLOCK I/O     PIDS
Feb 12 02:33:52 dc94419ce2b6   janus-inmemory_repoSystem_1   0.73%     178.6MiB / 15.07GiB   1.16%     280kB / 211kB     0B / 1.88MB   43
Feb 12 02:33:52 f88f257851aa   janus-inmemory_janusgraph_1   39.93%    896.9MiB / 15.07GiB   5.81%     42.1MB / 21.3MB   0B / 111kB    51
Feb 12 02:33:55 CONTAINER ID   NAME                          CPU %     MEM USAGE / LIMIT     MEM %     NET I/O         BLOCK I/O     PIDS
Feb 12 02:33:55 dc94419ce2b6   janus-inmemory_repoSystem_1   0.79%     178.6MiB / 15.07GiB   1.16%     284kB / 213kB   0B / 1.88MB   43
Feb 12 02:33:55 f88f257851aa   janus-inmemory_janusgraph_1   34.68%    896.9MiB / 15.07GiB   5.81%     43.6MB / 22MB   0B / 111kB    51
Feb 12 02:33:59 CONTAINER ID   NAME                          CPU %     MEM USAGE / LIMIT     MEM %     NET I/O           BLOCK I/O     PIDS
Feb 12 02:33:59 dc94419ce2b6   janus-inmemory_repoSystem_1   0.65%     178.6MiB / 15.07GiB   1.16%     289kB / 215kB     0B / 1.88MB   43
Feb 12 02:33:59 f88f257851aa   janus-inmemory_janusgraph_1   40.52%    899.3MiB / 15.07GiB   5.83%     44.8MB / 22.6MB   0B / 111kB    51
Feb 12 02:34:03 CONTAINER ID   NAME                          CPU %     MEM USAGE / LIMIT     MEM %     NET I/O         BLOCK I/O     PIDS
Feb 12 02:34:03 dc94419ce2b6   janus-inmemory_repoSystem_1   1.84%     178.6MiB / 15.07GiB   1.16%     299kB / 224kB   0B / 1.88MB   43
Feb 12 02:34:03 f88f257851aa   janus-inmemory_janusgraph_1   40.88%    899.3MiB / 15.07GiB   5.83%     45.6MB / 23MB   0B / 111kB    51
Feb 12 02:34:06 CONTAINER ID   NAME                          CPU %     MEM USAGE / LIMIT     MEM %     NET I/O           BLOCK I/O     PIDS
Feb 12 02:34:06 dc94419ce2b6   janus-inmemory_repoSystem_1   1.69%     178.6MiB / 15.07GiB   1.16%     311kB / 235kB     0B / 1.88MB   43
Feb 12 02:34:06 f88f257851aa   janus-inmemory_janusgraph_1   45.56%    899.3MiB / 15.07GiB   5.83%     47.2MB / 23.8MB   0B / 111kB    51
Feb 12 02:34:10 CONTAINER ID   NAME                          CPU %     MEM USAGE / LIMIT     MEM %     NET I/O           BLOCK I/O     PIDS
Feb 12 02:34:10 dc94419ce2b6   janus-inmemory_repoSystem_1   1.91%     178.8MiB / 15.07GiB   1.16%     321kB / 244kB     0B / 1.88MB   43
Feb 12 02:34:10 f88f257851aa   janus-inmemory_janusgraph_1   45.43%    899.3MiB / 15.07GiB   5.83%     48.6MB / 24.5MB   0B / 111kB    51
Feb 12 02:34:14 CONTAINER ID   NAME                          CPU %     MEM USAGE / LIMIT     MEM %     NET I/O         BLOCK I/O     PIDS
Feb 12 02:34:14 dc94419ce2b6   janus-inmemory_repoSystem_1   0.71%     178.7MiB / 15.07GiB   1.16%     328kB / 249kB   0B / 1.88MB   43
Feb 12 02:34:14 f88f257851aa   janus-inmemory_janusgraph_1   38.92%    899.3MiB / 15.07GiB   5.83%     50MB / 25.2MB   0B / 111kB    51
Feb 12 02:34:17 CONTAINER ID   NAME                          CPU %     MEM USAGE / LIMIT     MEM %     NET I/O           BLOCK I/O     PIDS
Feb 12 02:34:17 dc94419ce2b6   janus-inmemory_repoSystem_1   1.23%     178.7MiB / 15.07GiB   1.16%     333kB / 254kB     0B / 1.88MB   43
Feb 12 02:34:17 f88f257851aa   janus-inmemory_janusgraph_1   51.97%    900.1MiB / 15.07GiB   5.83%     51.7MB / 26.1MB   0B / 111kB    51
Feb 12 02:34:21 CONTAINER ID   NAME                          CPU %     MEM USAGE / LIMIT     MEM %     NET I/O           BLOCK I/O     PIDS
Feb 12 02:34:21 dc94419ce2b6   janus-inmemory_repoSystem_1   0.73%     178.8MiB / 15.07GiB   1.16%     343kB / 261kB     0B / 1.88MB   43
Feb 12 02:34:21 f88f257851aa   janus-inmemory_janusgraph_1   39.55%    900.1MiB / 15.07GiB   5.83%     52.6MB / 26.6MB   0B / 111kB    51
Feb 12 02:34:24 CONTAINER ID   NAME                          CPU %     MEM USAGE / LIMIT     MEM %     NET I/O           BLOCK I/O     PIDS
Feb 12 02:34:24 dc94419ce2b6   janus-inmemory_repoSystem_1   0.72%     178.8MiB / 15.07GiB   1.16%     348kB / 265kB     0B / 1.88MB   43
Feb 12 02:34:24 f88f257851aa   janus-inmemory_janusgraph_1   38.37%    900.1MiB / 15.07GiB   5.83%     53.8MB / 27.1MB   0B / 111kB    51
Feb 12 02:34:28 CONTAINER ID   NAME                          CPU %     MEM USAGE / LIMIT     MEM %     NET I/O         BLOCK I/O     PIDS
Feb 12 02:34:28 dc94419ce2b6   janus-inmemory_repoSystem_1   2.87%     178.9MiB / 15.07GiB   1.16%     348kB / 265kB   0B / 1.88MB   43
Feb 12 02:34:28 f88f257851aa   janus-inmemory_janusgraph_1   4.77%     900.2MiB / 15.07GiB   5.83%     54MB / 27.3MB   0B / 111kB    51
