elapsedWallClockMillis,totalMemoryBytes
12,6370416
1165,10801256
2189,11253048
3254,11688512
4317,11838592
5335,11967456
6397,11979328
7468,12088592
8543,12210464
9625,12340480
10681,12476768
11740,12610768
12778,13807536
13849,14537000
14932,14697400
15968,14860880
17006,15027952
18067,15117480
19103,15273928
20149,15347600
21184,15509600
22286,15676216
23334,17582432
24439,17756048
25557,17928200
26660,18097112
27713,18264504
28829,18353824
29946,18511160
31028,18676792
32088,18846344
33192,18925848
33432,18896864
