elapsedWallClockMillis,totalMemoryBytes
38,6372112
1257,10799040
2289,11334736
3356,11688760
4407,11824440
5471,11959344
6544,12083464
7616,12206048
8680,12331536
9731,12426504
10798,12469104
11910,12605728
12964,13793440
14005,14523880
15058,14682368
16142,14841656
17193,14998072
18334,15163376
19434,15325880
20477,15496368
21534,15612304
22642,15671128
23684,17611920
24801,17784840
25864,17945856
26977,18116712
28081,18279848
29200,18433520
30320,18596864
31432,18755576
32525,18919872
33488,18890144
