elapsedWallClockMillis,totalMemoryBytes
12,7418368
1197,11077280
2224,11343376
3285,11685656
4343,11838016
5397,11964680
6447,12090784
7476,12217872
8529,12342888
9548,12482672
10596,12610080
11645,13817704
12700,13931704
13732,14663128
14794,14797952
15832,14931568
16859,15074496
17924,15224712
18957,15375968
19987,15516880
21016,15698232
22094,16789816
23173,17616208
24231,17767032
25300,17913840
26332,18043496
27397,18187224
28432,18321560
29489,18452592
30527,18583048
31589,18710752
32646,18842624
33706,18974232
34778,21106912
35852,21243288
36907,21397016
37966,21550360
39058,21708432
40149,21890520
41238,22060424
42311,22212584
43378,22363536
44451,23487424
45540,24240576
46580,24383376
47626,24536968
48707,24704952
49796,24880896
50858,25042040
51942,25184960
53030,25318912
54102,25465472
55194,27192880
56242,27326392
57294,27457192
58357,27588752
59403,27717136
60497,27845024
61543,27972712
62608,28106336
63655,28262456
64713,28420728
65827,30519896
66877,30704824
67991,30884616
69049,31062048
70143,31245032
71261,31433400
72310,31608224
73389,31764096
74493,31906392
75556,32059392
76638,34042592
77731,34211272
78843,34382648
79959,34529568
81014,34666024
82107,34796984
83203,34924560
84263,35066016
85316,35199176
86371,35327776
87433,37123872
88489,37268624
89547,37396432
90604,37524528
91661,37677368
92722,37835952
93799,38003824
94882,38167248
95989,38341328
97074,38524912
98141,40343664
99201,40525328
100327,40693816
101389,40862320
102449,40997432
103511,41143944
104583,41275624
105646,41409520
106709,41538504
107793,41666296
108856,41794464
109939,41923264
111024,42050048
112128,42179112
113249,44628272
114328,44813520
115407,44996848
116484,45159440
117570,45313928
118639,45451176
119711,45603736
120806,45770728
121925,45948288
123062,50109216
124136,50286304
125209,50436936
126282,50574144
127382,50723584
128457,50893024
129530,51058488
130602,51225584
131687,51381608
132813,51517912
133908,53325208
135008,53461560
136120,53625432
137202,53790432
138280,53964112
139364,54134792
140440,54289464
141518,54424168
142595,54556168
143720,54687424
144836,56491240
145949,56637152
147047,56768184
148148,56896376
149231,57024880
150312,57153512
151392,57285272
152478,57436264
153590,57538240
154195,57513080
