elapsedWallClockMillis,totalMemoryBytes
9,1217448
1109,1615992
2121,1616416
3140,1618000
4153,1617664
5168,1611320
6183,1611976
7197,1611768
8212,1612784
9225,1609792
10240,1610896
11256,1612160
12274,1612160
13288,1612944
14300,1613944
15313,1614168
16325,1614328
17339,1615280
18354,1615032
19368,1613344
20377,1616048
21390,1614800
22401,1614944
23409,1615840
24420,1616224
25434,1614704
26448,1615240
27463,1615504
28476,1615544
29490,1615648
30502,1614872
31513,1617008
32525,1615888
33544,1616552
34557,1613904
35566,1616648
36580,1616040
37592,1617864
38602,1616704
39619,1614496
40635,1616264
41648,1614752
42659,1615928
43673,1617672
44685,1615624
45700,1614176
46711,1616160
47724,1617888
48735,1616248
49749,1613704
50761,1616056
51774,1615104
52788,1615912
53800,1616536
54812,1615360
55828,1614560
56841,1615704
57857,1616288
58872,1617568
59886,1615152
60893,1615504
61907,1615256
62921,1615616
63932,1613568
64947,1615944
65961,1616080
66976,1615528
67990,1616272
68998,1613272
70011,1615832
71028,1615760
72045,1616392
73059,1618960
74072,1615456
75089,1613872
76103,1616400
77117,1616696
78132,1616672
79145,1616032
80157,1617288
81172,1615768
82181,1617744
83197,1618376
84209,1616752
85225,1616960
86238,1617336
87253,1618024
88267,1616632
89280,1616392
90291,1617432
91304,1616976
92317,1616416
93336,1613432
94347,1615928
95368,1615792
96385,1616928
97400,1616592
98409,1614528
99417,1616104
100432,1616592
101459,1617344
102473,1618048
103485,1616160
104493,1616208
105506,1618256
106519,1618696
107532,1618496
108541,1617304
109553,1615344
110568,1618368
111578,1618776
112595,1618304
113609,1617304
114619,1617984
115635,1618440
116651,1618752
117663,1619424
118673,1615280
119685,1617464
120704,1618496
121717,1618256
122732,1614320
123746,1617360
124761,1619112
125784,1618112
126800,1618528
127818,1616496
128831,1618240
129844,1618584
130859,1618696
131869,1617784
132893,1616816
133908,1618632
134924,1617472
135937,1618976
136951,1620848
137968,1617504
138985,1618216
140000,1620336
141013,1619136
142030,1616928
143044,1619000
144067,1621648
145081,1621072
146091,1621888
147111,1621728
148120,1617576
149135,1619256
150157,1620032
151171,1616752
152185,1616680
153200,1618752
154223,1621072
155237,1622272
156253,1622272
157267,1616864
158280,1619288
159293,1618096
160307,1621064
161316,1618664
162336,1617368
163349,1617632
164359,1618056
165382,1617168
166397,1618192
167406,1620464
168429,1621784
169439,1620352
170449,1622080
171465,1621632
172480,1618264
173495,1618256
174507,1618192
175521,1618696
176534,1617984
177554,1617424
178569,1616984
179582,1618496
180596,1618800
181611,1615576
182631,1617936
183641,1619624
184655,1619936
185669,1620384
186685,1617960
187698,1619000
188709,1617912
189726,1618352
190741,1620096
191762,1618976
192778,1619040
193800,1620216
194813,1620480
195827,1621408
196845,1617784
197857,1619168
198871,1619048
199885,1619464
200896,1620816
201912,1616248
202925,1619288
203943,1621144
204957,1621992
205972,1622416
206993,1619056
208005,1618632
209022,1621256
210033,1618832
211046,1616640
212059,1619520
213078,1620648
214088,1620344
215103,1622664
216120,1617128
217133,1618488
218153,1618424
219169,1619336
220191,1619360
221205,1618520
222216,1617752
223233,1622424
224246,1622856
225256,1621792
225665,1611592
