elapsedWallClockMillis,totalMemoryBytes
7,1224432
1097,1616872
2111,1616624
3123,1617336
4147,1616232
5159,1610544
6176,1612224
7187,1612976
8201,1612872
9214,1611816
10231,1610960
11243,1611784
12259,1613184
13271,1612592
14285,1614536
15302,1615304
16317,1613240
17330,1616048
18345,1615648
19356,1615496
20369,1614272
21382,1614320
22397,1615096
23404,1615072
24417,1614720
25428,1614112
26439,1615192
27452,1615400
28464,1614296
29477,1614880
30488,1614704
31506,1616368
32519,1617048
33526,1617112
34540,1613592
35554,1616152
36574,1616176
37586,1617544
38601,1618008
39614,1613680
40625,1612840
41641,1615584
42650,1614920
43669,1616144
44685,1615752
45701,1617096
46710,1616552
47723,1615288
48735,1614936
49746,1614928
50760,1615464
51774,1615512
52787,1615704
53801,1615728
54814,1615224
55830,1614816
56844,1616336
57858,1616576
58878,1615712
59890,1615672
60905,1615320
61917,1615728
62931,1616120
63945,1613736
64961,1612560
65975,1615936
66989,1614584
68003,1616808
69022,1615768
70033,1615272
71054,1616224
72069,1616712
73079,1615488
74093,1614512
75111,1615648
76126,1616616
77140,1614248
78156,1615072
79174,1615072
80188,1614408
81201,1616576
82211,1617336
83225,1616160
84237,1615448
85253,1615840
86263,1615656
87278,1615832
88293,1617264
89303,1616496
90318,1616336
91332,1617568
92347,1617888
93361,1614216
94378,1615440
95392,1616824
96406,1616368
97428,1617288
98442,1614504
99455,1615616
100465,1616760
101482,1615936
102496,1618392
103508,1617496
104519,1617568
105535,1618136
106548,1617216
107569,1618824
108582,1616008
109598,1617256
110611,1619120
111631,1618744
112641,1618840
113657,1617600
114670,1618224
115687,1616720
116699,1617872
117713,1618032
118727,1617264
119741,1617144
120754,1617928
121770,1619048
122786,1615152
123803,1617400
124816,1618096
125828,1618416
126841,1619208
127855,1616832
128871,1618152
129883,1615240
130897,1618776
131909,1619176
132923,1615416
133945,1615344
134957,1615952
135975,1617928
136987,1615560
138002,1617856
139012,1620152
140030,1619904
141045,1618608
142059,1616336
143071,1617296
144086,1619144
145099,1614208
146113,1621400
147123,1620568
148138,1618544
149164,1617632
150178,1618016
151194,1619056
152215,1615496
153228,1618072
154239,1619752
155255,1619656
156267,1619104
157284,1616160
158301,1618056
159317,1617720
160330,1617528
161345,1617424
162367,1617520
163385,1618504
164400,1618144
165407,1619272
166423,1619720
167436,1619072
168453,1618416
169465,1617768
170477,1623368
171494,1622320
172507,1617168
173515,1617696
174527,1617856
175550,1618064
176563,1619800
177581,1616728
178591,1620072
179611,1618400
180622,1619528
181640,1614000
182654,1618800
183668,1620880
184679,1620208
185695,1621112
186707,1617624
187723,1615896
188735,1619304
189746,1618856
190769,1619832
191779,1617152
192802,1619168
193819,1618584
194832,1619128
195857,1620416
196870,1620552
197883,1619208
198896,1619872
199907,1622688
200930,1622144
201945,1620560
202964,1619096
203979,1622008
204989,1620032
206012,1620912
207026,1621472
208046,1620856
209061,1622000
210076,1620424
211093,1619384
212114,1618456
213126,1621768
214139,1621736
215162,1621240
216174,1620152
217187,1621512
218203,1619608
219218,1623624
220239,1619184
221253,1621512
222277,1620840
223291,1622552
224311,1621360
225326,1618648
226344,1620600
227356,1621240
228372,1621568
229386,1621256
229858,1611344
