elapsedWallClockMillis,totalMemoryBytes
8,1218280
1115,1615992
2132,1616824
3146,1616432
4161,1616496
5181,1610112
6195,1611744
7208,1612848
8223,1611016
9235,1612968
10245,1609296
11259,1611912
12276,1611840
13291,1612680
14304,1613528
15319,1610768
16334,1613240
17349,1614872
18362,1616320
19377,1615240
20388,1613936
21403,1614784
22416,1614896
23430,1613808
24443,1615536
25453,1614888
26468,1614744
27482,1613584
28496,1616080
29512,1615368
30524,1613136
31546,1614552
32560,1614768
33572,1613440
34587,1612640
35597,1613272
36612,1615344
37626,1616712
38639,1616016
39648,1611808
40662,1613888
41675,1614200
42684,1614704
43702,1615320
44719,1613248
45732,1615024
46752,1616464
47766,1615488
48775,1615824
49786,1613664
50801,1615416
51811,1615528
52830,1615192
53844,1610992
54856,1614688
55872,1617520
56888,1615256
57904,1615592
58918,1617040
59931,1615592
60943,1614752
61961,1616000
62973,1612968
63992,1610584
65006,1614688
66020,1615248
67033,1614808
68049,1615040
69061,1613464
70076,1612720
71091,1614520
72103,1614968
73124,1615952
74135,1614560
75149,1615720
76170,1614448
77184,1615312
78197,1615400
79211,1614664
80232,1612040
81244,1615808
82257,1614624
83268,1613640
84286,1613728
85301,1612880
86317,1615768
87330,1613704
88342,1616144
89356,1613864
90369,1615136
91381,1613936
92397,1613880
93408,1613176
94422,1613480
95435,1614368
96451,1614096
97461,1615880
98477,1615200
99492,1616960
100508,1619288
101522,1618584
102535,1619160
103551,1617696
104567,1618632
105580,1616600
106595,1616496
107609,1617432
108628,1617360
109637,1618664
110651,1618872
111661,1618608
112682,1619608
113692,1617640
114708,1619480
115724,1618400
116741,1617384
117754,1619448
118767,1618864
119780,1618448
120792,1619432
121814,1619944
122825,1617960
123837,1620568
124848,1620480
125863,1622592
126874,1622600
127888,1616216
128901,1617288
129921,1617928
130936,1617744
131952,1619120
132965,1617864
133980,1618200
134996,1619392
136008,1618376
137023,1618856
138038,1621752
139049,1614456
140064,1617248
141082,1617816
142096,1618288
143109,1619264
144130,1620800
145145,1620824
146159,1622024
147174,1622824
148194,1613400
149205,1616808
150219,1615352
151233,1619312
152247,1619816
153264,1616352
154276,1619920
155291,1622152
156311,1621448
157327,1620072
158341,1616624
159353,1617752
160364,1616784
161387,1617912
162403,1618952
163417,1620032
164435,1621168
165449,1621192
166467,1622432
167483,1622840
168496,1615848
169509,1617392
170530,1618896
171542,1618616
172559,1618552
173569,1619672
174581,1618248
175593,1620072
176607,1620048
177618,1613384
178640,1619616
179651,1620136
180667,1620944
181682,1620168
182691,1616560
183706,1615128
184723,1615192
185737,1619384
186747,1620568
187770,1618424
188785,1617192
189806,1618880
190822,1620976
191834,1620784
192844,1617952
193860,1619536
194878,1619056
195895,1619600
196920,1619800
197930,1619736
198944,1620480
199968,1621728
200981,1619544
201993,1621296
203011,1620440
204029,1618392
205041,1619448
206060,1620328
206990,1611344
