elapsedWallClockMillis,totalMemoryBytes
9,1223448
1103,1616064
2116,1617552
3129,1616880
4143,1616144
5152,1608928
6167,1611232
7179,1611288
8191,1612720
9204,1612408
10218,1610808
11230,1611912
12245,1612168
13261,1612800
14275,1613488
15288,1613656
16299,1614568
17316,1614176
18328,1615368
19339,1615000
20354,1614208
21364,1614992
22378,1614400
23390,1614448
24401,1615912
25418,1615208
26437,1615880
27454,1616480
28472,1615008
29488,1616072
30500,1612872
31511,1614104
32524,1615320
33541,1615064
34559,1611448
35567,1614408
36577,1616672
37589,1616848
38603,1615696
39614,1612504
40630,1614376
41643,1614392
42653,1613248
43670,1615992
44683,1613360
45693,1614792
46707,1613256
47722,1615168
48738,1617104
49749,1614184
50762,1614832
51774,1611720
52787,1614512
53801,1613480
54815,1613520
55827,1614064
56842,1614552
57856,1614576
58873,1616728
59888,1612736
60902,1613544
61921,1615128
62934,1616432
63948,1613112
64969,1615856
65986,1616504
67005,1616384
68021,1616320
69033,1615472
70050,1615904
71063,1615688
72081,1617712
73094,1616944
74110,1613744
75124,1615736
76138,1615736
77150,1615848
78160,1616024
79178,1614464
80190,1615744
81202,1615480
82216,1616792
83231,1614072
84243,1613952
85258,1615040
86274,1616096
87290,1616880
88305,1616184
89319,1614216
90333,1615608
91356,1614976
92372,1615736
93387,1613888
94400,1616136
95411,1616648
96432,1617096
97446,1616520
98461,1613896
99475,1614616
100491,1618696
101508,1617600
102519,1617616
103532,1616728
104545,1618184
105561,1618184
106572,1617208
107593,1618496
108607,1616248
109622,1617536
110639,1616104
111653,1617232
112666,1618272
113690,1617208
114703,1616888
115717,1618568
116731,1618696
117742,1618336
118765,1617152
119774,1617432
120785,1618384
121800,1619144
122813,1616264
123829,1617624
124842,1617752
125854,1618560
126870,1619072
127889,1615968
128904,1617576
129919,1619104
130933,1619048
131946,1618976
132963,1617888
133978,1618760
134991,1620200
136005,1620616
137022,1620496
138033,1615912
139048,1618320
140065,1618824
141082,1618632
142098,1619456
143113,1617640
144126,1618552
145141,1618960
146155,1618280
147166,1620184
148182,1619920
149198,1617512
150214,1620712
151228,1621056
152242,1615816
153258,1618032
154272,1617000
155288,1618128
156305,1617912
157320,1618472
158334,1619480
159349,1620552
160369,1619504
161385,1620624
162398,1619976
162446,1611344
