elapsedWallClockMillis,totalMemoryBytes
6,1217384
1102,1615696
2116,1616224
3130,1617128
4142,1617184
5150,1610336
6161,1611960
7174,1613160
8189,1613672
9204,1613280
10217,1608848
11227,1611840
12252,1610208
13268,1612792
14278,1613480
15292,1613608
16305,1614552
17317,1613904
18332,1613888
19343,1615952
20354,1614912
21372,1614696
22382,1615760
23394,1614960
24404,1614840
25422,1615256
26434,1615224
27454,1616720
28467,1616920
29479,1616224
30494,1612552
31507,1615416
32517,1615696
33531,1614072
34543,1612944
35558,1613144
36571,1616472
37585,1615360
38598,1617472
39611,1612600
40628,1614512
41640,1614960
42654,1614896
43662,1615632
44674,1614280
45691,1614680
46708,1616320
47725,1614896
48742,1616360
49761,1612464
50773,1613264
51787,1614304
52807,1613768
53822,1614736
54834,1615104
55853,1615584
56867,1615240
57881,1615160
58889,1612960
59902,1613456
60913,1614656
61927,1615824
62948,1615696
63961,1612848
64970,1614432
65988,1614576
67000,1614904
68018,1614808
69036,1611688
70046,1613976
71061,1614920
72070,1614936
73086,1615616
74101,1612488
75114,1615056
76128,1614768
77139,1615208
78160,1615800
79173,1612584
80190,1613984
81202,1615368
82218,1615768
83227,1616032
84242,1616264
85257,1615192
86270,1615912
87291,1615696
88307,1618168
89320,1615152
90332,1614112
91346,1614864
92355,1615568
93370,1612952
94382,1614704
95389,1615168
96403,1614312
97417,1616024
98425,1616008
99437,1616552
100450,1619488
101462,1619464
102475,1618320
103489,1615192
104498,1617904
105518,1617224
106534,1619792
107552,1618744
108561,1615704
109573,1618800
110586,1619440
111602,1619184
112614,1620256
113626,1618136
114644,1617584
115657,1618248
116669,1619728
117689,1619648
118704,1619296
119720,1618928
120732,1621128
121742,1619160
122752,1614960
123766,1622304
124780,1621680
125793,1621248
126816,1621704
127833,1617520
128846,1618512
129860,1616912
130873,1618144
131886,1620504
132904,1615968
133921,1617656
134934,1617928
135947,1619664
136962,1619432
137976,1623048
138991,1616552
140006,1618704
141023,1618576
142040,1619248
143054,1617856
144065,1620504
145083,1622656
146097,1621696
147120,1622664
148134,1623624
149147,1617880
150167,1617616
151181,1617040
152197,1618624
153213,1617064
154237,1621752
155249,1622912
156272,1621176
157286,1619408
158296,1617184
159312,1616520
160326,1618864
161340,1619008
162351,1615920
163360,1616784
164376,1620456
165390,1621048
166412,1622632
167420,1619640
168434,1617616
169446,1617808
170458,1618344
171472,1618800
172489,1619536
173498,1617672
174519,1617704
175531,1621184
176542,1620136
177556,1619632
178570,1619496
179584,1620480
180599,1621864
181622,1622296
182637,1613760
183654,1617360
184668,1619120
185685,1618792
186701,1619056
187724,1617720
188737,1619744
189751,1621000
190771,1621008
191781,1620760
192794,1615912
193816,1617952
194827,1619984
195844,1620264
196855,1620448
197870,1620368
198886,1616776
199899,1620288
200913,1622304
201929,1622008
202942,1619440
203958,1619432
204973,1620888
205986,1621696
207001,1620696
207029,1611592
