elapsedWallClockMillis,totalMemoryBytes
14,1227648
1114,1614560
2127,1616856
3139,1618192
4148,1616664
5160,1608728
6169,1611792
7187,1613144
8198,1612464
9211,1612840
10222,1609880
11229,1613760
12244,1611632
13256,1612712
14264,1612072
15272,1613296
16283,1614744
17295,1615608
18307,1615712
19315,1615608
20326,1615576
21335,1615560
22341,1615544
23351,1614064
24359,1614752
25371,1615176
26380,1615144
27391,1613976
28403,1616784
29414,1616096
30425,1611280
31435,1615304
32444,1614816
33457,1615072
34469,1611176
35476,1611376
36491,1615216
37503,1616272
38517,1617000
39529,1613544
40540,1614312
41549,1614928
42561,1615728
43575,1615376
44587,1612376
45594,1615048
46605,1615240
47620,1615848
48630,1614784
49640,1613688
50647,1614696
51660,1615808
52668,1616904
53675,1616952
54688,1613768
55698,1613720
56717,1615248
57727,1615648
58738,1615536
59753,1613952
60762,1614960
61773,1616256
62793,1615672
63801,1615904
64813,1614840
65832,1615416
66840,1614704
67857,1615304
68867,1611744
69881,1615248
70892,1615232
71908,1615232
72919,1615344
73927,1614032
74938,1614544
75956,1614608
76965,1616440
77981,1617392
78994,1612704
80005,1615984
81017,1615456
82029,1616168
83043,1613864
84054,1614496
85062,1614280
86070,1614552
87085,1615232
88098,1612768
89109,1615088
90123,1614304
91133,1616232
92147,1616672
93158,1617376
94172,1614320
95185,1616488
96197,1615272
97219,1615232
98228,1611696
99238,1614160
100248,1615424
101260,1614840
102268,1616024
103279,1613648
104295,1616368
105303,1617280
106319,1618200
107333,1616224
108342,1616240
109357,1617128
110379,1617120
111389,1618760
112402,1617248
113416,1616568
114429,1615984
115439,1616840
116455,1616568
117465,1617312
118480,1615280
119497,1616912
120511,1616912
121521,1617336
122530,1617488
123542,1616656
124558,1617056
125571,1619048
126580,1619288
127594,1618720
128607,1616520
129618,1617120
130629,1617912
131639,1618632
132651,1617304
133666,1616520
134677,1617736
135690,1619280
136709,1618448
137723,1614424
138741,1617088
139753,1618160
140765,1616920
141778,1616896
142797,1617528
143807,1617232
144815,1619304
145829,1615080
146840,1619888
147861,1618640
148873,1619400
149883,1616936
150897,1618760
151908,1619864
152927,1615584
153941,1616952
154954,1616456
155963,1618640
156974,1617128
157985,1618800
158995,1618544
160005,1618896
161023,1620304
162032,1617272
163051,1620960
164064,1619928
165076,1620704
166090,1620672
167106,1616848
168118,1618112
169134,1619648
170147,1618952
171155,1619296
172170,1621168
173182,1620120
174194,1619800
175207,1621384
176221,1621936
177235,1617840
178247,1617160
179262,1619176
180271,1618752
181282,1615456
182300,1614856
183313,1617184
184330,1618656
185344,1618704
186353,1615960
187365,1616600
188379,1616192
189392,1618128
190403,1617968
191424,1619040
192434,1619760
193442,1618984
194461,1616432
195474,1616728
196486,1618432
197502,1618856
198513,1619160
199532,1621280
200543,1621272
201553,1619888
202571,1621968
203584,1617544
204610,1617632
205620,1617352
206631,1617480
207646,1618368
208664,1622264
209331,1611512
