elapsedWallClockMillis,totalMemoryBytes
8,1216816
1116,1615816
2128,1616656
3136,1617048
4144,1616992
5152,1606904
6159,1612200
7169,1612456
8180,1613592
9191,1609720
10205,1610568
11213,1610808
12224,1611208
13233,1612704
14242,1612576
15249,1613616
16258,1614480
17266,1615936
18276,1614984
19287,1615272
20302,1613608
21310,1615000
22327,1616288
23335,1614744
24349,1615272
25359,1615056
26369,1615368
27387,1616320
28395,1617192
29413,1615144
30420,1613416
31430,1614568
32450,1615648
33460,1615080
34467,1610304
35483,1613888
36492,1615080
37502,1614592
38512,1615864
39520,1611328
40528,1613176
41537,1614104
42552,1615024
43561,1614640
44573,1613072
45581,1615712
46589,1616504
47600,1613576
48611,1616616
49617,1614528
50627,1615528
51638,1611752
52645,1615376
53655,1614224
54662,1614856
55671,1614560
56680,1616056
57694,1615408
58702,1617000
59711,1614304
60724,1614320
61733,1616184
62743,1615384
63751,1615088
64759,1614680
65773,1614904
66781,1615872
67788,1616008
68795,1618600
69808,1615480
70823,1611512
71841,1615440
72850,1616232
73860,1614104
74868,1615464
75881,1613680
76889,1614176
77902,1615544
78916,1615352
79927,1615312
80938,1617088
81951,1616184
82958,1617944
83967,1614048
84978,1613536
85989,1614232
87003,1616160
88016,1615808
89028,1613912
90039,1615376
91046,1614960
92062,1615560
93070,1615144
94082,1614600
95095,1614448
96106,1614976
97118,1615864
98126,1616056
99135,1615296
100146,1616568
101153,1620192
102163,1620824
103171,1615520
104193,1616848
105202,1618744
106215,1619880
107226,1619096
108235,1616680
109243,1618616
110252,1618016
111259,1618776
112270,1621240
113280,1618056
114293,1617744
115303,1617600
116312,1619696
117326,1619592
118334,1618896
119342,1618992
120352,1620040
121371,1619360
122384,1619704
123391,1620680
124402,1619328
125414,1620632
126425,1623040
127433,1622904
128442,1618848
129454,1617904
130466,1619496
131478,1618720
132488,1620456
133496,1617448
134507,1618528
135517,1618088
136525,1618256
137535,1620136
138547,1616040
139561,1618184
140571,1616776
141583,1618728
142601,1619128
143611,1620224
144621,1621808
145629,1622016
146645,1621456
147656,1621248
148668,1616144
149675,1618240
150683,1617456
151695,1619840
152704,1618248
153716,1621208
154731,1621344
155747,1621232
156757,1619472
157767,1621592
158775,1617616
159788,1617288
160798,1619552
161808,1619016
162817,1618616
163829,1618016
164845,1618736
165858,1621848
166869,1620144
167882,1615320
168894,1617216
169901,1618728
170913,1618192
171929,1619176
172947,1617144
173956,1619592
174969,1618384
175990,1615824
177004,1619568
178012,1615936
179023,1618128
180034,1620280
181045,1621360
182054,1622168
183062,1618344
184074,1619304
185084,1618168
186097,1618984
187107,1620440
188121,1616240
189128,1617744
190143,1620136
191157,1620992
192170,1622184
193178,1618672
194195,1618832
195204,1620144
196216,1620728
197225,1615584
198236,1621176
199246,1620320
200257,1620368
201275,1623424
202284,1618472
203302,1620296
204310,1618784
205319,1620248
206327,1619624
207025,1611520
