elapsedWallClockMillis,totalMemoryBytes
10,1222504
1100,1616208
2112,1616952
3126,1617016
4145,1616488
5155,1610872
6167,1613024
7180,1613104
8197,1613112
9213,1611720
10226,1610504
11240,1611920
12254,1612592
13269,1613048
14282,1613152
15298,1614840
16311,1614816
17324,1614840
18337,1615048
19347,1614928
20362,1614168
21376,1614448
22388,1615048
23406,1614912
24418,1615248
25431,1613592
26444,1614992
27461,1615744
28474,1614352
29489,1615888
30502,1613392
31516,1615048
32530,1613496
33546,1614344
34559,1612208
35574,1615296
36588,1613384
37600,1616568
38614,1616696
39628,1612416
40645,1612872
41659,1612304
42672,1613440
43689,1615696
44699,1612704
45712,1613360
46727,1615152
47740,1613704
48755,1615368
49768,1615200
50782,1614472
51795,1616376
52808,1617184
53819,1617752
54833,1614920
55849,1616760
56859,1615648
57871,1615888
58882,1615064
59894,1615168
60909,1616400
61926,1616296
62938,1617664
63955,1610848
64970,1615384
65987,1613440
67002,1613912
68015,1614576
69031,1613552
70041,1616096
71056,1615128
72068,1615184
73082,1615888
74096,1613464
75111,1614968
76125,1614264
77139,1614328
78153,1616176
79168,1615304
80178,1615136
81191,1614192
82208,1614584
83221,1618272
84239,1613960
85259,1614648
86276,1614144
87290,1615272
88305,1615384
89318,1616552
90331,1617072
91343,1616168
92359,1617288
93374,1613640
94385,1615952
95396,1614120
96405,1616304
97420,1618040
98434,1615880
99448,1615600
100467,1618984
101482,1618736
102495,1618496
103507,1616360
104528,1617144
105542,1617912
106559,1618336
107575,1616592
108597,1619504
109605,1619984
110623,1619168
111634,1619176
112649,1619952
113671,1618520
114686,1617560
115701,1619536
116717,1616832
117730,1621248
118744,1617456
119758,1618400
120771,1616160
121786,1618296
122799,1615032
123814,1618552
124827,1619008
125842,1617576
126862,1620640
127879,1616376
128894,1618200
129907,1618248
130921,1619720
131940,1621096
132954,1617600
133966,1617528
134977,1618792
135995,1618040
137008,1617264
138022,1617288
139035,1618640
140057,1619384
141071,1618840
142085,1617608
143099,1617080
144112,1618976
145126,1619696
146138,1619912
147151,1620136
148161,1620312
149173,1620888
150196,1620632
151210,1621248
152223,1616888
153239,1618768
154249,1620312
155270,1620096
156282,1620536
157296,1619120
158307,1622880
158638,1611416
