elapsedWallClockMillis,totalMemoryBytes
18,1218352
1107,1616008
2120,1616664
3136,1616704
4149,1615560
5163,1608848
6177,1611080
7193,1612920
8206,1612872
9219,1612856
10234,1610848
11254,1612720
12268,1612192
13281,1612920
14292,1613472
15306,1613176
16321,1614456
17339,1615320
18351,1614584
19366,1613640
20382,1613024
21400,1614728
22413,1614592
23433,1614680
24444,1615544
25452,1612648
26464,1615128
27477,1613736
28488,1615744
29504,1614904
30517,1616032
31525,1616568
32540,1616984
33554,1615912
34565,1614920
35579,1615344
36590,1615848
37600,1618224
38618,1616400
39630,1615032
40642,1615208
41658,1616672
42673,1615704
43686,1615592
44701,1613320
45719,1615800
46733,1615792
47747,1616880
48759,1616800
49771,1615528
50786,1617360
51798,1614872
52810,1618072
53827,1616968
54841,1613800
55867,1615200
56882,1615680
57899,1615160
58914,1614584
59927,1615208
60941,1616280
61954,1615312
62967,1617160
63979,1613536
64994,1613496
66007,1614544
67022,1616208
68032,1616296
69047,1613728
70063,1616768
71078,1615680
72098,1617712
73115,1617768
74129,1614360
75145,1616008
76155,1614872
77171,1615336
78188,1615936
79203,1616432
80219,1616256
81234,1616384
82249,1617104
83261,1617472
84275,1615800
85286,1614648
86297,1615792
87317,1617456
88329,1615872
89345,1615232
90358,1616920
91374,1616448
92394,1616760
93406,1614232
94418,1613888
95435,1617320
96447,1617424
97460,1616184
98478,1615808
99491,1616688
100499,1619136
101514,1619464
102530,1620440
103543,1617296
104555,1614280
105568,1619216
106589,1618688
107605,1620056
108621,1615840
109635,1617928
110649,1617880
111671,1619440
112684,1616816
113697,1618488
114712,1619304
115722,1619360
116735,1619304
117751,1619720
118767,1618616
119781,1619656
120798,1619584
121813,1619712
122826,1615048
123836,1616992
124847,1614656
125859,1619384
126872,1619184
127884,1616008
128898,1619400
129911,1620744
130927,1621048
131939,1621000
132955,1617952
133969,1619080
134984,1619568
136001,1618648
137015,1619848
138029,1617720
139039,1620192
140062,1620832
141071,1618288
142094,1621872
142603,1611416
