elapsedWallClockMillis,totalMemoryBytes
8,1217392
1113,1614560
2123,1617128
3135,1616776
4149,1617208
5161,1609704
6174,1612904
7186,1613152
8201,1609936
9216,1613472
10227,1611384
11241,1612192
12256,1612592
13269,1612984
14280,1613880
15295,1614496
16308,1615056
17323,1614272
18337,1615024
19349,1613000
20361,1613608
21375,1614832
22386,1614824
23398,1615272
24411,1616072
25423,1614496
26436,1614912
27450,1616144
28465,1615056
29481,1615608
30492,1616016
31505,1615600
32521,1615648
33535,1617272
34547,1614440
35561,1616328
36571,1616112
37586,1617256
38602,1617792
39616,1615136
40628,1615800
41645,1614768
42658,1617080
43673,1616496
44684,1615784
45697,1615848
46710,1618040
47722,1617192
48734,1617272
49742,1615040
50753,1615368
51775,1615696
52790,1615232
53800,1616200
54810,1614256
55825,1612624
56836,1614864
57847,1617176
58862,1616952
59874,1614592
60885,1616392
61899,1616472
62912,1614712
63923,1613464
64944,1615344
65957,1616528
66973,1615552
67988,1616552
69001,1613264
70015,1612512
71029,1615648
72039,1616920
73061,1616928
74072,1614816
75098,1615304
76108,1616344
77122,1616432
78133,1617272
79147,1615792
80159,1617368
81174,1617248
82183,1617384
83199,1617992
84211,1616040
85219,1616840
86231,1616232
87249,1617640
88263,1616400
89277,1616208
90291,1617072
91306,1617328
92319,1617112
93332,1613120
94343,1615080
95357,1615712
96373,1616360
97388,1616992
98398,1614584
99415,1617872
100429,1617864
101444,1618400
102455,1619464
103476,1616408
104490,1617352
105502,1617224
106519,1618752
107533,1617936
108547,1616928
109561,1617416
110583,1618120
111596,1618488
112612,1618488
113629,1616976
114640,1616336
115654,1617928
116667,1619992
117684,1619544
118696,1614560
119708,1618944
120722,1618208
121739,1617240
122748,1614184
123765,1617832
124775,1618288
125793,1616656
126805,1619064
127826,1613784
128839,1618704
129857,1618832
130868,1619968
131876,1618224
132895,1617232
133910,1617000
134929,1618544
135943,1618864
136955,1618440
137967,1616536
138980,1617976
139990,1618584
141014,1618376
142026,1617840
143040,1616984
144054,1620680
145070,1621016
146083,1620808
147097,1622976
148119,1617184
149133,1618448
150147,1619176
151162,1613952
152178,1615336
153189,1621120
154210,1622768
155220,1621560
156237,1622728
157255,1617008
158270,1618280
159291,1618280
160306,1619744
161319,1619592
162331,1615120
163348,1617928
164359,1617528
165382,1616208
166395,1617672
167413,1620632
168421,1622064
169435,1620928
170453,1623472
171468,1622192
172491,1618608
173506,1617152
174517,1616744
175532,1618752
176544,1619392
177557,1617264
178572,1617472
179585,1618424
180605,1618952
181617,1615912
182630,1616184
183652,1618104
184666,1617112
185687,1619632
186702,1618032
187719,1619544
188731,1618848
189758,1619896
190774,1619072
191786,1618784
192803,1621600
193818,1622032
194828,1622736
195847,1621552
196862,1619920
197886,1618432
198899,1620432
199911,1621304
200922,1621240
201946,1619848
202958,1619192
203975,1622920
204989,1621792
206002,1621608
207017,1619376
208033,1619240
209047,1621120
210059,1621240
211083,1616264
212095,1619352
213109,1619952
214130,1621280
215146,1621856
216166,1618024
217182,1618936
218195,1619136
219211,1619848
220227,1621224
221237,1620792
222260,1621728
223280,1620040
224295,1622648
225307,1622920
225684,1611520
