elapsedWallClockMillis,totalMemoryBytes
10,1217456
1098,1616248
2111,1617128
3124,1617192
4137,1616888
5152,1608896
6163,1612088
7176,1613152
8188,1612872
9201,1612392
10215,1610856
11229,1612152
12242,1611752
13254,1613152
14268,1613704
15279,1614352
16292,1614952
17305,1615272
18319,1616712
19333,1613880
20340,1613128
21350,1614832
22363,1614632
23376,1614896
24388,1615712
25402,1614224
26417,1614032
27428,1615216
28441,1615352
29455,1616600
30468,1616536
31480,1616984
32494,1617096
33502,1617152
34513,1613248
35523,1615392
36538,1615968
37554,1617584
38566,1617808
39578,1613808
40591,1613488
41604,1616024
42613,1616568
43628,1616256
44643,1616432
45655,1616648
46669,1617192
47684,1617176
48695,1617576
49707,1616736
50721,1615248
51734,1617704
52748,1614416
53768,1615984
54781,1613608
55799,1615704
56813,1617008
57824,1615808
58838,1616696
59855,1614560
60864,1617392
61877,1616768
62891,1615688
63906,1613936
64923,1614936
65938,1616200
66952,1616936
67975,1616472
68991,1613416
70004,1615760
71022,1615048
72035,1614712
73042,1617224
74058,1614192
75068,1614416
76081,1617160
77099,1616224
78111,1616592
79125,1614376
80138,1616136
81150,1617608
82166,1618088
83180,1616320
84197,1614872
85211,1616352
86224,1615880
87233,1616840
88246,1615968
89267,1616728
90278,1616952
91293,1618480
92308,1618784
93318,1612608
94332,1615184
95346,1616072
96359,1614568
97372,1616016
98388,1614552
99400,1617280
100413,1619864
101427,1618568
102438,1619792
103452,1617712
104466,1617168
105480,1618128
106494,1618576
107508,1619184
108523,1616968
109538,1619288
110549,1619208
111563,1619888
112574,1619840
113588,1617912
114600,1618816
115615,1619824
116636,1618040
117652,1619992
118666,1618856
119681,1619096
120698,1619464
121711,1618888
122722,1614464
123734,1618400
124748,1618608
125761,1618880
126776,1619536
127790,1616680
128799,1617624
129810,1620328
130825,1619056
131849,1620392
132863,1617896
133875,1616816
134891,1619368
135906,1617576
136919,1618456
137936,1618496
138947,1618464
139963,1618896
140978,1619592
141990,1619008
143005,1619080
144017,1619768
145028,1618800
146045,1621056
147067,1619448
148083,1617368
149096,1617816
150106,1618488
151120,1617576
152135,1615696
153146,1620088
154160,1619784
155172,1620400
156185,1622992
157200,1617848
158222,1619168
159235,1619128
160252,1618800
161266,1620520
162284,1618776
163293,1619840
164305,1620424
165316,1616320
166334,1618672
167351,1617648
168364,1618768
169378,1620488
170392,1620512
171403,1618648
172416,1618192
173427,1618624
174445,1619136
175456,1618632
176467,1619504
177482,1619776
177584,1611520
