elapsedWallClockMillis,totalMemoryBytes
36,1218376
1141,1614424
2150,1617496
3161,1616848
4172,1615488
5179,1609416
6193,1612768
7206,1612008
8222,1612416
9231,1612840
10242,1610072
11250,1610952
12257,1612256
13267,1611584
14274,1613472
15281,1612968
16292,1614104
17302,1614216
18314,1615920
19324,1615176
20333,1614568
21346,1614048
22360,1614968
23376,1614360
24386,1615160
25392,1614744
26407,1616432
27418,1615616
28425,1615264
29434,1614808
30447,1613440
31465,1611824
32474,1615528
33482,1614456
34492,1609464
35508,1615864
36520,1617152
37531,1614616
38541,1615104
39548,1611880
40563,1614176
41573,1616328
42582,1616640
43600,1616472
44609,1613280
45619,1614312
46631,1615464
47642,1613952
48655,1614784
49673,1614824
50682,1617800
51694,1616504
52703,1617432
53712,1617960
54725,1614400
55739,1615016
56750,1613864
57758,1615344
58764,1615952
59777,1614064
60786,1615016
61794,1614504
62804,1612864
63815,1614648
64824,1614184
65833,1612248
66844,1615824
67851,1615520
68863,1611376
69879,1612184
70891,1614240
71907,1612984
72914,1615000
73928,1614376
74941,1614488
75953,1615448
76969,1617144
77980,1614488
78996,1612488
80009,1613864
81018,1614816
82026,1615680
83040,1614552
84048,1614456
85056,1616096
86065,1613144
87078,1618008
88085,1615912
89093,1615456
90103,1610144
91113,1615856
92121,1613960
93131,1615512
94147,1616424
95154,1616912
96171,1617368
97179,1617648
98186,1618048
99198,1612720
100210,1618344
101228,1619864
102236,1617616
103249,1616080
104265,1619624
105274,1618832
106287,1620976
107306,1621600
108314,1615224
109335,1616680
110345,1616304
111365,1617744
112374,1618536
113381,1617128
114390,1618648
115402,1619920
116410,1616992
117422,1619600
118430,1616608
119448,1619064
120461,1617432
121476,1617240
122484,1617184
123502,1618128
124517,1617304
125523,1619352
126534,1619816
127542,1618672
128555,1617000
129568,1616592
130579,1618024
131591,1617504
132604,1620912
133616,1617120
134626,1617936
135638,1617896
136652,1619648
137666,1613704
138677,1617312
139692,1617112
140703,1617912
141714,1617264
142728,1616720
143747,1619184
144757,1616856
145772,1619888
146785,1619904
147796,1617208
148806,1619216
149819,1618576
150831,1618416
151841,1619648
152856,1616936
153865,1617768
154877,1618808
155886,1618200
156897,1617880
157906,1614560
158915,1620392
159930,1621520
160941,1621720
161956,1620472
162965,1616472
163974,1618072
164983,1618008
165993,1618784
167002,1618384
167302,1611344
