Feb 11 18:05:39 CONTAINER ID   NAME      CPU %     MEM USAGE / LIMIT   MEM %     NET I/O   BLOCK I/O   PIDS
Feb 11 18:05:43 CONTAINER ID   NAME                CPU %     MEM USAGE / LIMIT     MEM %     NET I/O        BLOCK I/O   PIDS
Feb 11 18:05:43 b516e7058a3d   cdo_repoSystem_1    190.00%   83.51MiB / 15.07GiB   0.54%     8.07kB / 96B   0B / 0B     30
Feb 11 18:05:43 9b80c898f2a3   cdo_repoHistory_1   184.22%   58.49MiB / 15.07GiB   0.38%     3.47kB / 96B   0B / 0B     22
Feb 11 18:05:46 CONTAINER ID   NAME                CPU %     MEM USAGE / LIMIT     MEM %     NET I/O         BLOCK I/O     PIDS
Feb 11 18:05:46 b516e7058a3d   cdo_repoSystem_1    42.54%    173.9MiB / 15.07GiB   1.13%     12.2kB / 138B   0B / 1.72MB   37
Feb 11 18:05:46 9b80c898f2a3   cdo_repoHistory_1   142.70%   133.7MiB / 15.07GiB   0.87%     10.7kB / 96B    0B / 1.72MB   36
Feb 11 18:05:50 CONTAINER ID   NAME                CPU %     MEM USAGE / LIMIT     MEM %     NET I/O         BLOCK I/O     PIDS
Feb 11 18:05:50 b516e7058a3d   cdo_repoSystem_1    0.34%     173.9MiB / 15.07GiB   1.13%     13.2kB / 138B   0B / 1.72MB   37
Feb 11 18:05:50 9b80c898f2a3   cdo_repoHistory_1   0.36%     150.5MiB / 15.07GiB   0.98%     12.9kB / 138B   0B / 1.72MB   38
Feb 11 18:05:54 CONTAINER ID   NAME                CPU %     MEM USAGE / LIMIT     MEM %     NET I/O         BLOCK I/O     PIDS
Feb 11 18:05:54 b516e7058a3d   cdo_repoSystem_1    0.37%     173.6MiB / 15.07GiB   1.12%     13.2kB / 138B   0B / 1.72MB   33
Feb 11 18:05:54 9b80c898f2a3   cdo_repoHistory_1   0.94%     147.1MiB / 15.07GiB   0.95%     13.2kB / 138B   0B / 1.72MB   33
Feb 11 18:05:57 CONTAINER ID   NAME                CPU %     MEM USAGE / LIMIT     MEM %     NET I/O         BLOCK I/O     PIDS
Feb 11 18:05:57 b516e7058a3d   cdo_repoSystem_1    0.42%     173.6MiB / 15.07GiB   1.12%     13.9kB / 138B   0B / 1.72MB   33
Feb 11 18:05:57 9b80c898f2a3   cdo_repoHistory_1   0.45%     147.1MiB / 15.07GiB   0.95%     13.4kB / 138B   0B / 1.72MB   33
Feb 11 18:06:01 CONTAINER ID   NAME                CPU %     MEM USAGE / LIMIT     MEM %     NET I/O         BLOCK I/O     PIDS
Feb 11 18:06:01 b516e7058a3d   cdo_repoSystem_1    0.18%     173.6MiB / 15.07GiB   1.12%     13.9kB / 138B   0B / 1.72MB   33
Feb 11 18:06:01 9b80c898f2a3   cdo_repoHistory_1   0.40%     147.1MiB / 15.07GiB   0.95%     13.9kB / 138B   0B / 1.72MB   33
Feb 11 18:06:04 CONTAINER ID   NAME                CPU %     MEM USAGE / LIMIT     MEM %     NET I/O           BLOCK I/O     PIDS
Feb 11 18:06:04 b516e7058a3d   cdo_repoSystem_1    4.60%     192.7MiB / 15.07GiB   1.25%     34kB / 18.3kB     0B / 1.72MB   43
Feb 11 18:06:04 9b80c898f2a3   cdo_repoHistory_1   0.20%     165.8MiB / 15.07GiB   1.07%     19.5kB / 5.14kB   0B / 1.72MB   43
Feb 11 18:06:08 CONTAINER ID   NAME                CPU %     MEM USAGE / LIMIT     MEM %     NET I/O           BLOCK I/O     PIDS
Feb 11 18:06:08 b516e7058a3d   cdo_repoSystem_1    3.49%     188.2MiB / 15.07GiB   1.22%     36.9kB / 19.8kB   0B / 1.72MB   43
Feb 11 18:06:08 9b80c898f2a3   cdo_repoHistory_1   0.47%     160.5MiB / 15.07GiB   1.04%     19.5kB / 5.14kB   0B / 1.72MB   43
Feb 11 18:06:12 CONTAINER ID   NAME                CPU %     MEM USAGE / LIMIT     MEM %     NET I/O           BLOCK I/O     PIDS
Feb 11 18:06:12 b516e7058a3d   cdo_repoSystem_1    11.88%    188.6MiB / 15.07GiB   1.22%     42.3kB / 23.1kB   0B / 1.72MB   43
Feb 11 18:06:12 9b80c898f2a3   cdo_repoHistory_1   0.50%     160.5MiB / 15.07GiB   1.04%     19.8kB / 5.14kB   0B / 1.72MB   43
Feb 11 18:06:15 CONTAINER ID   NAME                CPU %     MEM USAGE / LIMIT     MEM %     NET I/O           BLOCK I/O     PIDS
Feb 11 18:06:15 b516e7058a3d   cdo_repoSystem_1    7.37%     189.9MiB / 15.07GiB   1.23%     49.1kB / 27.2kB   0B / 1.85MB   43
Feb 11 18:06:15 9b80c898f2a3   cdo_repoHistory_1   0.47%     177.3MiB / 15.07GiB   1.15%     875kB / 49.9kB    0B / 1.85MB   44
Feb 11 18:06:19 CONTAINER ID   NAME                CPU %     MEM USAGE / LIMIT     MEM %     NET I/O           BLOCK I/O     PIDS
Feb 11 18:06:19 b516e7058a3d   cdo_repoSystem_1    24.79%    190.2MiB / 15.07GiB   1.23%     55.1kB / 31.5kB   0B / 1.85MB   43
Feb 11 18:06:19 9b80c898f2a3   cdo_repoHistory_1   1.10%     169.8MiB / 15.07GiB   1.10%     875kB / 49.9kB    0B / 1.85MB   44
Feb 11 18:06:23 CONTAINER ID   NAME                CPU %     MEM USAGE / LIMIT     MEM %     NET I/O           BLOCK I/O     PIDS
Feb 11 18:06:23 b516e7058a3d   cdo_repoSystem_1    17.82%    190.5MiB / 15.07GiB   1.23%     65.3kB / 40.7kB   0B / 1.85MB   43
Feb 11 18:06:23 9b80c898f2a3   cdo_repoHistory_1   0.42%     169.8MiB / 15.07GiB   1.10%     875kB / 49.9kB    0B / 1.85MB   44
Feb 11 18:06:27 CONTAINER ID   NAME                CPU %     MEM USAGE / LIMIT     MEM %     NET I/O           BLOCK I/O     PIDS
Feb 11 18:06:27 b516e7058a3d   cdo_repoSystem_1    1.96%     190.7MiB / 15.07GiB   1.24%     71.5kB / 45.9kB   0B / 1.85MB   43
Feb 11 18:06:27 9b80c898f2a3   cdo_repoHistory_1   0.46%     221.2MiB / 15.07GiB   1.43%     1.61MB / 98.4kB   0B / 1.85MB   45
Feb 11 18:06:30 CONTAINER ID   NAME                CPU %     MEM USAGE / LIMIT     MEM %     NET I/O           BLOCK I/O     PIDS
Feb 11 18:06:30 b516e7058a3d   cdo_repoSystem_1    4.57%     191MiB / 15.07GiB     1.24%     78.4kB / 50.8kB   0B / 1.85MB   43
Feb 11 18:06:30 9b80c898f2a3   cdo_repoHistory_1   0.51%     221.2MiB / 15.07GiB   1.43%     1.61MB / 98.4kB   0B / 1.85MB   44
Feb 11 18:06:34 CONTAINER ID   NAME                CPU %     MEM USAGE / LIMIT     MEM %     NET I/O           BLOCK I/O     PIDS
Feb 11 18:06:34 b516e7058a3d   cdo_repoSystem_1    3.65%     191.2MiB / 15.07GiB   1.24%     81.9kB / 52.8kB   0B / 1.85MB   43
Feb 11 18:06:34 9b80c898f2a3   cdo_repoHistory_1   157.56%   239.4MiB / 15.07GiB   1.55%     2.28MB / 144kB    0B / 1.85MB   45
