Feb 11 18:10:05 CONTAINER ID   NAME      CPU %     MEM USAGE / LIMIT   MEM %     NET I/O   BLOCK I/O   PIDS
Feb 11 18:10:09 CONTAINER ID   NAME                CPU %     MEM USAGE / LIMIT     MEM %     NET I/O        BLOCK I/O   PIDS
Feb 11 18:10:09 6fb684aaa1c7   cdo_repoHistory_1   188.38%   79.52MiB / 15.07GiB   0.52%     5.89kB / 96B   0B / 0B     30
Feb 11 18:10:09 2214193bf4f3   cdo_repoSystem_1    197.64%   59.41MiB / 15.07GiB   0.39%     1.5kB / 96B    0B / 0B     22
Feb 11 18:10:13 CONTAINER ID   NAME                CPU %     MEM USAGE / LIMIT     MEM %     NET I/O         BLOCK I/O     PIDS
Feb 11 18:10:13 6fb684aaa1c7   cdo_repoHistory_1   152.89%   164.6MiB / 15.07GiB   1.07%     11.9kB / 138B   0B / 1.73MB   38
Feb 11 18:10:13 2214193bf4f3   cdo_repoSystem_1    175.23%   145.8MiB / 15.07GiB   0.94%     10.6kB / 96B    0B / 1.7MB    34
Feb 11 18:10:16 CONTAINER ID   NAME                CPU %     MEM USAGE / LIMIT     MEM %     NET I/O         BLOCK I/O     PIDS
Feb 11 18:10:16 6fb684aaa1c7   cdo_repoHistory_1   0.34%     164.6MiB / 15.07GiB   1.07%     13kB / 138B     0B / 1.73MB   38
Feb 11 18:10:16 2214193bf4f3   cdo_repoSystem_1    0.39%     167.7MiB / 15.07GiB   1.09%     12.9kB / 138B   0B / 1.73MB   38
Feb 11 18:10:20 CONTAINER ID   NAME                CPU %     MEM USAGE / LIMIT     MEM %     NET I/O         BLOCK I/O     PIDS
Feb 11 18:10:20 6fb684aaa1c7   cdo_repoHistory_1   0.42%     160MiB / 15.07GiB     1.04%     13.3kB / 138B   0B / 1.73MB   33
Feb 11 18:10:20 2214193bf4f3   cdo_repoSystem_1    0.75%     167.3MiB / 15.07GiB   1.08%     13.4kB / 138B   0B / 1.73MB   33
Feb 11 18:10:23 CONTAINER ID   NAME                CPU %     MEM USAGE / LIMIT     MEM %     NET I/O         BLOCK I/O     PIDS
Feb 11 18:10:23 6fb684aaa1c7   cdo_repoHistory_1   0.42%     160MiB / 15.07GiB     1.04%     13.8kB / 138B   0B / 1.73MB   33
Feb 11 18:10:23 2214193bf4f3   cdo_repoSystem_1    0.51%     167.3MiB / 15.07GiB   1.08%     13.7kB / 138B   0B / 1.73MB   33
Feb 11 18:10:27 CONTAINER ID   NAME                CPU %     MEM USAGE / LIMIT     MEM %     NET I/O         BLOCK I/O     PIDS
Feb 11 18:10:27 6fb684aaa1c7   cdo_repoHistory_1   0.22%     160MiB / 15.07GiB     1.04%     14kB / 138B     0B / 1.73MB   33
Feb 11 18:10:27 2214193bf4f3   cdo_repoSystem_1    0.36%     167.3MiB / 15.07GiB   1.08%     14.2kB / 138B   0B / 1.73MB   33
Feb 11 18:10:31 CONTAINER ID   NAME                CPU %     MEM USAGE / LIMIT     MEM %     NET I/O           BLOCK I/O     PIDS
Feb 11 18:10:31 6fb684aaa1c7   cdo_repoHistory_1   0.28%     172.2MiB / 15.07GiB   1.12%     18.2kB / 4.28kB   0B / 1.73MB   44
Feb 11 18:10:31 2214193bf4f3   cdo_repoSystem_1    78.06%    178.9MiB / 15.07GiB   1.16%     32.5kB / 16.1kB   0B / 1.73MB   43
Feb 11 18:10:34 CONTAINER ID   NAME                CPU %     MEM USAGE / LIMIT     MEM %     NET I/O           BLOCK I/O     PIDS
Feb 11 18:10:34 6fb684aaa1c7   cdo_repoHistory_1   0.49%     158.7MiB / 15.07GiB   1.03%     18.2kB / 4.28kB   0B / 1.73MB   43
Feb 11 18:10:34 2214193bf4f3   cdo_repoSystem_1    5.65%     179.2MiB / 15.07GiB   1.16%     39.3kB / 20.1kB   0B / 1.73MB   43
Feb 11 18:10:38 CONTAINER ID   NAME                CPU %     MEM USAGE / LIMIT     MEM %     NET I/O           BLOCK I/O     PIDS
Feb 11 18:10:38 6fb684aaa1c7   cdo_repoHistory_1   0.48%     158.7MiB / 15.07GiB   1.03%     18.5kB / 4.28kB   0B / 1.73MB   43
Feb 11 18:10:38 2214193bf4f3   cdo_repoSystem_1    3.08%     179.2MiB / 15.07GiB   1.16%     43.1kB / 22.5kB   0B / 1.73MB   43
Feb 11 18:10:42 CONTAINER ID   NAME                CPU %     MEM USAGE / LIMIT     MEM %     NET I/O           BLOCK I/O     PIDS
Feb 11 18:10:42 6fb684aaa1c7   cdo_repoHistory_1   62.93%    175.9MiB / 15.07GiB   1.14%     831kB / 45.8kB    0B / 1.86MB   44
Feb 11 18:10:42 2214193bf4f3   cdo_repoSystem_1    17.17%    180.8MiB / 15.07GiB   1.17%     51.6kB / 27.8kB   0B / 1.85MB   43
Feb 11 18:10:45 CONTAINER ID   NAME                CPU %     MEM USAGE / LIMIT     MEM %     NET I/O           BLOCK I/O     PIDS
Feb 11 18:10:45 6fb684aaa1c7   cdo_repoHistory_1   0.51%     175.9MiB / 15.07GiB   1.14%     831kB / 45.8kB    0B / 1.86MB   43
Feb 11 18:10:45 2214193bf4f3   cdo_repoSystem_1    4.06%     180.9MiB / 15.07GiB   1.17%     55.6kB / 30.9kB   0B / 1.85MB   43
Feb 11 18:10:49 CONTAINER ID   NAME                CPU %     MEM USAGE / LIMIT     MEM %     NET I/O           BLOCK I/O     PIDS
Feb 11 18:10:49 6fb684aaa1c7   cdo_repoHistory_1   175.17%   206.9MiB / 15.07GiB   1.34%     1.53MB / 94.8kB   0B / 1.86MB   47
Feb 11 18:10:49 2214193bf4f3   cdo_repoSystem_1    1.27%     181.2MiB / 15.07GiB   1.17%     62.2kB / 36.2kB   0B / 1.85MB   43
Feb 11 18:10:53 CONTAINER ID   NAME                CPU %     MEM USAGE / LIMIT     MEM %     NET I/O           BLOCK I/O     PIDS
Feb 11 18:10:53 6fb684aaa1c7   cdo_repoHistory_1   0.63%     209.9MiB / 15.07GiB   1.36%     1.53MB / 94.8kB   0B / 1.86MB   46
Feb 11 18:10:53 2214193bf4f3   cdo_repoSystem_1    7.78%     181.7MiB / 15.07GiB   1.18%     72.8kB / 46.8kB   0B / 1.85MB   43
Feb 11 18:10:57 CONTAINER ID   NAME                CPU %     MEM USAGE / LIMIT     MEM %     NET I/O           BLOCK I/O     PIDS
Feb 11 18:10:57 6fb684aaa1c7   cdo_repoHistory_1   0.52%     209.9MiB / 15.07GiB   1.36%     1.53MB / 94.8kB   0B / 1.86MB   46
Feb 11 18:10:57 2214193bf4f3   cdo_repoSystem_1    3.34%     182MiB / 15.07GiB     1.18%     80.2kB / 52.7kB   0B / 1.85MB   43
Feb 11 18:11:00 CONTAINER ID   NAME                CPU %     MEM USAGE / LIMIT     MEM %     NET I/O          BLOCK I/O     PIDS
Feb 11 18:11:00 6fb684aaa1c7   cdo_repoHistory_1   208.00%   233.1MiB / 15.07GiB   1.51%     2.27MB / 147kB   0B / 1.86MB   47
Feb 11 18:11:00 2214193bf4f3   cdo_repoSystem_1    2.88%     182.1MiB / 15.07GiB   1.18%     85kB / 55.8kB    0B / 1.85MB   43
