Jan 17 22:25:27 CONTAINER ID   NAME                          CPU %     MEM USAGE / LIMIT     MEM %     NET I/O         BLOCK I/O         PIDS
Jan 17 22:25:27 af57ae299089   janus-inmemory_repoSystem_1   0.16%     142.9MiB / 15.07GiB   0.93%     14.4kB / 344B   0B / 1.76MB       34
Jan 17 22:25:27 f71d5db0aea4   janus-inmemory_janusgraph_1   117.88%   72MiB / 15.07GiB      0.47%     266B / 0B       66.9MB / 20.5kB   18
Jan 17 22:25:30 CONTAINER ID   NAME                          CPU %     MEM USAGE / LIMIT     MEM %     NET I/O         BLOCK I/O         PIDS
Jan 17 22:25:30 f71d5db0aea4   janus-inmemory_janusgraph_1   258.44%   646.3MiB / 15.07GiB   4.19%     3.66kB / 0B     79.2MB / 77.8kB   21
Jan 17 22:25:30 af57ae299089   janus-inmemory_repoSystem_1   0.16%     142.9MiB / 15.07GiB   0.93%     14.5kB / 344B   0B / 1.76MB       34
Jan 17 22:25:33 CONTAINER ID   NAME                          CPU %     MEM USAGE / LIMIT     MEM %     NET I/O       BLOCK I/O         PIDS
Jan 17 22:25:33 f71d5db0aea4   janus-inmemory_janusgraph_1   322.58%   729.3MiB / 15.07GiB   4.73%     5.12kB / 0B   90.4MB / 77.8kB   22
Jan 17 22:25:33 af57ae299089   janus-inmemory_repoSystem_1   0.16%     144.1MiB / 15.07GiB   0.93%     15kB / 344B   0B / 1.88MB       35
Jan 17 22:25:36 CONTAINER ID   NAME                          CPU %     MEM USAGE / LIMIT     MEM %     NET I/O         BLOCK I/O         PIDS
Jan 17 22:25:36 f71d5db0aea4   janus-inmemory_janusgraph_1   278.44%   800.7MiB / 15.07GiB   5.19%     5.58kB / 0B     96.4MB / 77.8kB   23
Jan 17 22:25:36 af57ae299089   janus-inmemory_repoSystem_1   0.15%     144.1MiB / 15.07GiB   0.93%     15.5kB / 344B   0B / 1.88MB       35
Jan 17 22:25:39 CONTAINER ID   NAME                          CPU %     MEM USAGE / LIMIT     MEM %     NET I/O         BLOCK I/O       PIDS
Jan 17 22:25:39 f71d5db0aea4   janus-inmemory_janusgraph_1   241.24%   243.7MiB / 15.07GiB   1.58%     5.58kB / 0B     101MB / 111kB   19
Jan 17 22:25:39 af57ae299089   janus-inmemory_repoSystem_1   0.15%     144.1MiB / 15.07GiB   0.93%     15.5kB / 344B   0B / 1.88MB     34
Jan 17 22:25:42 CONTAINER ID   NAME                          CPU %     MEM USAGE / LIMIT     MEM %     NET I/O         BLOCK I/O       PIDS
Jan 17 22:25:42 f71d5db0aea4   janus-inmemory_janusgraph_1   288.11%   751.9MiB / 15.07GiB   4.87%     5.65kB / 0B     102MB / 111kB   21
Jan 17 22:25:42 af57ae299089   janus-inmemory_repoSystem_1   0.15%     144.1MiB / 15.07GiB   0.93%     15.5kB / 344B   0B / 1.88MB     34
Jan 17 22:25:45 CONTAINER ID   NAME                          CPU %     MEM USAGE / LIMIT     MEM %     NET I/O         BLOCK I/O       PIDS
Jan 17 22:25:45 f71d5db0aea4   janus-inmemory_janusgraph_1   0.43%     768MiB / 15.07GiB     4.98%     5.88kB / 0B     103MB / 111kB   22
Jan 17 22:25:45 af57ae299089   janus-inmemory_repoSystem_1   0.35%     144.1MiB / 15.07GiB   0.93%     15.5kB / 344B   0B / 1.88MB     34
Jan 17 22:25:48 CONTAINER ID   NAME                          CPU %     MEM USAGE / LIMIT     MEM %     NET I/O         BLOCK I/O       PIDS
Jan 17 22:25:48 f71d5db0aea4   janus-inmemory_janusgraph_1   0.41%     754.6MiB / 15.07GiB   4.89%     5.88kB / 0B     103MB / 111kB   22
Jan 17 22:25:48 af57ae299089   janus-inmemory_repoSystem_1   0.35%     144.1MiB / 15.07GiB   0.93%     15.5kB / 344B   0B / 1.88MB     34
Jan 17 22:25:51 CONTAINER ID   NAME                          CPU %     MEM USAGE / LIMIT     MEM %     NET I/O         BLOCK I/O       PIDS
Jan 17 22:25:51 f71d5db0aea4   janus-inmemory_janusgraph_1   0.15%     754.6MiB / 15.07GiB   4.89%     5.88kB / 0B     103MB / 111kB   22
Jan 17 22:25:51 af57ae299089   janus-inmemory_repoSystem_1   0.39%     144.1MiB / 15.07GiB   0.93%     15.5kB / 344B   0B / 1.88MB     34
Jan 17 22:25:54 CONTAINER ID   NAME                          CPU %     MEM USAGE / LIMIT     MEM %     NET I/O         BLOCK I/O       PIDS
Jan 17 22:25:54 f71d5db0aea4   janus-inmemory_janusgraph_1   0.16%     754.6MiB / 15.07GiB   4.89%     5.88kB / 0B     103MB / 111kB   22
Jan 17 22:25:54 af57ae299089   janus-inmemory_repoSystem_1   0.41%     144.1MiB / 15.07GiB   0.93%     15.5kB / 344B   0B / 1.88MB     34
Jan 17 22:25:57 CONTAINER ID   NAME                          CPU %     MEM USAGE / LIMIT     MEM %     NET I/O           BLOCK I/O       PIDS
Jan 17 22:25:57 f71d5db0aea4   janus-inmemory_janusgraph_1   65.87%    762MiB / 15.07GiB     4.94%     7.19kB / 778B     105MB / 111kB   26
Jan 17 22:25:57 af57ae299089   janus-inmemory_repoSystem_1   160.72%   193.8MiB / 15.07GiB   1.26%     19.4kB / 2.32kB   0B / 1.88MB     44
Jan 17 22:26:00 CONTAINER ID   NAME                          CPU %     MEM USAGE / LIMIT     MEM %     NET I/O           BLOCK I/O       PIDS
Jan 17 22:26:00 f71d5db0aea4   janus-inmemory_janusgraph_1   80.11%    767.6MiB / 15.07GiB   4.97%     14.3kB / 5.13kB   105MB / 111kB   47
Jan 17 22:26:00 af57ae299089   janus-inmemory_repoSystem_1   6.93%     199.6MiB / 15.07GiB   1.29%     36.5kB / 18.7kB   0B / 1.88MB     43
Jan 17 22:26:03 CONTAINER ID   NAME                          CPU %     MEM USAGE / LIMIT     MEM %     NET I/O           BLOCK I/O       PIDS
Jan 17 22:26:03 f71d5db0aea4   janus-inmemory_janusgraph_1   161.25%   775.6MiB / 15.07GiB   5.03%     213kB / 103kB     105MB / 111kB   52
Jan 17 22:26:03 af57ae299089   janus-inmemory_repoSystem_1   1.18%     180.2MiB / 15.07GiB   1.17%     40.3kB / 20.4kB   0B / 1.88MB     43
Jan 17 22:26:07 CONTAINER ID   NAME                          CPU %     MEM USAGE / LIMIT     MEM %     NET I/O           BLOCK I/O       PIDS
Jan 17 22:26:07 f71d5db0aea4   janus-inmemory_janusgraph_1   212.41%   782.9MiB / 15.07GiB   5.07%     526kB / 258kB     105MB / 111kB   52
Jan 17 22:26:07 af57ae299089   janus-inmemory_repoSystem_1   4.80%     180.4MiB / 15.07GiB   1.17%     45.7kB / 23.5kB   0B / 1.88MB     43
Jan 17 22:26:10 CONTAINER ID   NAME                          CPU %     MEM USAGE / LIMIT     MEM %     NET I/O         BLOCK I/O       PIDS
Jan 17 22:26:10 f71d5db0aea4   janus-inmemory_janusgraph_1   186.76%   783.5MiB / 15.07GiB   5.08%     897kB / 445kB   105MB / 111kB   52
Jan 17 22:26:10 af57ae299089   janus-inmemory_repoSystem_1   20.32%    180.7MiB / 15.07GiB   1.17%     52kB / 28.7kB   0B / 1.88MB     43
Jan 17 22:26:13 CONTAINER ID   NAME                          CPU %     MEM USAGE / LIMIT     MEM %     NET I/O           BLOCK I/O       PIDS
Jan 17 22:26:13 f71d5db0aea4   janus-inmemory_janusgraph_1   211.29%   784.6MiB / 15.07GiB   5.08%     1.3MB / 646kB     105MB / 111kB   52
Jan 17 22:26:13 af57ae299089   janus-inmemory_repoSystem_1   5.72%     174.3MiB / 15.07GiB   1.13%     59.6kB / 35.6kB   0B / 1.88MB     43
Jan 17 22:26:16 CONTAINER ID   NAME                          CPU %     MEM USAGE / LIMIT     MEM %     NET I/O          BLOCK I/O       PIDS
Jan 17 22:26:16 f71d5db0aea4   janus-inmemory_janusgraph_1   198.05%   785.7MiB / 15.07GiB   5.09%     1.86MB / 933kB   105MB / 111kB   52
Jan 17 22:26:16 af57ae299089   janus-inmemory_repoSystem_1   7.59%     174.4MiB / 15.07GiB   1.13%     65kB / 40.2kB    0B / 1.88MB     43
Jan 17 22:26:19 CONTAINER ID   NAME                          CPU %     MEM USAGE / LIMIT     MEM %     NET I/O           BLOCK I/O       PIDS
Jan 17 22:26:19 f71d5db0aea4   janus-inmemory_janusgraph_1   123.48%   786.3MiB / 15.07GiB   5.10%     2.7MB / 1.36MB    105MB / 111kB   52
Jan 17 22:26:19 af57ae299089   janus-inmemory_repoSystem_1   3.66%     174.7MiB / 15.07GiB   1.13%     71.7kB / 46.2kB   0B / 1.88MB     43
Jan 17 22:26:22 CONTAINER ID   NAME                          CPU %     MEM USAGE / LIMIT   MEM %     NET I/O           BLOCK I/O       PIDS
Jan 17 22:26:22 f71d5db0aea4   janus-inmemory_janusgraph_1   132.07%   787MiB / 15.07GiB   5.10%     3.48MB / 1.75MB   105MB / 111kB   52
Jan 17 22:26:22 af57ae299089   janus-inmemory_repoSystem_1   4.13%     175MiB / 15.07GiB   1.13%     78.8kB / 52.5kB   0B / 1.88MB     43
Jan 17 22:26:25 CONTAINER ID   NAME                          CPU %     MEM USAGE / LIMIT     MEM %     NET I/O           BLOCK I/O       PIDS
Jan 17 22:26:25 f71d5db0aea4   janus-inmemory_janusgraph_1   84.34%    800.7MiB / 15.07GiB   5.19%     4.61MB / 2.31MB   105MB / 111kB   52
Jan 17 22:26:25 af57ae299089   janus-inmemory_repoSystem_1   3.14%     175.2MiB / 15.07GiB   1.14%     84.8kB / 58.1kB   0B / 1.88MB     43
Jan 17 22:26:28 CONTAINER ID   NAME                          CPU %     MEM USAGE / LIMIT     MEM %     NET I/O           BLOCK I/O       PIDS
Jan 17 22:26:28 f71d5db0aea4   janus-inmemory_janusgraph_1   68.30%    800.7MiB / 15.07GiB   5.19%     6.14MB / 3.08MB   105MB / 111kB   52
Jan 17 22:26:28 af57ae299089   janus-inmemory_repoSystem_1   4.22%     175.7MiB / 15.07GiB   1.14%     92.1kB / 64.5kB   0B / 1.88MB     43
Jan 17 22:26:31 CONTAINER ID   NAME                          CPU %     MEM USAGE / LIMIT     MEM %     NET I/O           BLOCK I/O       PIDS
Jan 17 22:26:31 f71d5db0aea4   janus-inmemory_janusgraph_1   76.50%    881.1MiB / 15.07GiB   5.71%     7.78MB / 3.91MB   105MB / 111kB   52
Jan 17 22:26:31 af57ae299089   janus-inmemory_repoSystem_1   0.15%     175.5MiB / 15.07GiB   1.14%     93.9kB / 65.7kB   0B / 1.88MB     43
Jan 17 22:26:34 CONTAINER ID   NAME                          CPU %     MEM USAGE / LIMIT     MEM %     NET I/O           BLOCK I/O       PIDS
Jan 17 22:26:34 f71d5db0aea4   janus-inmemory_janusgraph_1   63.88%    905.6MiB / 15.07GiB   5.87%     9.38MB / 4.71MB   105MB / 111kB   52
Jan 17 22:26:34 af57ae299089   janus-inmemory_repoSystem_1   0.18%     175.5MiB / 15.07GiB   1.14%     94.7kB / 65.7kB   0B / 1.88MB     43
Jan 17 22:26:37 CONTAINER ID   NAME                          CPU %     MEM USAGE / LIMIT     MEM %     NET I/O           BLOCK I/O       PIDS
Jan 17 22:26:37 f71d5db0aea4   janus-inmemory_janusgraph_1   4.96%     905.6MiB / 15.07GiB   5.87%     10.4MB / 5.2MB    105MB / 111kB   52
Jan 17 22:26:37 af57ae299089   janus-inmemory_repoSystem_1   0.37%     175.5MiB / 15.07GiB   1.14%     95.8kB / 65.7kB   0B / 1.88MB     43
Jan 17 22:26:40 CONTAINER ID   NAME                          CPU %     MEM USAGE / LIMIT     MEM %     NET I/O           BLOCK I/O       PIDS
Jan 17 22:26:40 f71d5db0aea4   janus-inmemory_janusgraph_1   2.70%     905.6MiB / 15.07GiB   5.87%     10.4MB / 5.2MB    105MB / 111kB   52
Jan 17 22:26:40 af57ae299089   janus-inmemory_repoSystem_1   0.41%     175.5MiB / 15.07GiB   1.14%     96.7kB / 65.9kB   0B / 1.88MB     43
Jan 17 22:26:43 CONTAINER ID   NAME                          CPU %     MEM USAGE / LIMIT     MEM %     NET I/O           BLOCK I/O       PIDS
Jan 17 22:26:43 f71d5db0aea4   janus-inmemory_janusgraph_1   4.24%     905.6MiB / 15.07GiB   5.87%     10.4MB / 5.2MB    105MB / 111kB   52
Jan 17 22:26:43 af57ae299089   janus-inmemory_repoSystem_1   0.40%     175.5MiB / 15.07GiB   1.14%     96.7kB / 65.9kB   0B / 1.88MB     43
Jan 17 22:26:46 CONTAINER ID   NAME                          CPU %     MEM USAGE / LIMIT     MEM %     NET I/O           BLOCK I/O       PIDS
Jan 17 22:26:46 f71d5db0aea4   janus-inmemory_janusgraph_1   10.38%    905.6MiB / 15.07GiB   5.87%     10.4MB / 5.2MB    105MB / 111kB   52
Jan 17 22:26:46 af57ae299089   janus-inmemory_repoSystem_1   0.36%     175.5MiB / 15.07GiB   1.14%     96.7kB / 65.9kB   0B / 1.88MB     43
Jan 17 22:26:47 CONTAINER ID   NAME                          CPU %     MEM USAGE / LIMIT     MEM %     NET I/O           BLOCK I/O       PIDS
Jan 17 22:26:47 f71d5db0aea4   janus-inmemory_janusgraph_1   5.98%     905.6MiB / 15.07GiB   5.87%     10.4MB / 5.2MB    105MB / 111kB   52
Jan 17 22:26:47 af57ae299089   janus-inmemory_repoSystem_1   0.57%     175.5MiB / 15.07GiB   1.14%     96.7kB / 65.9kB   0B / 1.88MB     43
Jan 17 22:26:49 CONTAINER ID   NAME                          CPU %     MEM USAGE / LIMIT   MEM %     NET I/O   BLOCK I/O   PIDS
Jan 17 22:26:49 f71d5db0aea4   janus-inmemory_janusgraph_1   0.00%     0B / 0B             0.00%     0B / 0B   0B / 0B     0
Jan 17 22:26:49 af57ae299089   janus-inmemory_repoSystem_1   0.00%     0B / 0B             0.00%     0B / 0B   0B / 0B     0
