elapsedWallClockMillis,totalMemoryBytes
17,6398176
1168,10798496
2187,11291872
3217,11698896
4235,11835712
5259,11961184
6340,12090080
7370,12221384
8433,12231040
9461,12343904
10530,12481984
11631,12607136
12682,13764984
13727,14455784
14761,14596184
15850,14734224
16912,14869152
18003,15022328
19102,15167352
20160,15320408
21265,15484048
22326,16602680
23361,17420456
24398,17603280
25464,17718024
26504,17850080
27613,17952824
28701,18072288
29807,18204872
30915,18344528
32005,18473552
33094,19572456
33433,20142088
