elapsedWallClockMillis,totalMemoryBytes
10,6370544
1176,10801912
2197,11241256
3249,11688224
4312,11840256
5384,11966808
6407,12095904
7432,12136864
8491,12219936
9517,12349480
10540,12487968
11599,12613448
12667,13823032
13702,14527096
14792,14670296
15879,14803344
16946,14941048
18028,15091344
19086,15244872
20174,15387384
21266,15572000
22321,16702264
23366,17492504
24409,17652592
25456,17785936
26562,17794144
27666,17919216
28770,18062664
29876,18197208
30985,18332088
32092,18459120
33154,19951624
33376,19922792
