Dec 24 04:26:44 CONTAINER ID   NAME        CPU %     MEM USAGE / LIMIT     MEM %     NET I/O       BLOCK I/O         PIDS
Dec 24 04:26:44 175a7162e018   portainer   0.00%     17.03MiB / 15.66GiB   0.11%     11.6kB / 0B   58.3MB / 13.1MB   7
Dec 24 04:26:44                --          0.00%     0B / 0B               0.00%     0B / 0B       0B / 0B           0
Dec 24 04:26:48 CONTAINER ID   NAME                    CPU %     MEM USAGE / LIMIT     MEM %     NET I/O       BLOCK I/O         PIDS
Dec 24 04:26:48 335720bc2bb0   prov_aic_janusgraph_1   261.08%   672.6MiB / 15.66GiB   4.19%     4.9kB / 0B    0B / 233kB        21
Dec 24 04:26:48 175a7162e018   portainer               0.00%     17.03MiB / 15.66GiB   0.11%     11.6kB / 0B   58.3MB / 13.1MB   7
Dec 24 04:26:51 CONTAINER ID   NAME                    CPU %     MEM USAGE / LIMIT     MEM %     NET I/O       BLOCK I/O         PIDS
Dec 24 04:26:51 335720bc2bb0   prov_aic_janusgraph_1   317.82%   729.2MiB / 15.66GiB   4.55%     6.2kB / 0B    0B / 233kB        22
Dec 24 04:26:51 175a7162e018   portainer               0.00%     17.03MiB / 15.66GiB   0.11%     11.6kB / 0B   58.3MB / 13.1MB   7
Dec 24 04:26:55 CONTAINER ID   NAME                    CPU %     MEM USAGE / LIMIT     MEM %     NET I/O       BLOCK I/O         PIDS
Dec 24 04:26:55 335720bc2bb0   prov_aic_janusgraph_1   162.61%   116.7MiB / 15.66GiB   0.73%     6.77kB / 0B   0B / 332kB        16
Dec 24 04:26:55 175a7162e018   portainer               0.00%     17.03MiB / 15.66GiB   0.11%     11.6kB / 0B   58.3MB / 13.1MB   7
Dec 24 04:26:59 CONTAINER ID   NAME                    CPU %     MEM USAGE / LIMIT     MEM %     NET I/O       BLOCK I/O         PIDS
Dec 24 04:26:59 335720bc2bb0   prov_aic_janusgraph_1   279.04%   710.3MiB / 15.66GiB   4.43%     6.77kB / 0B   0B / 332kB        21
Dec 24 04:26:59 175a7162e018   portainer               0.02%     17.03MiB / 15.66GiB   0.11%     11.6kB / 0B   58.3MB / 13.1MB   7
Dec 24 04:27:02 CONTAINER ID   NAME                    CPU %     MEM USAGE / LIMIT     MEM %     NET I/O       BLOCK I/O         PIDS
Dec 24 04:27:02 335720bc2bb0   prov_aic_janusgraph_1   0.46%     727.7MiB / 15.66GiB   4.54%     7.03kB / 0B   0B / 332kB        22
Dec 24 04:27:02 175a7162e018   portainer               0.00%     17.03MiB / 15.66GiB   0.11%     11.6kB / 0B   58.3MB / 13.1MB   7
Dec 24 04:27:06 CONTAINER ID   NAME                    CPU %     MEM USAGE / LIMIT     MEM %     NET I/O       BLOCK I/O         PIDS
Dec 24 04:27:06 335720bc2bb0   prov_aic_janusgraph_1   0.09%     723.3MiB / 15.66GiB   4.51%     7.14kB / 0B   0B / 332kB        22
Dec 24 04:27:06 175a7162e018   portainer               0.00%     17.03MiB / 15.66GiB   0.11%     11.6kB / 0B   58.3MB / 13.1MB   7
Dec 24 04:27:09 CONTAINER ID   NAME                    CPU %     MEM USAGE / LIMIT     MEM %     NET I/O       BLOCK I/O         PIDS
Dec 24 04:27:09 335720bc2bb0   prov_aic_janusgraph_1   0.09%     723.3MiB / 15.66GiB   4.51%     7.14kB / 0B   0B / 332kB        22
Dec 24 04:27:09 175a7162e018   portainer               0.00%     17.03MiB / 15.66GiB   0.11%     11.6kB / 0B   58.3MB / 13.1MB   7
Dec 24 04:27:13 CONTAINER ID   NAME                    CPU %     MEM USAGE / LIMIT     MEM %     NET I/O       BLOCK I/O         PIDS
Dec 24 04:27:13 335720bc2bb0   prov_aic_janusgraph_1   0.08%     723.3MiB / 15.66GiB   4.51%     7.14kB / 0B   0B / 332kB        22
Dec 24 04:27:13 175a7162e018   portainer               0.00%     17.03MiB / 15.66GiB   0.11%     11.6kB / 0B   58.3MB / 13.1MB   7
Dec 24 04:27:17 CONTAINER ID   NAME                    CPU %     MEM USAGE / LIMIT     MEM %     NET I/O       BLOCK I/O         PIDS
Dec 24 04:27:17 335720bc2bb0   prov_aic_janusgraph_1   0.36%     723.3MiB / 15.66GiB   4.51%     7.3kB / 0B    0B / 332kB        22
Dec 24 04:27:17 175a7162e018   portainer               0.00%     17.03MiB / 15.66GiB   0.11%     11.6kB / 0B   58.3MB / 13.1MB   7
Dec 24 04:27:20 CONTAINER ID   NAME                    CPU %     MEM USAGE / LIMIT     MEM %     NET I/O       BLOCK I/O         PIDS
Dec 24 04:27:20 335720bc2bb0   prov_aic_janusgraph_1   0.10%     723.3MiB / 15.66GiB   4.51%     7.51kB / 0B   0B / 332kB        22
Dec 24 04:27:20 175a7162e018   portainer               0.00%     17.03MiB / 15.66GiB   0.11%     11.6kB / 0B   58.3MB / 13.1MB   7
Dec 24 04:27:24 CONTAINER ID   NAME                    CPU %     MEM USAGE / LIMIT     MEM %     NET I/O       BLOCK I/O         PIDS
Dec 24 04:27:24 335720bc2bb0   prov_aic_janusgraph_1   0.11%     723.3MiB / 15.66GiB   4.51%     7.51kB / 0B   0B / 332kB        22
Dec 24 04:27:24 175a7162e018   portainer               0.02%     17.03MiB / 15.66GiB   0.11%     11.6kB / 0B   58.3MB / 13.1MB   7
Dec 24 04:27:27 CONTAINER ID   NAME                    CPU %     MEM USAGE / LIMIT     MEM %     NET I/O           BLOCK I/O         PIDS
Dec 24 04:27:27 335720bc2bb0   prov_aic_janusgraph_1   86.19%    735.6MiB / 15.66GiB   4.59%     9.93kB / 1.62kB   0B / 332kB        39
Dec 24 04:27:27 175a7162e018   portainer               0.00%     17.03MiB / 15.66GiB   0.11%     11.6kB / 0B       58.3MB / 13.1MB   7
Dec 24 04:27:31 CONTAINER ID   NAME                    CPU %     MEM USAGE / LIMIT     MEM %     NET I/O        BLOCK I/O         PIDS
Dec 24 04:27:31 335720bc2bb0   prov_aic_janusgraph_1   108.35%   749MiB / 15.66GiB     4.67%     177kB / 81kB   0B / 332kB        53
Dec 24 04:27:31 175a7162e018   portainer               0.00%     17.03MiB / 15.66GiB   0.11%     11.6kB / 0B    58.3MB / 13.1MB   7
Dec 24 04:27:35 CONTAINER ID   NAME                    CPU %     MEM USAGE / LIMIT     MEM %     NET I/O         BLOCK I/O         PIDS
Dec 24 04:27:35 335720bc2bb0   prov_aic_janusgraph_1   12.71%    750.7MiB / 15.66GiB   4.68%     300kB / 139kB   0B / 332kB        53
Dec 24 04:27:35 175a7162e018   portainer               0.00%     17.03MiB / 15.66GiB   0.11%     11.6kB / 0B     58.3MB / 13.1MB   7
Dec 24 04:27:38 CONTAINER ID   NAME                    CPU %     MEM USAGE / LIMIT     MEM %     NET I/O         BLOCK I/O         PIDS
Dec 24 04:27:38 335720bc2bb0   prov_aic_janusgraph_1   0.11%     752.1MiB / 15.66GiB   4.69%     492kB / 230kB   0B / 332kB        53
Dec 24 04:27:38 175a7162e018   portainer               0.00%     17.03MiB / 15.66GiB   0.11%     11.6kB / 0B     58.3MB / 13.1MB   7
Dec 24 04:27:42 CONTAINER ID   NAME                    CPU %     MEM USAGE / LIMIT     MEM %     NET I/O         BLOCK I/O         PIDS
Dec 24 04:27:42 335720bc2bb0   prov_aic_janusgraph_1   117.51%   752.7MiB / 15.66GiB   4.69%     697kB / 327kB   0B / 332kB        53
Dec 24 04:27:42 175a7162e018   portainer               0.00%     17.03MiB / 15.66GiB   0.11%     11.6kB / 0B     58.3MB / 13.1MB   7
Dec 24 04:27:45 CONTAINER ID   NAME                    CPU %     MEM USAGE / LIMIT     MEM %     NET I/O         BLOCK I/O         PIDS
Dec 24 04:27:45 335720bc2bb0   prov_aic_janusgraph_1   173.76%   753.7MiB / 15.66GiB   4.70%     929kB / 438kB   0B / 332kB        53
Dec 24 04:27:45 175a7162e018   portainer               0.00%     16.55MiB / 15.66GiB   0.10%     11.6kB / 0B     58.3MB / 13.1MB   7
Dec 24 04:27:49 CONTAINER ID   NAME                    CPU %     MEM USAGE / LIMIT     MEM %     NET I/O          BLOCK I/O         PIDS
Dec 24 04:27:49 335720bc2bb0   prov_aic_janusgraph_1   68.91%    753.7MiB / 15.66GiB   4.70%     1.05MB / 494kB   0B / 332kB        53
Dec 24 04:27:49 175a7162e018   portainer               0.02%     16.55MiB / 15.66GiB   0.10%     11.6kB / 0B      58.3MB / 13.1MB   7
Dec 24 04:27:53 CONTAINER ID   NAME                    CPU %     MEM USAGE / LIMIT     MEM %     NET I/O          BLOCK I/O         PIDS
Dec 24 04:27:53 335720bc2bb0   prov_aic_janusgraph_1   0.08%     754MiB / 15.66GiB     4.70%     1.19MB / 562kB   0B / 332kB        53
Dec 24 04:27:53 175a7162e018   portainer               0.00%     16.55MiB / 15.66GiB   0.10%     11.6kB / 0B      58.3MB / 13.1MB   7
Dec 24 04:27:56 CONTAINER ID   NAME                    CPU %     MEM USAGE / LIMIT     MEM %     NET I/O          BLOCK I/O         PIDS
Dec 24 04:27:56 335720bc2bb0   prov_aic_janusgraph_1   2.38%     754.1MiB / 15.66GiB   4.70%     1.38MB / 653kB   0B / 332kB        53
Dec 24 04:27:56 175a7162e018   portainer               0.00%     16.55MiB / 15.66GiB   0.10%     11.6kB / 0B      58.3MB / 13.1MB   7
Dec 24 04:28:00 CONTAINER ID   NAME                    CPU %     MEM USAGE / LIMIT     MEM %     NET I/O          BLOCK I/O         PIDS
Dec 24 04:28:00 335720bc2bb0   prov_aic_janusgraph_1   53.97%    754.2MiB / 15.66GiB   4.70%     1.49MB / 702kB   0B / 332kB        53
Dec 24 04:28:00 175a7162e018   portainer               0.00%     16.55MiB / 15.66GiB   0.10%     11.6kB / 0B      58.3MB / 13.1MB   7
Dec 24 04:28:04 CONTAINER ID   NAME                    CPU %     MEM USAGE / LIMIT     MEM %     NET I/O         BLOCK I/O         PIDS
Dec 24 04:28:04 335720bc2bb0   prov_aic_janusgraph_1   7.24%     754.1MiB / 15.66GiB   4.70%     1.6MB / 756kB   0B / 332kB        53
Dec 24 04:28:04 175a7162e018   portainer               0.11%     16.55MiB / 15.66GiB   0.10%     11.6kB / 0B     58.3MB / 13.1MB   7
Dec 24 04:28:07 CONTAINER ID   NAME                    CPU %     MEM USAGE / LIMIT     MEM %     NET I/O          BLOCK I/O         PIDS
Dec 24 04:28:07 335720bc2bb0   prov_aic_janusgraph_1   15.16%    754.2MiB / 15.66GiB   4.70%     1.79MB / 847kB   0B / 332kB        53
Dec 24 04:28:07 175a7162e018   portainer               0.00%     16.55MiB / 15.66GiB   0.10%     11.6kB / 0B      58.3MB / 13.1MB   7
Dec 24 04:28:11 CONTAINER ID   NAME                    CPU %     MEM USAGE / LIMIT     MEM %     NET I/O       BLOCK I/O         PIDS
Dec 24 04:28:11 335720bc2bb0   prov_aic_janusgraph_1   1.91%     754.4MiB / 15.66GiB   4.70%     2MB / 944kB   0B / 332kB        53
Dec 24 04:28:11 175a7162e018   portainer               0.00%     16.55MiB / 15.66GiB   0.10%     11.6kB / 0B   58.3MB / 13.1MB   7
Dec 24 04:28:14 CONTAINER ID   NAME                    CPU %     MEM USAGE / LIMIT     MEM %     NET I/O           BLOCK I/O         PIDS
Dec 24 04:28:14 335720bc2bb0   prov_aic_janusgraph_1   113.86%   754.4MiB / 15.66GiB   4.70%     2.19MB / 1.04MB   0B / 332kB        53
Dec 24 04:28:14 175a7162e018   portainer               0.11%     16.55MiB / 15.66GiB   0.10%     11.6kB / 0B       58.3MB / 13.1MB   7
Dec 24 04:28:18 CONTAINER ID   NAME                    CPU %     MEM USAGE / LIMIT     MEM %     NET I/O          BLOCK I/O         PIDS
Dec 24 04:28:18 335720bc2bb0   prov_aic_janusgraph_1   0.13%     754.4MiB / 15.66GiB   4.70%     2.2MB / 1.04MB   0B / 332kB        53
Dec 24 04:28:18 175a7162e018   portainer               0.02%     16.55MiB / 15.66GiB   0.10%     11.6kB / 0B      58.3MB / 13.1MB   7
Dec 24 04:28:22 CONTAINER ID   NAME                    CPU %     MEM USAGE / LIMIT     MEM %     NET I/O           BLOCK I/O         PIDS
Dec 24 04:28:22 335720bc2bb0   prov_aic_janusgraph_1   0.15%     754.4MiB / 15.66GiB   4.70%     2.42MB / 1.14MB   0B / 332kB        53
Dec 24 04:28:22 175a7162e018   portainer               0.00%     16.55MiB / 15.66GiB   0.10%     11.6kB / 0B       58.3MB / 13.1MB   7
Dec 24 04:28:25 CONTAINER ID   NAME                    CPU %     MEM USAGE / LIMIT     MEM %     NET I/O          BLOCK I/O         PIDS
Dec 24 04:28:25 335720bc2bb0   prov_aic_janusgraph_1   26.52%    754.4MiB / 15.66GiB   4.70%     2.6MB / 1.23MB   0B / 332kB        53
Dec 24 04:28:25 175a7162e018   portainer               0.00%     16.55MiB / 15.66GiB   0.10%     11.6kB / 0B      58.3MB / 13.1MB   7
Dec 24 04:28:29 CONTAINER ID   NAME                    CPU %     MEM USAGE / LIMIT     MEM %     NET I/O           BLOCK I/O         PIDS
Dec 24 04:28:29 335720bc2bb0   prov_aic_janusgraph_1   84.58%    754.6MiB / 15.66GiB   4.70%     2.82MB / 1.33MB   0B / 332kB        53
Dec 24 04:28:29 175a7162e018   portainer               0.02%     16.55MiB / 15.66GiB   0.10%     11.6kB / 0B       58.3MB / 13.1MB   7
Dec 24 04:28:32 CONTAINER ID   NAME                    CPU %     MEM USAGE / LIMIT     MEM %     NET I/O           BLOCK I/O         PIDS
Dec 24 04:28:32 335720bc2bb0   prov_aic_janusgraph_1   0.30%     754.6MiB / 15.66GiB   4.70%     2.86MB / 1.36MB   0B / 332kB        53
Dec 24 04:28:32 175a7162e018   portainer               0.00%     16.55MiB / 15.66GiB   0.10%     11.6kB / 0B       58.3MB / 13.1MB   7
Dec 24 04:28:36 CONTAINER ID   NAME                    CPU %     MEM USAGE / LIMIT     MEM %     NET I/O           BLOCK I/O         PIDS
Dec 24 04:28:36 335720bc2bb0   prov_aic_janusgraph_1   0.31%     754.8MiB / 15.66GiB   4.71%     3.07MB / 1.46MB   0B / 332kB        53
Dec 24 04:28:36 175a7162e018   portainer               0.00%     16.98MiB / 15.66GiB   0.11%     11.6kB / 0B       58.3MB / 13.3MB   7
Dec 24 04:28:40 CONTAINER ID   NAME                    CPU %     MEM USAGE / LIMIT     MEM %     NET I/O           BLOCK I/O         PIDS
Dec 24 04:28:40 335720bc2bb0   prov_aic_janusgraph_1   41.56%    754.8MiB / 15.66GiB   4.71%     3.28MB / 1.55MB   0B / 332kB        53
Dec 24 04:28:40 175a7162e018   portainer               0.00%     16.98MiB / 15.66GiB   0.11%     11.6kB / 0B       58.3MB / 13.3MB   7
Dec 24 04:28:43 CONTAINER ID   NAME                    CPU %     MEM USAGE / LIMIT     MEM %     NET I/O           BLOCK I/O         PIDS
Dec 24 04:28:43 335720bc2bb0   prov_aic_janusgraph_1   29.63%    754.8MiB / 15.66GiB   4.71%     3.46MB / 1.64MB   0B / 332kB        53
Dec 24 04:28:43 175a7162e018   portainer               0.00%     16.98MiB / 15.66GiB   0.11%     11.6kB / 0B       58.3MB / 13.3MB   7
Dec 24 04:28:47 CONTAINER ID   NAME                    CPU %     MEM USAGE / LIMIT     MEM %     NET I/O           BLOCK I/O         PIDS
Dec 24 04:28:47 335720bc2bb0   prov_aic_janusgraph_1   0.15%     754.8MiB / 15.66GiB   4.71%     3.51MB / 1.66MB   0B / 332kB        53
Dec 24 04:28:47 175a7162e018   portainer               0.00%     16.98MiB / 15.66GiB   0.11%     11.6kB / 0B       58.3MB / 13.3MB   7
Dec 24 04:28:50 CONTAINER ID   NAME                    CPU %     MEM USAGE / LIMIT     MEM %     NET I/O           BLOCK I/O         PIDS
Dec 24 04:28:50 335720bc2bb0   prov_aic_janusgraph_1   5.02%     755MiB / 15.66GiB     4.71%     3.72MB / 1.76MB   0B / 332kB        53
Dec 24 04:28:50 175a7162e018   portainer               0.00%     16.98MiB / 15.66GiB   0.11%     11.6kB / 0B       58.3MB / 13.3MB   7
Dec 24 04:28:54 CONTAINER ID   NAME                    CPU %     MEM USAGE / LIMIT     MEM %     NET I/O           BLOCK I/O         PIDS
Dec 24 04:28:54 335720bc2bb0   prov_aic_janusgraph_1   5.30%     755.1MiB / 15.66GiB   4.71%     3.91MB / 1.85MB   0B / 332kB        53
Dec 24 04:28:54 175a7162e018   portainer               0.04%     16.98MiB / 15.66GiB   0.11%     11.6kB / 0B       58.3MB / 13.3MB   7
Dec 24 04:28:58 CONTAINER ID   NAME                    CPU %     MEM USAGE / LIMIT     MEM %     NET I/O           BLOCK I/O         PIDS
Dec 24 04:28:58 335720bc2bb0   prov_aic_janusgraph_1   8.29%     755.1MiB / 15.66GiB   4.71%     3.97MB / 1.88MB   0B / 332kB        53
Dec 24 04:28:58 175a7162e018   portainer               0.00%     16.98MiB / 15.66GiB   0.11%     11.6kB / 0B       58.3MB / 13.3MB   7
Dec 24 04:29:01 CONTAINER ID   NAME                    CPU %     MEM USAGE / LIMIT     MEM %     NET I/O           BLOCK I/O         PIDS
Dec 24 04:29:01 335720bc2bb0   prov_aic_janusgraph_1   0.52%     765.1MiB / 15.66GiB   4.77%     4.14MB / 1.96MB   0B / 332kB        53
Dec 24 04:29:01 175a7162e018   portainer               0.00%     16.98MiB / 15.66GiB   0.11%     11.6kB / 0B       58.3MB / 13.3MB   7
Dec 24 04:29:05 CONTAINER ID   NAME                    CPU %     MEM USAGE / LIMIT     MEM %     NET I/O           BLOCK I/O         PIDS
Dec 24 04:29:05 335720bc2bb0   prov_aic_janusgraph_1   2.23%     765.1MiB / 15.66GiB   4.77%     4.36MB / 2.07MB   0B / 332kB        53
Dec 24 04:29:05 175a7162e018   portainer               0.02%     16.98MiB / 15.66GiB   0.11%     11.6kB / 0B       58.3MB / 13.3MB   7
Dec 24 04:29:08 CONTAINER ID   NAME                    CPU %     MEM USAGE / LIMIT     MEM %     NET I/O          BLOCK I/O         PIDS
Dec 24 04:29:08 335720bc2bb0   prov_aic_janusgraph_1   6.80%     765.1MiB / 15.66GiB   4.77%     4.4MB / 2.09MB   0B / 332kB        53
Dec 24 04:29:08 175a7162e018   portainer               0.01%     16.98MiB / 15.66GiB   0.11%     11.6kB / 0B      58.3MB / 13.3MB   7
Dec 24 04:29:12 CONTAINER ID   NAME                    CPU %     MEM USAGE / LIMIT     MEM %     NET I/O           BLOCK I/O         PIDS
Dec 24 04:29:12 335720bc2bb0   prov_aic_janusgraph_1   0.13%     765.1MiB / 15.66GiB   4.77%     4.59MB / 2.17MB   0B / 332kB        53
Dec 24 04:29:12 175a7162e018   portainer               0.00%     16.98MiB / 15.66GiB   0.11%     11.6kB / 0B       58.3MB / 13.3MB   7
Dec 24 04:29:15 CONTAINER ID   NAME                    CPU %     MEM USAGE / LIMIT     MEM %     NET I/O          BLOCK I/O         PIDS
Dec 24 04:29:15 335720bc2bb0   prov_aic_janusgraph_1   5.21%     765.1MiB / 15.66GiB   4.77%     4.8MB / 2.28MB   0B / 332kB        53
Dec 24 04:29:15 175a7162e018   portainer               0.00%     16.98MiB / 15.66GiB   0.11%     11.6kB / 0B      58.3MB / 13.3MB   7
Dec 24 04:29:19 CONTAINER ID   NAME                    CPU %     MEM USAGE / LIMIT     MEM %     NET I/O           BLOCK I/O         PIDS
Dec 24 04:29:19 335720bc2bb0   prov_aic_janusgraph_1   3.16%     765.1MiB / 15.66GiB   4.77%     5.01MB / 2.37MB   0B / 332kB        53
Dec 24 04:29:19 175a7162e018   portainer               0.01%     16.98MiB / 15.66GiB   0.11%     11.6kB / 0B       58.3MB / 13.3MB   7
Dec 24 04:29:23 CONTAINER ID   NAME                    CPU %     MEM USAGE / LIMIT     MEM %     NET I/O           BLOCK I/O         PIDS
Dec 24 04:29:23 335720bc2bb0   prov_aic_janusgraph_1   0.14%     765.1MiB / 15.66GiB   4.77%     5.02MB / 2.38MB   0B / 332kB        53
Dec 24 04:29:23 175a7162e018   portainer               0.02%     16.98MiB / 15.66GiB   0.11%     11.6kB / 0B       58.3MB / 13.3MB   7
Dec 24 04:29:26 CONTAINER ID   NAME                    CPU %     MEM USAGE / LIMIT     MEM %     NET I/O          BLOCK I/O         PIDS
Dec 24 04:29:26 335720bc2bb0   prov_aic_janusgraph_1   0.14%     765.1MiB / 15.66GiB   4.77%     5.2MB / 2.46MB   0B / 332kB        53
Dec 24 04:29:26 175a7162e018   portainer               0.00%     16.98MiB / 15.66GiB   0.11%     11.6kB / 0B      58.3MB / 13.3MB   7
Dec 24 04:29:30 CONTAINER ID   NAME                    CPU %     MEM USAGE / LIMIT     MEM %     NET I/O           BLOCK I/O         PIDS
Dec 24 04:29:30 335720bc2bb0   prov_aic_janusgraph_1   0.33%     765.1MiB / 15.66GiB   4.77%     5.43MB / 2.57MB   0B / 332kB        53
Dec 24 04:29:30 175a7162e018   portainer               0.00%     16.98MiB / 15.66GiB   0.11%     11.6kB / 0B       58.3MB / 13.3MB   7
Dec 24 04:29:33 CONTAINER ID   NAME                    CPU %     MEM USAGE / LIMIT     MEM %     NET I/O          BLOCK I/O         PIDS
Dec 24 04:29:33 335720bc2bb0   prov_aic_janusgraph_1   5.16%     765.1MiB / 15.66GiB   4.77%     5.6MB / 2.65MB   0B / 332kB        53
Dec 24 04:29:33 175a7162e018   portainer               0.00%     16.98MiB / 15.66GiB   0.11%     11.6kB / 0B      58.3MB / 13.3MB   7
Dec 24 04:29:37 CONTAINER ID   NAME                    CPU %     MEM USAGE / LIMIT     MEM %     NET I/O           BLOCK I/O         PIDS
Dec 24 04:29:37 335720bc2bb0   prov_aic_janusgraph_1   22.70%    765.1MiB / 15.66GiB   4.77%     5.75MB / 2.72MB   0B / 332kB        53
Dec 24 04:29:37 175a7162e018   portainer               0.00%     16.98MiB / 15.66GiB   0.11%     11.6kB / 0B       58.3MB / 13.3MB   7
Dec 24 04:29:41 CONTAINER ID   NAME                    CPU %     MEM USAGE / LIMIT     MEM %     NET I/O           BLOCK I/O         PIDS
Dec 24 04:29:41 335720bc2bb0   prov_aic_janusgraph_1   0.13%     765.1MiB / 15.66GiB   4.77%     5.83MB / 2.76MB   0B / 332kB        53
Dec 24 04:29:41 175a7162e018   portainer               0.00%     16.98MiB / 15.66GiB   0.11%     11.6kB / 0B       58.3MB / 13.3MB   7
Dec 24 04:29:44 CONTAINER ID   NAME                    CPU %     MEM USAGE / LIMIT     MEM %     NET I/O           BLOCK I/O         PIDS
Dec 24 04:29:44 335720bc2bb0   prov_aic_janusgraph_1   0.11%     765.1MiB / 15.66GiB   4.77%     6.01MB / 2.85MB   0B / 332kB        53
Dec 24 04:29:44 175a7162e018   portainer               0.66%     17.04MiB / 15.66GiB   0.11%     11.6kB / 0B       58.3MB / 13.3MB   7
Dec 24 04:29:48 CONTAINER ID   NAME                    CPU %     MEM USAGE / LIMIT     MEM %     NET I/O           BLOCK I/O         PIDS
Dec 24 04:29:48 335720bc2bb0   prov_aic_janusgraph_1   14.79%    765.1MiB / 15.66GiB   4.77%     6.23MB / 2.95MB   0B / 332kB        53
Dec 24 04:29:48 175a7162e018   portainer               0.00%     17.04MiB / 15.66GiB   0.11%     11.6kB / 0B       58.3MB / 13.3MB   7
Dec 24 04:29:51 CONTAINER ID   NAME                    CPU %     MEM USAGE / LIMIT     MEM %     NET I/O           BLOCK I/O         PIDS
Dec 24 04:29:51 335720bc2bb0   prov_aic_janusgraph_1   2.18%     765.1MiB / 15.66GiB   4.77%     6.25MB / 2.96MB   0B / 332kB        53
Dec 24 04:29:51 175a7162e018   portainer               0.00%     17.04MiB / 15.66GiB   0.11%     11.6kB / 0B       58.3MB / 13.3MB   7
Dec 24 04:29:55 CONTAINER ID   NAME                    CPU %     MEM USAGE / LIMIT     MEM %     NET I/O           BLOCK I/O         PIDS
Dec 24 04:29:55 335720bc2bb0   prov_aic_janusgraph_1   0.32%     765.1MiB / 15.66GiB   4.77%     6.45MB / 3.05MB   0B / 332kB        53
Dec 24 04:29:55 175a7162e018   portainer               0.00%     17.04MiB / 15.66GiB   0.11%     11.6kB / 0B       58.3MB / 13.3MB   7
Dec 24 04:29:59 CONTAINER ID   NAME                    CPU %     MEM USAGE / LIMIT     MEM %     NET I/O           BLOCK I/O         PIDS
Dec 24 04:29:59 335720bc2bb0   prov_aic_janusgraph_1   2.60%     803.4MiB / 15.66GiB   5.01%     6.65MB / 3.15MB   0B / 332kB        53
Dec 24 04:29:59 175a7162e018   portainer               0.02%     17.04MiB / 15.66GiB   0.11%     11.6kB / 0B       58.3MB / 13.3MB   7
Dec 24 04:30:02 CONTAINER ID   NAME                    CPU %     MEM USAGE / LIMIT     MEM %     NET I/O           BLOCK I/O         PIDS
Dec 24 04:30:02 335720bc2bb0   prov_aic_janusgraph_1   0.38%     803.4MiB / 15.66GiB   5.01%     6.65MB / 3.15MB   0B / 332kB        53
Dec 24 04:30:02 175a7162e018   portainer               0.00%     17.04MiB / 15.66GiB   0.11%     11.6kB / 0B       58.3MB / 13.3MB   7
Dec 24 04:30:06 CONTAINER ID   NAME                    CPU %     MEM USAGE / LIMIT     MEM %     NET I/O           BLOCK I/O         PIDS
Dec 24 04:30:06 335720bc2bb0   prov_aic_janusgraph_1   0.09%     841.5MiB / 15.66GiB   5.25%     6.89MB / 3.26MB   0B / 332kB        53
Dec 24 04:30:06 175a7162e018   portainer               0.00%     17.04MiB / 15.66GiB   0.11%     11.6kB / 0B       58.3MB / 13.3MB   7
Dec 24 04:30:09 CONTAINER ID   NAME                    CPU %     MEM USAGE / LIMIT     MEM %     NET I/O           BLOCK I/O         PIDS
Dec 24 04:30:09 335720bc2bb0   prov_aic_janusgraph_1   2.51%     869.5MiB / 15.66GiB   5.42%     7.15MB / 3.39MB   0B / 332kB        53
Dec 24 04:30:09 175a7162e018   portainer               0.02%     17.04MiB / 15.66GiB   0.11%     11.6kB / 0B       58.3MB / 13.3MB   7
Dec 24 04:30:13 CONTAINER ID   NAME                    CPU %     MEM USAGE / LIMIT     MEM %     NET I/O          BLOCK I/O         PIDS
Dec 24 04:30:13 335720bc2bb0   prov_aic_janusgraph_1   2.64%     869.5MiB / 15.66GiB   5.42%     7.3MB / 3.46MB   0B / 332kB        53
Dec 24 04:30:13 175a7162e018   portainer               0.00%     17.04MiB / 15.66GiB   0.11%     11.6kB / 0B      58.3MB / 13.3MB   7
Dec 24 04:30:17 CONTAINER ID   NAME                    CPU %     MEM USAGE / LIMIT     MEM %     NET I/O           BLOCK I/O         PIDS
Dec 24 04:30:17 335720bc2bb0   prov_aic_janusgraph_1   0.11%     869.5MiB / 15.66GiB   5.42%     7.31MB / 3.46MB   0B / 332kB        53
Dec 24 04:30:17 175a7162e018   portainer               0.00%     17.04MiB / 15.66GiB   0.11%     11.6kB / 0B       58.3MB / 13.3MB   7
Dec 24 04:30:20 CONTAINER ID   NAME                    CPU %     MEM USAGE / LIMIT     MEM %     NET I/O           BLOCK I/O         PIDS
Dec 24 04:30:20 335720bc2bb0   prov_aic_janusgraph_1   0.11%     869.5MiB / 15.66GiB   5.42%     7.53MB / 3.57MB   0B / 332kB        53
Dec 24 04:30:20 175a7162e018   portainer               0.00%     17.04MiB / 15.66GiB   0.11%     11.6kB / 0B       58.3MB / 13.3MB   7
Dec 24 04:30:24 CONTAINER ID   NAME                    CPU %     MEM USAGE / LIMIT     MEM %     NET I/O           BLOCK I/O         PIDS
Dec 24 04:30:24 335720bc2bb0   prov_aic_janusgraph_1   3.15%     869.5MiB / 15.66GiB   5.42%     7.71MB / 3.65MB   0B / 332kB        53
Dec 24 04:30:24 175a7162e018   portainer               0.11%     17.04MiB / 15.66GiB   0.11%     11.6kB / 0B       58.3MB / 13.3MB   7
Dec 24 04:30:27 CONTAINER ID   NAME                    CPU %     MEM USAGE / LIMIT     MEM %     NET I/O           BLOCK I/O         PIDS
Dec 24 04:30:27 335720bc2bb0   prov_aic_janusgraph_1   4.21%     869.5MiB / 15.66GiB   5.42%     7.93MB / 3.75MB   0B / 332kB        53
Dec 24 04:30:27 175a7162e018   portainer               0.00%     17.04MiB / 15.66GiB   0.11%     11.6kB / 0B       58.3MB / 13.3MB   7
Dec 24 04:30:31 CONTAINER ID   NAME                    CPU %     MEM USAGE / LIMIT     MEM %     NET I/O           BLOCK I/O         PIDS
Dec 24 04:30:31 335720bc2bb0   prov_aic_janusgraph_1   18.44%    869.5MiB / 15.66GiB   5.42%     8.07MB / 3.82MB   0B / 332kB        53
Dec 24 04:30:31 175a7162e018   portainer               0.00%     17.04MiB / 15.66GiB   0.11%     11.6kB / 0B       58.3MB / 13.3MB   7
Dec 24 04:30:35 CONTAINER ID   NAME                    CPU %     MEM USAGE / LIMIT     MEM %     NET I/O           BLOCK I/O         PIDS
Dec 24 04:30:35 335720bc2bb0   prov_aic_janusgraph_1   0.10%     869.5MiB / 15.66GiB   5.42%     8.12MB / 3.85MB   0B / 332kB        53
Dec 24 04:30:35 175a7162e018   portainer               0.09%     17.04MiB / 15.66GiB   0.11%     11.6kB / 0B       58.3MB / 13.3MB   7
Dec 24 04:30:38 CONTAINER ID   NAME                    CPU %     MEM USAGE / LIMIT     MEM %     NET I/O           BLOCK I/O         PIDS
Dec 24 04:30:38 335720bc2bb0   prov_aic_janusgraph_1   2.43%     869.5MiB / 15.66GiB   5.42%     8.35MB / 3.95MB   0B / 332kB        53
Dec 24 04:30:38 175a7162e018   portainer               0.00%     17.04MiB / 15.66GiB   0.11%     11.6kB / 0B       58.3MB / 13.3MB   7
Dec 24 04:30:42 CONTAINER ID   NAME                    CPU %     MEM USAGE / LIMIT     MEM %     NET I/O        BLOCK I/O         PIDS
Dec 24 04:30:42 335720bc2bb0   prov_aic_janusgraph_1   15.31%    869.5MiB / 15.66GiB   5.42%     8.45MB / 4MB   0B / 332kB        53
Dec 24 04:30:42 175a7162e018   portainer               0.00%     17.04MiB / 15.66GiB   0.11%     11.6kB / 0B    58.3MB / 13.3MB   7
Dec 24 04:30:45 CONTAINER ID   NAME                    CPU %     MEM USAGE / LIMIT     MEM %     NET I/O           BLOCK I/O         PIDS
Dec 24 04:30:45 335720bc2bb0   prov_aic_janusgraph_1   0.10%     869.5MiB / 15.66GiB   5.42%     8.53MB / 4.04MB   0B / 332kB        53
Dec 24 04:30:45 175a7162e018   portainer               0.00%     17.04MiB / 15.66GiB   0.11%     11.6kB / 0B       58.3MB / 13.3MB   7
Dec 24 04:30:49 CONTAINER ID   NAME                    CPU %     MEM USAGE / LIMIT     MEM %     NET I/O           BLOCK I/O         PIDS
Dec 24 04:30:49 335720bc2bb0   prov_aic_janusgraph_1   0.10%     869.5MiB / 15.66GiB   5.42%     8.74MB / 4.14MB   0B / 332kB        53
Dec 24 04:30:49 175a7162e018   portainer               0.02%     17.04MiB / 15.66GiB   0.11%     11.6kB / 0B       58.3MB / 13.3MB   7
Dec 24 04:30:53 CONTAINER ID   NAME                    CPU %     MEM USAGE / LIMIT     MEM %     NET I/O           BLOCK I/O         PIDS
Dec 24 04:30:53 335720bc2bb0   prov_aic_janusgraph_1   13.83%    869.5MiB / 15.66GiB   5.42%     8.92MB / 4.23MB   0B / 332kB        53
Dec 24 04:30:53 175a7162e018   portainer               0.02%     17.04MiB / 15.66GiB   0.11%     11.6kB / 0B       58.3MB / 13.3MB   7
Dec 24 04:30:56 CONTAINER ID   NAME                    CPU %     MEM USAGE / LIMIT     MEM %     NET I/O           BLOCK I/O         PIDS
Dec 24 04:30:56 335720bc2bb0   prov_aic_janusgraph_1   38.34%    869.5MiB / 15.66GiB   5.42%     9.15MB / 4.33MB   0B / 332kB        53
Dec 24 04:30:56 175a7162e018   portainer               0.00%     17.04MiB / 15.66GiB   0.11%     11.6kB / 0B       58.3MB / 13.3MB   7
Dec 24 04:31:00 CONTAINER ID   NAME                    CPU %     MEM USAGE / LIMIT     MEM %     NET I/O           BLOCK I/O         PIDS
Dec 24 04:31:00 335720bc2bb0   prov_aic_janusgraph_1   0.63%     869.5MiB / 15.66GiB   5.42%     9.17MB / 4.34MB   0B / 332kB        53
Dec 24 04:31:00 175a7162e018   portainer               0.00%     17.04MiB / 15.66GiB   0.11%     11.6kB / 0B       58.3MB / 13.3MB   7
Dec 24 04:31:03 CONTAINER ID   NAME                    CPU %     MEM USAGE / LIMIT     MEM %     NET I/O           BLOCK I/O         PIDS
Dec 24 04:31:03 335720bc2bb0   prov_aic_janusgraph_1   0.28%     869.5MiB / 15.66GiB   5.42%     9.33MB / 4.42MB   0B / 332kB        53
Dec 24 04:31:03 175a7162e018   portainer               0.00%     17.04MiB / 15.66GiB   0.11%     11.6kB / 0B       58.3MB / 13.3MB   7
Dec 24 04:31:07 CONTAINER ID   NAME                    CPU %     MEM USAGE / LIMIT     MEM %     NET I/O           BLOCK I/O         PIDS
Dec 24 04:31:07 335720bc2bb0   prov_aic_janusgraph_1   3.18%     869.5MiB / 15.66GiB   5.42%     9.56MB / 4.53MB   0B / 332kB        53
Dec 24 04:31:07 175a7162e018   portainer               0.00%     17.04MiB / 15.66GiB   0.11%     11.6kB / 0B       58.3MB / 13.3MB   7
Dec 24 04:31:11 CONTAINER ID   NAME                    CPU %     MEM USAGE / LIMIT     MEM %     NET I/O           BLOCK I/O         PIDS
Dec 24 04:31:11 335720bc2bb0   prov_aic_janusgraph_1   27.47%    877.5MiB / 15.66GiB   5.47%     9.73MB / 4.61MB   0B / 332kB        53
Dec 24 04:31:11 175a7162e018   portainer               0.00%     17.04MiB / 15.66GiB   0.11%     11.6kB / 0B       58.3MB / 13.3MB   7
Dec 24 04:31:14 CONTAINER ID   NAME                    CPU %     MEM USAGE / LIMIT     MEM %     NET I/O           BLOCK I/O         PIDS
Dec 24 04:31:14 335720bc2bb0   prov_aic_janusgraph_1   0.10%     877.5MiB / 15.66GiB   5.47%     9.74MB / 4.61MB   0B / 332kB        53
Dec 24 04:31:14 175a7162e018   portainer               0.04%     17.04MiB / 15.66GiB   0.11%     11.6kB / 0B       58.3MB / 13.3MB   7
Dec 24 04:31:17 CONTAINER ID   NAME                    CPU %     MEM USAGE / LIMIT     MEM %     NET I/O           BLOCK I/O         PIDS
Dec 24 04:31:17 335720bc2bb0   prov_aic_janusgraph_1   3.68%     877.5MiB / 15.66GiB   5.47%     9.98MB / 4.73MB   0B / 332kB        53
Dec 24 04:31:17 175a7162e018   portainer               0.00%     17.04MiB / 15.66GiB   0.11%     11.6kB / 0B       58.3MB / 13.3MB   7
Dec 24 04:31:20 CONTAINER ID   NAME                    CPU %     MEM USAGE / LIMIT     MEM %     NET I/O           BLOCK I/O         PIDS
Dec 24 04:31:20 335720bc2bb0   prov_aic_janusgraph_1   0.11%     877.5MiB / 15.66GiB   5.47%     9.98MB / 4.73MB   0B / 332kB        53
Dec 24 04:31:20 175a7162e018   portainer               0.00%     17.04MiB / 15.66GiB   0.11%     11.6kB / 0B       58.3MB / 13.3MB   7
Dec 24 04:31:24 CONTAINER ID   NAME                    CPU %     MEM USAGE / LIMIT     MEM %     NET I/O           BLOCK I/O         PIDS
Dec 24 04:31:24 335720bc2bb0   prov_aic_janusgraph_1   0.29%     877.5MiB / 15.66GiB   5.47%     10.2MB / 4.81MB   0B / 332kB        53
Dec 24 04:31:24 175a7162e018   portainer               0.00%     17.04MiB / 15.66GiB   0.11%     11.6kB / 0B       58.3MB / 13.3MB   7
Dec 24 04:31:27 CONTAINER ID   NAME                    CPU %     MEM USAGE / LIMIT     MEM %     NET I/O           BLOCK I/O         PIDS
Dec 24 04:31:27 335720bc2bb0   prov_aic_janusgraph_1   4.00%     877.5MiB / 15.66GiB   5.47%     10.4MB / 4.91MB   0B / 332kB        53
Dec 24 04:31:27 175a7162e018   portainer               0.00%     17.04MiB / 15.66GiB   0.11%     11.6kB / 0B       58.3MB / 13.3MB   7
Dec 24 04:31:31 CONTAINER ID   NAME                    CPU %     MEM USAGE / LIMIT     MEM %     NET I/O        BLOCK I/O         PIDS
Dec 24 04:31:31 335720bc2bb0   prov_aic_janusgraph_1   4.53%     877.5MiB / 15.66GiB   5.47%     10.6MB / 5MB   0B / 332kB        53
Dec 24 04:31:31 175a7162e018   portainer               0.00%     17.04MiB / 15.66GiB   0.11%     11.6kB / 0B    58.3MB / 13.3MB   7
Dec 24 04:31:35 CONTAINER ID   NAME                    CPU %     MEM USAGE / LIMIT     MEM %     NET I/O        BLOCK I/O         PIDS
Dec 24 04:31:35 335720bc2bb0   prov_aic_janusgraph_1   0.30%     877.5MiB / 15.66GiB   5.47%     10.6MB / 5MB   0B / 332kB        53
Dec 24 04:31:35 175a7162e018   portainer               0.00%     17.04MiB / 15.66GiB   0.11%     11.6kB / 0B    58.3MB / 13.3MB   7
Dec 24 04:31:38 CONTAINER ID   NAME                    CPU %     MEM USAGE / LIMIT     MEM %     NET I/O           BLOCK I/O         PIDS
Dec 24 04:31:38 335720bc2bb0   prov_aic_janusgraph_1   0.11%     877.5MiB / 15.66GiB   5.47%     10.8MB / 5.11MB   0B / 332kB        53
Dec 24 04:31:38 175a7162e018   portainer               0.00%     17.04MiB / 15.66GiB   0.11%     11.6kB / 0B       58.3MB / 13.3MB   7
Dec 24 04:31:42 CONTAINER ID   NAME                    CPU %     MEM USAGE / LIMIT     MEM %     NET I/O         BLOCK I/O         PIDS
Dec 24 04:31:42 335720bc2bb0   prov_aic_janusgraph_1   0.35%     877.5MiB / 15.66GiB   5.47%     11MB / 5.19MB   0B / 332kB        53
Dec 24 04:31:42 175a7162e018   portainer               0.00%     17.04MiB / 15.66GiB   0.11%     11.6kB / 0B     58.3MB / 13.3MB   7
Dec 24 04:31:45 CONTAINER ID   NAME                    CPU %     MEM USAGE / LIMIT     MEM %     NET I/O          BLOCK I/O         PIDS
Dec 24 04:31:45 335720bc2bb0   prov_aic_janusgraph_1   24.45%    877.5MiB / 15.66GiB   5.47%     11.2MB / 5.3MB   0B / 332kB        53
Dec 24 04:31:45 175a7162e018   portainer               0.00%     17.04MiB / 15.66GiB   0.11%     11.6kB / 0B      58.3MB / 13.3MB   7
Dec 24 04:31:49 CONTAINER ID   NAME                    CPU %     MEM USAGE / LIMIT     MEM %     NET I/O           BLOCK I/O         PIDS
Dec 24 04:31:49 335720bc2bb0   prov_aic_janusgraph_1   0.10%     877.5MiB / 15.66GiB   5.47%     11.2MB / 5.31MB   0B / 332kB        53
Dec 24 04:31:49 175a7162e018   portainer               1.46%     17.04MiB / 15.66GiB   0.11%     11.6kB / 0B       58.3MB / 13.3MB   7
Dec 24 04:31:53 CONTAINER ID   NAME                    CPU %     MEM USAGE / LIMIT     MEM %     NET I/O           BLOCK I/O         PIDS
Dec 24 04:31:53 335720bc2bb0   prov_aic_janusgraph_1   0.11%     877.5MiB / 15.66GiB   5.47%     11.4MB / 5.39MB   0B / 332kB        53
Dec 24 04:31:53 175a7162e018   portainer               0.00%     17.04MiB / 15.66GiB   0.11%     11.6kB / 0B       58.3MB / 13.3MB   7
Dec 24 04:31:56 CONTAINER ID   NAME                    CPU %     MEM USAGE / LIMIT     MEM %     NET I/O          BLOCK I/O         PIDS
Dec 24 04:31:56 335720bc2bb0   prov_aic_janusgraph_1   2.54%     877.5MiB / 15.66GiB   5.47%     11.6MB / 5.5MB   0B / 332kB        53
Dec 24 04:31:56 175a7162e018   portainer               0.00%     16.55MiB / 15.66GiB   0.10%     11.6kB / 0B      58.3MB / 13.3MB   7
Dec 24 04:32:00 CONTAINER ID   NAME                    CPU %     MEM USAGE / LIMIT     MEM %     NET I/O           BLOCK I/O         PIDS
Dec 24 04:32:00 335720bc2bb0   prov_aic_janusgraph_1   24.02%    877.5MiB / 15.66GiB   5.47%     11.8MB / 5.58MB   0B / 332kB        53
Dec 24 04:32:00 175a7162e018   portainer               0.00%     16.55MiB / 15.66GiB   0.10%     11.6kB / 0B       58.3MB / 13.3MB   7
Dec 24 04:32:03 CONTAINER ID   NAME                    CPU %     MEM USAGE / LIMIT     MEM %     NET I/O           BLOCK I/O         PIDS
Dec 24 04:32:03 335720bc2bb0   prov_aic_janusgraph_1   2.35%     877.5MiB / 15.66GiB   5.47%     11.8MB / 5.59MB   0B / 332kB        53
Dec 24 04:32:03 175a7162e018   portainer               0.11%     16.55MiB / 15.66GiB   0.10%     11.6kB / 0B       58.3MB / 13.3MB   7
Dec 24 04:32:07 CONTAINER ID   NAME                    CPU %     MEM USAGE / LIMIT     MEM %     NET I/O         BLOCK I/O         PIDS
Dec 24 04:32:07 335720bc2bb0   prov_aic_janusgraph_1   0.31%     877.5MiB / 15.66GiB   5.47%     12MB / 5.69MB   0B / 332kB        53
Dec 24 04:32:07 175a7162e018   portainer               0.00%     16.55MiB / 15.66GiB   0.10%     11.6kB / 0B     58.3MB / 13.3MB   7
Dec 24 04:32:11 CONTAINER ID   NAME                    CPU %     MEM USAGE / LIMIT     MEM %     NET I/O           BLOCK I/O         PIDS
Dec 24 04:32:11 335720bc2bb0   prov_aic_janusgraph_1   3.25%     877.5MiB / 15.66GiB   5.47%     12.2MB / 5.77MB   0B / 332kB        53
Dec 24 04:32:11 175a7162e018   portainer               0.00%     16.55MiB / 15.66GiB   0.10%     11.6kB / 0B       58.3MB / 13.3MB   7
Dec 24 04:32:14 CONTAINER ID   NAME                    CPU %     MEM USAGE / LIMIT     MEM %     NET I/O           BLOCK I/O         PIDS
Dec 24 04:32:14 335720bc2bb0   prov_aic_janusgraph_1   27.98%    877.5MiB / 15.66GiB   5.47%     12.4MB / 5.87MB   0B / 332kB        53
Dec 24 04:32:14 175a7162e018   portainer               0.11%     16.55MiB / 15.66GiB   0.10%     11.6kB / 0B       58.3MB / 13.3MB   7
Dec 24 04:32:18 CONTAINER ID   NAME                    CPU %     MEM USAGE / LIMIT     MEM %     NET I/O           BLOCK I/O         PIDS
Dec 24 04:32:18 335720bc2bb0   prov_aic_janusgraph_1   0.19%     877.5MiB / 15.66GiB   5.47%     12.4MB / 5.89MB   0B / 332kB        53
Dec 24 04:32:18 175a7162e018   portainer               0.02%     16.55MiB / 15.66GiB   0.10%     11.6kB / 0B       58.3MB / 13.3MB   7
Dec 24 04:32:21 CONTAINER ID   NAME                    CPU %     MEM USAGE / LIMIT     MEM %     NET I/O           BLOCK I/O         PIDS
Dec 24 04:32:21 335720bc2bb0   prov_aic_janusgraph_1   1.30%     877.5MiB / 15.66GiB   5.47%     12.6MB / 5.97MB   0B / 332kB        53
Dec 24 04:32:21 175a7162e018   portainer               0.00%     16.55MiB / 15.66GiB   0.10%     11.6kB / 0B       58.3MB / 13.3MB   7
Dec 24 04:32:25 CONTAINER ID   NAME                    CPU %     MEM USAGE / LIMIT     MEM %     NET I/O           BLOCK I/O         PIDS
Dec 24 04:32:25 335720bc2bb0   prov_aic_janusgraph_1   8.25%     877.5MiB / 15.66GiB   5.47%     12.8MB / 6.08MB   0B / 332kB        53
Dec 24 04:32:25 175a7162e018   portainer               0.00%     16.56MiB / 15.66GiB   0.10%     11.6kB / 0B       58.3MB / 13.3MB   7
Dec 24 04:32:29 CONTAINER ID   NAME                    CPU %     MEM USAGE / LIMIT     MEM %     NET I/O          BLOCK I/O         PIDS
Dec 24 04:32:29 335720bc2bb0   prov_aic_janusgraph_1   7.71%     877.5MiB / 15.66GiB   5.47%     12.9MB / 6.1MB   0B / 332kB        53
Dec 24 04:32:29 175a7162e018   portainer               0.01%     16.56MiB / 15.66GiB   0.10%     11.6kB / 0B      58.3MB / 13.3MB   7
Dec 24 04:32:32 CONTAINER ID   NAME                    CPU %     MEM USAGE / LIMIT     MEM %     NET I/O         BLOCK I/O         PIDS
Dec 24 04:32:32 335720bc2bb0   prov_aic_janusgraph_1   0.13%     877.5MiB / 15.66GiB   5.47%     13MB / 6.16MB   0B / 332kB        53
Dec 24 04:32:32 175a7162e018   portainer               0.00%     16.56MiB / 15.66GiB   0.10%     11.6kB / 0B     58.3MB / 13.3MB   7
Dec 24 04:32:36 CONTAINER ID   NAME                    CPU %     MEM USAGE / LIMIT     MEM %     NET I/O           BLOCK I/O         PIDS
Dec 24 04:32:36 335720bc2bb0   prov_aic_janusgraph_1   6.04%     881.6MiB / 15.66GiB   5.50%     13.3MB / 6.28MB   0B / 332kB        53
Dec 24 04:32:36 175a7162e018   portainer               0.00%     16.56MiB / 15.66GiB   0.10%     11.6kB / 0B       58.3MB / 13.3MB   7
Dec 24 04:32:39 CONTAINER ID   NAME                    CPU %     MEM USAGE / LIMIT     MEM %     NET I/O           BLOCK I/O         PIDS
Dec 24 04:32:39 335720bc2bb0   prov_aic_janusgraph_1   18.14%    881.6MiB / 15.66GiB   5.50%     13.4MB / 6.35MB   0B / 332kB        53
Dec 24 04:32:39 175a7162e018   portainer               0.02%     16.56MiB / 15.66GiB   0.10%     11.6kB / 0B       58.3MB / 13.3MB   7
Dec 24 04:32:43 CONTAINER ID   NAME                    CPU %     MEM USAGE / LIMIT     MEM %     NET I/O           BLOCK I/O         PIDS
Dec 24 04:32:43 335720bc2bb0   prov_aic_janusgraph_1   0.09%     881.6MiB / 15.66GiB   5.50%     13.4MB / 6.36MB   0B / 332kB        53
Dec 24 04:32:43 175a7162e018   portainer               0.00%     16.56MiB / 15.66GiB   0.10%     11.6kB / 0B       58.3MB / 13.3MB   7
Dec 24 04:32:47 CONTAINER ID   NAME                    CPU %     MEM USAGE / LIMIT     MEM %     NET I/O           BLOCK I/O         PIDS
Dec 24 04:32:47 335720bc2bb0   prov_aic_janusgraph_1   0.32%     881.6MiB / 15.66GiB   5.50%     13.7MB / 6.46MB   0B / 332kB        53
Dec 24 04:32:47 175a7162e018   portainer               0.00%     16.56MiB / 15.66GiB   0.10%     11.6kB / 0B       58.3MB / 13.3MB   7
Dec 24 04:32:50 CONTAINER ID   NAME                    CPU %     MEM USAGE / LIMIT     MEM %     NET I/O           BLOCK I/O         PIDS
Dec 24 04:32:50 335720bc2bb0   prov_aic_janusgraph_1   20.50%    881.6MiB / 15.66GiB   5.50%     13.8MB / 6.54MB   0B / 332kB        53
Dec 24 04:32:50 175a7162e018   portainer               0.00%     16.56MiB / 15.66GiB   0.10%     11.6kB / 0B       58.3MB / 13.3MB   7
Dec 24 04:32:54 CONTAINER ID   NAME                    CPU %     MEM USAGE / LIMIT     MEM %     NET I/O           BLOCK I/O         PIDS
Dec 24 04:32:54 335720bc2bb0   prov_aic_janusgraph_1   0.29%     881.6MiB / 15.66GiB   5.50%     13.8MB / 6.55MB   0B / 332kB        53
Dec 24 04:32:54 175a7162e018   portainer               0.09%     16.56MiB / 15.66GiB   0.10%     11.6kB / 0B       58.3MB / 13.3MB   7
Dec 24 04:32:57 CONTAINER ID   NAME                    CPU %     MEM USAGE / LIMIT     MEM %     NET I/O           BLOCK I/O         PIDS
Dec 24 04:32:57 335720bc2bb0   prov_aic_janusgraph_1   0.28%     881.6MiB / 15.66GiB   5.50%     14.1MB / 6.66MB   0B / 332kB        53
Dec 24 04:32:57 175a7162e018   portainer               0.00%     16.56MiB / 15.66GiB   0.10%     11.6kB / 0B       58.3MB / 13.3MB   7
Dec 24 04:33:00 CONTAINER ID   NAME                    CPU %     MEM USAGE / LIMIT     MEM %     NET I/O           BLOCK I/O         PIDS
Dec 24 04:33:00 335720bc2bb0   prov_aic_janusgraph_1   0.27%     881.6MiB / 15.66GiB   5.50%     14.2MB / 6.74MB   0B / 332kB        53
Dec 24 04:33:00 175a7162e018   portainer               0.00%     16.56MiB / 15.66GiB   0.10%     11.6kB / 0B       58.3MB / 13.3MB   7
Dec 24 04:33:04 CONTAINER ID   NAME                    CPU %     MEM USAGE / LIMIT     MEM %     NET I/O           BLOCK I/O         PIDS
Dec 24 04:33:04 335720bc2bb0   prov_aic_janusgraph_1   31.19%    881.6MiB / 15.66GiB   5.50%     14.5MB / 6.84MB   0B / 332kB        53
Dec 24 04:33:04 175a7162e018   portainer               0.02%     16.56MiB / 15.66GiB   0.10%     11.6kB / 0B       58.3MB / 13.3MB   7
Dec 24 04:33:07 CONTAINER ID   NAME                    CPU %     MEM USAGE / LIMIT     MEM %     NET I/O           BLOCK I/O         PIDS
Dec 24 04:33:07 335720bc2bb0   prov_aic_janusgraph_1   1.95%     881.6MiB / 15.66GiB   5.50%     14.5MB / 6.86MB   0B / 332kB        53
Dec 24 04:33:07 175a7162e018   portainer               0.00%     16.56MiB / 15.66GiB   0.10%     11.6kB / 0B       58.3MB / 13.3MB   7
Dec 24 04:33:11 CONTAINER ID   NAME                    CPU %     MEM USAGE / LIMIT     MEM %     NET I/O           BLOCK I/O         PIDS
Dec 24 04:33:11 335720bc2bb0   prov_aic_janusgraph_1   0.10%     881.6MiB / 15.66GiB   5.50%     14.6MB / 6.93MB   0B / 332kB        53
Dec 24 04:33:11 175a7162e018   portainer               0.00%     16.56MiB / 15.66GiB   0.10%     11.6kB / 0B       58.3MB / 13.3MB   7
Dec 24 04:33:14 CONTAINER ID   NAME                    CPU %     MEM USAGE / LIMIT     MEM %     NET I/O           BLOCK I/O         PIDS
Dec 24 04:33:14 335720bc2bb0   prov_aic_janusgraph_1   4.31%     881.6MiB / 15.66GiB   5.50%     14.9MB / 7.05MB   0B / 332kB        53
Dec 24 04:33:14 175a7162e018   portainer               0.05%     16.56MiB / 15.66GiB   0.10%     11.6kB / 0B       58.3MB / 13.3MB   7
Dec 24 04:33:18 CONTAINER ID   NAME                    CPU %     MEM USAGE / LIMIT     MEM %     NET I/O         BLOCK I/O         PIDS
Dec 24 04:33:18 335720bc2bb0   prov_aic_janusgraph_1   23.64%    881.6MiB / 15.66GiB   5.50%     15MB / 7.12MB   0B / 332kB        53
Dec 24 04:33:18 175a7162e018   portainer               0.00%     16.56MiB / 15.66GiB   0.10%     11.6kB / 0B     58.3MB / 13.3MB   7
Dec 24 04:33:22 CONTAINER ID   NAME                    CPU %     MEM USAGE / LIMIT     MEM %     NET I/O           BLOCK I/O         PIDS
Dec 24 04:33:22 335720bc2bb0   prov_aic_janusgraph_1   2.22%     881.6MiB / 15.66GiB   5.50%     15.1MB / 7.13MB   0B / 332kB        53
Dec 24 04:33:22 175a7162e018   portainer               0.00%     16.56MiB / 15.66GiB   0.10%     11.6kB / 0B       58.3MB / 13.3MB   7
Dec 24 04:33:25 CONTAINER ID   NAME                    CPU %     MEM USAGE / LIMIT     MEM %     NET I/O           BLOCK I/O         PIDS
Dec 24 04:33:25 335720bc2bb0   prov_aic_janusgraph_1   0.26%     881.6MiB / 15.66GiB   5.50%     15.3MB / 7.24MB   0B / 332kB        53
Dec 24 04:33:25 175a7162e018   portainer               0.00%     16.56MiB / 15.66GiB   0.10%     11.6kB / 0B       58.3MB / 13.3MB   7
Dec 24 04:33:29 CONTAINER ID   NAME                    CPU %     MEM USAGE / LIMIT     MEM %     NET I/O           BLOCK I/O         PIDS
Dec 24 04:33:29 335720bc2bb0   prov_aic_janusgraph_1   21.18%    881.6MiB / 15.66GiB   5.50%     15.4MB / 7.31MB   0B / 332kB        53
Dec 24 04:33:29 175a7162e018   portainer               0.00%     16.56MiB / 15.66GiB   0.10%     11.6kB / 0B       58.3MB / 13.3MB   7
Dec 24 04:33:32 CONTAINER ID   NAME                    CPU %     MEM USAGE / LIMIT     MEM %     NET I/O           BLOCK I/O         PIDS
Dec 24 04:33:32 335720bc2bb0   prov_aic_janusgraph_1   6.44%     881.6MiB / 15.66GiB   5.50%     15.5MB / 7.34MB   0B / 332kB        53
Dec 24 04:33:32 175a7162e018   portainer               0.00%     16.56MiB / 15.66GiB   0.10%     11.6kB / 0B       58.3MB / 13.3MB   7
Dec 24 04:33:36 CONTAINER ID   NAME                    CPU %     MEM USAGE / LIMIT     MEM %     NET I/O           BLOCK I/O         PIDS
Dec 24 04:33:36 335720bc2bb0   prov_aic_janusgraph_1   0.10%     881.6MiB / 15.66GiB   5.50%     15.7MB / 7.44MB   0B / 332kB        53
Dec 24 04:33:36 175a7162e018   portainer               0.00%     16.95MiB / 15.66GiB   0.11%     11.6kB / 0B       58.3MB / 13.4MB   7
Dec 24 04:33:39 CONTAINER ID   NAME                    CPU %     MEM USAGE / LIMIT     MEM %     NET I/O           BLOCK I/O         PIDS
Dec 24 04:33:39 335720bc2bb0   prov_aic_janusgraph_1   0.29%     881.6MiB / 15.66GiB   5.50%     15.9MB / 7.51MB   0B / 332kB        53
Dec 24 04:33:39 175a7162e018   portainer               0.01%     16.95MiB / 15.66GiB   0.11%     11.6kB / 0B       58.3MB / 13.4MB   7
Dec 24 04:33:43 CONTAINER ID   NAME                    CPU %     MEM USAGE / LIMIT     MEM %     NET I/O           BLOCK I/O         PIDS
Dec 24 04:33:43 335720bc2bb0   prov_aic_janusgraph_1   35.40%    885.6MiB / 15.66GiB   5.52%     16.1MB / 7.62MB   0B / 332kB        53
Dec 24 04:33:43 175a7162e018   portainer               0.00%     16.95MiB / 15.66GiB   0.11%     11.6kB / 0B       58.3MB / 13.4MB   7
Dec 24 04:33:47 CONTAINER ID   NAME                    CPU %     MEM USAGE / LIMIT     MEM %     NET I/O           BLOCK I/O         PIDS
Dec 24 04:33:47 335720bc2bb0   prov_aic_janusgraph_1   0.14%     885.6MiB / 15.66GiB   5.52%     16.1MB / 7.63MB   0B / 332kB        53
Dec 24 04:33:47 175a7162e018   portainer               0.00%     16.95MiB / 15.66GiB   0.11%     11.6kB / 0B       58.3MB / 13.4MB   7
Dec 24 04:33:50 CONTAINER ID   NAME                    CPU %     MEM USAGE / LIMIT     MEM %     NET I/O           BLOCK I/O         PIDS
Dec 24 04:33:50 335720bc2bb0   prov_aic_janusgraph_1   0.09%     885.6MiB / 15.66GiB   5.52%     16.3MB / 7.71MB   0B / 332kB        53
Dec 24 04:33:50 175a7162e018   portainer               0.00%     16.95MiB / 15.66GiB   0.11%     11.6kB / 0B       58.3MB / 13.4MB   7
Dec 24 04:33:54 CONTAINER ID   NAME                    CPU %     MEM USAGE / LIMIT     MEM %     NET I/O           BLOCK I/O         PIDS
Dec 24 04:33:54 335720bc2bb0   prov_aic_janusgraph_1   2.50%     885.6MiB / 15.66GiB   5.52%     16.5MB / 7.82MB   0B / 332kB        53
Dec 24 04:33:54 175a7162e018   portainer               1.17%     17.08MiB / 15.66GiB   0.11%     11.6kB / 0B       58.3MB / 13.4MB   7
Dec 24 04:33:57 CONTAINER ID   NAME                    CPU %     MEM USAGE / LIMIT     MEM %     NET I/O          BLOCK I/O         PIDS
Dec 24 04:33:57 335720bc2bb0   prov_aic_janusgraph_1   24.66%    885.6MiB / 15.66GiB   5.52%     16.7MB / 7.9MB   0B / 332kB        53
Dec 24 04:33:57 175a7162e018   portainer               0.00%     16.98MiB / 15.66GiB   0.11%     11.6kB / 0B      58.3MB / 13.4MB   7
Dec 24 04:34:01 CONTAINER ID   NAME                    CPU %     MEM USAGE / LIMIT     MEM %     NET I/O           BLOCK I/O         PIDS
Dec 24 04:34:01 335720bc2bb0   prov_aic_janusgraph_1   2.24%     885.6MiB / 15.66GiB   5.52%     16.7MB / 7.91MB   0B / 332kB        53
Dec 24 04:34:01 175a7162e018   portainer               0.00%     16.98MiB / 15.66GiB   0.11%     11.6kB / 0B       58.3MB / 13.4MB   7
Dec 24 04:34:05 CONTAINER ID   NAME                    CPU %     MEM USAGE / LIMIT     MEM %     NET I/O           BLOCK I/O         PIDS
Dec 24 04:34:05 335720bc2bb0   prov_aic_janusgraph_1   0.31%     885.6MiB / 15.66GiB   5.52%     16.9MB / 8.01MB   0B / 332kB        53
Dec 24 04:34:05 175a7162e018   portainer               0.11%     16.98MiB / 15.66GiB   0.11%     11.6kB / 0B       58.3MB / 13.4MB   7
Dec 24 04:34:08 CONTAINER ID   NAME                    CPU %     MEM USAGE / LIMIT     MEM %     NET I/O          BLOCK I/O         PIDS
Dec 24 04:34:08 335720bc2bb0   prov_aic_janusgraph_1   3.50%     885.6MiB / 15.66GiB   5.52%     17.1MB / 8.1MB   0B / 332kB        53
Dec 24 04:34:08 175a7162e018   portainer               0.00%     16.98MiB / 15.66GiB   0.11%     11.6kB / 0B      58.3MB / 13.4MB   7
Dec 24 04:34:12 CONTAINER ID   NAME                    CPU %     MEM USAGE / LIMIT     MEM %     NET I/O           BLOCK I/O         PIDS
Dec 24 04:34:12 335720bc2bb0   prov_aic_janusgraph_1   23.40%    885.6MiB / 15.66GiB   5.52%     17.3MB / 8.17MB   0B / 332kB        53
Dec 24 04:34:12 175a7162e018   portainer               0.00%     16.98MiB / 15.66GiB   0.11%     11.6kB / 0B       58.3MB / 13.4MB   7
Dec 24 04:34:15 CONTAINER ID   NAME                    CPU %     MEM USAGE / LIMIT     MEM %     NET I/O           BLOCK I/O         PIDS
Dec 24 04:34:15 335720bc2bb0   prov_aic_janusgraph_1   0.18%     885.6MiB / 15.66GiB   5.52%     17.3MB / 8.21MB   0B / 332kB        53
Dec 24 04:34:15 175a7162e018   portainer               0.00%     16.99MiB / 15.66GiB   0.11%     11.6kB / 0B       58.3MB / 13.4MB   7
Dec 24 04:34:19 CONTAINER ID   NAME                    CPU %     MEM USAGE / LIMIT     MEM %     NET I/O           BLOCK I/O         PIDS
Dec 24 04:34:19 335720bc2bb0   prov_aic_janusgraph_1   4.00%     885.6MiB / 15.66GiB   5.52%     17.5MB / 8.29MB   0B / 332kB        53
Dec 24 04:34:19 175a7162e018   portainer               0.00%     16.99MiB / 15.66GiB   0.11%     11.6kB / 0B       58.3MB / 13.4MB   7
Dec 24 04:34:23 CONTAINER ID   NAME                    CPU %     MEM USAGE / LIMIT     MEM %     NET I/O           BLOCK I/O         PIDS
Dec 24 04:34:23 335720bc2bb0   prov_aic_janusgraph_1   16.49%    885.6MiB / 15.66GiB   5.52%     17.6MB / 8.35MB   0B / 332kB        53
Dec 24 04:34:23 175a7162e018   portainer               0.02%     16.99MiB / 15.66GiB   0.11%     11.6kB / 0B       58.3MB / 13.4MB   7
Dec 24 04:34:26 CONTAINER ID   NAME                    CPU %     MEM USAGE / LIMIT     MEM %     NET I/O           BLOCK I/O         PIDS
Dec 24 04:34:26 335720bc2bb0   prov_aic_janusgraph_1   2.93%     885.6MiB / 15.66GiB   5.52%     17.8MB / 8.41MB   0B / 332kB        53
Dec 24 04:34:26 175a7162e018   portainer               0.00%     16.99MiB / 15.66GiB   0.11%     11.6kB / 0B       58.3MB / 13.4MB   7
Dec 24 04:34:30 CONTAINER ID   NAME                    CPU %     MEM USAGE / LIMIT     MEM %     NET I/O           BLOCK I/O         PIDS
Dec 24 04:34:30 335720bc2bb0   prov_aic_janusgraph_1   0.09%     885.6MiB / 15.66GiB   5.52%     17.9MB / 8.45MB   0B / 332kB        53
Dec 24 04:34:30 175a7162e018   portainer               0.00%     16.99MiB / 15.66GiB   0.11%     11.6kB / 0B       58.3MB / 13.4MB   7
