Dec 24 03:15:11 CONTAINER ID   NAME        CPU %     MEM USAGE / LIMIT     MEM %     NET I/O       BLOCK I/O       PIDS
Dec 24 03:15:11 175a7162e018   portainer   0.00%     17.03MiB / 15.66GiB   0.11%     11.3kB / 0B   58.3MB / 11MB   7
Dec 24 03:15:11                --          0.00%     0B / 0B               0.00%     0B / 0B       0B / 0B         0
Dec 24 03:15:15 CONTAINER ID   NAME                    CPU %     MEM USAGE / LIMIT     MEM %     NET I/O       BLOCK I/O       PIDS
Dec 24 03:15:15 fd386681503c   prov_aic_janusgraph_1   240.28%   666.9MiB / 15.66GiB   4.16%     4.84kB / 0B   0B / 233kB      21
Dec 24 03:15:15 175a7162e018   portainer               0.00%     17.03MiB / 15.66GiB   0.11%     11.3kB / 0B   58.3MB / 11MB   7
Dec 24 03:15:19 CONTAINER ID   NAME                    CPU %     MEM USAGE / LIMIT     MEM %     NET I/O       BLOCK I/O       PIDS
Dec 24 03:15:19 fd386681503c   prov_aic_janusgraph_1   315.24%   748.7MiB / 15.66GiB   4.67%     6.21kB / 0B   0B / 233kB      22
Dec 24 03:15:19 175a7162e018   portainer               0.00%     17.03MiB / 15.66GiB   0.11%     11.3kB / 0B   58.3MB / 11MB   7
Dec 24 03:15:22 CONTAINER ID   NAME                    CPU %     MEM USAGE / LIMIT     MEM %     NET I/O       BLOCK I/O        PIDS
Dec 24 03:15:22 fd386681503c   prov_aic_janusgraph_1   154.93%   117.1MiB / 15.66GiB   0.73%     6.71kB / 0B   81.9kB / 332kB   16
Dec 24 03:15:22 175a7162e018   portainer               0.00%     17.03MiB / 15.66GiB   0.11%     11.3kB / 0B   58.3MB / 11MB    7
Dec 24 03:15:26 CONTAINER ID   NAME                    CPU %     MEM USAGE / LIMIT     MEM %     NET I/O       BLOCK I/O        PIDS
Dec 24 03:15:26 fd386681503c   prov_aic_janusgraph_1   275.84%   711.9MiB / 15.66GiB   4.44%     6.78kB / 0B   81.9kB / 332kB   21
Dec 24 03:15:26 175a7162e018   portainer               0.00%     17.03MiB / 15.66GiB   0.11%     11.3kB / 0B   58.3MB / 11MB    7
Dec 24 03:15:29 CONTAINER ID   NAME                    CPU %     MEM USAGE / LIMIT     MEM %     NET I/O       BLOCK I/O        PIDS
Dec 24 03:15:29 fd386681503c   prov_aic_janusgraph_1   0.11%     729MiB / 15.66GiB     4.54%     7.08kB / 0B   81.9kB / 332kB   22
Dec 24 03:15:29 175a7162e018   portainer               0.02%     17.03MiB / 15.66GiB   0.11%     11.3kB / 0B   58.3MB / 11MB    7
Dec 24 03:15:33 CONTAINER ID   NAME                    CPU %     MEM USAGE / LIMIT     MEM %     NET I/O       BLOCK I/O        PIDS
Dec 24 03:15:33 fd386681503c   prov_aic_janusgraph_1   0.41%     717.6MiB / 15.66GiB   4.47%     7.08kB / 0B   81.9kB / 332kB   22
Dec 24 03:15:33 175a7162e018   portainer               0.12%     17.03MiB / 15.66GiB   0.11%     11.3kB / 0B   58.3MB / 11MB    7
Dec 24 03:15:37 CONTAINER ID   NAME                    CPU %     MEM USAGE / LIMIT     MEM %     NET I/O       BLOCK I/O        PIDS
Dec 24 03:15:37 fd386681503c   prov_aic_janusgraph_1   0.11%     717.6MiB / 15.66GiB   4.47%     7.08kB / 0B   81.9kB / 332kB   22
Dec 24 03:15:37 175a7162e018   portainer               0.00%     17.03MiB / 15.66GiB   0.11%     11.3kB / 0B   58.3MB / 11MB    7
Dec 24 03:15:40 CONTAINER ID   NAME                    CPU %     MEM USAGE / LIMIT     MEM %     NET I/O       BLOCK I/O        PIDS
Dec 24 03:15:40 fd386681503c   prov_aic_janusgraph_1   0.10%     717.5MiB / 15.66GiB   4.47%     7.15kB / 0B   81.9kB / 332kB   22
Dec 24 03:15:40 175a7162e018   portainer               0.00%     17.03MiB / 15.66GiB   0.11%     11.3kB / 0B   58.3MB / 11MB    7
Dec 24 03:15:44 CONTAINER ID   NAME                    CPU %     MEM USAGE / LIMIT     MEM %     NET I/O       BLOCK I/O        PIDS
Dec 24 03:15:44 fd386681503c   prov_aic_janusgraph_1   0.31%     717.6MiB / 15.66GiB   4.47%     7.24kB / 0B   81.9kB / 332kB   22
Dec 24 03:15:44 175a7162e018   portainer               0.12%     17.03MiB / 15.66GiB   0.11%     11.3kB / 0B   58.3MB / 11MB    7
Dec 24 03:15:47 CONTAINER ID   NAME                    CPU %     MEM USAGE / LIMIT     MEM %     NET I/O       BLOCK I/O        PIDS
Dec 24 03:15:47 fd386681503c   prov_aic_janusgraph_1   0.09%     717.6MiB / 15.66GiB   4.47%     7.45kB / 0B   81.9kB / 332kB   22
Dec 24 03:15:47 175a7162e018   portainer               0.00%     17.03MiB / 15.66GiB   0.11%     11.3kB / 0B   58.3MB / 11MB    7
Dec 24 03:15:51 CONTAINER ID   NAME                    CPU %     MEM USAGE / LIMIT     MEM %     NET I/O       BLOCK I/O        PIDS
Dec 24 03:15:51 fd386681503c   prov_aic_janusgraph_1   0.10%     717.6MiB / 15.66GiB   4.47%     7.45kB / 0B   81.9kB / 332kB   22
Dec 24 03:15:51 175a7162e018   portainer               0.00%     17.03MiB / 15.66GiB   0.11%     11.3kB / 0B   58.3MB / 11MB    7
Dec 24 03:15:55 CONTAINER ID   NAME                    CPU %     MEM USAGE / LIMIT     MEM %     NET I/O           BLOCK I/O        PIDS
Dec 24 03:15:55 fd386681503c   prov_aic_janusgraph_1   71.99%    729.5MiB / 15.66GiB   4.55%     10.4kB / 1.95kB   81.9kB / 332kB   40
Dec 24 03:15:55 175a7162e018   portainer               0.00%     16.49MiB / 15.66GiB   0.10%     11.3kB / 0B       58.3MB / 11MB    7
Dec 24 03:15:58 CONTAINER ID   NAME                    CPU %     MEM USAGE / LIMIT     MEM %     NET I/O          BLOCK I/O        PIDS
Dec 24 03:15:58 fd386681503c   prov_aic_janusgraph_1   118.78%   741.7MiB / 15.66GiB   4.62%     195kB / 88.4kB   81.9kB / 332kB   50
Dec 24 03:15:58 175a7162e018   portainer               0.00%     16.49MiB / 15.66GiB   0.10%     11.3kB / 0B      58.3MB / 11MB    7
Dec 24 03:16:02 CONTAINER ID   NAME                    CPU %     MEM USAGE / LIMIT     MEM %     NET I/O         BLOCK I/O        PIDS
Dec 24 03:16:02 fd386681503c   prov_aic_janusgraph_1   114.89%   750.4MiB / 15.66GiB   4.68%     358kB / 164kB   81.9kB / 332kB   50
Dec 24 03:16:02 175a7162e018   portainer               0.00%     16.49MiB / 15.66GiB   0.10%     11.3kB / 0B     58.3MB / 11MB    7
Dec 24 03:16:05 CONTAINER ID   NAME                    CPU %     MEM USAGE / LIMIT     MEM %     NET I/O         BLOCK I/O        PIDS
Dec 24 03:16:05 fd386681503c   prov_aic_janusgraph_1   0.10%     751.3MiB / 15.66GiB   4.68%     493kB / 226kB   81.9kB / 332kB   50
Dec 24 03:16:05 175a7162e018   portainer               0.00%     16.49MiB / 15.66GiB   0.10%     11.3kB / 0B     58.3MB / 11MB    7
Dec 24 03:16:09 CONTAINER ID   NAME                    CPU %     MEM USAGE / LIMIT     MEM %     NET I/O         BLOCK I/O        PIDS
Dec 24 03:16:09 fd386681503c   prov_aic_janusgraph_1   160.49%   752MiB / 15.66GiB     4.69%     697kB / 322kB   81.9kB / 332kB   50
Dec 24 03:16:09 175a7162e018   portainer               0.00%     16.49MiB / 15.66GiB   0.10%     11.3kB / 0B     58.3MB / 11MB    7
Dec 24 03:16:13 CONTAINER ID   NAME                    CPU %     MEM USAGE / LIMIT     MEM %     NET I/O         BLOCK I/O        PIDS
Dec 24 03:16:13 fd386681503c   prov_aic_janusgraph_1   139.32%   749.1MiB / 15.66GiB   4.67%     933kB / 433kB   81.9kB / 332kB   50
Dec 24 03:16:13 175a7162e018   portainer               0.00%     16.49MiB / 15.66GiB   0.10%     11.3kB / 0B     58.3MB / 11MB    7
Dec 24 03:16:16 CONTAINER ID   NAME                    CPU %     MEM USAGE / LIMIT     MEM %     NET I/O          BLOCK I/O        PIDS
Dec 24 03:16:16 fd386681503c   prov_aic_janusgraph_1   80.16%    747.9MiB / 15.66GiB   4.66%     1.01MB / 468kB   81.9kB / 332kB   50
Dec 24 03:16:16 175a7162e018   portainer               0.00%     16.49MiB / 15.66GiB   0.10%     11.3kB / 0B      58.3MB / 11MB    7
Dec 24 03:16:20 CONTAINER ID   NAME                    CPU %     MEM USAGE / LIMIT     MEM %     NET I/O          BLOCK I/O        PIDS
Dec 24 03:16:20 fd386681503c   prov_aic_janusgraph_1   0.12%     748.3MiB / 15.66GiB   4.67%     1.19MB / 553kB   81.9kB / 332kB   50
Dec 24 03:16:20 175a7162e018   portainer               0.00%     16.49MiB / 15.66GiB   0.10%     11.3kB / 0B      58.3MB / 11MB    7
Dec 24 03:16:24 CONTAINER ID   NAME                    CPU %     MEM USAGE / LIMIT     MEM %     NET I/O          BLOCK I/O        PIDS
Dec 24 03:16:24 fd386681503c   prov_aic_janusgraph_1   37.89%    748.3MiB / 15.66GiB   4.67%     1.37MB / 637kB   81.9kB / 332kB   50
Dec 24 03:16:24 175a7162e018   portainer               0.09%     16.5MiB / 15.66GiB    0.10%     11.3kB / 0B      58.3MB / 11MB    7
Dec 24 03:16:27 CONTAINER ID   NAME                    CPU %     MEM USAGE / LIMIT     MEM %     NET I/O          BLOCK I/O        PIDS
Dec 24 03:16:27 fd386681503c   prov_aic_janusgraph_1   121.12%   748.4MiB / 15.66GiB   4.67%     1.59MB / 739kB   81.9kB / 332kB   50
Dec 24 03:16:27 175a7162e018   portainer               0.00%     16.5MiB / 15.66GiB    0.10%     11.3kB / 0B      58.3MB / 11MB    7
Dec 24 03:16:31 CONTAINER ID   NAME                    CPU %     MEM USAGE / LIMIT     MEM %     NET I/O         BLOCK I/O        PIDS
Dec 24 03:16:31 fd386681503c   prov_aic_janusgraph_1   5.66%     748.4MiB / 15.66GiB   4.67%     1.6MB / 744kB   81.9kB / 332kB   50
Dec 24 03:16:31 175a7162e018   portainer               0.00%     16.5MiB / 15.66GiB    0.10%     11.3kB / 0B     58.3MB / 11MB    7
Dec 24 03:16:33 CONTAINER ID   NAME                    CPU %     MEM USAGE / LIMIT     MEM %     NET I/O          BLOCK I/O        PIDS
Dec 24 03:16:33 fd386681503c   prov_aic_janusgraph_1   10.82%    751.3MiB / 15.66GiB   4.68%     1.79MB / 834kB   81.9kB / 332kB   50
Dec 24 03:16:33 175a7162e018   portainer               0.11%     16.5MiB / 15.66GiB    0.10%     11.3kB / 0B      58.3MB / 11MB    7
Dec 24 03:16:37 CONTAINER ID   NAME                    CPU %     MEM USAGE / LIMIT     MEM %     NET I/O          BLOCK I/O        PIDS
Dec 24 03:16:37 fd386681503c   prov_aic_janusgraph_1   15.15%    751.3MiB / 15.66GiB   4.68%     1.82MB / 847kB   81.9kB / 332kB   50
Dec 24 03:16:37 175a7162e018   portainer               0.00%     16.5MiB / 15.66GiB    0.10%     11.3kB / 0B      58.3MB / 11MB    7
Dec 24 03:16:40 CONTAINER ID   NAME                    CPU %     MEM USAGE / LIMIT     MEM %     NET I/O       BLOCK I/O        PIDS
Dec 24 03:16:40 fd386681503c   prov_aic_janusgraph_1   0.10%     751.4MiB / 15.66GiB   4.68%     2MB / 930kB   81.9kB / 332kB   50
Dec 24 03:16:40 175a7162e018   portainer               0.00%     16.5MiB / 15.66GiB    0.10%     11.3kB / 0B   58.3MB / 11MB    7
Dec 24 03:16:44 CONTAINER ID   NAME                    CPU %     MEM USAGE / LIMIT     MEM %     NET I/O          BLOCK I/O        PIDS
Dec 24 03:16:44 fd386681503c   prov_aic_janusgraph_1   0.15%     751.4MiB / 15.66GiB   4.68%     2.2MB / 1.03MB   81.9kB / 332kB   50
Dec 24 03:16:44 175a7162e018   portainer               0.11%     16.5MiB / 15.66GiB    0.10%     11.3kB / 0B      58.3MB / 11MB    7
Dec 24 03:16:48 CONTAINER ID   NAME                    CPU %     MEM USAGE / LIMIT     MEM %     NET I/O           BLOCK I/O        PIDS
Dec 24 03:16:48 fd386681503c   prov_aic_janusgraph_1   1.68%     751.4MiB / 15.66GiB   4.68%     2.42MB / 1.13MB   81.9kB / 332kB   50
Dec 24 03:16:48 175a7162e018   portainer               0.00%     16.5MiB / 15.66GiB    0.10%     11.3kB / 0B       58.3MB / 11MB    7
Dec 24 03:16:51 CONTAINER ID   NAME                    CPU %     MEM USAGE / LIMIT     MEM %     NET I/O           BLOCK I/O        PIDS
Dec 24 03:16:51 fd386681503c   prov_aic_janusgraph_1   2.07%     751.4MiB / 15.66GiB   4.68%     2.43MB / 1.13MB   81.9kB / 332kB   50
Dec 24 03:16:51 175a7162e018   portainer               0.00%     16.5MiB / 15.66GiB    0.10%     11.3kB / 0B       58.3MB / 11MB    7
Dec 24 03:16:55 CONTAINER ID   NAME                    CPU %     MEM USAGE / LIMIT     MEM %     NET I/O           BLOCK I/O        PIDS
Dec 24 03:16:55 fd386681503c   prov_aic_janusgraph_1   0.14%     751.4MiB / 15.66GiB   4.68%     2.61MB / 1.22MB   81.9kB / 332kB   50
Dec 24 03:16:55 175a7162e018   portainer               0.00%     16.5MiB / 15.66GiB    0.10%     11.3kB / 0B       58.3MB / 11MB    7
Dec 24 03:16:58 CONTAINER ID   NAME                    CPU %     MEM USAGE / LIMIT     MEM %     NET I/O           BLOCK I/O        PIDS
Dec 24 03:16:58 fd386681503c   prov_aic_janusgraph_1   1.18%     751.4MiB / 15.66GiB   4.68%     2.85MB / 1.33MB   81.9kB / 332kB   50
Dec 24 03:16:58 175a7162e018   portainer               0.02%     16.5MiB / 15.66GiB    0.10%     11.3kB / 0B       58.3MB / 11MB    7
Dec 24 03:17:01 CONTAINER ID   NAME                    CPU %     MEM USAGE / LIMIT     MEM %     NET I/O           BLOCK I/O        PIDS
Dec 24 03:17:01 fd386681503c   prov_aic_janusgraph_1   117.18%   751.4MiB / 15.66GiB   4.68%     3.01MB / 1.41MB   81.9kB / 332kB   50
Dec 24 03:17:01 175a7162e018   portainer               0.00%     16.5MiB / 15.66GiB    0.10%     11.3kB / 0B       58.3MB / 11MB    7
Dec 24 03:17:05 CONTAINER ID   NAME                    CPU %     MEM USAGE / LIMIT     MEM %     NET I/O           BLOCK I/O        PIDS
Dec 24 03:17:05 fd386681503c   prov_aic_janusgraph_1   2.84%     751.6MiB / 15.66GiB   4.69%     3.08MB / 1.44MB   81.9kB / 332kB   50
Dec 24 03:17:05 175a7162e018   portainer               0.10%     16.5MiB / 15.66GiB    0.10%     11.3kB / 0B       58.3MB / 11MB    7
Dec 24 03:17:08 CONTAINER ID   NAME                    CPU %     MEM USAGE / LIMIT     MEM %     NET I/O           BLOCK I/O        PIDS
Dec 24 03:17:08 fd386681503c   prov_aic_janusgraph_1   57.07%    751.8MiB / 15.66GiB   4.69%     3.28MB / 1.53MB   81.9kB / 332kB   50
Dec 24 03:17:08 175a7162e018   portainer               0.02%     16.5MiB / 15.66GiB    0.10%     11.3kB / 0B       58.3MB / 11MB    7
Dec 24 03:17:12 CONTAINER ID   NAME                    CPU %     MEM USAGE / LIMIT     MEM %     NET I/O          BLOCK I/O        PIDS
Dec 24 03:17:12 fd386681503c   prov_aic_janusgraph_1   3.95%     751.8MiB / 15.66GiB   4.69%     3.5MB / 1.63MB   81.9kB / 332kB   50
Dec 24 03:17:12 175a7162e018   portainer               0.00%     16.5MiB / 15.66GiB    0.10%     11.3kB / 0B      58.3MB / 11MB    7
Dec 24 03:17:16 CONTAINER ID   NAME                    CPU %     MEM USAGE / LIMIT     MEM %     NET I/O           BLOCK I/O        PIDS
Dec 24 03:17:16 fd386681503c   prov_aic_janusgraph_1   0.11%     751.8MiB / 15.66GiB   4.69%     3.51MB / 1.64MB   81.9kB / 332kB   50
Dec 24 03:17:16 175a7162e018   portainer               0.00%     16.5MiB / 15.66GiB    0.10%     11.3kB / 0B       58.3MB / 11MB    7
Dec 24 03:17:19 CONTAINER ID   NAME                    CPU %     MEM USAGE / LIMIT     MEM %     NET I/O           BLOCK I/O        PIDS
Dec 24 03:17:19 fd386681503c   prov_aic_janusgraph_1   0.14%     751.9MiB / 15.66GiB   4.69%     3.72MB / 1.73MB   81.9kB / 332kB   50
Dec 24 03:17:19 175a7162e018   portainer               0.02%     16.5MiB / 15.66GiB    0.10%     11.3kB / 0B       58.3MB / 11MB    7
Dec 24 03:17:23 CONTAINER ID   NAME                    CPU %     MEM USAGE / LIMIT     MEM %     NET I/O           BLOCK I/O        PIDS
Dec 24 03:17:23 fd386681503c   prov_aic_janusgraph_1   1.61%     751.9MiB / 15.66GiB   4.69%     3.91MB / 1.82MB   81.9kB / 332kB   50
Dec 24 03:17:23 175a7162e018   portainer               0.02%     16.5MiB / 15.66GiB    0.10%     11.3kB / 0B       58.3MB / 11MB    7
Dec 24 03:17:26 CONTAINER ID   NAME                    CPU %     MEM USAGE / LIMIT    MEM %     NET I/O           BLOCK I/O        PIDS
Dec 24 03:17:26 fd386681503c   prov_aic_janusgraph_1   16.55%    762MiB / 15.66GiB    4.75%     4.13MB / 1.93MB   81.9kB / 332kB   50
Dec 24 03:17:26 175a7162e018   portainer               0.00%     16.5MiB / 15.66GiB   0.10%     11.3kB / 0B       58.3MB / 11MB    7
Dec 24 03:17:30 CONTAINER ID   NAME                    CPU %     MEM USAGE / LIMIT     MEM %     NET I/O           BLOCK I/O        PIDS
Dec 24 03:17:30 fd386681503c   prov_aic_janusgraph_1   0.51%     761.9MiB / 15.66GiB   4.75%     4.14MB / 1.93MB   81.9kB / 332kB   50
Dec 24 03:17:30 175a7162e018   portainer               0.00%     16.5MiB / 15.66GiB    0.10%     11.3kB / 0B       58.3MB / 11MB    7
Dec 24 03:17:33 CONTAINER ID   NAME                    CPU %     MEM USAGE / LIMIT     MEM %     NET I/O           BLOCK I/O        PIDS
Dec 24 03:17:33 fd386681503c   prov_aic_janusgraph_1   0.12%     761.9MiB / 15.66GiB   4.75%     4.37MB / 2.04MB   81.9kB / 332kB   50
Dec 24 03:17:33 175a7162e018   portainer               0.12%     16.5MiB / 15.66GiB    0.10%     11.3kB / 0B       58.3MB / 11MB    7
Dec 24 03:17:37 CONTAINER ID   NAME                    CPU %     MEM USAGE / LIMIT     MEM %     NET I/O           BLOCK I/O        PIDS
Dec 24 03:17:37 fd386681503c   prov_aic_janusgraph_1   2.40%     761.9MiB / 15.66GiB   4.75%     4.59MB / 2.14MB   81.9kB / 332kB   50
Dec 24 03:17:37 175a7162e018   portainer               0.00%     16.5MiB / 15.66GiB    0.10%     11.3kB / 0B       58.3MB / 11MB    7
Dec 24 03:17:41 CONTAINER ID   NAME                    CPU %     MEM USAGE / LIMIT     MEM %     NET I/O           BLOCK I/O        PIDS
Dec 24 03:17:41 fd386681503c   prov_aic_janusgraph_1   30.61%    761.9MiB / 15.66GiB   4.75%     4.79MB / 2.24MB   81.9kB / 332kB   50
Dec 24 03:17:41 175a7162e018   portainer               0.00%     16.5MiB / 15.66GiB    0.10%     11.3kB / 0B       58.3MB / 11MB    7
Dec 24 03:17:44 CONTAINER ID   NAME                    CPU %     MEM USAGE / LIMIT     MEM %     NET I/O          BLOCK I/O        PIDS
Dec 24 03:17:44 fd386681503c   prov_aic_janusgraph_1   0.13%     761.9MiB / 15.66GiB   4.75%     4.8MB / 2.24MB   81.9kB / 332kB   50
Dec 24 03:17:44 175a7162e018   portainer               0.12%     16.5MiB / 15.66GiB    0.10%     11.3kB / 0B      58.3MB / 11MB    7
Dec 24 03:17:48 CONTAINER ID   NAME                    CPU %     MEM USAGE / LIMIT     MEM %     NET I/O           BLOCK I/O        PIDS
Dec 24 03:17:48 fd386681503c   prov_aic_janusgraph_1   0.11%     761.9MiB / 15.66GiB   4.75%     5.01MB / 2.34MB   81.9kB / 332kB   50
Dec 24 03:17:48 175a7162e018   portainer               0.00%     16.5MiB / 15.66GiB    0.10%     11.3kB / 0B       58.3MB / 11MB    7
Dec 24 03:17:51 CONTAINER ID   NAME                    CPU %     MEM USAGE / LIMIT     MEM %     NET I/O           BLOCK I/O        PIDS
Dec 24 03:17:51 fd386681503c   prov_aic_janusgraph_1   31.25%    761.9MiB / 15.66GiB   4.75%     5.19MB / 2.42MB   81.9kB / 332kB   50
Dec 24 03:17:51 175a7162e018   portainer               0.00%     16.5MiB / 15.66GiB    0.10%     11.3kB / 0B       58.3MB / 11MB    7
Dec 24 03:17:55 CONTAINER ID   NAME                    CPU %     MEM USAGE / LIMIT     MEM %     NET I/O           BLOCK I/O        PIDS
Dec 24 03:17:55 fd386681503c   prov_aic_janusgraph_1   34.10%    761.9MiB / 15.66GiB   4.75%     5.42MB / 2.53MB   81.9kB / 332kB   50
Dec 24 03:17:55 175a7162e018   portainer               0.00%     16.5MiB / 15.66GiB    0.10%     11.3kB / 0B       58.3MB / 11MB    7
Dec 24 03:17:59 CONTAINER ID   NAME                    CPU %     MEM USAGE / LIMIT     MEM %     NET I/O           BLOCK I/O        PIDS
Dec 24 03:17:59 fd386681503c   prov_aic_janusgraph_1   0.32%     761.9MiB / 15.66GiB   4.75%     5.43MB / 2.53MB   81.9kB / 332kB   50
Dec 24 03:17:59 175a7162e018   portainer               0.00%     16.5MiB / 15.66GiB    0.10%     11.3kB / 0B       58.3MB / 11MB    7
Dec 24 03:18:02 CONTAINER ID   NAME                    CPU %     MEM USAGE / LIMIT     MEM %     NET I/O          BLOCK I/O        PIDS
Dec 24 03:18:02 fd386681503c   prov_aic_janusgraph_1   2.96%     761.9MiB / 15.66GiB   4.75%     5.6MB / 2.61MB   81.9kB / 332kB   50
Dec 24 03:18:02 175a7162e018   portainer               0.00%     16.5MiB / 15.66GiB    0.10%     11.3kB / 0B      58.3MB / 11MB    7
Dec 24 03:18:06 CONTAINER ID   NAME                    CPU %     MEM USAGE / LIMIT     MEM %     NET I/O           BLOCK I/O        PIDS
Dec 24 03:18:06 fd386681503c   prov_aic_janusgraph_1   9.10%     761.9MiB / 15.66GiB   4.75%     5.82MB / 2.71MB   81.9kB / 332kB   50
Dec 24 03:18:06 175a7162e018   portainer               0.00%     16.5MiB / 15.66GiB    0.10%     11.3kB / 0B       58.3MB / 11MB    7
Dec 24 03:18:09 CONTAINER ID   NAME                    CPU %     MEM USAGE / LIMIT     MEM %     NET I/O           BLOCK I/O        PIDS
Dec 24 03:18:09 fd386681503c   prov_aic_janusgraph_1   20.56%    761.9MiB / 15.66GiB   4.75%     5.97MB / 2.79MB   81.9kB / 332kB   50
Dec 24 03:18:09 175a7162e018   portainer               0.02%     16.5MiB / 15.66GiB    0.10%     11.3kB / 0B       58.3MB / 11MB    7
Dec 24 03:18:13 CONTAINER ID   NAME                    CPU %     MEM USAGE / LIMIT     MEM %     NET I/O          BLOCK I/O        PIDS
Dec 24 03:18:13 fd386681503c   prov_aic_janusgraph_1   0.10%     761.9MiB / 15.66GiB   4.75%     6.01MB / 2.8MB   81.9kB / 332kB   50
Dec 24 03:18:13 175a7162e018   portainer               0.12%     16.5MiB / 15.66GiB    0.10%     11.3kB / 0B      58.3MB / 11MB    7
Dec 24 03:18:17 CONTAINER ID   NAME                    CPU %     MEM USAGE / LIMIT     MEM %     NET I/O           BLOCK I/O        PIDS
Dec 24 03:18:17 fd386681503c   prov_aic_janusgraph_1   5.31%     761.9MiB / 15.66GiB   4.75%     6.24MB / 2.91MB   81.9kB / 332kB   50
Dec 24 03:18:17 175a7162e018   portainer               0.00%     16.5MiB / 15.66GiB    0.10%     11.3kB / 0B       58.3MB / 11MB    7
Dec 24 03:18:20 CONTAINER ID   NAME                    CPU %     MEM USAGE / LIMIT     MEM %     NET I/O           BLOCK I/O        PIDS
Dec 24 03:18:20 fd386681503c   prov_aic_janusgraph_1   20.20%    761.9MiB / 15.66GiB   4.75%     6.37MB / 2.97MB   81.9kB / 332kB   50
Dec 24 03:18:20 175a7162e018   portainer               0.00%     16.5MiB / 15.66GiB    0.10%     11.3kB / 0B       58.3MB / 11MB    7
Dec 24 03:18:24 CONTAINER ID   NAME                    CPU %     MEM USAGE / LIMIT     MEM %     NET I/O           BLOCK I/O        PIDS
Dec 24 03:18:24 fd386681503c   prov_aic_janusgraph_1   0.33%     768.1MiB / 15.66GiB   4.79%     6.46MB / 3.01MB   81.9kB / 332kB   50
Dec 24 03:18:24 175a7162e018   portainer               0.11%     16.5MiB / 15.66GiB    0.10%     11.3kB / 0B       58.3MB / 11MB    7
Dec 24 03:18:27 CONTAINER ID   NAME                    CPU %     MEM USAGE / LIMIT     MEM %     NET I/O          BLOCK I/O        PIDS
Dec 24 03:18:27 fd386681503c   prov_aic_janusgraph_1   0.13%     806.2MiB / 15.66GiB   5.03%     6.65MB / 3.1MB   81.9kB / 332kB   50
Dec 24 03:18:27 175a7162e018   portainer               0.00%     16.5MiB / 15.66GiB    0.10%     11.3kB / 0B      58.3MB / 11MB    7
Dec 24 03:18:31 CONTAINER ID   NAME                    CPU %     MEM USAGE / LIMIT     MEM %     NET I/O           BLOCK I/O        PIDS
Dec 24 03:18:31 fd386681503c   prov_aic_janusgraph_1   23.63%    840.3MiB / 15.66GiB   5.24%     6.88MB / 3.21MB   81.9kB / 332kB   50
Dec 24 03:18:31 175a7162e018   portainer               0.00%     16.5MiB / 15.66GiB    0.10%     11.3kB / 0B       58.3MB / 11MB    7
Dec 24 03:18:35 CONTAINER ID   NAME                    CPU %     MEM USAGE / LIMIT     MEM %     NET I/O           BLOCK I/O         PIDS
Dec 24 03:18:35 fd386681503c   prov_aic_janusgraph_1   54.24%    858.7MiB / 15.66GiB   5.35%     7.13MB / 3.33MB   81.9kB / 332kB    50
Dec 24 03:18:35 175a7162e018   portainer               1.33%     16.99MiB / 15.66GiB   0.11%     11.3kB / 0B       58.3MB / 11.2MB   7
Dec 24 03:18:38 CONTAINER ID   NAME                    CPU %     MEM USAGE / LIMIT     MEM %     NET I/O           BLOCK I/O         PIDS
Dec 24 03:18:38 fd386681503c   prov_aic_janusgraph_1   0.10%     858.6MiB / 15.66GiB   5.35%     7.15MB / 3.34MB   81.9kB / 332kB    50
Dec 24 03:18:38 175a7162e018   portainer               0.00%     16.99MiB / 15.66GiB   0.11%     11.3kB / 0B       58.3MB / 11.2MB   7
Dec 24 03:18:42 CONTAINER ID   NAME                    CPU %     MEM USAGE / LIMIT     MEM %     NET I/O          BLOCK I/O         PIDS
Dec 24 03:18:42 fd386681503c   prov_aic_janusgraph_1   0.30%     858.6MiB / 15.66GiB   5.35%     7.3MB / 3.41MB   81.9kB / 332kB    50
Dec 24 03:18:42 175a7162e018   portainer               0.00%     16.99MiB / 15.66GiB   0.11%     11.3kB / 0B      58.3MB / 11.2MB   7
Dec 24 03:18:45 CONTAINER ID   NAME                    CPU %     MEM USAGE / LIMIT     MEM %     NET I/O           BLOCK I/O         PIDS
Dec 24 03:18:45 fd386681503c   prov_aic_janusgraph_1   2.52%     858.6MiB / 15.66GiB   5.35%     7.53MB / 3.51MB   81.9kB / 332kB    50
Dec 24 03:18:45 175a7162e018   portainer               0.00%     17MiB / 15.66GiB      0.11%     11.3kB / 0B       58.3MB / 11.2MB   7
Dec 24 03:18:49 CONTAINER ID   NAME                    CPU %     MEM USAGE / LIMIT     MEM %     NET I/O          BLOCK I/O         PIDS
Dec 24 03:18:49 fd386681503c   prov_aic_janusgraph_1   28.03%    858.6MiB / 15.66GiB   5.35%     7.7MB / 3.59MB   81.9kB / 332kB    50
Dec 24 03:18:49 175a7162e018   portainer               0.02%     17MiB / 15.66GiB      0.11%     11.3kB / 0B      58.3MB / 11.2MB   7
Dec 24 03:18:53 CONTAINER ID   NAME                    CPU %     MEM USAGE / LIMIT     MEM %     NET I/O          BLOCK I/O         PIDS
Dec 24 03:18:53 fd386681503c   prov_aic_janusgraph_1   2.43%     858.6MiB / 15.66GiB   5.35%     7.72MB / 3.6MB   81.9kB / 332kB    50
Dec 24 03:18:53 175a7162e018   portainer               0.00%     17MiB / 15.66GiB      0.11%     11.3kB / 0B      58.3MB / 11.2MB   7
Dec 24 03:18:56 CONTAINER ID   NAME                    CPU %     MEM USAGE / LIMIT     MEM %     NET I/O          BLOCK I/O         PIDS
Dec 24 03:18:56 fd386681503c   prov_aic_janusgraph_1   0.30%     858.6MiB / 15.66GiB   5.35%     7.93MB / 3.7MB   81.9kB / 332kB    50
Dec 24 03:18:56 175a7162e018   portainer               0.00%     17MiB / 15.66GiB      0.11%     11.3kB / 0B      58.3MB / 11.2MB   7
Dec 24 03:19:00 CONTAINER ID   NAME                    CPU %     MEM USAGE / LIMIT     MEM %     NET I/O           BLOCK I/O         PIDS
Dec 24 03:19:00 fd386681503c   prov_aic_janusgraph_1   2.88%     858.6MiB / 15.66GiB   5.35%     8.11MB / 3.78MB   81.9kB / 332kB    50
Dec 24 03:19:00 175a7162e018   portainer               0.00%     17MiB / 15.66GiB      0.11%     11.3kB / 0B       58.3MB / 11.2MB   7
Dec 24 03:19:03 CONTAINER ID   NAME                    CPU %     MEM USAGE / LIMIT     MEM %     NET I/O           BLOCK I/O         PIDS
Dec 24 03:19:03 fd386681503c   prov_aic_janusgraph_1   17.76%    858.6MiB / 15.66GiB   5.35%     8.24MB / 3.84MB   81.9kB / 332kB    50
Dec 24 03:19:03 175a7162e018   portainer               0.00%     17MiB / 15.66GiB      0.11%     11.3kB / 0B       58.3MB / 11.2MB   7
Dec 24 03:19:07 CONTAINER ID   NAME                    CPU %     MEM USAGE / LIMIT     MEM %     NET I/O           BLOCK I/O         PIDS
Dec 24 03:19:07 fd386681503c   prov_aic_janusgraph_1   0.11%     858.6MiB / 15.66GiB   5.35%     8.35MB / 3.89MB   81.9kB / 332kB    50
Dec 24 03:19:07 175a7162e018   portainer               0.00%     17MiB / 15.66GiB      0.11%     11.3kB / 0B       58.3MB / 11.2MB   7
Dec 24 03:19:11 CONTAINER ID   NAME                    CPU %     MEM USAGE / LIMIT     MEM %     NET I/O           BLOCK I/O         PIDS
Dec 24 03:19:11 fd386681503c   prov_aic_janusgraph_1   2.22%     858.6MiB / 15.66GiB   5.35%     8.53MB / 3.98MB   81.9kB / 332kB    50
Dec 24 03:19:11 175a7162e018   portainer               0.00%     17MiB / 15.66GiB      0.11%     11.3kB / 0B       58.3MB / 11.2MB   7
Dec 24 03:19:14 CONTAINER ID   NAME                    CPU %     MEM USAGE / LIMIT     MEM %     NET I/O           BLOCK I/O         PIDS
Dec 24 03:19:14 fd386681503c   prov_aic_janusgraph_1   16.10%    858.6MiB / 15.66GiB   5.35%     8.64MB / 4.03MB   81.9kB / 332kB    50
Dec 24 03:19:14 175a7162e018   portainer               0.00%     17MiB / 15.66GiB      0.11%     11.3kB / 0B       58.3MB / 11.2MB   7
Dec 24 03:19:18 CONTAINER ID   NAME                    CPU %     MEM USAGE / LIMIT     MEM %     NET I/O           BLOCK I/O         PIDS
Dec 24 03:19:18 fd386681503c   prov_aic_janusgraph_1   2.44%     858.6MiB / 15.66GiB   5.35%     8.76MB / 4.08MB   81.9kB / 332kB    50
Dec 24 03:19:18 175a7162e018   portainer               0.00%     17MiB / 15.66GiB      0.11%     11.3kB / 0B       58.3MB / 11.2MB   7
Dec 24 03:19:21 CONTAINER ID   NAME                    CPU %     MEM USAGE / LIMIT     MEM %     NET I/O           BLOCK I/O         PIDS
Dec 24 03:19:21 fd386681503c   prov_aic_janusgraph_1   0.10%     858.6MiB / 15.66GiB   5.35%     8.94MB / 4.17MB   81.9kB / 332kB    50
Dec 24 03:19:21 175a7162e018   portainer               0.00%     17MiB / 15.66GiB      0.11%     11.3kB / 0B       58.3MB / 11.2MB   7
Dec 24 03:19:25 CONTAINER ID   NAME                    CPU %     MEM USAGE / LIMIT     MEM %     NET I/O           BLOCK I/O         PIDS
Dec 24 03:19:25 fd386681503c   prov_aic_janusgraph_1   2.41%     858.6MiB / 15.66GiB   5.35%     9.16MB / 4.28MB   81.9kB / 332kB    50
Dec 24 03:19:25 175a7162e018   portainer               0.00%     17MiB / 15.66GiB      0.11%     11.3kB / 0B       58.3MB / 11.2MB   7
Dec 24 03:19:29 CONTAINER ID   NAME                    CPU %     MEM USAGE / LIMIT     MEM %     NET I/O           BLOCK I/O         PIDS
Dec 24 03:19:29 fd386681503c   prov_aic_janusgraph_1   24.84%    858.6MiB / 15.66GiB   5.35%     9.33MB / 4.35MB   81.9kB / 332kB    50
Dec 24 03:19:29 175a7162e018   portainer               0.02%     17MiB / 15.66GiB      0.11%     11.3kB / 0B       58.3MB / 11.2MB   7
Dec 24 03:19:32 CONTAINER ID   NAME                    CPU %     MEM USAGE / LIMIT     MEM %     NET I/O           BLOCK I/O         PIDS
Dec 24 03:19:32 fd386681503c   prov_aic_janusgraph_1   0.10%     858.6MiB / 15.66GiB   5.35%     9.34MB / 4.36MB   81.9kB / 332kB    50
Dec 24 03:19:32 175a7162e018   portainer               0.00%     17MiB / 15.66GiB      0.11%     11.3kB / 0B       58.3MB / 11.2MB   7
Dec 24 03:19:36 CONTAINER ID   NAME                    CPU %     MEM USAGE / LIMIT     MEM %     NET I/O           BLOCK I/O         PIDS
Dec 24 03:19:36 fd386681503c   prov_aic_janusgraph_1   0.27%     870.6MiB / 15.66GiB   5.43%     9.56MB / 4.46MB   81.9kB / 332kB    50
Dec 24 03:19:36 175a7162e018   portainer               0.00%     17MiB / 15.66GiB      0.11%     11.3kB / 0B       58.3MB / 11.2MB   7
Dec 24 03:19:39 CONTAINER ID   NAME                    CPU %     MEM USAGE / LIMIT     MEM %     NET I/O           BLOCK I/O         PIDS
Dec 24 03:19:39 fd386681503c   prov_aic_janusgraph_1   2.53%     870.6MiB / 15.66GiB   5.43%     9.74MB / 4.54MB   81.9kB / 332kB    50
Dec 24 03:19:39 175a7162e018   portainer               0.01%     17MiB / 15.66GiB      0.11%     11.3kB / 0B       58.3MB / 11.2MB   7
Dec 24 03:19:43 CONTAINER ID   NAME                    CPU %     MEM USAGE / LIMIT     MEM %     NET I/O           BLOCK I/O         PIDS
Dec 24 03:19:43 fd386681503c   prov_aic_janusgraph_1   40.18%    874.8MiB / 15.66GiB   5.45%     9.97MB / 4.65MB   81.9kB / 332kB    50
Dec 24 03:19:43 175a7162e018   portainer               0.00%     17MiB / 15.66GiB      0.11%     11.3kB / 0B       58.3MB / 11.2MB   7
Dec 24 03:19:47 CONTAINER ID   NAME                    CPU %     MEM USAGE / LIMIT     MEM %     NET I/O           BLOCK I/O         PIDS
Dec 24 03:19:47 fd386681503c   prov_aic_janusgraph_1   0.11%     874.6MiB / 15.66GiB   5.45%     9.98MB / 4.66MB   81.9kB / 332kB    50
Dec 24 03:19:47 175a7162e018   portainer               0.00%     17MiB / 15.66GiB      0.11%     11.3kB / 0B       58.3MB / 11.2MB   7
Dec 24 03:19:50 CONTAINER ID   NAME                    CPU %     MEM USAGE / LIMIT     MEM %     NET I/O           BLOCK I/O         PIDS
Dec 24 03:19:50 fd386681503c   prov_aic_janusgraph_1   0.25%     874.6MiB / 15.66GiB   5.45%     10.1MB / 4.73MB   81.9kB / 332kB    50
Dec 24 03:19:50 175a7162e018   portainer               0.00%     17MiB / 15.66GiB      0.11%     11.3kB / 0B       58.3MB / 11.2MB   7
Dec 24 03:19:54 CONTAINER ID   NAME                    CPU %     MEM USAGE / LIMIT     MEM %     NET I/O           BLOCK I/O         PIDS
Dec 24 03:19:54 fd386681503c   prov_aic_janusgraph_1   5.30%     874.6MiB / 15.66GiB   5.45%     10.4MB / 4.84MB   81.9kB / 332kB    50
Dec 24 03:19:54 175a7162e018   portainer               0.21%     17.12MiB / 15.66GiB   0.11%     11.3kB / 0B       58.3MB / 11.2MB   7
Dec 24 03:19:57 CONTAINER ID   NAME                    CPU %     MEM USAGE / LIMIT     MEM %     NET I/O          BLOCK I/O         PIDS
Dec 24 03:19:57 fd386681503c   prov_aic_janusgraph_1   18.10%    874.6MiB / 15.66GiB   5.45%     10.5MB / 4.9MB   81.9kB / 332kB    50
Dec 24 03:19:57 175a7162e018   portainer               0.00%     17.03MiB / 15.66GiB   0.11%     11.3kB / 0B      58.3MB / 11.2MB   7
Dec 24 03:20:01 CONTAINER ID   NAME                    CPU %     MEM USAGE / LIMIT     MEM %     NET I/O           BLOCK I/O         PIDS
Dec 24 03:20:01 fd386681503c   prov_aic_janusgraph_1   0.10%     874.6MiB / 15.66GiB   5.45%     10.6MB / 4.92MB   81.9kB / 332kB    50
Dec 24 03:20:01 175a7162e018   portainer               0.00%     17.03MiB / 15.66GiB   0.11%     11.3kB / 0B       58.3MB / 11.2MB   7
Dec 24 03:20:05 CONTAINER ID   NAME                    CPU %     MEM USAGE / LIMIT     MEM %     NET I/O           BLOCK I/O         PIDS
Dec 24 03:20:05 fd386681503c   prov_aic_janusgraph_1   1.65%     874.6MiB / 15.66GiB   5.45%     10.8MB / 5.04MB   81.9kB / 332kB    50
Dec 24 03:20:05 175a7162e018   portainer               0.10%     17.03MiB / 15.66GiB   0.11%     11.3kB / 0B       58.3MB / 11.2MB   7
Dec 24 03:20:08 CONTAINER ID   NAME                    CPU %     MEM USAGE / LIMIT     MEM %     NET I/O         BLOCK I/O         PIDS
Dec 24 03:20:08 fd386681503c   prov_aic_janusgraph_1   13.54%    874.6MiB / 15.66GiB   5.45%     11MB / 5.11MB   81.9kB / 332kB    50
Dec 24 03:20:08 175a7162e018   portainer               0.00%     17.03MiB / 15.66GiB   0.11%     11.3kB / 0B     58.3MB / 11.2MB   7
Dec 24 03:20:12 CONTAINER ID   NAME                    CPU %     MEM USAGE / LIMIT     MEM %     NET I/O         BLOCK I/O         PIDS
Dec 24 03:20:12 fd386681503c   prov_aic_janusgraph_1   0.10%     874.6MiB / 15.66GiB   5.45%     11MB / 5.12MB   81.9kB / 332kB    50
Dec 24 03:20:12 175a7162e018   portainer               0.00%     17.03MiB / 15.66GiB   0.11%     11.3kB / 0B     58.3MB / 11.2MB   7
Dec 24 03:20:15 CONTAINER ID   NAME                    CPU %     MEM USAGE / LIMIT     MEM %     NET I/O           BLOCK I/O         PIDS
Dec 24 03:20:15 fd386681503c   prov_aic_janusgraph_1   2.37%     874.6MiB / 15.66GiB   5.45%     11.2MB / 5.23MB   81.9kB / 332kB    50
Dec 24 03:20:15 175a7162e018   portainer               0.00%     17.03MiB / 15.66GiB   0.11%     11.3kB / 0B       58.3MB / 11.2MB   7
Dec 24 03:20:19 CONTAINER ID   NAME                    CPU %     MEM USAGE / LIMIT     MEM %     NET I/O           BLOCK I/O         PIDS
Dec 24 03:20:19 fd386681503c   prov_aic_janusgraph_1   0.39%     874.6MiB / 15.66GiB   5.45%     11.4MB / 5.31MB   81.9kB / 332kB    50
Dec 24 03:20:19 175a7162e018   portainer               0.02%     17.03MiB / 15.66GiB   0.11%     11.3kB / 0B       58.3MB / 11.2MB   7
Dec 24 03:20:23 CONTAINER ID   NAME                    CPU %     MEM USAGE / LIMIT     MEM %     NET I/O           BLOCK I/O         PIDS
Dec 24 03:20:23 fd386681503c   prov_aic_janusgraph_1   36.24%    874.6MiB / 15.66GiB   5.45%     11.6MB / 5.41MB   81.9kB / 332kB    50
Dec 24 03:20:23 175a7162e018   portainer               0.00%     17.03MiB / 15.66GiB   0.11%     11.3kB / 0B       58.3MB / 11.2MB   7
Dec 24 03:20:26 CONTAINER ID   NAME                    CPU %     MEM USAGE / LIMIT     MEM %     NET I/O           BLOCK I/O         PIDS
Dec 24 03:20:26 fd386681503c   prov_aic_janusgraph_1   0.09%     874.6MiB / 15.66GiB   5.45%     11.6MB / 5.42MB   81.9kB / 332kB    50
Dec 24 03:20:26 175a7162e018   portainer               0.00%     17.03MiB / 15.66GiB   0.11%     11.3kB / 0B       58.3MB / 11.2MB   7
Dec 24 03:20:30 CONTAINER ID   NAME                    CPU %     MEM USAGE / LIMIT     MEM %     NET I/O          BLOCK I/O         PIDS
Dec 24 03:20:30 fd386681503c   prov_aic_janusgraph_1   0.36%     874.6MiB / 15.66GiB   5.45%     11.8MB / 5.5MB   81.9kB / 332kB    50
Dec 24 03:20:30 175a7162e018   portainer               0.00%     17.03MiB / 15.66GiB   0.11%     11.3kB / 0B      58.3MB / 11.2MB   7
Dec 24 03:20:33 CONTAINER ID   NAME                    CPU %     MEM USAGE / LIMIT     MEM %     NET I/O        BLOCK I/O         PIDS
Dec 24 03:20:33 fd386681503c   prov_aic_janusgraph_1   33.84%    874.6MiB / 15.66GiB   5.45%     12MB / 5.6MB   81.9kB / 332kB    50
Dec 24 03:20:33 175a7162e018   portainer               0.08%     17.03MiB / 15.66GiB   0.11%     11.3kB / 0B    58.3MB / 11.2MB   7
Dec 24 03:20:37 CONTAINER ID   NAME                    CPU %     MEM USAGE / LIMIT     MEM %     NET I/O         BLOCK I/O         PIDS
Dec 24 03:20:37 fd386681503c   prov_aic_janusgraph_1   0.10%     874.6MiB / 15.66GiB   5.45%     12MB / 5.61MB   81.9kB / 332kB    50
Dec 24 03:20:37 175a7162e018   portainer               0.00%     17.03MiB / 15.66GiB   0.11%     11.3kB / 0B     58.3MB / 11.2MB   7
Dec 24 03:20:40 CONTAINER ID   NAME                    CPU %     MEM USAGE / LIMIT     MEM %     NET I/O           BLOCK I/O         PIDS
Dec 24 03:20:40 fd386681503c   prov_aic_janusgraph_1   0.11%     874.6MiB / 15.66GiB   5.45%     12.2MB / 5.69MB   81.9kB / 332kB    50
Dec 24 03:20:40 175a7162e018   portainer               0.00%     17.03MiB / 15.66GiB   0.11%     11.3kB / 0B       58.3MB / 11.2MB   7
Dec 24 03:20:43 CONTAINER ID   NAME                    CPU %     MEM USAGE / LIMIT     MEM %     NET I/O          BLOCK I/O         PIDS
Dec 24 03:20:43 fd386681503c   prov_aic_janusgraph_1   3.38%     874.6MiB / 15.66GiB   5.45%     12.4MB / 5.8MB   81.9kB / 332kB    50
Dec 24 03:20:43 175a7162e018   portainer               0.00%     17.03MiB / 15.66GiB   0.11%     11.3kB / 0B      58.3MB / 11.2MB   7
Dec 24 03:20:47 CONTAINER ID   NAME                    CPU %     MEM USAGE / LIMIT     MEM %     NET I/O           BLOCK I/O         PIDS
Dec 24 03:20:47 fd386681503c   prov_aic_janusgraph_1   24.44%    874.6MiB / 15.66GiB   5.45%     12.6MB / 5.87MB   81.9kB / 332kB    50
Dec 24 03:20:47 175a7162e018   portainer               0.00%     17.03MiB / 15.66GiB   0.11%     11.3kB / 0B       58.3MB / 11.2MB   7
Dec 24 03:20:50 CONTAINER ID   NAME                    CPU %     MEM USAGE / LIMIT     MEM %     NET I/O           BLOCK I/O         PIDS
Dec 24 03:20:50 fd386681503c   prov_aic_janusgraph_1   2.39%     874.6MiB / 15.66GiB   5.45%     12.6MB / 5.88MB   81.9kB / 332kB    50
Dec 24 03:20:50 175a7162e018   portainer               0.00%     17.03MiB / 15.66GiB   0.11%     11.3kB / 0B       58.3MB / 11.2MB   7
Dec 24 03:20:54 CONTAINER ID   NAME                    CPU %     MEM USAGE / LIMIT     MEM %     NET I/O           BLOCK I/O         PIDS
Dec 24 03:20:54 fd386681503c   prov_aic_janusgraph_1   0.33%     876.6MiB / 15.66GiB   5.47%     12.8MB / 5.98MB   81.9kB / 332kB    50
Dec 24 03:20:54 175a7162e018   portainer               0.11%     17.03MiB / 15.66GiB   0.11%     11.3kB / 0B       58.3MB / 11.2MB   7
Dec 24 03:20:57 CONTAINER ID   NAME                    CPU %     MEM USAGE / LIMIT     MEM %     NET I/O         BLOCK I/O         PIDS
Dec 24 03:20:57 fd386681503c   prov_aic_janusgraph_1   4.65%     876.6MiB / 15.66GiB   5.47%     13MB / 6.07MB   81.9kB / 332kB    50
Dec 24 03:20:57 175a7162e018   portainer               0.00%     17.03MiB / 15.66GiB   0.11%     11.3kB / 0B     58.3MB / 11.2MB   7
Dec 24 03:21:01 CONTAINER ID   NAME                    CPU %     MEM USAGE / LIMIT     MEM %     NET I/O         BLOCK I/O         PIDS
Dec 24 03:21:01 fd386681503c   prov_aic_janusgraph_1   0.29%     876.6MiB / 15.66GiB   5.47%     13MB / 6.07MB   81.9kB / 332kB    50
Dec 24 03:21:01 175a7162e018   portainer               0.00%     17.03MiB / 15.66GiB   0.11%     11.3kB / 0B     58.3MB / 11.2MB   7
Dec 24 03:21:05 CONTAINER ID   NAME                    CPU %     MEM USAGE / LIMIT     MEM %     NET I/O           BLOCK I/O         PIDS
Dec 24 03:21:05 fd386681503c   prov_aic_janusgraph_1   0.10%     876.6MiB / 15.66GiB   5.47%     13.3MB / 6.18MB   81.9kB / 332kB    50
Dec 24 03:21:05 175a7162e018   portainer               0.09%     17.03MiB / 15.66GiB   0.11%     11.3kB / 0B       58.3MB / 11.2MB   7
Dec 24 03:21:08 CONTAINER ID   NAME                    CPU %     MEM USAGE / LIMIT     MEM %     NET I/O           BLOCK I/O         PIDS
Dec 24 03:21:08 fd386681503c   prov_aic_janusgraph_1   0.29%     876.6MiB / 15.66GiB   5.47%     13.4MB / 6.26MB   81.9kB / 332kB    50
Dec 24 03:21:08 175a7162e018   portainer               0.00%     17.03MiB / 15.66GiB   0.11%     11.3kB / 0B       58.3MB / 11.2MB   7
Dec 24 03:21:11 CONTAINER ID   NAME                    CPU %     MEM USAGE / LIMIT     MEM %     NET I/O           BLOCK I/O         PIDS
Dec 24 03:21:11 fd386681503c   prov_aic_janusgraph_1   10.60%    876.6MiB / 15.66GiB   5.47%     13.5MB / 6.29MB   81.9kB / 332kB    50
Dec 24 03:21:11 175a7162e018   portainer               0.00%     17.03MiB / 15.66GiB   0.11%     11.3kB / 0B       58.3MB / 11.2MB   7
Dec 24 03:21:14 CONTAINER ID   NAME                    CPU %     MEM USAGE / LIMIT     MEM %     NET I/O           BLOCK I/O         PIDS
Dec 24 03:21:14 fd386681503c   prov_aic_janusgraph_1   2.43%     876.7MiB / 15.66GiB   5.47%     13.7MB / 6.37MB   81.9kB / 332kB    50
Dec 24 03:21:14 175a7162e018   portainer               0.13%     17.03MiB / 15.66GiB   0.11%     11.3kB / 0B       58.3MB / 11.2MB   7
Dec 24 03:21:18 CONTAINER ID   NAME                    CPU %     MEM USAGE / LIMIT     MEM %     NET I/O           BLOCK I/O         PIDS
Dec 24 03:21:18 fd386681503c   prov_aic_janusgraph_1   4.88%     876.7MiB / 15.66GiB   5.47%     13.8MB / 6.45MB   81.9kB / 332kB    50
Dec 24 03:21:18 175a7162e018   portainer               0.02%     17.03MiB / 15.66GiB   0.11%     11.3kB / 0B       58.3MB / 11.2MB   7
Dec 24 03:21:22 CONTAINER ID   NAME                    CPU %     MEM USAGE / LIMIT     MEM %     NET I/O           BLOCK I/O         PIDS
Dec 24 03:21:22 fd386681503c   prov_aic_janusgraph_1   10.84%    876.7MiB / 15.66GiB   5.47%     13.9MB / 6.48MB   81.9kB / 332kB    50
Dec 24 03:21:22 175a7162e018   portainer               0.00%     17.03MiB / 15.66GiB   0.11%     11.3kB / 0B       58.3MB / 11.2MB   7
Dec 24 03:21:25 CONTAINER ID   NAME                    CPU %     MEM USAGE / LIMIT     MEM %     NET I/O           BLOCK I/O         PIDS
Dec 24 03:21:25 fd386681503c   prov_aic_janusgraph_1   0.13%     876.7MiB / 15.66GiB   5.47%     14.1MB / 6.56MB   81.9kB / 332kB    50
Dec 24 03:21:25 175a7162e018   portainer               0.00%     17.03MiB / 15.66GiB   0.11%     11.3kB / 0B       58.3MB / 11.2MB   7
Dec 24 03:21:29 CONTAINER ID   NAME                    CPU %     MEM USAGE / LIMIT     MEM %     NET I/O           BLOCK I/O         PIDS
Dec 24 03:21:29 fd386681503c   prov_aic_janusgraph_1   2.42%     876.7MiB / 15.66GiB   5.47%     14.2MB / 6.64MB   81.9kB / 332kB    50
Dec 24 03:21:29 175a7162e018   portainer               0.02%     17.03MiB / 15.66GiB   0.11%     11.3kB / 0B       58.3MB / 11.2MB   7
Dec 24 03:21:32 CONTAINER ID   NAME                    CPU %     MEM USAGE / LIMIT     MEM %     NET I/O           BLOCK I/O         PIDS
Dec 24 03:21:32 fd386681503c   prov_aic_janusgraph_1   0.24%     876.7MiB / 15.66GiB   5.47%     14.5MB / 6.75MB   81.9kB / 332kB    50
Dec 24 03:21:32 175a7162e018   portainer               0.00%     17.03MiB / 15.66GiB   0.11%     11.3kB / 0B       58.3MB / 11.2MB   7
Dec 24 03:21:36 CONTAINER ID   NAME                    CPU %     MEM USAGE / LIMIT     MEM %     NET I/O           BLOCK I/O         PIDS
Dec 24 03:21:36 fd386681503c   prov_aic_janusgraph_1   26.01%    876.7MiB / 15.66GiB   5.47%     14.6MB / 6.82MB   81.9kB / 332kB    50
Dec 24 03:21:36 175a7162e018   portainer               0.00%     17.03MiB / 15.66GiB   0.11%     11.3kB / 0B       58.3MB / 11.2MB   7
Dec 24 03:21:39 CONTAINER ID   NAME                    CPU %     MEM USAGE / LIMIT     MEM %     NET I/O           BLOCK I/O         PIDS
Dec 24 03:21:39 fd386681503c   prov_aic_janusgraph_1   0.15%     876.7MiB / 15.66GiB   5.47%     14.6MB / 6.83MB   81.9kB / 332kB    50
Dec 24 03:21:39 175a7162e018   portainer               0.00%     17.03MiB / 15.66GiB   0.11%     11.3kB / 0B       58.3MB / 11.2MB   7
Dec 24 03:21:42 CONTAINER ID   NAME                    CPU %     MEM USAGE / LIMIT     MEM %     NET I/O           BLOCK I/O         PIDS
Dec 24 03:21:42 fd386681503c   prov_aic_janusgraph_1   2.56%     876.7MiB / 15.66GiB   5.47%     14.9MB / 6.94MB   81.9kB / 332kB    50
Dec 24 03:21:42 175a7162e018   portainer               0.00%     17.03MiB / 15.66GiB   0.11%     11.3kB / 0B       58.3MB / 11.2MB   7
Dec 24 03:21:46 CONTAINER ID   NAME                    CPU %     MEM USAGE / LIMIT     MEM %     NET I/O           BLOCK I/O         PIDS
Dec 24 03:21:46 fd386681503c   prov_aic_janusgraph_1   25.18%    876.7MiB / 15.66GiB   5.47%     15.1MB / 7.02MB   81.9kB / 332kB    50
Dec 24 03:21:46 175a7162e018   portainer               0.00%     17.03MiB / 15.66GiB   0.11%     11.3kB / 0B       58.3MB / 11.2MB   7
Dec 24 03:21:49 CONTAINER ID   NAME                    CPU %     MEM USAGE / LIMIT     MEM %     NET I/O           BLOCK I/O         PIDS
Dec 24 03:21:49 fd386681503c   prov_aic_janusgraph_1   0.10%     876.7MiB / 15.66GiB   5.47%     15.1MB / 7.03MB   81.9kB / 332kB    50
Dec 24 03:21:49 175a7162e018   portainer               0.02%     17.03MiB / 15.66GiB   0.11%     11.3kB / 0B       58.3MB / 11.2MB   7
Dec 24 03:21:53 CONTAINER ID   NAME                    CPU %     MEM USAGE / LIMIT     MEM %     NET I/O           BLOCK I/O         PIDS
Dec 24 03:21:53 fd386681503c   prov_aic_janusgraph_1   0.70%     876.7MiB / 15.66GiB   5.47%     15.3MB / 7.13MB   81.9kB / 332kB    50
Dec 24 03:21:53 175a7162e018   portainer               0.11%     17.03MiB / 15.66GiB   0.11%     11.3kB / 0B       58.3MB / 11.2MB   7
Dec 24 03:21:57 CONTAINER ID   NAME                    CPU %     MEM USAGE / LIMIT     MEM %     NET I/O          BLOCK I/O         PIDS
Dec 24 03:21:57 fd386681503c   prov_aic_janusgraph_1   29.85%    878.7MiB / 15.66GiB   5.48%     15.5MB / 7.2MB   81.9kB / 332kB    50
Dec 24 03:21:57 175a7162e018   portainer               0.00%     17.03MiB / 15.66GiB   0.11%     11.3kB / 0B      58.3MB / 11.2MB   7
Dec 24 03:22:00 CONTAINER ID   NAME                    CPU %     MEM USAGE / LIMIT     MEM %     NET I/O           BLOCK I/O         PIDS
Dec 24 03:22:00 fd386681503c   prov_aic_janusgraph_1   22.36%    878.7MiB / 15.66GiB   5.48%     15.6MB / 7.28MB   81.9kB / 332kB    50
Dec 24 03:22:00 175a7162e018   portainer               0.00%     17.03MiB / 15.66GiB   0.11%     11.3kB / 0B       58.3MB / 11.2MB   7
Dec 24 03:22:04 CONTAINER ID   NAME                    CPU %     MEM USAGE / LIMIT     MEM %     NET I/O           BLOCK I/O         PIDS
Dec 24 03:22:04 fd386681503c   prov_aic_janusgraph_1   0.31%     878.7MiB / 15.66GiB   5.48%     15.7MB / 7.32MB   81.9kB / 332kB    50
Dec 24 03:22:04 175a7162e018   portainer               2.31%     16.5MiB / 15.66GiB    0.10%     11.3kB / 0B       58.3MB / 11.2MB   7
Dec 24 03:22:07 CONTAINER ID   NAME                    CPU %     MEM USAGE / LIMIT     MEM %     NET I/O          BLOCK I/O         PIDS
Dec 24 03:22:07 fd386681503c   prov_aic_janusgraph_1   0.12%     878.7MiB / 15.66GiB   5.48%     15.9MB / 7.4MB   81.9kB / 332kB    50
Dec 24 03:22:07 175a7162e018   portainer               0.00%     16.5MiB / 15.66GiB    0.10%     11.3kB / 0B      58.3MB / 11.2MB   7
Dec 24 03:22:11 CONTAINER ID   NAME                    CPU %     MEM USAGE / LIMIT     MEM %     NET I/O           BLOCK I/O         PIDS
Dec 24 03:22:11 fd386681503c   prov_aic_janusgraph_1   13.98%    878.7MiB / 15.66GiB   5.48%     16.1MB / 7.51MB   81.9kB / 332kB    50
Dec 24 03:22:11 175a7162e018   portainer               0.00%     16.5MiB / 15.66GiB    0.10%     11.3kB / 0B       58.3MB / 11.2MB   7
Dec 24 03:22:15 CONTAINER ID   NAME                    CPU %     MEM USAGE / LIMIT     MEM %     NET I/O           BLOCK I/O         PIDS
Dec 24 03:22:15 fd386681503c   prov_aic_janusgraph_1   2.51%     878.7MiB / 15.66GiB   5.48%     16.1MB / 7.51MB   81.9kB / 332kB    50
Dec 24 03:22:15 175a7162e018   portainer               0.00%     16.5MiB / 15.66GiB    0.10%     11.3kB / 0B       58.3MB / 11.2MB   7
Dec 24 03:22:18 CONTAINER ID   NAME                    CPU %     MEM USAGE / LIMIT     MEM %     NET I/O           BLOCK I/O         PIDS
Dec 24 03:22:18 fd386681503c   prov_aic_janusgraph_1   0.11%     878.7MiB / 15.66GiB   5.48%     16.3MB / 7.59MB   81.9kB / 332kB    50
Dec 24 03:22:18 175a7162e018   portainer               0.00%     16.5MiB / 15.66GiB    0.10%     11.3kB / 0B       58.3MB / 11.2MB   7
Dec 24 03:22:22 CONTAINER ID   NAME                    CPU %     MEM USAGE / LIMIT     MEM %     NET I/O          BLOCK I/O         PIDS
Dec 24 03:22:22 fd386681503c   prov_aic_janusgraph_1   2.58%     878.7MiB / 15.66GiB   5.48%     16.5MB / 7.7MB   81.9kB / 332kB    50
Dec 24 03:22:22 175a7162e018   portainer               0.00%     16.5MiB / 15.66GiB    0.10%     11.3kB / 0B      58.3MB / 11.2MB   7
Dec 24 03:22:25 CONTAINER ID   NAME                    CPU %     MEM USAGE / LIMIT     MEM %     NET I/O           BLOCK I/O         PIDS
Dec 24 03:22:25 fd386681503c   prov_aic_janusgraph_1   19.41%    878.7MiB / 15.66GiB   5.48%     16.7MB / 7.78MB   81.9kB / 332kB    50
Dec 24 03:22:25 175a7162e018   portainer               0.00%     16.5MiB / 15.66GiB    0.10%     11.3kB / 0B       58.3MB / 11.2MB   7
Dec 24 03:22:29 CONTAINER ID   NAME                    CPU %     MEM USAGE / LIMIT     MEM %     NET I/O           BLOCK I/O         PIDS
Dec 24 03:22:29 fd386681503c   prov_aic_janusgraph_1   0.37%     878.7MiB / 15.66GiB   5.48%     16.7MB / 7.79MB   81.9kB / 332kB    50
Dec 24 03:22:29 175a7162e018   portainer               0.02%     16.5MiB / 15.66GiB    0.10%     11.3kB / 0B       58.3MB / 11.2MB   7
Dec 24 03:22:33 CONTAINER ID   NAME                    CPU %     MEM USAGE / LIMIT     MEM %     NET I/O           BLOCK I/O         PIDS
Dec 24 03:22:33 fd386681503c   prov_aic_janusgraph_1   2.30%     878.7MiB / 15.66GiB   5.48%     16.9MB / 7.89MB   81.9kB / 332kB    50
Dec 24 03:22:33 175a7162e018   portainer               0.00%     16.5MiB / 15.66GiB    0.10%     11.3kB / 0B       58.3MB / 11.2MB   7
Dec 24 03:22:36 CONTAINER ID   NAME                    CPU %     MEM USAGE / LIMIT     MEM %     NET I/O           BLOCK I/O         PIDS
Dec 24 03:22:36 fd386681503c   prov_aic_janusgraph_1   5.14%     878.7MiB / 15.66GiB   5.48%     17.1MB / 7.97MB   81.9kB / 332kB    50
Dec 24 03:22:36 175a7162e018   portainer               0.00%     16.51MiB / 15.66GiB   0.10%     11.3kB / 0B       58.3MB / 11.2MB   7
Dec 24 03:22:40 CONTAINER ID   NAME                    CPU %     MEM USAGE / LIMIT     MEM %     NET I/O           BLOCK I/O         PIDS
Dec 24 03:22:40 fd386681503c   prov_aic_janusgraph_1   39.07%    878.7MiB / 15.66GiB   5.48%     17.3MB / 8.08MB   81.9kB / 332kB    50
Dec 24 03:22:40 175a7162e018   portainer               0.00%     16.51MiB / 15.66GiB   0.10%     11.3kB / 0B       58.3MB / 11.2MB   7
Dec 24 03:22:43 CONTAINER ID   NAME                    CPU %     MEM USAGE / LIMIT     MEM %     NET I/O           BLOCK I/O         PIDS
Dec 24 03:22:43 fd386681503c   prov_aic_janusgraph_1   0.31%     878.7MiB / 15.66GiB   5.48%     17.3MB / 8.09MB   81.9kB / 332kB    50
Dec 24 03:22:43 175a7162e018   portainer               0.00%     16.51MiB / 15.66GiB   0.10%     11.3kB / 0B       58.3MB / 11.2MB   7
Dec 24 03:22:47 CONTAINER ID   NAME                    CPU %     MEM USAGE / LIMIT     MEM %     NET I/O           BLOCK I/O         PIDS
Dec 24 03:22:47 fd386681503c   prov_aic_janusgraph_1   0.28%     878.7MiB / 15.66GiB   5.48%     17.5MB / 8.16MB   81.9kB / 332kB    50
Dec 24 03:22:47 175a7162e018   portainer               0.00%     16.51MiB / 15.66GiB   0.10%     11.3kB / 0B       58.3MB / 11.2MB   7
Dec 24 03:22:50 CONTAINER ID   NAME                    CPU %     MEM USAGE / LIMIT     MEM %     NET I/O           BLOCK I/O         PIDS
Dec 24 03:22:50 fd386681503c   prov_aic_janusgraph_1   33.89%    878.7MiB / 15.66GiB   5.48%     17.7MB / 8.26MB   81.9kB / 332kB    50
Dec 24 03:22:50 175a7162e018   portainer               0.00%     16.51MiB / 15.66GiB   0.10%     11.3kB / 0B       58.3MB / 11.2MB   7
Dec 24 03:22:53 CONTAINER ID   NAME                    CPU %     MEM USAGE / LIMIT     MEM %     NET I/O           BLOCK I/O         PIDS
Dec 24 03:22:53 fd386681503c   prov_aic_janusgraph_1   0.10%     878.7MiB / 15.66GiB   5.48%     17.7MB / 8.27MB   81.9kB / 332kB    50
Dec 24 03:22:53 175a7162e018   portainer               0.09%     16.51MiB / 15.66GiB   0.10%     11.3kB / 0B       58.3MB / 11.2MB   7
Dec 24 03:22:57 CONTAINER ID   NAME                    CPU %     MEM USAGE / LIMIT     MEM %     NET I/O           BLOCK I/O         PIDS
Dec 24 03:22:57 fd386681503c   prov_aic_janusgraph_1   0.31%     878.7MiB / 15.66GiB   5.48%     17.8MB / 8.32MB   81.9kB / 332kB    50
Dec 24 03:22:57 175a7162e018   portainer               0.00%     16.51MiB / 15.66GiB   0.10%     11.3kB / 0B       58.3MB / 11.2MB   7
