Dec 24 03:39:02 CONTAINER ID   NAME        CPU %     MEM USAGE / LIMIT     MEM %     NET I/O       BLOCK I/O         PIDS
Dec 24 03:39:02 175a7162e018   portainer   0.00%     16.87MiB / 15.66GiB   0.11%     11.6kB / 0B   58.3MB / 11.8MB   7
Dec 24 03:39:02                --          0.00%     0B / 0B               0.00%     0B / 0B       0B / 0B           0
Dec 24 03:39:06 CONTAINER ID   NAME                    CPU %     MEM USAGE / LIMIT     MEM %     NET I/O       BLOCK I/O         PIDS
Dec 24 03:39:06 1eaeb66eb81c   prov_aic_janusgraph_1   240.18%   677.3MiB / 15.66GiB   4.22%     5.16kB / 0B   0B / 233kB        21
Dec 24 03:39:06 175a7162e018   portainer               0.00%     16.87MiB / 15.66GiB   0.11%     11.6kB / 0B   58.3MB / 11.8MB   7
Dec 24 03:39:10 CONTAINER ID   NAME                    CPU %     MEM USAGE / LIMIT     MEM %     NET I/O       BLOCK I/O         PIDS
Dec 24 03:39:10 1eaeb66eb81c   prov_aic_janusgraph_1   320.67%   730.5MiB / 15.66GiB   4.55%     6.41kB / 0B   0B / 233kB        22
Dec 24 03:39:10 175a7162e018   portainer               0.00%     16.87MiB / 15.66GiB   0.11%     11.6kB / 0B   58.3MB / 11.8MB   7
Dec 24 03:39:13 CONTAINER ID   NAME                    CPU %     MEM USAGE / LIMIT     MEM %     NET I/O       BLOCK I/O         PIDS
Dec 24 03:39:13 1eaeb66eb81c   prov_aic_janusgraph_1   132.04%   99.75MiB / 15.66GiB   0.62%     6.71kB / 0B   0B / 332kB        16
Dec 24 03:39:13 175a7162e018   portainer               0.00%     16.87MiB / 15.66GiB   0.11%     11.6kB / 0B   58.3MB / 11.8MB   7
Dec 24 03:39:17 CONTAINER ID   NAME                    CPU %     MEM USAGE / LIMIT     MEM %     NET I/O       BLOCK I/O         PIDS
Dec 24 03:39:17 1eaeb66eb81c   prov_aic_janusgraph_1   270.74%   565.9MiB / 15.66GiB   3.53%     6.78kB / 0B   0B / 332kB        21
Dec 24 03:39:17 175a7162e018   portainer               0.00%     16.87MiB / 15.66GiB   0.11%     11.6kB / 0B   58.3MB / 11.8MB   7
Dec 24 03:39:20 CONTAINER ID   NAME                    CPU %     MEM USAGE / LIMIT     MEM %     NET I/O       BLOCK I/O         PIDS
Dec 24 03:39:20 1eaeb66eb81c   prov_aic_janusgraph_1   0.11%     718.7MiB / 15.66GiB   4.48%     7.08kB / 0B   0B / 332kB        22
Dec 24 03:39:20 175a7162e018   portainer               0.00%     16.87MiB / 15.66GiB   0.11%     11.6kB / 0B   58.3MB / 11.8MB   7
Dec 24 03:39:24 CONTAINER ID   NAME                    CPU %     MEM USAGE / LIMIT     MEM %     NET I/O       BLOCK I/O         PIDS
Dec 24 03:39:24 1eaeb66eb81c   prov_aic_janusgraph_1   0.09%     715.4MiB / 15.66GiB   4.46%     7.08kB / 0B   0B / 332kB        22
Dec 24 03:39:24 175a7162e018   portainer               0.09%     16.87MiB / 15.66GiB   0.11%     11.6kB / 0B   58.3MB / 11.8MB   7
Dec 24 03:39:27 CONTAINER ID   NAME                    CPU %     MEM USAGE / LIMIT     MEM %     NET I/O       BLOCK I/O         PIDS
Dec 24 03:39:27 1eaeb66eb81c   prov_aic_janusgraph_1   0.10%     715.4MiB / 15.66GiB   4.46%     7.08kB / 0B   0B / 332kB        22
Dec 24 03:39:27 175a7162e018   portainer               0.00%     16.87MiB / 15.66GiB   0.11%     11.6kB / 0B   58.3MB / 11.8MB   7
Dec 24 03:39:30 CONTAINER ID   NAME                    CPU %     MEM USAGE / LIMIT     MEM %     NET I/O       BLOCK I/O         PIDS
Dec 24 03:39:30 1eaeb66eb81c   prov_aic_janusgraph_1   0.18%     715.4MiB / 15.66GiB   4.46%     7.08kB / 0B   0B / 332kB        22
Dec 24 03:39:30 175a7162e018   portainer               0.00%     16.87MiB / 15.66GiB   0.11%     11.6kB / 0B   58.3MB / 11.8MB   7
Dec 24 03:39:34 CONTAINER ID   NAME                    CPU %     MEM USAGE / LIMIT     MEM %     NET I/O       BLOCK I/O         PIDS
Dec 24 03:39:34 1eaeb66eb81c   prov_aic_janusgraph_1   0.12%     715.4MiB / 15.66GiB   4.46%     7.24kB / 0B   0B / 332kB        22
Dec 24 03:39:34 175a7162e018   portainer               0.02%     16.87MiB / 15.66GiB   0.11%     11.6kB / 0B   58.3MB / 11.8MB   7
Dec 24 03:39:37 CONTAINER ID   NAME                    CPU %     MEM USAGE / LIMIT     MEM %     NET I/O       BLOCK I/O         PIDS
Dec 24 03:39:37 1eaeb66eb81c   prov_aic_janusgraph_1   0.09%     715.4MiB / 15.66GiB   4.46%     7.45kB / 0B   0B / 332kB        22
Dec 24 03:39:37 175a7162e018   portainer               0.00%     16.87MiB / 15.66GiB   0.11%     11.6kB / 0B   58.3MB / 11.8MB   7
Dec 24 03:39:41 CONTAINER ID   NAME                    CPU %     MEM USAGE / LIMIT     MEM %     NET I/O       BLOCK I/O         PIDS
Dec 24 03:39:41 1eaeb66eb81c   prov_aic_janusgraph_1   0.10%     715.4MiB / 15.66GiB   4.46%     7.45kB / 0B   0B / 332kB        22
Dec 24 03:39:41 175a7162e018   portainer               0.00%     16.87MiB / 15.66GiB   0.11%     11.6kB / 0B   58.3MB / 11.8MB   7
Dec 24 03:39:45 CONTAINER ID   NAME                    CPU %     MEM USAGE / LIMIT     MEM %     NET I/O           BLOCK I/O         PIDS
Dec 24 03:39:45 1eaeb66eb81c   prov_aic_janusgraph_1   65.82%    728.2MiB / 15.66GiB   4.54%     10.4kB / 2.01kB   0B / 332kB        39
Dec 24 03:39:45 175a7162e018   portainer               0.03%     16.87MiB / 15.66GiB   0.11%     11.6kB / 0B       58.3MB / 11.8MB   7
Dec 24 03:39:47 CONTAINER ID   NAME                    CPU %     MEM USAGE / LIMIT     MEM %     NET I/O           BLOCK I/O         PIDS
Dec 24 03:39:47 1eaeb66eb81c   prov_aic_janusgraph_1   124.41%   733.3MiB / 15.66GiB   4.57%     62.5kB / 26.3kB   0B / 332kB        49
Dec 24 03:39:47 175a7162e018   portainer               0.00%     16.87MiB / 15.66GiB   0.11%     11.6kB / 0B       58.3MB / 11.8MB   7
Dec 24 03:39:51 CONTAINER ID   NAME                    CPU %     MEM USAGE / LIMIT     MEM %     NET I/O         BLOCK I/O         PIDS
Dec 24 03:39:51 1eaeb66eb81c   prov_aic_janusgraph_1   140.02%   733.5MiB / 15.66GiB   4.57%     301kB / 137kB   0B / 332kB        49
Dec 24 03:39:51 175a7162e018   portainer               0.00%     16.87MiB / 15.66GiB   0.11%     11.6kB / 0B     58.3MB / 11.8MB   7
Dec 24 03:39:54 CONTAINER ID   NAME                    CPU %     MEM USAGE / LIMIT     MEM %     NET I/O         BLOCK I/O         PIDS
Dec 24 03:39:54 1eaeb66eb81c   prov_aic_janusgraph_1   177.42%   741.8MiB / 15.66GiB   4.63%     426kB / 196kB   0B / 332kB        49
Dec 24 03:39:54 175a7162e018   portainer               0.00%     16.88MiB / 15.66GiB   0.11%     11.6kB / 0B     58.3MB / 11.8MB   7
Dec 24 03:39:58 CONTAINER ID   NAME                    CPU %     MEM USAGE / LIMIT     MEM %     NET I/O         BLOCK I/O         PIDS
Dec 24 03:39:58 1eaeb66eb81c   prov_aic_janusgraph_1   0.10%     742.1MiB / 15.66GiB   4.63%     492kB / 227kB   0B / 332kB        49
Dec 24 03:39:58 175a7162e018   portainer               0.01%     16.88MiB / 15.66GiB   0.11%     11.6kB / 0B     58.3MB / 11.8MB   7
Dec 24 03:40:02 CONTAINER ID   NAME                    CPU %     MEM USAGE / LIMIT     MEM %     NET I/O         BLOCK I/O         PIDS
Dec 24 03:40:02 1eaeb66eb81c   prov_aic_janusgraph_1   0.10%     756MiB / 15.66GiB     4.71%     710kB / 328kB   0B / 332kB        49
Dec 24 03:40:02 175a7162e018   portainer               0.00%     16.88MiB / 15.66GiB   0.11%     11.6kB / 0B     58.3MB / 11.8MB   7
Dec 24 03:40:05 CONTAINER ID   NAME                    CPU %     MEM USAGE / LIMIT     MEM %     NET I/O         BLOCK I/O         PIDS
Dec 24 03:40:05 1eaeb66eb81c   prov_aic_janusgraph_1   30.41%    759.6MiB / 15.66GiB   4.74%     957kB / 444kB   0B / 332kB        49
Dec 24 03:40:05 175a7162e018   portainer               0.00%     16.89MiB / 15.66GiB   0.11%     11.6kB / 0B     58.3MB / 11.8MB   7
Dec 24 03:40:09 CONTAINER ID   NAME                    CPU %     MEM USAGE / LIMIT     MEM %     NET I/O          BLOCK I/O         PIDS
Dec 24 03:40:09 1eaeb66eb81c   prov_aic_janusgraph_1   62.65%    759.1MiB / 15.66GiB   4.73%     1.19MB / 554kB   0B / 332kB        49
Dec 24 03:40:09 175a7162e018   portainer               0.01%     16.89MiB / 15.66GiB   0.11%     11.6kB / 0B      58.3MB / 11.8MB   7
Dec 24 03:40:13 CONTAINER ID   NAME                    CPU %     MEM USAGE / LIMIT     MEM %     NET I/O          BLOCK I/O         PIDS
Dec 24 03:40:13 1eaeb66eb81c   prov_aic_janusgraph_1   59.59%    759.2MiB / 15.66GiB   4.73%     1.32MB / 616kB   0B / 332kB        49
Dec 24 03:40:13 175a7162e018   portainer               0.00%     16.89MiB / 15.66GiB   0.11%     11.6kB / 0B      58.3MB / 11.8MB   7
Dec 24 03:40:16 CONTAINER ID   NAME                    CPU %     MEM USAGE / LIMIT     MEM %     NET I/O          BLOCK I/O         PIDS
Dec 24 03:40:16 1eaeb66eb81c   prov_aic_janusgraph_1   0.25%     759.3MiB / 15.66GiB   4.73%     1.38MB / 643kB   0B / 332kB        49
Dec 24 03:40:16 175a7162e018   portainer               0.00%     16.89MiB / 15.66GiB   0.11%     11.6kB / 0B      58.3MB / 11.8MB   7
Dec 24 03:40:20 CONTAINER ID   NAME                    CPU %     MEM USAGE / LIMIT     MEM %     NET I/O          BLOCK I/O         PIDS
Dec 24 03:40:20 1eaeb66eb81c   prov_aic_janusgraph_1   138.66%   765.1MiB / 15.66GiB   4.77%     1.59MB / 739kB   0B / 332kB        49
Dec 24 03:40:20 175a7162e018   portainer               0.00%     16.89MiB / 15.66GiB   0.11%     11.6kB / 0B      58.3MB / 11.8MB   7
Dec 24 03:40:23 CONTAINER ID   NAME                    CPU %     MEM USAGE / LIMIT     MEM %     NET I/O          BLOCK I/O         PIDS
Dec 24 03:40:23 1eaeb66eb81c   prov_aic_janusgraph_1   97.72%    765.5MiB / 15.66GiB   4.77%     1.78MB / 829kB   0B / 332kB        49
Dec 24 03:40:23 175a7162e018   portainer               0.00%     16.89MiB / 15.66GiB   0.11%     11.6kB / 0B      58.3MB / 11.8MB   7
Dec 24 03:40:27 CONTAINER ID   NAME                    CPU %     MEM USAGE / LIMIT     MEM %     NET I/O          BLOCK I/O         PIDS
Dec 24 03:40:27 1eaeb66eb81c   prov_aic_janusgraph_1   39.75%    765.6MiB / 15.66GiB   4.77%     1.88MB / 873kB   0B / 332kB        49
Dec 24 03:40:27 175a7162e018   portainer               0.00%     16.89MiB / 15.66GiB   0.11%     11.6kB / 0B      58.3MB / 11.8MB   7
Dec 24 03:40:31 CONTAINER ID   NAME                    CPU %     MEM USAGE / LIMIT     MEM %     NET I/O       BLOCK I/O         PIDS
Dec 24 03:40:31 1eaeb66eb81c   prov_aic_janusgraph_1   0.54%     762.4MiB / 15.66GiB   4.75%     2MB / 930kB   0B / 332kB        49
Dec 24 03:40:31 175a7162e018   portainer               0.00%     16.95MiB / 15.66GiB   0.11%     11.6kB / 0B   58.3MB / 11.8MB   7
Dec 24 03:40:34 CONTAINER ID   NAME                    CPU %     MEM USAGE / LIMIT     MEM %     NET I/O          BLOCK I/O         PIDS
Dec 24 03:40:34 1eaeb66eb81c   prov_aic_janusgraph_1   19.06%    762.4MiB / 15.66GiB   4.75%     2.2MB / 1.03MB   0B / 332kB        49
Dec 24 03:40:34 175a7162e018   portainer               0.00%     16.95MiB / 15.66GiB   0.11%     11.6kB / 0B      58.3MB / 11.8MB   7
Dec 24 03:40:37 CONTAINER ID   NAME                    CPU %     MEM USAGE / LIMIT     MEM %     NET I/O          BLOCK I/O         PIDS
Dec 24 03:40:37 1eaeb66eb81c   prov_aic_janusgraph_1   22.79%    762.4MiB / 15.66GiB   4.75%     2.3MB / 1.07MB   0B / 332kB        49
Dec 24 03:40:37 175a7162e018   portainer               0.00%     16.95MiB / 15.66GiB   0.11%     11.6kB / 0B      58.3MB / 11.8MB   7
Dec 24 03:40:40 CONTAINER ID   NAME                    CPU %     MEM USAGE / LIMIT     MEM %     NET I/O           BLOCK I/O         PIDS
Dec 24 03:40:40 1eaeb66eb81c   prov_aic_janusgraph_1   9.26%     762.4MiB / 15.66GiB   4.75%     2.43MB / 1.13MB   0B / 332kB        49
Dec 24 03:40:40 175a7162e018   portainer               0.00%     16.95MiB / 15.66GiB   0.11%     11.6kB / 0B       58.3MB / 11.8MB   7
Dec 24 03:40:44 CONTAINER ID   NAME                    CPU %     MEM USAGE / LIMIT     MEM %     NET I/O           BLOCK I/O         PIDS
Dec 24 03:40:44 1eaeb66eb81c   prov_aic_janusgraph_1   0.33%     762.4MiB / 15.66GiB   4.75%     2.61MB / 1.22MB   0B / 332kB        49
Dec 24 03:40:44 175a7162e018   portainer               0.13%     17.07MiB / 15.66GiB   0.11%     11.6kB / 0B       58.3MB / 11.8MB   7
Dec 24 03:40:48 CONTAINER ID   NAME                    CPU %     MEM USAGE / LIMIT     MEM %     NET I/O           BLOCK I/O         PIDS
Dec 24 03:40:48 1eaeb66eb81c   prov_aic_janusgraph_1   65.40%    762.4MiB / 15.66GiB   4.75%     2.85MB / 1.33MB   0B / 332kB        49
Dec 24 03:40:48 175a7162e018   portainer               0.00%     16.96MiB / 15.66GiB   0.11%     11.6kB / 0B       58.3MB / 11.8MB   7
Dec 24 03:40:51 CONTAINER ID   NAME                    CPU %     MEM USAGE / LIMIT     MEM %     NET I/O           BLOCK I/O         PIDS
Dec 24 03:40:51 1eaeb66eb81c   prov_aic_janusgraph_1   0.31%     762.4MiB / 15.66GiB   4.75%     2.86MB / 1.34MB   0B / 332kB        49
Dec 24 03:40:51 175a7162e018   portainer               0.00%     16.96MiB / 15.66GiB   0.11%     11.6kB / 0B       58.3MB / 11.8MB   7
Dec 24 03:40:55 CONTAINER ID   NAME                    CPU %     MEM USAGE / LIMIT     MEM %     NET I/O           BLOCK I/O         PIDS
Dec 24 03:40:55 1eaeb66eb81c   prov_aic_janusgraph_1   0.25%     762.4MiB / 15.66GiB   4.75%     3.07MB / 1.43MB   0B / 332kB        49
Dec 24 03:40:55 175a7162e018   portainer               0.05%     16.96MiB / 15.66GiB   0.11%     11.6kB / 0B       58.3MB / 11.8MB   7
Dec 24 03:40:58 CONTAINER ID   NAME                    CPU %     MEM USAGE / LIMIT     MEM %     NET I/O           BLOCK I/O         PIDS
Dec 24 03:40:58 1eaeb66eb81c   prov_aic_janusgraph_1   62.54%    762.4MiB / 15.66GiB   4.75%     3.28MB / 1.53MB   0B / 332kB        49
Dec 24 03:40:58 175a7162e018   portainer               0.00%     16.96MiB / 15.66GiB   0.11%     11.6kB / 0B       58.3MB / 11.8MB   7
Dec 24 03:41:02 CONTAINER ID   NAME                    CPU %     MEM USAGE / LIMIT     MEM %     NET I/O          BLOCK I/O         PIDS
Dec 24 03:41:02 1eaeb66eb81c   prov_aic_janusgraph_1   39.45%    762.4MiB / 15.66GiB   4.75%     3.5MB / 1.63MB   0B / 332kB        49
Dec 24 03:41:02 175a7162e018   portainer               0.00%     16.96MiB / 15.66GiB   0.11%     11.6kB / 0B      58.3MB / 11.8MB   7
Dec 24 03:41:06 CONTAINER ID   NAME                    CPU %     MEM USAGE / LIMIT     MEM %     NET I/O           BLOCK I/O         PIDS
Dec 24 03:41:06 1eaeb66eb81c   prov_aic_janusgraph_1   0.11%     762.4MiB / 15.66GiB   4.75%     3.51MB / 1.64MB   0B / 332kB        49
Dec 24 03:41:06 175a7162e018   portainer               0.00%     16.96MiB / 15.66GiB   0.11%     11.6kB / 0B       58.3MB / 11.8MB   7
Dec 24 03:41:09 CONTAINER ID   NAME                    CPU %     MEM USAGE / LIMIT     MEM %     NET I/O           BLOCK I/O         PIDS
Dec 24 03:41:09 1eaeb66eb81c   prov_aic_janusgraph_1   0.10%     762.4MiB / 15.66GiB   4.75%     3.72MB / 1.74MB   0B / 332kB        49
Dec 24 03:41:09 175a7162e018   portainer               0.02%     16.96MiB / 15.66GiB   0.11%     11.6kB / 0B       58.3MB / 11.8MB   7
Dec 24 03:41:13 CONTAINER ID   NAME                    CPU %     MEM USAGE / LIMIT     MEM %     NET I/O           BLOCK I/O         PIDS
Dec 24 03:41:13 1eaeb66eb81c   prov_aic_janusgraph_1   76.54%    762.4MiB / 15.66GiB   4.75%     3.91MB / 1.82MB   0B / 332kB        49
Dec 24 03:41:13 175a7162e018   portainer               0.02%     16.96MiB / 15.66GiB   0.11%     11.6kB / 0B       58.3MB / 11.8MB   7
Dec 24 03:41:16 CONTAINER ID   NAME                    CPU %     MEM USAGE / LIMIT     MEM %     NET I/O           BLOCK I/O         PIDS
Dec 24 03:41:16 1eaeb66eb81c   prov_aic_janusgraph_1   40.15%    762.4MiB / 15.66GiB   4.75%     4.12MB / 1.92MB   0B / 332kB        49
Dec 24 03:41:16 175a7162e018   portainer               0.00%     16.96MiB / 15.66GiB   0.11%     11.6kB / 0B       58.3MB / 11.8MB   7
Dec 24 03:41:20 CONTAINER ID   NAME                    CPU %     MEM USAGE / LIMIT     MEM %     NET I/O           BLOCK I/O         PIDS
Dec 24 03:41:20 1eaeb66eb81c   prov_aic_janusgraph_1   0.41%     772.5MiB / 15.66GiB   4.82%     4.14MB / 1.93MB   0B / 332kB        49
Dec 24 03:41:20 175a7162e018   portainer               0.00%     16.96MiB / 15.66GiB   0.11%     11.6kB / 0B       58.3MB / 11.8MB   7
Dec 24 03:41:24 CONTAINER ID   NAME                    CPU %     MEM USAGE / LIMIT     MEM %     NET I/O           BLOCK I/O         PIDS
Dec 24 03:41:24 1eaeb66eb81c   prov_aic_janusgraph_1   4.01%     772.5MiB / 15.66GiB   4.82%     4.37MB / 2.04MB   0B / 332kB        49
Dec 24 03:41:24 175a7162e018   portainer               0.07%     16.96MiB / 15.66GiB   0.11%     11.6kB / 0B       58.3MB / 11.8MB   7
Dec 24 03:41:27 CONTAINER ID   NAME                    CPU %     MEM USAGE / LIMIT     MEM %     NET I/O           BLOCK I/O         PIDS
Dec 24 03:41:27 1eaeb66eb81c   prov_aic_janusgraph_1   2.84%     772.5MiB / 15.66GiB   4.82%     4.58MB / 2.14MB   0B / 332kB        49
Dec 24 03:41:27 175a7162e018   portainer               0.00%     16.96MiB / 15.66GiB   0.11%     11.6kB / 0B       58.3MB / 11.8MB   7
Dec 24 03:41:31 CONTAINER ID   NAME                    CPU %     MEM USAGE / LIMIT     MEM %     NET I/O           BLOCK I/O         PIDS
Dec 24 03:41:31 1eaeb66eb81c   prov_aic_janusgraph_1   0.14%     772.5MiB / 15.66GiB   4.82%     4.59MB / 2.14MB   0B / 332kB        49
Dec 24 03:41:31 175a7162e018   portainer               0.00%     16.96MiB / 15.66GiB   0.11%     11.6kB / 0B       58.3MB / 11.8MB   7
Dec 24 03:41:34 CONTAINER ID   NAME                    CPU %     MEM USAGE / LIMIT     MEM %     NET I/O           BLOCK I/O         PIDS
Dec 24 03:41:34 1eaeb66eb81c   prov_aic_janusgraph_1   2.51%     772.5MiB / 15.66GiB   4.82%     4.81MB / 2.24MB   0B / 332kB        49
Dec 24 03:41:34 175a7162e018   portainer               0.00%     16.96MiB / 15.66GiB   0.11%     11.6kB / 0B       58.3MB / 11.8MB   7
Dec 24 03:41:38 CONTAINER ID   NAME                    CPU %     MEM USAGE / LIMIT     MEM %     NET I/O           BLOCK I/O         PIDS
Dec 24 03:41:38 1eaeb66eb81c   prov_aic_janusgraph_1   0.24%     772.5MiB / 15.66GiB   4.82%     5.01MB / 2.34MB   0B / 332kB        49
Dec 24 03:41:38 175a7162e018   portainer               0.00%     16.96MiB / 15.66GiB   0.11%     11.6kB / 0B       58.3MB / 11.8MB   7
Dec 24 03:41:41 CONTAINER ID   NAME                    CPU %     MEM USAGE / LIMIT     MEM %     NET I/O           BLOCK I/O         PIDS
Dec 24 03:41:41 1eaeb66eb81c   prov_aic_janusgraph_1   18.57%    772.5MiB / 15.66GiB   4.82%     5.19MB / 2.42MB   0B / 332kB        49
Dec 24 03:41:41 175a7162e018   portainer               0.00%     16.96MiB / 15.66GiB   0.11%     11.6kB / 0B       58.3MB / 11.8MB   7
Dec 24 03:41:45 CONTAINER ID   NAME                    CPU %     MEM USAGE / LIMIT     MEM %     NET I/O          BLOCK I/O         PIDS
Dec 24 03:41:45 1eaeb66eb81c   prov_aic_janusgraph_1   0.12%     772.5MiB / 15.66GiB   4.82%     5.2MB / 2.43MB   0B / 332kB        49
Dec 24 03:41:45 175a7162e018   portainer               0.00%     16.96MiB / 15.66GiB   0.11%     11.6kB / 0B      58.3MB / 11.8MB   7
Dec 24 03:41:49 CONTAINER ID   NAME                    CPU %     MEM USAGE / LIMIT     MEM %     NET I/O           BLOCK I/O         PIDS
Dec 24 03:41:49 1eaeb66eb81c   prov_aic_janusgraph_1   2.26%     772.5MiB / 15.66GiB   4.82%     5.43MB / 2.54MB   0B / 332kB        49
Dec 24 03:41:49 175a7162e018   portainer               0.00%     16.96MiB / 15.66GiB   0.11%     11.6kB / 0B       58.3MB / 11.8MB   7
Dec 24 03:41:52 CONTAINER ID   NAME                    CPU %     MEM USAGE / LIMIT     MEM %     NET I/O          BLOCK I/O         PIDS
Dec 24 03:41:52 1eaeb66eb81c   prov_aic_janusgraph_1   2.51%     772.5MiB / 15.66GiB   4.82%     5.6MB / 2.61MB   0B / 332kB        49
Dec 24 03:41:52 175a7162e018   portainer               0.00%     16.96MiB / 15.66GiB   0.11%     11.6kB / 0B      58.3MB / 11.8MB   7
Dec 24 03:41:56 CONTAINER ID   NAME                    CPU %     MEM USAGE / LIMIT     MEM %     NET I/O          BLOCK I/O         PIDS
Dec 24 03:41:56 1eaeb66eb81c   prov_aic_janusgraph_1   0.13%     772.5MiB / 15.66GiB   4.82%     5.6MB / 2.61MB   0B / 332kB        49
Dec 24 03:41:56 175a7162e018   portainer               0.00%     16.96MiB / 15.66GiB   0.11%     11.6kB / 0B      58.3MB / 11.8MB   7
Dec 24 03:41:59 CONTAINER ID   NAME                    CPU %     MEM USAGE / LIMIT     MEM %     NET I/O           BLOCK I/O         PIDS
Dec 24 03:41:59 1eaeb66eb81c   prov_aic_janusgraph_1   0.14%     772.5MiB / 15.66GiB   4.82%     5.83MB / 2.72MB   0B / 332kB        49
Dec 24 03:41:59 175a7162e018   portainer               0.00%     16.96MiB / 15.66GiB   0.11%     11.6kB / 0B       58.3MB / 11.8MB   7
Dec 24 03:42:03 CONTAINER ID   NAME                    CPU %     MEM USAGE / LIMIT     MEM %     NET I/O          BLOCK I/O         PIDS
Dec 24 03:42:03 1eaeb66eb81c   prov_aic_janusgraph_1   2.56%     772.5MiB / 15.66GiB   4.82%     6.01MB / 2.8MB   0B / 332kB        49
Dec 24 03:42:03 175a7162e018   portainer               0.11%     16.96MiB / 15.66GiB   0.11%     11.6kB / 0B      58.3MB / 11.8MB   7
Dec 24 03:42:07 CONTAINER ID   NAME                    CPU %     MEM USAGE / LIMIT     MEM %     NET I/O           BLOCK I/O         PIDS
Dec 24 03:42:07 1eaeb66eb81c   prov_aic_janusgraph_1   3.85%     772.5MiB / 15.66GiB   4.82%     6.25MB / 2.91MB   0B / 332kB        49
Dec 24 03:42:07 175a7162e018   portainer               0.00%     16.96MiB / 15.66GiB   0.11%     11.6kB / 0B       58.3MB / 11.8MB   7
Dec 24 03:42:10 CONTAINER ID   NAME                    CPU %     MEM USAGE / LIMIT     MEM %     NET I/O        BLOCK I/O         PIDS
Dec 24 03:42:10 1eaeb66eb81c   prov_aic_janusgraph_1   30.94%    772.5MiB / 15.66GiB   4.82%     6.44MB / 3MB   0B / 332kB        49
Dec 24 03:42:10 175a7162e018   portainer               0.00%     16.96MiB / 15.66GiB   0.11%     11.6kB / 0B    58.3MB / 11.8MB   7
Dec 24 03:42:14 CONTAINER ID   NAME                    CPU %     MEM USAGE / LIMIT     MEM %     NET I/O           BLOCK I/O         PIDS
Dec 24 03:42:14 1eaeb66eb81c   prov_aic_janusgraph_1   9.25%     774.6MiB / 15.66GiB   4.83%     6.46MB / 3.02MB   0B / 332kB        49
Dec 24 03:42:14 175a7162e018   portainer               0.10%     16.96MiB / 15.66GiB   0.11%     11.6kB / 0B       58.3MB / 11.8MB   7
Dec 24 03:42:17 CONTAINER ID   NAME                    CPU %     MEM USAGE / LIMIT     MEM %     NET I/O          BLOCK I/O         PIDS
Dec 24 03:42:17 1eaeb66eb81c   prov_aic_janusgraph_1   4.46%     810.7MiB / 15.66GiB   5.05%     6.65MB / 3.1MB   0B / 332kB        49
Dec 24 03:42:17 175a7162e018   portainer               0.00%     16.96MiB / 15.66GiB   0.11%     11.6kB / 0B      58.3MB / 11.8MB   7
Dec 24 03:42:21 CONTAINER ID   NAME                    CPU %     MEM USAGE / LIMIT     MEM %     NET I/O           BLOCK I/O         PIDS
Dec 24 03:42:21 1eaeb66eb81c   prov_aic_janusgraph_1   15.33%    848.8MiB / 15.66GiB   5.29%     6.89MB / 3.21MB   0B / 332kB        49
Dec 24 03:42:21 175a7162e018   portainer               0.00%     16.96MiB / 15.66GiB   0.11%     11.6kB / 0B       58.3MB / 11.8MB   7
Dec 24 03:42:25 CONTAINER ID   NAME                    CPU %     MEM USAGE / LIMIT     MEM %     NET I/O           BLOCK I/O         PIDS
Dec 24 03:42:25 1eaeb66eb81c   prov_aic_janusgraph_1   10.33%    862.9MiB / 15.66GiB   5.38%     6.95MB / 3.24MB   0B / 332kB        49
Dec 24 03:42:25 175a7162e018   portainer               0.09%     16.96MiB / 15.66GiB   0.11%     11.6kB / 0B       58.3MB / 11.8MB   7
Dec 24 03:42:28 CONTAINER ID   NAME                    CPU %     MEM USAGE / LIMIT     MEM %     NET I/O           BLOCK I/O         PIDS
Dec 24 03:42:28 1eaeb66eb81c   prov_aic_janusgraph_1   2.31%     882.9MiB / 15.66GiB   5.50%     7.15MB / 3.34MB   0B / 332kB        49
Dec 24 03:42:28 175a7162e018   portainer               0.00%     16.96MiB / 15.66GiB   0.11%     11.6kB / 0B       58.3MB / 11.8MB   7
Dec 24 03:42:32 CONTAINER ID   NAME                    CPU %     MEM USAGE / LIMIT     MEM %     NET I/O          BLOCK I/O         PIDS
Dec 24 03:42:32 1eaeb66eb81c   prov_aic_janusgraph_1   0.30%     882.9MiB / 15.66GiB   5.50%     7.3MB / 3.41MB   0B / 332kB        49
Dec 24 03:42:32 175a7162e018   portainer               0.00%     16.96MiB / 15.66GiB   0.11%     11.6kB / 0B      58.3MB / 11.8MB   7
Dec 24 03:42:35 CONTAINER ID   NAME                    CPU %     MEM USAGE / LIMIT     MEM %     NET I/O           BLOCK I/O         PIDS
Dec 24 03:42:35 1eaeb66eb81c   prov_aic_janusgraph_1   26.45%    882.9MiB / 15.66GiB   5.50%     7.52MB / 3.51MB   0B / 332kB        49
Dec 24 03:42:35 175a7162e018   portainer               0.00%     16.53MiB / 15.66GiB   0.10%     11.6kB / 0B       58.3MB / 11.8MB   7
Dec 24 03:42:39 CONTAINER ID   NAME                    CPU %     MEM USAGE / LIMIT     MEM %     NET I/O           BLOCK I/O         PIDS
Dec 24 03:42:39 1eaeb66eb81c   prov_aic_janusgraph_1   0.11%     882.9MiB / 15.66GiB   5.50%     7.53MB / 3.51MB   0B / 332kB        49
Dec 24 03:42:39 175a7162e018   portainer               0.00%     16.53MiB / 15.66GiB   0.10%     11.6kB / 0B       58.3MB / 11.8MB   7
Dec 24 03:42:43 CONTAINER ID   NAME                    CPU %     MEM USAGE / LIMIT     MEM %     NET I/O          BLOCK I/O         PIDS
Dec 24 03:42:43 1eaeb66eb81c   prov_aic_janusgraph_1   2.43%     882.9MiB / 15.66GiB   5.50%     7.72MB / 3.6MB   0B / 332kB        49
Dec 24 03:42:43 175a7162e018   portainer               0.00%     16.53MiB / 15.66GiB   0.10%     11.6kB / 0B      58.3MB / 11.8MB   7
Dec 24 03:42:46 CONTAINER ID   NAME                    CPU %     MEM USAGE / LIMIT     MEM %     NET I/O          BLOCK I/O         PIDS
Dec 24 03:42:46 1eaeb66eb81c   prov_aic_janusgraph_1   25.24%    882.9MiB / 15.66GiB   5.50%     7.93MB / 3.7MB   0B / 332kB        49
Dec 24 03:42:46 175a7162e018   portainer               0.00%     16.54MiB / 15.66GiB   0.10%     11.6kB / 0B      58.3MB / 11.8MB   7
Dec 24 03:42:50 CONTAINER ID   NAME                    CPU %     MEM USAGE / LIMIT     MEM %     NET I/O           BLOCK I/O         PIDS
Dec 24 03:42:50 1eaeb66eb81c   prov_aic_janusgraph_1   27.24%    882.9MiB / 15.66GiB   5.50%     8.11MB / 3.78MB   0B / 332kB        49
Dec 24 03:42:50 175a7162e018   portainer               0.00%     16.54MiB / 15.66GiB   0.10%     11.6kB / 0B       58.3MB / 11.8MB   7
Dec 24 03:42:53 CONTAINER ID   NAME                    CPU %     MEM USAGE / LIMIT     MEM %     NET I/O           BLOCK I/O         PIDS
Dec 24 03:42:53 1eaeb66eb81c   prov_aic_janusgraph_1   0.11%     882.9MiB / 15.66GiB   5.50%     8.12MB / 3.79MB   0B / 332kB        49
Dec 24 03:42:53 175a7162e018   portainer               0.12%     16.54MiB / 15.66GiB   0.10%     11.6kB / 0B       58.3MB / 11.8MB   7
Dec 24 03:42:57 CONTAINER ID   NAME                    CPU %     MEM USAGE / LIMIT     MEM %     NET I/O          BLOCK I/O         PIDS
Dec 24 03:42:57 1eaeb66eb81c   prov_aic_janusgraph_1   3.32%     882.9MiB / 15.66GiB   5.50%     8.35MB / 3.9MB   0B / 332kB        49
Dec 24 03:42:57 175a7162e018   portainer               0.00%     16.54MiB / 15.66GiB   0.10%     11.6kB / 0B      58.3MB / 11.8MB   7
Dec 24 03:43:01 CONTAINER ID   NAME                    CPU %     MEM USAGE / LIMIT     MEM %     NET I/O           BLOCK I/O         PIDS
Dec 24 03:43:01 1eaeb66eb81c   prov_aic_janusgraph_1   0.84%     882.9MiB / 15.66GiB   5.50%     8.52MB / 3.97MB   0B / 332kB        49
Dec 24 03:43:01 175a7162e018   portainer               0.00%     16.54MiB / 15.66GiB   0.10%     11.6kB / 0B       58.3MB / 11.8MB   7
Dec 24 03:43:04 CONTAINER ID   NAME                    CPU %     MEM USAGE / LIMIT     MEM %     NET I/O           BLOCK I/O         PIDS
Dec 24 03:43:04 1eaeb66eb81c   prov_aic_janusgraph_1   27.45%    882.9MiB / 15.66GiB   5.50%     8.71MB / 4.06MB   0B / 332kB        49
Dec 24 03:43:04 175a7162e018   portainer               0.09%     16.54MiB / 15.66GiB   0.10%     11.6kB / 0B       58.3MB / 11.8MB   7
Dec 24 03:43:08 CONTAINER ID   NAME                    CPU %     MEM USAGE / LIMIT     MEM %     NET I/O           BLOCK I/O         PIDS
Dec 24 03:43:08 1eaeb66eb81c   prov_aic_janusgraph_1   0.10%     882.9MiB / 15.66GiB   5.50%     8.74MB / 4.08MB   0B / 332kB        49
Dec 24 03:43:08 175a7162e018   portainer               0.00%     16.54MiB / 15.66GiB   0.10%     11.6kB / 0B       58.3MB / 11.8MB   7
Dec 24 03:43:11 CONTAINER ID   NAME                    CPU %     MEM USAGE / LIMIT     MEM %     NET I/O           BLOCK I/O         PIDS
Dec 24 03:43:11 1eaeb66eb81c   prov_aic_janusgraph_1   1.89%     882.9MiB / 15.66GiB   5.50%     8.92MB / 4.16MB   0B / 332kB        49
Dec 24 03:43:11 175a7162e018   portainer               0.00%     16.54MiB / 15.66GiB   0.10%     11.6kB / 0B       58.3MB / 11.8MB   7
Dec 24 03:43:15 CONTAINER ID   NAME                    CPU %     MEM USAGE / LIMIT     MEM %     NET I/O           BLOCK I/O         PIDS
Dec 24 03:43:15 1eaeb66eb81c   prov_aic_janusgraph_1   8.12%     882.9MiB / 15.66GiB   5.50%     9.15MB / 4.27MB   0B / 332kB        49
Dec 24 03:43:15 175a7162e018   portainer               0.00%     16.54MiB / 15.66GiB   0.10%     11.6kB / 0B       58.3MB / 11.8MB   7
Dec 24 03:43:19 CONTAINER ID   NAME                    CPU %     MEM USAGE / LIMIT     MEM %     NET I/O           BLOCK I/O         PIDS
Dec 24 03:43:19 1eaeb66eb81c   prov_aic_janusgraph_1   12.84%    882.9MiB / 15.66GiB   5.50%     9.25MB / 4.31MB   0B / 332kB        49
Dec 24 03:43:19 175a7162e018   portainer               0.02%     16.54MiB / 15.66GiB   0.10%     11.6kB / 0B       58.3MB / 11.8MB   7
Dec 24 03:43:22 CONTAINER ID   NAME                    CPU %     MEM USAGE / LIMIT     MEM %     NET I/O           BLOCK I/O         PIDS
Dec 24 03:43:22 1eaeb66eb81c   prov_aic_janusgraph_1   0.28%     882.9MiB / 15.66GiB   5.50%     9.33MB / 4.35MB   0B / 332kB        49
Dec 24 03:43:22 175a7162e018   portainer               0.00%     16.54MiB / 15.66GiB   0.10%     11.6kB / 0B       58.3MB / 11.8MB   7
Dec 24 03:43:26 CONTAINER ID   NAME                    CPU %     MEM USAGE / LIMIT     MEM %     NET I/O           BLOCK I/O         PIDS
Dec 24 03:43:26 1eaeb66eb81c   prov_aic_janusgraph_1   0.29%     884.9MiB / 15.66GiB   5.52%     9.56MB / 4.46MB   0B / 332kB        49
Dec 24 03:43:26 175a7162e018   portainer               0.00%     16.54MiB / 15.66GiB   0.10%     11.6kB / 0B       58.3MB / 11.8MB   7
Dec 24 03:43:29 CONTAINER ID   NAME                    CPU %     MEM USAGE / LIMIT     MEM %     NET I/O           BLOCK I/O         PIDS
Dec 24 03:43:29 1eaeb66eb81c   prov_aic_janusgraph_1   22.94%    884.9MiB / 15.66GiB   5.52%     9.73MB / 4.54MB   0B / 332kB        49
Dec 24 03:43:29 175a7162e018   portainer               0.02%     16.54MiB / 15.66GiB   0.10%     11.6kB / 0B       58.3MB / 11.8MB   7
Dec 24 03:43:33 CONTAINER ID   NAME                    CPU %     MEM USAGE / LIMIT     MEM %     NET I/O           BLOCK I/O         PIDS
Dec 24 03:43:33 1eaeb66eb81c   prov_aic_janusgraph_1   0.09%     884.9MiB / 15.66GiB   5.52%     9.74MB / 4.54MB   0B / 332kB        49
Dec 24 03:43:33 175a7162e018   portainer               0.00%     16.54MiB / 15.66GiB   0.10%     11.6kB / 0B       58.3MB / 11.8MB   7
Dec 24 03:43:37 CONTAINER ID   NAME                    CPU %     MEM USAGE / LIMIT     MEM %     NET I/O           BLOCK I/O         PIDS
Dec 24 03:43:37 1eaeb66eb81c   prov_aic_janusgraph_1   0.10%     884.9MiB / 15.66GiB   5.52%     9.98MB / 4.66MB   0B / 332kB        49
Dec 24 03:43:37 175a7162e018   portainer               0.00%     16.9MiB / 15.66GiB    0.11%     11.6kB / 0B       58.3MB / 11.9MB   7
Dec 24 03:43:40 CONTAINER ID   NAME                    CPU %     MEM USAGE / LIMIT     MEM %     NET I/O           BLOCK I/O         PIDS
Dec 24 03:43:40 1eaeb66eb81c   prov_aic_janusgraph_1   0.14%     884.9MiB / 15.66GiB   5.52%     10.2MB / 4.73MB   0B / 332kB        49
Dec 24 03:43:40 175a7162e018   portainer               0.00%     16.9MiB / 15.66GiB    0.11%     11.6kB / 0B       58.3MB / 11.9MB   7
Dec 24 03:43:44 CONTAINER ID   NAME                    CPU %     MEM USAGE / LIMIT     MEM %     NET I/O           BLOCK I/O         PIDS
Dec 24 03:43:44 1eaeb66eb81c   prov_aic_janusgraph_1   32.71%    884.9MiB / 15.66GiB   5.52%     10.4MB / 4.84MB   0B / 332kB        49
Dec 24 03:43:44 175a7162e018   portainer               0.02%     16.9MiB / 15.66GiB    0.11%     11.6kB / 0B       58.3MB / 11.9MB   7
Dec 24 03:43:47 CONTAINER ID   NAME                    CPU %     MEM USAGE / LIMIT     MEM %     NET I/O           BLOCK I/O         PIDS
Dec 24 03:43:47 1eaeb66eb81c   prov_aic_janusgraph_1   1.56%     884.9MiB / 15.66GiB   5.52%     10.4MB / 4.85MB   0B / 332kB        49
Dec 24 03:43:47 175a7162e018   portainer               0.00%     16.91MiB / 15.66GiB   0.11%     11.6kB / 0B       58.3MB / 11.9MB   7
Dec 24 03:43:50 CONTAINER ID   NAME                    CPU %     MEM USAGE / LIMIT     MEM %     NET I/O           BLOCK I/O         PIDS
Dec 24 03:43:50 1eaeb66eb81c   prov_aic_janusgraph_1   2.57%     884.9MiB / 15.66GiB   5.52%     10.6MB / 4.93MB   0B / 332kB        49
Dec 24 03:43:50 175a7162e018   portainer               0.00%     16.91MiB / 15.66GiB   0.11%     11.6kB / 0B       58.3MB / 11.9MB   7
Dec 24 03:43:53 CONTAINER ID   NAME                    CPU %     MEM USAGE / LIMIT     MEM %     NET I/O           BLOCK I/O         PIDS
Dec 24 03:43:53 1eaeb66eb81c   prov_aic_janusgraph_1   35.46%    884.9MiB / 15.66GiB   5.52%     10.8MB / 5.03MB   0B / 332kB        49
Dec 24 03:43:53 175a7162e018   portainer               0.00%     16.91MiB / 15.66GiB   0.11%     11.6kB / 0B       58.3MB / 11.9MB   7
Dec 24 03:43:57 CONTAINER ID   NAME                    CPU %     MEM USAGE / LIMIT     MEM %     NET I/O           BLOCK I/O         PIDS
Dec 24 03:43:57 1eaeb66eb81c   prov_aic_janusgraph_1   0.29%     884.9MiB / 15.66GiB   5.52%     10.8MB / 5.04MB   0B / 332kB        49
Dec 24 03:43:57 175a7162e018   portainer               0.00%     16.91MiB / 15.66GiB   0.11%     11.6kB / 0B       58.3MB / 11.9MB   7
Dec 24 03:44:01 CONTAINER ID   NAME                    CPU %     MEM USAGE / LIMIT     MEM %     NET I/O         BLOCK I/O         PIDS
Dec 24 03:44:01 1eaeb66eb81c   prov_aic_janusgraph_1   0.10%     884.9MiB / 15.66GiB   5.52%     11MB / 5.12MB   0B / 332kB        49
Dec 24 03:44:01 175a7162e018   portainer               0.00%     16.91MiB / 15.66GiB   0.11%     11.6kB / 0B     58.3MB / 11.9MB   7
Dec 24 03:44:04 CONTAINER ID   NAME                    CPU %     MEM USAGE / LIMIT     MEM %     NET I/O           BLOCK I/O         PIDS
Dec 24 03:44:04 1eaeb66eb81c   prov_aic_janusgraph_1   4.83%     884.9MiB / 15.66GiB   5.52%     11.2MB / 5.22MB   0B / 332kB        49
Dec 24 03:44:04 175a7162e018   portainer               0.06%     16.91MiB / 15.66GiB   0.11%     11.6kB / 0B       58.3MB / 11.9MB   7
Dec 24 03:44:08 CONTAINER ID   NAME                    CPU %     MEM USAGE / LIMIT     MEM %     NET I/O           BLOCK I/O         PIDS
Dec 24 03:44:08 1eaeb66eb81c   prov_aic_janusgraph_1   2.45%     884.9MiB / 15.66GiB   5.52%     11.2MB / 5.23MB   0B / 332kB        49
Dec 24 03:44:08 175a7162e018   portainer               0.01%     16.91MiB / 15.66GiB   0.11%     11.6kB / 0B       58.3MB / 11.9MB   7
Dec 24 03:44:11 CONTAINER ID   NAME                    CPU %     MEM USAGE / LIMIT     MEM %     NET I/O           BLOCK I/O         PIDS
Dec 24 03:44:11 1eaeb66eb81c   prov_aic_janusgraph_1   0.25%     884.9MiB / 15.66GiB   5.52%     11.4MB / 5.31MB   0B / 332kB        49
Dec 24 03:44:11 175a7162e018   portainer               0.00%     16.91MiB / 15.66GiB   0.11%     11.6kB / 0B       58.3MB / 11.9MB   7
Dec 24 03:44:15 CONTAINER ID   NAME                    CPU %     MEM USAGE / LIMIT     MEM %     NET I/O           BLOCK I/O         PIDS
Dec 24 03:44:15 1eaeb66eb81c   prov_aic_janusgraph_1   1.64%     884.9MiB / 15.66GiB   5.52%     11.6MB / 5.42MB   0B / 332kB        49
Dec 24 03:44:15 175a7162e018   portainer               0.00%     16.91MiB / 15.66GiB   0.11%     11.6kB / 0B       58.3MB / 11.9MB   7
Dec 24 03:44:19 CONTAINER ID   NAME                    CPU %     MEM USAGE / LIMIT     MEM %     NET I/O          BLOCK I/O         PIDS
Dec 24 03:44:19 1eaeb66eb81c   prov_aic_janusgraph_1   7.87%     884.9MiB / 15.66GiB   5.52%     11.8MB / 5.5MB   0B / 332kB        49
Dec 24 03:44:19 175a7162e018   portainer               0.01%     16.91MiB / 15.66GiB   0.11%     11.6kB / 0B      58.3MB / 11.9MB   7
Dec 24 03:44:22 CONTAINER ID   NAME                    CPU %     MEM USAGE / LIMIT     MEM %     NET I/O          BLOCK I/O         PIDS
Dec 24 03:44:22 1eaeb66eb81c   prov_aic_janusgraph_1   2.23%     884.9MiB / 15.66GiB   5.52%     11.8MB / 5.5MB   0B / 332kB        49
Dec 24 03:44:22 175a7162e018   portainer               0.00%     16.91MiB / 15.66GiB   0.11%     11.6kB / 0B      58.3MB / 11.9MB   7
Dec 24 03:44:26 CONTAINER ID   NAME                    CPU %     MEM USAGE / LIMIT     MEM %     NET I/O         BLOCK I/O         PIDS
Dec 24 03:44:26 1eaeb66eb81c   prov_aic_janusgraph_1   2.12%     884.9MiB / 15.66GiB   5.52%     12MB / 5.61MB   0B / 332kB        49
Dec 24 03:44:26 175a7162e018   portainer               0.00%     16.91MiB / 15.66GiB   0.11%     11.6kB / 0B     58.3MB / 11.9MB   7
Dec 24 03:44:29 CONTAINER ID   NAME                    CPU %     MEM USAGE / LIMIT     MEM %     NET I/O           BLOCK I/O         PIDS
Dec 24 03:44:29 1eaeb66eb81c   prov_aic_janusgraph_1   0.15%     884.9MiB / 15.66GiB   5.52%     12.2MB / 5.69MB   0B / 332kB        49
Dec 24 03:44:29 175a7162e018   portainer               0.02%     16.91MiB / 15.66GiB   0.11%     11.6kB / 0B       58.3MB / 11.9MB   7
Dec 24 03:44:33 CONTAINER ID   NAME                    CPU %     MEM USAGE / LIMIT     MEM %     NET I/O           BLOCK I/O         PIDS
Dec 24 03:44:33 1eaeb66eb81c   prov_aic_janusgraph_1   1.35%     884.9MiB / 15.66GiB   5.52%     12.2MB / 5.69MB   0B / 332kB        49
Dec 24 03:44:33 175a7162e018   portainer               1.47%     17.02MiB / 15.66GiB   0.11%     11.6kB / 0B       58.3MB / 11.9MB   7
Dec 24 03:44:37 CONTAINER ID   NAME                    CPU %     MEM USAGE / LIMIT     MEM %     NET I/O          BLOCK I/O         PIDS
Dec 24 03:44:37 1eaeb66eb81c   prov_aic_janusgraph_1   1.08%     884.9MiB / 15.66GiB   5.52%     12.4MB / 5.8MB   0B / 332kB        49
Dec 24 03:44:37 175a7162e018   portainer               0.00%     17.02MiB / 15.66GiB   0.11%     11.6kB / 0B      58.3MB / 11.9MB   7
Dec 24 03:44:40 CONTAINER ID   NAME                    CPU %     MEM USAGE / LIMIT     MEM %     NET I/O           BLOCK I/O         PIDS
Dec 24 03:44:40 1eaeb66eb81c   prov_aic_janusgraph_1   0.32%     884.9MiB / 15.66GiB   5.52%     12.6MB / 5.88MB   0B / 332kB        49
Dec 24 03:44:40 175a7162e018   portainer               0.00%     17.02MiB / 15.66GiB   0.11%     11.6kB / 0B       58.3MB / 11.9MB   7
Dec 24 03:44:44 CONTAINER ID   NAME                    CPU %     MEM USAGE / LIMIT     MEM %     NET I/O           BLOCK I/O         PIDS
Dec 24 03:44:44 1eaeb66eb81c   prov_aic_janusgraph_1   38.59%    887.1MiB / 15.66GiB   5.53%     12.8MB / 5.98MB   0B / 332kB        49
Dec 24 03:44:44 175a7162e018   portainer               0.10%     17.02MiB / 15.66GiB   0.11%     11.6kB / 0B       58.3MB / 11.9MB   7
Dec 24 03:44:47 CONTAINER ID   NAME                    CPU %     MEM USAGE / LIMIT     MEM %     NET I/O         BLOCK I/O         PIDS
Dec 24 03:44:47 1eaeb66eb81c   prov_aic_janusgraph_1   23.18%    886.9MiB / 15.66GiB   5.53%     13MB / 6.06MB   0B / 332kB        49
Dec 24 03:44:47 175a7162e018   portainer               0.00%     17.02MiB / 15.66GiB   0.11%     11.6kB / 0B     58.3MB / 11.9MB   7
Dec 24 03:44:51 CONTAINER ID   NAME                    CPU %     MEM USAGE / LIMIT     MEM %     NET I/O         BLOCK I/O         PIDS
Dec 24 03:44:51 1eaeb66eb81c   prov_aic_janusgraph_1   0.29%     886.9MiB / 15.66GiB   5.53%     13MB / 6.07MB   0B / 332kB        49
Dec 24 03:44:51 175a7162e018   portainer               0.00%     17.02MiB / 15.66GiB   0.11%     11.6kB / 0B     58.3MB / 11.9MB   7
Dec 24 03:44:55 CONTAINER ID   NAME                    CPU %     MEM USAGE / LIMIT     MEM %     NET I/O           BLOCK I/O         PIDS
Dec 24 03:44:55 1eaeb66eb81c   prov_aic_janusgraph_1   0.15%     886.9MiB / 15.66GiB   5.53%     13.3MB / 6.18MB   0B / 332kB        49
Dec 24 03:44:55 175a7162e018   portainer               0.09%     17.02MiB / 15.66GiB   0.11%     11.6kB / 0B       58.3MB / 11.9MB   7
Dec 24 03:44:58 CONTAINER ID   NAME                    CPU %     MEM USAGE / LIMIT     MEM %     NET I/O           BLOCK I/O         PIDS
Dec 24 03:44:58 1eaeb66eb81c   prov_aic_janusgraph_1   4.12%     886.9MiB / 15.66GiB   5.53%     13.4MB / 6.26MB   0B / 332kB        49
Dec 24 03:44:58 175a7162e018   portainer               0.00%     17.02MiB / 15.66GiB   0.11%     11.6kB / 0B       58.3MB / 11.9MB   7
Dec 24 03:45:02 CONTAINER ID   NAME                    CPU %     MEM USAGE / LIMIT     MEM %     NET I/O           BLOCK I/O         PIDS
Dec 24 03:45:02 1eaeb66eb81c   prov_aic_janusgraph_1   20.86%    886.9MiB / 15.66GiB   5.53%     13.6MB / 6.32MB   0B / 332kB        49
Dec 24 03:45:02 175a7162e018   portainer               0.00%     17.02MiB / 15.66GiB   0.11%     11.6kB / 0B       58.3MB / 11.9MB   7
Dec 24 03:45:05 CONTAINER ID   NAME                    CPU %     MEM USAGE / LIMIT     MEM %     NET I/O           BLOCK I/O         PIDS
Dec 24 03:45:05 1eaeb66eb81c   prov_aic_janusgraph_1   0.30%     886.9MiB / 15.66GiB   5.53%     13.7MB / 6.37MB   0B / 332kB        49
Dec 24 03:45:05 175a7162e018   portainer               0.00%     17.02MiB / 15.66GiB   0.11%     11.6kB / 0B       58.3MB / 11.9MB   7
Dec 24 03:45:09 CONTAINER ID   NAME                    CPU %     MEM USAGE / LIMIT     MEM %     NET I/O           BLOCK I/O         PIDS
Dec 24 03:45:09 1eaeb66eb81c   prov_aic_janusgraph_1   4.84%     886.9MiB / 15.66GiB   5.53%     13.8MB / 6.45MB   0B / 332kB        49
Dec 24 03:45:09 175a7162e018   portainer               0.00%     17.02MiB / 15.66GiB   0.11%     11.6kB / 0B       58.3MB / 11.9MB   7
Dec 24 03:45:13 CONTAINER ID   NAME                    CPU %     MEM USAGE / LIMIT     MEM %     NET I/O           BLOCK I/O         PIDS
Dec 24 03:45:13 1eaeb66eb81c   prov_aic_janusgraph_1   21.15%    886.9MiB / 15.66GiB   5.53%     14.1MB / 6.56MB   0B / 332kB        49
Dec 24 03:45:13 175a7162e018   portainer               0.00%     17.02MiB / 15.66GiB   0.11%     11.6kB / 0B       58.3MB / 11.9MB   7
Dec 24 03:45:16 CONTAINER ID   NAME                    CPU %     MEM USAGE / LIMIT     MEM %     NET I/O           BLOCK I/O         PIDS
Dec 24 03:45:16 1eaeb66eb81c   prov_aic_janusgraph_1   2.65%     886.9MiB / 15.66GiB   5.53%     14.1MB / 6.57MB   0B / 332kB        49
Dec 24 03:45:16 175a7162e018   portainer               0.00%     17.02MiB / 15.66GiB   0.11%     11.6kB / 0B       58.3MB / 11.9MB   7
Dec 24 03:45:20 CONTAINER ID   NAME                    CPU %     MEM USAGE / LIMIT     MEM %     NET I/O           BLOCK I/O         PIDS
Dec 24 03:45:20 1eaeb66eb81c   prov_aic_janusgraph_1   2.48%     886.9MiB / 15.66GiB   5.53%     14.3MB / 6.65MB   0B / 332kB        49
Dec 24 03:45:20 175a7162e018   portainer               0.00%     17.02MiB / 15.66GiB   0.11%     11.6kB / 0B       58.3MB / 11.9MB   7
Dec 24 03:45:23 CONTAINER ID   NAME                    CPU %     MEM USAGE / LIMIT     MEM %     NET I/O           BLOCK I/O         PIDS
Dec 24 03:45:23 1eaeb66eb81c   prov_aic_janusgraph_1   22.52%    886.9MiB / 15.66GiB   5.53%     14.5MB / 6.75MB   0B / 332kB        49
Dec 24 03:45:23 175a7162e018   portainer               0.11%     17.02MiB / 15.66GiB   0.11%     11.6kB / 0B       58.3MB / 11.9MB   7
Dec 24 03:45:27 CONTAINER ID   NAME                    CPU %     MEM USAGE / LIMIT     MEM %     NET I/O           BLOCK I/O         PIDS
Dec 24 03:45:27 1eaeb66eb81c   prov_aic_janusgraph_1   26.17%    886.9MiB / 15.66GiB   5.53%     14.6MB / 6.82MB   0B / 332kB        49
Dec 24 03:45:27 175a7162e018   portainer               0.00%     17.02MiB / 15.66GiB   0.11%     11.6kB / 0B       58.3MB / 11.9MB   7
Dec 24 03:45:31 CONTAINER ID   NAME                    CPU %     MEM USAGE / LIMIT     MEM %     NET I/O           BLOCK I/O         PIDS
Dec 24 03:45:31 1eaeb66eb81c   prov_aic_janusgraph_1   0.27%     886.9MiB / 15.66GiB   5.53%     14.6MB / 6.83MB   0B / 332kB        49
Dec 24 03:45:31 175a7162e018   portainer               0.00%     17.02MiB / 15.66GiB   0.11%     11.6kB / 0B       58.3MB / 11.9MB   7
Dec 24 03:45:34 CONTAINER ID   NAME                    CPU %     MEM USAGE / LIMIT     MEM %     NET I/O           BLOCK I/O         PIDS
Dec 24 03:45:34 1eaeb66eb81c   prov_aic_janusgraph_1   0.11%     886.9MiB / 15.66GiB   5.53%     14.9MB / 6.94MB   0B / 332kB        49
Dec 24 03:45:34 175a7162e018   portainer               0.11%     17.02MiB / 15.66GiB   0.11%     11.6kB / 0B       58.3MB / 11.9MB   7
Dec 24 03:45:38 CONTAINER ID   NAME                    CPU %     MEM USAGE / LIMIT     MEM %     NET I/O           BLOCK I/O         PIDS
Dec 24 03:45:38 1eaeb66eb81c   prov_aic_janusgraph_1   0.74%     886.9MiB / 15.66GiB   5.53%     15.1MB / 7.02MB   0B / 332kB        49
Dec 24 03:45:38 175a7162e018   portainer               0.00%     17.02MiB / 15.66GiB   0.11%     11.6kB / 0B       58.3MB / 11.9MB   7
Dec 24 03:45:41 CONTAINER ID   NAME                    CPU %     MEM USAGE / LIMIT     MEM %     NET I/O           BLOCK I/O         PIDS
Dec 24 03:45:41 1eaeb66eb81c   prov_aic_janusgraph_1   35.04%    886.9MiB / 15.66GiB   5.53%     15.3MB / 7.12MB   0B / 332kB        49
Dec 24 03:45:41 175a7162e018   portainer               0.00%     17.02MiB / 15.66GiB   0.11%     11.6kB / 0B       58.3MB / 11.9MB   7
Dec 24 03:45:45 CONTAINER ID   NAME                    CPU %     MEM USAGE / LIMIT     MEM %     NET I/O           BLOCK I/O         PIDS
Dec 24 03:45:45 1eaeb66eb81c   prov_aic_janusgraph_1   2.46%     886.9MiB / 15.66GiB   5.53%     15.3MB / 7.13MB   0B / 332kB        49
Dec 24 03:45:45 175a7162e018   portainer               0.00%     17.02MiB / 15.66GiB   0.11%     11.6kB / 0B       58.3MB / 11.9MB   7
Dec 24 03:45:48 CONTAINER ID   NAME                    CPU %     MEM USAGE / LIMIT     MEM %     NET I/O           BLOCK I/O         PIDS
Dec 24 03:45:48 1eaeb66eb81c   prov_aic_janusgraph_1   3.34%     888.9MiB / 15.66GiB   5.54%     15.5MB / 7.21MB   0B / 332kB        49
Dec 24 03:45:48 175a7162e018   portainer               0.02%     17.02MiB / 15.66GiB   0.11%     11.6kB / 0B       58.3MB / 11.9MB   7
Dec 24 03:45:52 CONTAINER ID   NAME                    CPU %     MEM USAGE / LIMIT     MEM %     NET I/O           BLOCK I/O         PIDS
Dec 24 03:45:52 1eaeb66eb81c   prov_aic_janusgraph_1   32.63%    888.9MiB / 15.66GiB   5.54%     15.7MB / 7.31MB   0B / 332kB        49
Dec 24 03:45:52 175a7162e018   portainer               0.00%     17.02MiB / 15.66GiB   0.11%     11.6kB / 0B       58.3MB / 11.9MB   7
Dec 24 03:45:55 CONTAINER ID   NAME                    CPU %     MEM USAGE / LIMIT     MEM %     NET I/O           BLOCK I/O         PIDS
Dec 24 03:45:55 1eaeb66eb81c   prov_aic_janusgraph_1   0.37%     888.9MiB / 15.66GiB   5.54%     15.7MB / 7.32MB   0B / 332kB        49
Dec 24 03:45:55 175a7162e018   portainer               0.00%     17.02MiB / 15.66GiB   0.11%     11.6kB / 0B       58.3MB / 11.9MB   7
Dec 24 03:45:58 CONTAINER ID   NAME                    CPU %     MEM USAGE / LIMIT     MEM %     NET I/O          BLOCK I/O         PIDS
Dec 24 03:45:58 1eaeb66eb81c   prov_aic_janusgraph_1   0.10%     888.9MiB / 15.66GiB   5.54%     15.9MB / 7.4MB   0B / 332kB        49
Dec 24 03:45:58 175a7162e018   portainer               0.00%     17.02MiB / 15.66GiB   0.11%     11.6kB / 0B      58.3MB / 11.9MB   7
Dec 24 03:46:02 CONTAINER ID   NAME                    CPU %     MEM USAGE / LIMIT     MEM %     NET I/O          BLOCK I/O         PIDS
Dec 24 03:46:02 1eaeb66eb81c   prov_aic_janusgraph_1   30.98%    888.9MiB / 15.66GiB   5.54%     16.1MB / 7.5MB   0B / 332kB        49
Dec 24 03:46:02 175a7162e018   portainer               0.00%     17.02MiB / 15.66GiB   0.11%     11.6kB / 0B      58.3MB / 11.9MB   7
Dec 24 03:46:05 CONTAINER ID   NAME                    CPU %     MEM USAGE / LIMIT     MEM %     NET I/O           BLOCK I/O         PIDS
Dec 24 03:46:05 1eaeb66eb81c   prov_aic_janusgraph_1   15.35%    888.9MiB / 15.66GiB   5.54%     16.2MB / 7.55MB   0B / 332kB        49
Dec 24 03:46:05 175a7162e018   portainer               0.00%     17.02MiB / 15.66GiB   0.11%     11.6kB / 0B       58.3MB / 11.9MB   7
Dec 24 03:46:09 CONTAINER ID   NAME                    CPU %     MEM USAGE / LIMIT     MEM %     NET I/O           BLOCK I/O         PIDS
Dec 24 03:46:09 1eaeb66eb81c   prov_aic_janusgraph_1   0.11%     888.9MiB / 15.66GiB   5.54%     16.3MB / 7.59MB   0B / 332kB        49
Dec 24 03:46:09 175a7162e018   portainer               0.02%     17.02MiB / 15.66GiB   0.11%     11.6kB / 0B       58.3MB / 11.9MB   7
Dec 24 03:46:13 CONTAINER ID   NAME                    CPU %     MEM USAGE / LIMIT     MEM %     NET I/O           BLOCK I/O         PIDS
Dec 24 03:46:13 1eaeb66eb81c   prov_aic_janusgraph_1   2.88%     888.9MiB / 15.66GiB   5.54%     16.5MB / 7.71MB   0B / 332kB        49
Dec 24 03:46:13 175a7162e018   portainer               0.00%     17.02MiB / 15.66GiB   0.11%     11.6kB / 0B       58.3MB / 11.9MB   7
Dec 24 03:46:16 CONTAINER ID   NAME                    CPU %     MEM USAGE / LIMIT     MEM %     NET I/O           BLOCK I/O         PIDS
Dec 24 03:46:16 1eaeb66eb81c   prov_aic_janusgraph_1   15.40%    888.9MiB / 15.66GiB   5.54%     16.6MB / 7.75MB   0B / 332kB        49
Dec 24 03:46:16 175a7162e018   portainer               0.00%     17.02MiB / 15.66GiB   0.11%     11.6kB / 0B       58.3MB / 11.9MB   7
Dec 24 03:46:20 CONTAINER ID   NAME                    CPU %     MEM USAGE / LIMIT     MEM %     NET I/O           BLOCK I/O         PIDS
Dec 24 03:46:20 1eaeb66eb81c   prov_aic_janusgraph_1   0.36%     888.9MiB / 15.66GiB   5.54%     16.7MB / 7.79MB   0B / 332kB        49
Dec 24 03:46:20 175a7162e018   portainer               0.00%     17.02MiB / 15.66GiB   0.11%     11.6kB / 0B       58.3MB / 11.9MB   7
Dec 24 03:46:23 CONTAINER ID   NAME                    CPU %     MEM USAGE / LIMIT     MEM %     NET I/O           BLOCK I/O         PIDS
Dec 24 03:46:23 1eaeb66eb81c   prov_aic_janusgraph_1   0.26%     888.9MiB / 15.66GiB   5.54%     16.9MB / 7.89MB   0B / 332kB        49
Dec 24 03:46:23 175a7162e018   portainer               0.12%     17.02MiB / 15.66GiB   0.11%     11.6kB / 0B       58.3MB / 11.9MB   7
Dec 24 03:46:27 CONTAINER ID   NAME                    CPU %     MEM USAGE / LIMIT     MEM %     NET I/O           BLOCK I/O         PIDS
Dec 24 03:46:27 1eaeb66eb81c   prov_aic_janusgraph_1   0.28%     888.9MiB / 15.66GiB   5.54%     17.1MB / 7.97MB   0B / 332kB        49
Dec 24 03:46:27 175a7162e018   portainer               0.00%     17.02MiB / 15.66GiB   0.11%     11.6kB / 0B       58.3MB / 11.9MB   7
Dec 24 03:46:31 CONTAINER ID   NAME                    CPU %     MEM USAGE / LIMIT     MEM %     NET I/O           BLOCK I/O         PIDS
Dec 24 03:46:31 1eaeb66eb81c   prov_aic_janusgraph_1   0.31%     888.9MiB / 15.66GiB   5.54%     17.1MB / 7.97MB   0B / 332kB        49
Dec 24 03:46:31 175a7162e018   portainer               0.00%     17.02MiB / 15.66GiB   0.11%     11.6kB / 0B       58.3MB / 11.9MB   7
Dec 24 03:46:34 CONTAINER ID   NAME                    CPU %     MEM USAGE / LIMIT     MEM %     NET I/O           BLOCK I/O         PIDS
Dec 24 03:46:34 1eaeb66eb81c   prov_aic_janusgraph_1   0.29%     888.9MiB / 15.66GiB   5.54%     17.3MB / 8.09MB   0B / 332kB        49
Dec 24 03:46:34 175a7162e018   portainer               0.11%     17.02MiB / 15.66GiB   0.11%     11.6kB / 0B       58.3MB / 11.9MB   7
Dec 24 03:46:38 CONTAINER ID   NAME                    CPU %     MEM USAGE / LIMIT     MEM %     NET I/O           BLOCK I/O         PIDS
Dec 24 03:46:38 1eaeb66eb81c   prov_aic_janusgraph_1   0.09%     888.9MiB / 15.66GiB   5.54%     17.5MB / 8.16MB   0B / 332kB        49
Dec 24 03:46:38 175a7162e018   portainer               0.00%     17.02MiB / 15.66GiB   0.11%     11.6kB / 0B       58.3MB / 11.9MB   7
Dec 24 03:46:41 CONTAINER ID   NAME                    CPU %     MEM USAGE / LIMIT     MEM %     NET I/O           BLOCK I/O         PIDS
Dec 24 03:46:41 1eaeb66eb81c   prov_aic_janusgraph_1   4.09%     888.9MiB / 15.66GiB   5.54%     17.7MB / 8.27MB   0B / 332kB        49
Dec 24 03:46:41 175a7162e018   portainer               0.00%     17.02MiB / 15.66GiB   0.11%     11.6kB / 0B       58.3MB / 11.9MB   7
Dec 24 03:46:45 CONTAINER ID   NAME                    CPU %     MEM USAGE / LIMIT     MEM %     NET I/O           BLOCK I/O         PIDS
Dec 24 03:46:45 1eaeb66eb81c   prov_aic_janusgraph_1   19.38%    889.4MiB / 15.66GiB   5.55%     17.8MB / 8.32MB   0B / 332kB        49
Dec 24 03:46:45 175a7162e018   portainer               0.00%     16.53MiB / 15.66GiB   0.10%     11.6kB / 0B       58.3MB / 11.9MB   7
Dec 24 03:46:49 CONTAINER ID   NAME                    CPU %     MEM USAGE / LIMIT     MEM %     NET I/O           BLOCK I/O         PIDS
Dec 24 03:46:49 1eaeb66eb81c   prov_aic_janusgraph_1   0.32%     889.4MiB / 15.66GiB   5.55%     17.8MB / 8.32MB   0B / 332kB        49
Dec 24 03:46:49 175a7162e018   portainer               0.02%     16.53MiB / 15.66GiB   0.10%     11.6kB / 0B       58.3MB / 11.9MB   7
