elapsedWallClockMillis,totalMemoryBytes
10,1836704
1127,8302616
2174,10862688
3202,11014824
4226,11021656
5245,11028328
6265,11137520
7290,11133056
8320,11111536
9350,11102024
10379,11102320
11420,11189152
12447,11169608
13474,11161920
14504,11162560
15536,11226224
16563,11247384
17606,11217336
18638,11220920
19666,11223944
20690,11351944
21716,11301600
22742,11285088
23770,11287536
24801,11286064
25828,11389368
26867,11353440
27900,11358072
28931,11358456
29959,11357344
30998,11437704
32031,11410104
33058,11412104
34094,11411048
35122,11409832
36150,11477608
37183,11465024
38214,11461928
39248,11468488
40274,11553288
41303,11512096
42336,11518792
43366,11517272
44396,11517096
45428,11612968
46460,11575888
47497,11574744
48525,11576280
49556,11575752
50583,11641384
51612,11631304
52644,11631616
53680,11630536
54715,11630456
55742,11684784
56780,11689584
57806,11689704
58837,11695984
59871,11764424
60905,11736856
61935,11740152
62968,11741376
63993,11741120
65024,11859072
66062,11806008
67095,11804624
68128,11809984
69163,11810208
70207,11885984
71239,11864168
72268,11864944
73304,11863560
74337,11868616
75366,11912152
76404,11920184
77437,11920416
78466,11917256
79498,11920072
80532,11977944
81561,11978120
82595,11980736
83637,11979832
84679,12071296
85707,12031576
86740,12034616
87776,12035480
88807,12035504
89841,12081312
90876,12085008
91913,12087488
92955,12089152
93992,12090008
95024,12147768
96058,12146928
97090,12152568
98123,12153048
99152,12152928
100187,12204136
101227,12209952
102258,12208864
103292,12208728
104324,12303816
105352,12263800
106390,12267584
107423,12269264
108451,12267632
109484,12320872
110520,12325272
111560,12325776
112596,12329792
113632,12329448
114669,12376096
115705,12382232
116740,12383200
117775,12385232
118813,12386856
119852,12428352
120887,12429560
121918,12433040
122952,12433680
123985,12527368
125015,12490168
126048,12493808
127085,12493528
128115,12498328
129148,12533376
130184,12532400
131221,12536336
132254,12537000
133292,12538224
134320,12588880
135356,12593784
136393,12598088
137432,12597840
138464,12597760
139497,12639528
140535,12643576
141574,12644400
142606,12643664
143638,12749648
144670,12706432
145702,12711616
146737,12711520
147772,12711984
148802,12758688
149835,12765976
150869,12765888
151906,12765640
152939,12767912
153976,12816568
155012,12818744
156047,12820480
157086,12817928
158121,12819048
159157,12874808
160192,12881552
161226,12882920
162268,12882920
163300,12990488
164339,12948104
165378,12947992
166415,12951360
167448,12951544
168482,12984936
169514,12989712
170549,12989392
171583,12993584
172618,12992656
173653,13047112
174694,13047128
175723,13050432
176752,13051328
177780,13116120
178815,13093424
179848,13099160
180890,13099912
181922,13102464
182951,13178672
183983,13155840
185018,13154264
186053,13155552
187085,13158080
188119,13202048
189160,13201672
190194,13207056
191233,13205624
192266,13206264
193300,13263232
194340,13267488
195369,13267616
196405,13265552
197437,13332656
198472,13310520
199506,13310824
200545,13315008
201574,13314480
202610,13394928
203647,13368712
204685,13371496
205718,13371024
206749,13375680
207792,13418080
208832,13415912
209876,13421224
210918,13420880
211952,13421944
212987,13487376
214022,13494704
215063,13494464
216097,13493992
217127,13563000
218157,13534568
219190,13537416
220229,13536256
221263,13541136
222298,13627240
223337,13596400
224369,13597008
225403,13602568
226438,13601480
227472,13640656
228504,13644432
229542,13646120
230581,13646072
231616,13645368
232654,13705648
233687,13710640
234726,13707344
235761,13709592
236792,13771336
237829,13752232
238865,13752504
239901,13752784
240939,13755984
241969,13825096
243007,13814984
244042,13815232
245084,13819464
246117,13818408
247151,13856224
248191,13862104
249226,13861520
250261,13860800
251308,13861608
252339,13919776
253376,13926608
254410,13926096
255444,13926224
256475,13985216
257511,13967192
258546,13968088
259591,13969808
260628,13972400
261661,14035056
262701,14028952
263731,14029312
264763,14033864
265799,14034264
266838,14070880
267875,14077776
268913,14078840
269951,14077512
270993,14076336
272024,14137440
273059,14140864
274102,14140008
275140,14140824
276170,14206960
277208,14183704
278239,14184272
279292,14192104
280331,14188352
281369,14241656
282404,14245008
283444,14245984
284487,14251024
285529,14250176
286566,14288512
287605,14292768
288646,14293784
289684,14291368
290716,14400144
291753,14353416
292789,14356616
293829,14357960
294866,14358552
295895,14407624
296936,14400048
297976,14400160
299010,14405056
300048,14405400
301085,14454768
302127,14462248
303163,14460088
304200,14463152
305241,14464736
306276,14504000
307314,14508632
308353,14508480
309385,14509112
310418,14609320
311457,14569976
312496,14572976
313537,14573336
314571,14571992
315607,14609816
316645,14615504
317682,14614832
318724,14620936
319763,14620120
320792,14684784
321823,14690752
322858,14690688
323893,14693832
324928,14694376
325965,14734624
327004,14741384
328045,14739144
329081,14740176
330118,14844568
331154,14800848
332188,14800160
333220,14804512
334262,14804736
335300,14843368
336340,14847576
337380,14845392
338423,14851816
339462,14852640
340499,14905416
341536,14908920
342576,14907264
343609,14912584
344644,14983304
345685,14951792
346725,14957392
347756,14956312
348791,14955024
349823,15054176
350863,15014968
351901,15021456
352941,15022032
353977,15019928
355015,15057288
356053,15064008
357089,15062752
358131,15067936
359172,15067000
360204,15121344
361241,15124248
362272,15124640
363309,15128568
364345,15200496
365382,15165640
366424,15173224
367462,15172136
368502,15171976
369539,15264376
370580,15231080
371624,15236144
372665,15237176
373699,15237064
374732,15276216
375767,15279936
376805,15281920
377842,15283760
378880,15285192
379919,15341872
380959,15342224
381998,15341088
383034,15347152
384073,15406280
385108,15388352
386146,15387472
387186,15387672
388226,15389088
389260,15469704
390296,15444512
391339,15452632
392380,15452576
393414,15456472
394449,15496112
395500,15494784
396541,15496560
397581,15500656
398622,15591072
399662,15557552
400701,15556544
401741,15558272
402788,15562736
403826,15612088
404869,15603176
405907,15605904
406945,15603640
407986,15606880
409022,15676304
410061,15668840
411107,15664808
412147,15670808
413189,15671880
414226,15712320
415262,15713360
416303,15712128
417335,15715264
418372,15811176
419410,15773872
420445,15771416
421488,15774664
422532,15776888
423576,15845456
424634,15845024
425494,15497680
