elapsedWallClockMillis,totalMemoryBytes
16,1859448
1114,8338480
2144,10868768
3170,11008640
4199,11026928
5223,11031120
6246,11137576
7268,11135904
8311,11111744
9339,11102720
10370,11102296
11401,11189016
12430,11160768
13464,11161984
14493,11161424
15521,11252968
16548,11248208
17577,11220576
18606,11223904
19638,11223984
20666,11358048
21686,11318032
22712,11288832
23741,11289104
24764,11296168
25794,11399752
26827,11356448
27859,11360672
28887,11361864
29917,11361296
30945,11435584
31975,11413032
33011,11414024
34041,11413064
35066,11412136
36109,11480728
37139,11467440
38169,11467192
39202,11472336
40228,11554752
41261,11516464
42293,11520928
43324,11521488
44357,11521112
45386,11607848
46413,11578208
47444,11578640
48473,11577328
49500,11578728
50540,11642880
51574,11631400
52607,11631528
53642,11631384
54675,11631160
55707,11685912
56740,11690944
57771,11690560
58805,11697024
59832,11772640
60861,11737824
61894,11742608
62927,11741704
63964,11740856
64995,11856640
66026,11807904
67059,11807032
68088,11813120
69115,11811928
70140,11860112
71167,11864680
72193,11865368
73228,11865048
74263,11869400
75293,11914600
76321,11920840
77348,11920736
78387,11921464
79413,12029712
80447,11976760
81480,11980024
82511,11983032
83541,11981816
84568,12072608
85597,12032440
86632,12034816
87665,12036504
88702,12036328
89729,12090600
90766,12085840
91800,12089720
92828,12090704
93862,12090968
94897,12149552
95934,12149672
96968,12154832
98004,12155096
99034,12262096
100069,12206240
101097,12213048
102127,12211672
103167,12210280
104194,12279608
105231,12267104
106268,12272224
107301,12270784
108339,12270320
109373,12321800
110405,12328288
111441,12331672
112475,12333752
113509,12330672
114540,12380904
115576,12384616
116610,12385544
117646,12389400
118676,12459632
119705,12431440
120737,12431648
121769,12436232
122805,12436184
123834,12510336
124872,12492536
125907,12494808
126945,12496616
127976,12498744
129010,12534088
130041,12539760
131069,12541712
132099,12539016
133132,12540664
134169,12591704
135219,12596400
136253,12601024
137293,12600936
138322,12677600
139347,12651320
140383,12646488
141419,12646600
142453,12645480
143486,12734856
144523,12710040
145557,12715424
146590,12714512
147627,12715864
148663,12764584
149701,12768448
150729,12768560
151763,12777056
152796,12773760
153826,12818496
154862,12823504
155900,12823496
156935,12822480
157963,12936232
159000,12879992
160036,12884600
161069,12883880
162097,12884896
163129,12983280
164163,12950248
165199,12948160
166234,12950720
167265,12954552
168295,12988160
169332,12990984
170368,12992056
171397,12993856
172436,12998392
173469,13051744
174502,13058488
175534,13054112
176566,13054920
177598,13128904
178632,13099200
179662,13099856
180696,13100768
181731,13104560
182759,13168192
183793,13158352
184825,13157544
185858,13158640
186888,13162096
187920,13203896
188955,13204088
189989,13209304
191027,13208128
192062,13209840
193095,13265216
194130,13270016
195159,13271200
196191,13270656
197222,13337832
198256,13314024
199291,13313288
200327,13318088
201367,13317096
202400,13377664
203434,13375608
204477,13372816
205516,13374816
206552,13378056
207586,13420192
208624,13419224
209660,13425592
210697,13423048
211731,13424528
212767,13492752
213802,13497680
214840,13494160
215876,13495160
216914,13556808
217952,13537544
218990,13536008
220027,13539488
221060,13543480
222097,13607328
223127,13599544
224163,13601664
225196,13605656
226230,13604584
227266,13642888
228305,13648272
229342,13648920
230377,13647960
231415,13648392
232452,13708240
233483,13712336
234524,13711040
235557,13712960
236595,13773856
237630,13753896
238665,13754224
239694,13758552
240731,13759456
241759,13812464
242795,13816960
243827,13815888
244864,13819840
245898,13821824
246938,13859088
247974,13864424
249016,13865032
250059,13864088
251107,13966296
252144,13924160
253178,13928416
254216,13928896
255250,13927776
256282,13976632
257317,13971512
258352,13973120
259381,13974168
260420,13975632
261454,14027608
262491,14031840
263531,14033216
264566,14036880
265602,14037528
266633,14072424
267669,14080064
268702,14078144
269738,14079424
270772,14189760
271812,14139936
272852,14144384
273895,14144296
274932,14144768
275964,14189728
277006,14184912
278039,14188120
279070,14190160
280109,14191200
281145,14243480
282174,14249576
283212,14247936
284250,14252200
285292,14252808
286327,14290488
287365,14295568
288403,14294072
289443,14295680
290474,14397328
291512,14356528
292548,14360312
293582,14360192
294625,14359344
295658,14398640
296697,14403264
297736,14402808
298770,14407776
299806,14406816
300843,14459624
301882,14463312
302917,14464112
303951,14468272
304992,14468624
306027,14505424
307063,14512136
308101,14510472
309144,14512008
310180,14611520
311218,14572632
312250,14576720
313288,14578040
314331,14577272
315371,14615368
316412,14617456
317454,14619512
318492,14623472
319526,14623592
320561,14686608
321598,14693320
322630,14693456
323668,14698368
324698,14767024
325735,14737256
326770,14743808
327813,14743128
328851,14742400
329890,14835192
330928,14803376
331964,14805880
333004,14807360
334038,14807664
335076,14845576
336119,14849640
337155,14850768
338189,14851296
339231,14854208
340275,14905880
341308,14912248
342352,14908656
343386,14915128
344418,14985216
345457,14961520
346496,14959192
347536,14958624
348572,14959192
349601,15034000
350635,15014216
351676,15022624
352712,15023568
353750,15021080
354791,15061392
355833,15065576
356875,15065952
357915,15071040
358952,15069520
359990,15127848
361025,15127600
362066,15126712
363099,15132712
364131,15189720
365166,15174112
366203,15173584
367240,15173328
368281,15174672
369318,15255160
370354,15234584
371390,15238392
372429,15241168
373468,15242904
374502,15282912
375543,15282952
376578,15282040
377613,15285504
378648,15367080
379686,15343584
380724,15341448
381763,15343016
382798,15347480
383829,15398616
384866,15389456
385908,15390672
386943,15390168
387985,15390960
389015,15458120
390058,15455040
391099,15454432
392134,15456160
393168,15458864
394205,15498944
395246,15494640
396290,15496720
397328,15502312
398365,15604960
399404,15559056
400441,15558536
401483,15557280
402526,15563432
403576,15612008
404616,15605424
405656,15607008
406691,15605600
407735,15605440
408773,15666096
409813,15671008
410855,15669264
411896,15670928
412937,15673664
413975,15712224
415016,15714024
416059,15714896
417095,15718976
418131,15804000
419166,15774968
420203,15774752
421238,15787280
422281,15779192
423324,15847320
424371,15846888
425129,15499424
