elapsedWallClockMillis,totalMemoryBytes
10,1836896
1122,8179472
2147,10865800
3171,11012848
4192,11026000
5214,11038056
6238,11141272
7267,11137368
8308,11115776
9332,11102448
10358,11103904
11387,11189544
12411,11164016
13439,11160640
14465,11160136
15493,11162960
16521,11247136
17549,11216664
18575,11221872
19606,11222264
20635,11356760
21677,11326160
22705,11289088
23734,11288216
24765,11289120
25797,11398352
26832,11357408
27868,11361736
28893,11362312
29921,11361648
30948,11424520
31977,11413488
33008,11413584
34042,11411344
35069,11413128
36102,11478792
37131,11467720
38160,11467992
39191,11470984
40217,11558736
41244,11515064
42276,11521296
43308,11521288
44335,11521800
45361,11614592
46392,11578088
47423,11577328
48455,11578608
49483,11577568
50518,11641856
51554,11632320
52586,11633152
53617,11631456
54648,11633224
55675,11685528
56707,11690336
57739,11690456
58772,11697120
59803,11770008
60829,11738896
61865,11742488
62899,11743056
63928,11742432
64959,11860288
65998,11809808
67025,11809232
68062,11812192
69092,11813416
70125,11871720
71156,11866440
72188,11867328
73229,11866752
74256,11870800
75285,11916928
76328,11917952
77369,11922232
78398,11921352
79430,12033168
80463,11978512
81493,11980688
82526,11984048
83562,11982984
84599,12074888
85641,12032896
86674,12037088
87701,12037976
88731,12037168
89760,12089952
90792,12088040
91824,12090704
92859,12090896
93894,12091040
94935,12149208
95971,12147024
97004,12153496
98038,12151264
99067,12264104
100097,12206712
101130,12209936
102169,12212024
103200,12211488
104229,12288688
105261,12264632
106297,12269280
107331,12270600
108359,12269808
109388,12321344
110420,12326824
111454,12326336
112491,12330216
113526,12331704
114556,12379384
115591,12383696
116626,12384552
117659,12388240
118696,12458232
119731,12429032
120766,12430160
121794,12434904
122830,12434312
123860,12519040
124898,12490088
125936,12494848
126968,12491952
128002,12499632
129033,12536632
130069,12532480
131106,12538528
132140,12539592
133177,12539248
134210,12588976
135238,12595416
136278,12599072
137318,12601736
138348,12680616
139381,12641192
140418,12645944
141457,12645544
142495,12645576
143523,12745904
144557,12708624
145591,12714616
146626,12712656
147657,12713096
148693,12764472
149731,12768600
150766,12767944
151793,12776592
152827,12771856
153863,12817184
154899,12822528
155944,12822560
156977,12822880
158011,12931424
159049,12878400
160086,12883472
161118,12884648
162158,12884712
163188,12977376
164224,12945576
165256,12949280
166289,12951736
167327,12953104
168358,12986824
169394,12991544
170431,12991744
171462,12996544
172493,12990744
173530,13049672
174563,13058040
175598,13050528
176635,13053960
177671,13128584
178701,13096624
179737,13098392
180774,13099208
181807,13103040
182843,13161424
183879,13156752
184915,13156368
185949,13156368
186988,13162264
188023,13203040
189063,13204384
190099,13206920
191134,13209424
192171,13207224
193202,13265704
194238,13267056
195271,13269056
196305,13268752
197339,13328600
198374,13312720
199412,13312832
200451,13312792
201483,13317176
202518,13381504
203551,13370832
204586,13372384
205625,13373032
206666,13378464
207701,13419216
208739,13420032
209779,13423336
210813,13424584
211848,13420400
212879,13492280
213918,13495016
214956,13495384
215992,13494384
217020,13548008
218051,13537440
219086,13538776
220118,13538288
221153,13542248
222183,13603552
223218,13598856
224250,13596728
225281,13603496
226318,13603104
227355,13643256
228388,13647888
229421,13648448
230454,13648192
231495,13644160
232529,13707176
233562,13712376
234595,13711728
235636,13711880
236670,13766008
237718,13755616
238750,13753368
239784,13753496
240819,13758200
241849,13819984
242882,13815144
243922,13815560
244960,13819160
245995,13819208
247031,13858160
248065,13863432
249102,13862288
250137,13863512
251172,13961800
252206,13924200
253239,13928320
254275,13928408
255307,13928200
256339,13978136
257379,13968976
258414,13971768
259449,13974752
260487,13973824
261515,14027768
262554,14029512
263589,14030776
264627,14035000
265662,14035592
266695,14072640
267731,14079200
268766,14078368
269803,14078776
270834,14180728
271872,14138872
272908,14143528
273947,14144088
274981,14142408
276016,14189088
277049,14187056
278085,14187528
279121,14188528
280153,14191224
281190,14242816
282221,14248480
283254,14246400
284293,14250864
285329,14251816
286365,14289888
287398,14294976
288434,14294984
289470,14294120
290504,14403080
291567,14356128
292601,14359344
293636,14359648
294678,14359968
295716,14396912
296754,14403056
297794,14402904
298835,14405872
299875,14405696
300916,14458208
301955,14463424
302995,14463384
304034,14465672
305069,14465888
306105,14506680
307141,14513056
308174,14509800
309209,14511816
310248,14612912
311285,14571648
312317,14576512
313355,14574864
314390,14575392
315425,14614232
316462,14613656
317501,14618768
318541,14621848
319578,14620656
320610,14686640
321650,14693496
322685,14692632
323723,14695960
324758,14761200
325787,14737808
326825,14743168
327860,14742240
328899,14741376
329937,14838024
330975,14802752
332012,14806096
333044,14807176
334077,14804744
335113,14845768
336155,14848112
337196,14848248
338238,14852392
339276,14853160
340315,14904896
341357,14911728
342389,14908784
343430,14915512
344463,14989240
345501,14953184
346537,14957136
347573,14957936
348610,14957368
349649,15038888
350692,15016984
351731,15020896
352763,15022784
353804,15022304
354841,15060536
355879,15066016
356922,15065304
357964,15068816
359009,15067752
360044,15126696
361083,15127032
362122,15125720
363156,15130472
364195,15195192
365243,15172696
366279,15173568
367314,15171352
368352,15174368
369383,15247152
370426,15235128
371467,15238056
372506,15240376
373546,15242976
374578,15278296
375618,15281360
376653,15279872
377691,15286600
378729,15377936
379769,15343056
380807,15343816
381850,15341536
382885,15347328
383922,15392000
384957,15388920
385995,15391056
387034,15389784
388074,15391032
389108,15456456
390148,15462272
391185,15454392
392221,15456024
393260,15458640
394302,15496856
395343,15496832
396378,15496816
397418,15501792
398455,15599272
399500,15559208
400534,15558304
401572,15558720
402609,15563536
403642,15608104
404683,15606680
405721,15606496
406763,15605552
407810,15606016
408851,15667320
409895,15669480
410933,15669928
411969,15665496
413010,15675456
414044,15712704
415081,15713608
416125,15711504
417167,15715912
418207,15805312
419247,15774024
420278,15774856
421321,15772080
422357,15778336
423394,15846768
424449,15846376
425209,15498688
