elapsedWallClockMillis,totalMemoryBytes
12,6391488
1125,11022560
2142,11248720
3167,11323352
4195,11334800
5241,11335160
6287,11336752
7306,11337200
8343,11343232
9370,11349240
10415,11350600
11461,11350472
12478,11354512
13514,11359392
14555,11363488
15574,11367176
16619,11370136
17643,11377768
18688,11384552
19728,11388064
20749,11398352
21773,11406280
22801,11411096
23843,11424048
24867,11437136
25911,11452600
26933,11457584
27954,11460576
28975,11461152
29995,11465288
31039,11465456
32079,11467128
33099,11467128
34124,11467240
35149,11469984
36199,11469984
37242,11470160
38284,11471536
39306,11475888
40349,11485440
41395,11490336
42438,11499192
43485,11510608
44531,11519120
45578,11525568
46629,11527768
47668,11529384
48708,11532032
49755,11532456
50803,11532456
51854,11532512
52901,11532592
53946,11532976
54992,11532976
56017,11532976
57064,11538136
58108,11545752
59151,11555472
60194,11559664
61239,11569216
62286,11569840
63328,11580128
64365,11591160
65392,11604000
66418,11613584
67457,11618288
68484,11624064
69532,11624544
70576,11624712
71622,11626088
72668,11627320
73712,11629104
74751,11630592
75793,11630592
76839,11630592
77884,11630592
78918,11636376
79961,11650624
81005,11656488
82050,11666632
83094,11676632
84136,11688824
85175,11698648
86224,11708856
87272,11722256
88316,11731064
89357,11742568
90404,11750008
91452,11755112
92500,11756648
93541,11756704
94563,11756680
95589,11756680
96622,11768112
97662,11770576
98708,11782944
99752,11791472
100774,11794608
101797,11796280
102819,11803400
103860,11808744
104901,11808744
105924,11808744
106948,11809928
107991,11809928
109038,11811352
110085,11812536
111108,11814576
112131,11820704
113172,11827128
114212,11829736
115234,11830968
116257,11837560
117302,11843072
118345,11848816
119365,11857528
120404,11870112
121427,11880680
122468,11887608
123509,11897520
124533,11907432
125575,11919312
126623,11933384
127675,11952592
128726,11964936
129750,11970016
130794,11972560
131836,11973688
132878,11973744
133920,11973768
134946,11973768
135991,11973768
137036,11974840
138083,11973568
139128,11974784
140162,11974784
141213,11976016
142256,11983824
143278,11992576
144320,11994056
145341,11995776
146382,12007104
147422,12014096
148469,12022440
149518,12034920
150541,12047568
151585,12057488
152628,12052488
152929,11981912
