
Batch, Params, start (ms), end (ms), diff (ms), V/ms, ms/V
1, EXP 1,  1613080214822, 1613080230779, 15957, 0.062668, 15, 
2, EXP 1,  1613080230793, 1613080236230, 5437, 0.183925, 5, 
3, EXP 1,  1613080236245, 1613080240755, 4510, 0.221729, 4, 
4, EXP 1,  1613080240766, 1613080244276, 3510, 0.284900, 3, 
5, EXP 1,  1613080244287, 1613080247748, 3461, 0.288934, 3, 
6, EXP 1,  1613080247759, 1613080251282, 3523, 0.283849, 3, 
7, EXP 1,  1613080251294, 1613080253746, 2452, 0.407830, 2, 
8, EXP 1,  1613080253757, 1613080255911, 2154, 0.464253, 2, 
9, EXP 1,  1613080255923, 1613080257728, 1805, 0.554017, 1, 
10, EXP 1,  1613080257739, 1613080259733, 1994, 0.501505, 1, 
Total runtime, 44,sec
