Dec 23 23:03:15 CONTAINER ID   NAME        CPU %     MEM USAGE / LIMIT     MEM %     NET I/O       BLOCK I/O         PIDS
Dec 23 23:03:15 175a7162e018   portainer   0.00%     16.23MiB / 15.66GiB   0.10%     9.79kB / 0B   58.1MB / 3.43MB   7
Dec 23 23:03:15                --          0.00%     0B / 0B               0.00%     0B / 0B       0B / 0B           0
Dec 23 23:03:19 CONTAINER ID   NAME                    CPU %     MEM USAGE / LIMIT     MEM %     NET I/O       BLOCK I/O         PIDS
Dec 23 23:03:19 a34f688d5012   prov_aic_janusgraph_1   231.61%   669.3MiB / 15.66GiB   4.17%     5.21kB / 0B   0B / 233kB        21
Dec 23 23:03:19 175a7162e018   portainer               0.02%     16.23MiB / 15.66GiB   0.10%     9.79kB / 0B   58.1MB / 3.43MB   7
Dec 23 23:03:23 CONTAINER ID   NAME                    CPU %     MEM USAGE / LIMIT     MEM %     NET I/O       BLOCK I/O         PIDS
Dec 23 23:03:23 a34f688d5012   prov_aic_janusgraph_1   278.22%   744.2MiB / 15.66GiB   4.64%     6.48kB / 0B   0B / 233kB        23
Dec 23 23:03:23 175a7162e018   portainer               0.00%     16.23MiB / 15.66GiB   0.10%     9.79kB / 0B   58.1MB / 3.43MB   7
Dec 23 23:03:25 CONTAINER ID   NAME                    CPU %     MEM USAGE / LIMIT     MEM %     NET I/O       BLOCK I/O         PIDS
Dec 23 23:03:25 a34f688d5012   prov_aic_janusgraph_1   0.14%     761.9MiB / 15.66GiB   4.75%     6.7kB / 0B    0B / 233kB        23
Dec 23 23:03:25 175a7162e018   portainer               0.00%     16.23MiB / 15.66GiB   0.10%     9.79kB / 0B   58.1MB / 3.43MB   7
Dec 23 23:03:29 CONTAINER ID   NAME                    CPU %     MEM USAGE / LIMIT     MEM %     NET I/O       BLOCK I/O         PIDS
Dec 23 23:03:29 a34f688d5012   prov_aic_janusgraph_1   292.77%   594MiB / 15.66GiB     3.70%     6.76kB / 0B   0B / 233kB        21
Dec 23 23:03:29 175a7162e018   portainer               0.01%     16.23MiB / 15.66GiB   0.10%     9.79kB / 0B   58.1MB / 3.43MB   7
Dec 23 23:03:33 CONTAINER ID   NAME                    CPU %     MEM USAGE / LIMIT     MEM %     NET I/O       BLOCK I/O         PIDS
Dec 23 23:03:33 a34f688d5012   prov_aic_janusgraph_1   185.15%   731.3MiB / 15.66GiB   4.56%     6.96kB / 0B   0B / 233kB        22
Dec 23 23:03:33 175a7162e018   portainer               0.02%     16.23MiB / 15.66GiB   0.10%     9.79kB / 0B   58.1MB / 3.43MB   7
Dec 23 23:03:36 CONTAINER ID   NAME                    CPU %     MEM USAGE / LIMIT     MEM %     NET I/O       BLOCK I/O         PIDS
Dec 23 23:03:36 a34f688d5012   prov_aic_janusgraph_1   0.33%     723.2MiB / 15.66GiB   4.51%     7.07kB / 0B   0B / 233kB        22
Dec 23 23:03:36 175a7162e018   portainer               0.00%     16.72MiB / 15.66GiB   0.10%     9.79kB / 0B   58.1MB / 3.58MB   7
Dec 23 23:03:40 CONTAINER ID   NAME                    CPU %     MEM USAGE / LIMIT     MEM %     NET I/O       BLOCK I/O         PIDS
Dec 23 23:03:40 a34f688d5012   prov_aic_janusgraph_1   0.10%     723.2MiB / 15.66GiB   4.51%     7.07kB / 0B   0B / 233kB        22
Dec 23 23:03:40 175a7162e018   portainer               0.00%     16.72MiB / 15.66GiB   0.10%     9.79kB / 0B   58.1MB / 3.58MB   7
Dec 23 23:03:43 CONTAINER ID   NAME                    CPU %     MEM USAGE / LIMIT     MEM %     NET I/O       BLOCK I/O         PIDS
Dec 23 23:03:43 a34f688d5012   prov_aic_janusgraph_1   0.10%     723.2MiB / 15.66GiB   4.51%     7.07kB / 0B   0B / 233kB        22
Dec 23 23:03:43 175a7162e018   portainer               0.14%     16.73MiB / 15.66GiB   0.10%     9.79kB / 0B   58.1MB / 3.58MB   7
Dec 23 23:03:46 CONTAINER ID   NAME                    CPU %     MEM USAGE / LIMIT     MEM %     NET I/O       BLOCK I/O         PIDS
Dec 23 23:03:46 a34f688d5012   prov_aic_janusgraph_1   0.10%     723.2MiB / 15.66GiB   4.51%     7.14kB / 0B   0B / 233kB        22
Dec 23 23:03:46 175a7162e018   portainer               0.00%     16.73MiB / 15.66GiB   0.10%     9.79kB / 0B   58.1MB / 3.58MB   7
Dec 23 23:03:50 CONTAINER ID   NAME                    CPU %     MEM USAGE / LIMIT     MEM %     NET I/O       BLOCK I/O         PIDS
Dec 23 23:03:50 a34f688d5012   prov_aic_janusgraph_1   0.09%     723.2MiB / 15.66GiB   4.51%     7.33kB / 0B   0B / 233kB        22
Dec 23 23:03:50 175a7162e018   portainer               0.00%     16.73MiB / 15.66GiB   0.10%     9.79kB / 0B   58.1MB / 3.58MB   7
Dec 23 23:03:53 CONTAINER ID   NAME                    CPU %     MEM USAGE / LIMIT     MEM %     NET I/O       BLOCK I/O         PIDS
Dec 23 23:03:53 a34f688d5012   prov_aic_janusgraph_1   0.19%     723.2MiB / 15.66GiB   4.51%     7.44kB / 0B   0B / 233kB        22
Dec 23 23:03:53 175a7162e018   portainer               0.00%     16.73MiB / 15.66GiB   0.10%     9.79kB / 0B   58.1MB / 3.58MB   7
Dec 23 23:03:57 CONTAINER ID   NAME                    CPU %     MEM USAGE / LIMIT     MEM %     NET I/O         BLOCK I/O         PIDS
Dec 23 23:03:57 a34f688d5012   prov_aic_janusgraph_1   25.92%    728.4MiB / 15.66GiB   4.54%     8.67kB / 778B   0B / 233kB        24
Dec 23 23:03:57 175a7162e018   portainer               0.00%     16.73MiB / 15.66GiB   0.10%     9.79kB / 0B     58.1MB / 3.58MB   7
Dec 23 23:04:00 CONTAINER ID   NAME                    CPU %     MEM USAGE / LIMIT     MEM %     NET I/O           BLOCK I/O         PIDS
Dec 23 23:04:00 a34f688d5012   prov_aic_janusgraph_1   34.57%    738.3MiB / 15.66GiB   4.60%     15.3kB / 4.69kB   0B / 233kB        45
Dec 23 23:04:00 175a7162e018   portainer               0.00%     16.73MiB / 15.66GiB   0.10%     9.79kB / 0B       58.1MB / 3.58MB   7
Dec 23 23:04:04 CONTAINER ID   NAME                    CPU %     MEM USAGE / LIMIT     MEM %     NET I/O         BLOCK I/O         PIDS
Dec 23 23:04:04 a34f688d5012   prov_aic_janusgraph_1   142.55%   753.6MiB / 15.66GiB   4.70%     300kB / 139kB   0B / 233kB        53
Dec 23 23:04:04 175a7162e018   portainer               0.03%     16.73MiB / 15.66GiB   0.10%     9.79kB / 0B     58.1MB / 3.58MB   7
Dec 23 23:04:08 CONTAINER ID   NAME                    CPU %     MEM USAGE / LIMIT     MEM %     NET I/O         BLOCK I/O         PIDS
Dec 23 23:04:08 a34f688d5012   prov_aic_janusgraph_1   84.30%    750.6MiB / 15.66GiB   4.68%     511kB / 239kB   0B / 233kB        53
Dec 23 23:04:08 175a7162e018   portainer               0.00%     16.73MiB / 15.66GiB   0.10%     9.79kB / 0B     58.1MB / 3.58MB   7
Dec 23 23:04:11 CONTAINER ID   NAME                    CPU %     MEM USAGE / LIMIT     MEM %     NET I/O         BLOCK I/O         PIDS
Dec 23 23:04:11 a34f688d5012   prov_aic_janusgraph_1   180.85%   752.7MiB / 15.66GiB   4.69%     676kB / 317kB   0B / 233kB        53
Dec 23 23:04:11 175a7162e018   portainer               0.00%     16.73MiB / 15.66GiB   0.10%     9.79kB / 0B     58.1MB / 3.58MB   7
Dec 23 23:04:15 CONTAINER ID   NAME                    CPU %     MEM USAGE / LIMIT     MEM %     NET I/O         BLOCK I/O         PIDS
Dec 23 23:04:15 a34f688d5012   prov_aic_janusgraph_1   0.09%     752.4MiB / 15.66GiB   4.69%     715kB / 336kB   0B / 233kB        53
Dec 23 23:04:15 175a7162e018   portainer               0.00%     16.73MiB / 15.66GiB   0.10%     9.79kB / 0B     58.1MB / 3.58MB   7
Dec 23 23:04:18 CONTAINER ID   NAME                    CPU %     MEM USAGE / LIMIT     MEM %     NET I/O         BLOCK I/O         PIDS
Dec 23 23:04:18 a34f688d5012   prov_aic_janusgraph_1   0.18%     753.2MiB / 15.66GiB   4.70%     932kB / 439kB   0B / 233kB        53
Dec 23 23:04:18 175a7162e018   portainer               0.00%     16.73MiB / 15.66GiB   0.10%     9.79kB / 0B     58.1MB / 3.58MB   7
Dec 23 23:04:22 CONTAINER ID   NAME                    CPU %     MEM USAGE / LIMIT     MEM %     NET I/O          BLOCK I/O         PIDS
Dec 23 23:04:22 a34f688d5012   prov_aic_janusgraph_1   143.20%   756.1MiB / 15.66GiB   4.71%     1.09MB / 515kB   0B / 233kB        53
Dec 23 23:04:22 175a7162e018   portainer               0.00%     16.73MiB / 15.66GiB   0.10%     9.79kB / 0B      58.1MB / 3.58MB   7
Dec 23 23:04:26 CONTAINER ID   NAME                    CPU %     MEM USAGE / LIMIT     MEM %     NET I/O          BLOCK I/O         PIDS
Dec 23 23:04:26 a34f688d5012   prov_aic_janusgraph_1   0.10%     755.9MiB / 15.66GiB   4.71%     1.14MB / 536kB   0B / 233kB        53
Dec 23 23:04:26 175a7162e018   portainer               0.00%     16.73MiB / 15.66GiB   0.10%     9.79kB / 0B      58.1MB / 3.58MB   7
Dec 23 23:04:29 CONTAINER ID   NAME                    CPU %     MEM USAGE / LIMIT     MEM %     NET I/O          BLOCK I/O         PIDS
Dec 23 23:04:29 a34f688d5012   prov_aic_janusgraph_1   0.32%     756.3MiB / 15.66GiB   4.72%     1.34MB / 632kB   0B / 233kB        53
Dec 23 23:04:29 175a7162e018   portainer               0.00%     16.73MiB / 15.66GiB   0.10%     9.79kB / 0B      58.1MB / 3.58MB   7
Dec 23 23:04:33 CONTAINER ID   NAME                    CPU %     MEM USAGE / LIMIT     MEM %     NET I/O          BLOCK I/O         PIDS
Dec 23 23:04:33 a34f688d5012   prov_aic_janusgraph_1   15.18%    772.6MiB / 15.66GiB   4.82%     1.57MB / 741kB   0B / 233kB        53
Dec 23 23:04:33 175a7162e018   portainer               0.00%     16.73MiB / 15.66GiB   0.10%     9.79kB / 0B      58.1MB / 3.58MB   7
Dec 23 23:04:37 CONTAINER ID   NAME                    CPU %     MEM USAGE / LIMIT     MEM %     NET I/O          BLOCK I/O         PIDS
Dec 23 23:04:37 a34f688d5012   prov_aic_janusgraph_1   49.91%    764MiB / 15.66GiB     4.76%     1.77MB / 838kB   0B / 233kB        53
Dec 23 23:04:37 175a7162e018   portainer               0.00%     16.73MiB / 15.66GiB   0.10%     9.79kB / 0B      58.1MB / 3.58MB   7
Dec 23 23:04:40 CONTAINER ID   NAME                    CPU %     MEM USAGE / LIMIT     MEM %     NET I/O          BLOCK I/O         PIDS
Dec 23 23:04:40 a34f688d5012   prov_aic_janusgraph_1   132.72%   764MiB / 15.66GiB     4.76%     1.86MB / 879kB   0B / 233kB        53
Dec 23 23:04:40 175a7162e018   portainer               0.00%     16.73MiB / 15.66GiB   0.10%     9.79kB / 0B      58.1MB / 3.58MB   7
Dec 23 23:04:44 CONTAINER ID   NAME                    CPU %     MEM USAGE / LIMIT     MEM %     NET I/O          BLOCK I/O         PIDS
Dec 23 23:04:44 a34f688d5012   prov_aic_janusgraph_1   0.13%     764.3MiB / 15.66GiB   4.76%     1.98MB / 935kB   0B / 233kB        53
Dec 23 23:04:44 175a7162e018   portainer               0.02%     16.73MiB / 15.66GiB   0.10%     9.79kB / 0B      58.1MB / 3.58MB   7
Dec 23 23:04:47 CONTAINER ID   NAME                    CPU %     MEM USAGE / LIMIT     MEM %     NET I/O          BLOCK I/O         PIDS
Dec 23 23:04:47 a34f688d5012   prov_aic_janusgraph_1   1.12%     764.4MiB / 15.66GiB   4.77%     2.2MB / 1.04MB   0B / 233kB        53
Dec 23 23:04:47 175a7162e018   portainer               0.00%     16.73MiB / 15.66GiB   0.10%     9.79kB / 0B      58.1MB / 3.58MB   7
Dec 23 23:04:51 CONTAINER ID   NAME                    CPU %     MEM USAGE / LIMIT     MEM %     NET I/O           BLOCK I/O         PIDS
Dec 23 23:04:51 a34f688d5012   prov_aic_janusgraph_1   21.56%    764.5MiB / 15.66GiB   4.77%     2.39MB / 1.13MB   0B / 233kB        53
Dec 23 23:04:51 175a7162e018   portainer               0.00%     16.73MiB / 15.66GiB   0.10%     9.79kB / 0B       58.1MB / 3.58MB   7
Dec 23 23:04:54 CONTAINER ID   NAME                    CPU %     MEM USAGE / LIMIT     MEM %     NET I/O           BLOCK I/O         PIDS
Dec 23 23:04:54 a34f688d5012   prov_aic_janusgraph_1   5.17%     764.5MiB / 15.66GiB   4.77%     2.42MB / 1.14MB   0B / 233kB        53
Dec 23 23:04:54 175a7162e018   portainer               0.12%     16.73MiB / 15.66GiB   0.10%     9.79kB / 0B       58.1MB / 3.58MB   7
Dec 23 23:04:58 CONTAINER ID   NAME                    CPU %     MEM USAGE / LIMIT     MEM %     NET I/O           BLOCK I/O         PIDS
Dec 23 23:04:58 a34f688d5012   prov_aic_janusgraph_1   0.14%     764.6MiB / 15.66GiB   4.77%     2.61MB / 1.23MB   0B / 233kB        53
Dec 23 23:04:58 175a7162e018   portainer               0.00%     16.73MiB / 15.66GiB   0.10%     9.79kB / 0B       58.1MB / 3.58MB   7
Dec 23 23:05:02 CONTAINER ID   NAME                    CPU %     MEM USAGE / LIMIT     MEM %     NET I/O           BLOCK I/O         PIDS
Dec 23 23:05:02 a34f688d5012   prov_aic_janusgraph_1   40.45%    764.6MiB / 15.66GiB   4.77%     2.81MB / 1.33MB   0B / 233kB        53
Dec 23 23:05:02 175a7162e018   portainer               0.00%     16.73MiB / 15.66GiB   0.10%     9.79kB / 0B       58.1MB / 3.58MB   7
Dec 23 23:05:05 CONTAINER ID   NAME                    CPU %     MEM USAGE / LIMIT     MEM %     NET I/O           BLOCK I/O         PIDS
Dec 23 23:05:05 a34f688d5012   prov_aic_janusgraph_1   5.42%     764.7MiB / 15.66GiB   4.77%     2.85MB / 1.35MB   0B / 233kB        53
Dec 23 23:05:05 175a7162e018   portainer               0.00%     16.73MiB / 15.66GiB   0.10%     9.79kB / 0B       58.1MB / 3.58MB   7
Dec 23 23:05:09 CONTAINER ID   NAME                    CPU %     MEM USAGE / LIMIT     MEM %     NET I/O           BLOCK I/O         PIDS
Dec 23 23:05:09 a34f688d5012   prov_aic_janusgraph_1   0.11%     764.6MiB / 15.66GiB   4.77%     3.02MB / 1.43MB   0B / 233kB        53
Dec 23 23:05:09 175a7162e018   portainer               0.02%     16.73MiB / 15.66GiB   0.10%     9.79kB / 0B       58.1MB / 3.58MB   7
Dec 23 23:05:12 CONTAINER ID   NAME                    CPU %     MEM USAGE / LIMIT     MEM %     NET I/O           BLOCK I/O         PIDS
Dec 23 23:05:12 a34f688d5012   prov_aic_janusgraph_1   4.12%     764.6MiB / 15.66GiB   4.77%     3.26MB / 1.54MB   0B / 233kB        53
Dec 23 23:05:12 175a7162e018   portainer               0.00%     16.73MiB / 15.66GiB   0.10%     9.79kB / 0B       58.1MB / 3.58MB   7
Dec 23 23:05:16 CONTAINER ID   NAME                    CPU %     MEM USAGE / LIMIT     MEM %     NET I/O           BLOCK I/O         PIDS
Dec 23 23:05:16 a34f688d5012   prov_aic_janusgraph_1   3.74%     764.9MiB / 15.66GiB   4.77%     3.44MB / 1.63MB   0B / 233kB        53
Dec 23 23:05:16 175a7162e018   portainer               0.00%     16.73MiB / 15.66GiB   0.10%     9.79kB / 0B       58.1MB / 3.58MB   7
Dec 23 23:05:20 CONTAINER ID   NAME                    CPU %     MEM USAGE / LIMIT     MEM %     NET I/O           BLOCK I/O         PIDS
Dec 23 23:05:20 a34f688d5012   prov_aic_janusgraph_1   72.44%    764.9MiB / 15.66GiB   4.77%     3.63MB / 1.72MB   0B / 233kB        53
Dec 23 23:05:20 175a7162e018   portainer               0.00%     16.73MiB / 15.66GiB   0.10%     9.79kB / 0B       58.1MB / 3.58MB   7
Dec 23 23:05:23 CONTAINER ID   NAME                    CPU %     MEM USAGE / LIMIT     MEM %     NET I/O           BLOCK I/O         PIDS
Dec 23 23:05:23 a34f688d5012   prov_aic_janusgraph_1   4.27%     764.9MiB / 15.66GiB   4.77%     3.65MB / 1.73MB   0B / 233kB        53
Dec 23 23:05:23 175a7162e018   portainer               0.00%     16.73MiB / 15.66GiB   0.10%     9.79kB / 0B       58.1MB / 3.58MB   7
Dec 23 23:05:26 CONTAINER ID   NAME                    CPU %     MEM USAGE / LIMIT     MEM %     NET I/O           BLOCK I/O         PIDS
Dec 23 23:05:26 a34f688d5012   prov_aic_janusgraph_1   12.64%    764.9MiB / 15.66GiB   4.77%     3.85MB / 1.82MB   0B / 233kB        53
Dec 23 23:05:26 175a7162e018   portainer               0.00%     16.73MiB / 15.66GiB   0.10%     9.79kB / 0B       58.1MB / 3.58MB   7
Dec 23 23:05:29 CONTAINER ID   NAME                    CPU %     MEM USAGE / LIMIT     MEM %     NET I/O           BLOCK I/O         PIDS
Dec 23 23:05:29 a34f688d5012   prov_aic_janusgraph_1   43.05%    764.9MiB / 15.66GiB   4.77%     4.05MB / 1.92MB   0B / 233kB        53
Dec 23 23:05:29 175a7162e018   portainer               0.02%     16.73MiB / 15.66GiB   0.10%     9.79kB / 0B       58.1MB / 3.58MB   7
Dec 23 23:05:33 CONTAINER ID   NAME                    CPU %     MEM USAGE / LIMIT     MEM %     NET I/O           BLOCK I/O         PIDS
Dec 23 23:05:33 a34f688d5012   prov_aic_janusgraph_1   0.24%     764.9MiB / 15.66GiB   4.77%     4.06MB / 1.92MB   0B / 233kB        53
Dec 23 23:05:33 175a7162e018   portainer               0.00%     16.73MiB / 15.66GiB   0.10%     9.79kB / 0B       58.1MB / 3.58MB   7
Dec 23 23:05:37 CONTAINER ID   NAME                    CPU %     MEM USAGE / LIMIT     MEM %     NET I/O           BLOCK I/O         PIDS
Dec 23 23:05:37 a34f688d5012   prov_aic_janusgraph_1   0.10%     774.9MiB / 15.66GiB   4.83%     4.29MB / 2.03MB   0B / 233kB        53
Dec 23 23:05:37 175a7162e018   portainer               0.00%     16.73MiB / 15.66GiB   0.10%     9.79kB / 0B       58.1MB / 3.58MB   7
Dec 23 23:05:40 CONTAINER ID   NAME                    CPU %     MEM USAGE / LIMIT     MEM %     NET I/O           BLOCK I/O         PIDS
Dec 23 23:05:40 a34f688d5012   prov_aic_janusgraph_1   34.11%    775MiB / 15.66GiB     4.83%     4.46MB / 2.11MB   0B / 233kB        53
Dec 23 23:05:40 175a7162e018   portainer               0.00%     16.73MiB / 15.66GiB   0.10%     9.79kB / 0B       58.1MB / 3.58MB   7
Dec 23 23:05:44 CONTAINER ID   NAME                    CPU %     MEM USAGE / LIMIT     MEM %     NET I/O           BLOCK I/O         PIDS
Dec 23 23:05:44 a34f688d5012   prov_aic_janusgraph_1   20.84%    775MiB / 15.66GiB     4.83%     4.62MB / 2.19MB   0B / 233kB        53
Dec 23 23:05:44 175a7162e018   portainer               0.11%     16.73MiB / 15.66GiB   0.10%     9.79kB / 0B       58.1MB / 3.58MB   7
Dec 23 23:05:47 CONTAINER ID   NAME                    CPU %     MEM USAGE / LIMIT     MEM %     NET I/O           BLOCK I/O         PIDS
Dec 23 23:05:47 a34f688d5012   prov_aic_janusgraph_1   2.29%     775MiB / 15.66GiB     4.83%     4.72MB / 2.23MB   0B / 233kB        53
Dec 23 23:05:47 175a7162e018   portainer               0.00%     16.73MiB / 15.66GiB   0.10%     9.79kB / 0B       58.1MB / 3.58MB   7
Dec 23 23:05:51 CONTAINER ID   NAME                    CPU %     MEM USAGE / LIMIT     MEM %     NET I/O          BLOCK I/O         PIDS
Dec 23 23:05:51 a34f688d5012   prov_aic_janusgraph_1   2.75%     775MiB / 15.66GiB     4.83%     4.86MB / 2.3MB   0B / 233kB        53
Dec 23 23:05:51 175a7162e018   portainer               0.00%     16.73MiB / 15.66GiB   0.10%     9.79kB / 0B      58.1MB / 3.58MB   7
Dec 23 23:05:54 CONTAINER ID   NAME                    CPU %     MEM USAGE / LIMIT     MEM %     NET I/O        BLOCK I/O         PIDS
Dec 23 23:05:54 a34f688d5012   prov_aic_janusgraph_1   19.15%    775MiB / 15.66GiB     4.83%     5MB / 2.37MB   0B / 233kB        53
Dec 23 23:05:54 175a7162e018   portainer               0.09%     16.73MiB / 15.66GiB   0.10%     9.79kB / 0B    58.1MB / 3.58MB   7
Dec 23 23:05:57 CONTAINER ID   NAME                    CPU %     MEM USAGE / LIMIT     MEM %     NET I/O           BLOCK I/O         PIDS
Dec 23 23:05:57 a34f688d5012   prov_aic_janusgraph_1   2.09%     775MiB / 15.66GiB     4.83%     5.13MB / 2.43MB   0B / 233kB        53
Dec 23 23:05:57 175a7162e018   portainer               0.00%     16.73MiB / 15.66GiB   0.10%     9.79kB / 0B       58.1MB / 3.58MB   7
Dec 23 23:06:01 CONTAINER ID   NAME                    CPU %     MEM USAGE / LIMIT     MEM %     NET I/O           BLOCK I/O         PIDS
Dec 23 23:06:01 a34f688d5012   prov_aic_janusgraph_1   0.09%     775MiB / 15.66GiB     4.83%     5.34MB / 2.53MB   0B / 233kB        53
Dec 23 23:06:01 175a7162e018   portainer               0.00%     16.73MiB / 15.66GiB   0.10%     9.79kB / 0B       58.1MB / 3.58MB   7
Dec 23 23:06:04 CONTAINER ID   NAME                    CPU %     MEM USAGE / LIMIT     MEM %     NET I/O           BLOCK I/O         PIDS
Dec 23 23:06:04 a34f688d5012   prov_aic_janusgraph_1   17.81%    775.1MiB / 15.66GiB   4.83%     5.47MB / 2.59MB   0B / 233kB        53
Dec 23 23:06:04 175a7162e018   portainer               0.00%     16.73MiB / 15.66GiB   0.10%     9.79kB / 0B       58.1MB / 3.58MB   7
Dec 23 23:06:08 CONTAINER ID   NAME                    CPU %     MEM USAGE / LIMIT     MEM %     NET I/O           BLOCK I/O         PIDS
Dec 23 23:06:08 a34f688d5012   prov_aic_janusgraph_1   1.06%     775MiB / 15.66GiB     4.83%     5.52MB / 2.61MB   0B / 233kB        53
Dec 23 23:06:08 175a7162e018   portainer               0.00%     16.73MiB / 15.66GiB   0.10%     9.79kB / 0B       58.1MB / 3.58MB   7
Dec 23 23:06:12 CONTAINER ID   NAME                    CPU %     MEM USAGE / LIMIT     MEM %     NET I/O           BLOCK I/O         PIDS
Dec 23 23:06:12 a34f688d5012   prov_aic_janusgraph_1   0.33%     775MiB / 15.66GiB     4.83%     5.78MB / 2.74MB   0B / 233kB        53
Dec 23 23:06:12 175a7162e018   portainer               0.00%     16.73MiB / 15.66GiB   0.10%     9.79kB / 0B       58.1MB / 3.58MB   7
Dec 23 23:06:15 CONTAINER ID   NAME                    CPU %     MEM USAGE / LIMIT     MEM %     NET I/O           BLOCK I/O         PIDS
Dec 23 23:06:15 a34f688d5012   prov_aic_janusgraph_1   26.12%    775MiB / 15.66GiB     4.83%     6.04MB / 2.86MB   0B / 233kB        53
Dec 23 23:06:15 175a7162e018   portainer               0.00%     16.73MiB / 15.66GiB   0.10%     9.79kB / 0B       58.1MB / 3.58MB   7
Dec 23 23:06:19 CONTAINER ID   NAME                    CPU %     MEM USAGE / LIMIT     MEM %     NET I/O           BLOCK I/O         PIDS
Dec 23 23:06:19 a34f688d5012   prov_aic_janusgraph_1   2.43%     775MiB / 15.66GiB     4.83%     6.12MB / 2.89MB   0B / 233kB        53
Dec 23 23:06:19 175a7162e018   portainer               0.02%     16.73MiB / 15.66GiB   0.10%     9.79kB / 0B       58.1MB / 3.58MB   7
Dec 23 23:06:22 CONTAINER ID   NAME                    CPU %     MEM USAGE / LIMIT     MEM %     NET I/O           BLOCK I/O         PIDS
Dec 23 23:06:22 a34f688d5012   prov_aic_janusgraph_1   0.10%     775MiB / 15.66GiB     4.83%     6.54MB / 3.09MB   0B / 233kB        53
Dec 23 23:06:22 175a7162e018   portainer               0.00%     16.73MiB / 15.66GiB   0.10%     9.79kB / 0B       58.1MB / 3.58MB   7
Dec 23 23:06:26 CONTAINER ID   NAME                    CPU %     MEM USAGE / LIMIT     MEM %     NET I/O           BLOCK I/O         PIDS
Dec 23 23:06:26 a34f688d5012   prov_aic_janusgraph_1   26.45%    787MiB / 15.66GiB     4.91%     6.68MB / 3.16MB   0B / 233kB        53
Dec 23 23:06:26 175a7162e018   portainer               0.00%     16.73MiB / 15.66GiB   0.10%     9.79kB / 0B       58.1MB / 3.58MB   7
Dec 23 23:06:30 CONTAINER ID   NAME                    CPU %     MEM USAGE / LIMIT     MEM %     NET I/O           BLOCK I/O         PIDS
Dec 23 23:06:30 a34f688d5012   prov_aic_janusgraph_1   0.82%     793.2MiB / 15.66GiB   4.95%     6.68MB / 3.16MB   0B / 233kB        53
Dec 23 23:06:30 175a7162e018   portainer               0.00%     16.73MiB / 15.66GiB   0.10%     9.79kB / 0B       58.1MB / 3.58MB   7
