Dec 23 23:23:46 CONTAINER ID   NAME        CPU %     MEM USAGE / LIMIT     MEM %     NET I/O       BLOCK I/O         PIDS
Dec 23 23:23:46 175a7162e018   portainer   0.00%     16.66MiB / 15.66GiB   0.10%     9.79kB / 0B   58.3MB / 4.17MB   7
Dec 23 23:23:46                --          0.00%     0B / 0B               0.00%     0B / 0B       0B / 0B           0
Dec 23 23:23:50 CONTAINER ID   NAME                    CPU %     MEM USAGE / LIMIT     MEM %     NET I/O       BLOCK I/O         PIDS
Dec 23 23:23:50 807a2f2882ea   prov_aic_janusgraph_1   237.89%   671.2MiB / 15.66GiB   4.18%     5.35kB / 0B   0B / 233kB        21
Dec 23 23:23:50 175a7162e018   portainer               0.00%     16.66MiB / 15.66GiB   0.10%     9.79kB / 0B   58.3MB / 4.17MB   7
Dec 23 23:23:53 CONTAINER ID   NAME                    CPU %     MEM USAGE / LIMIT     MEM %     NET I/O       BLOCK I/O         PIDS
Dec 23 23:23:53 807a2f2882ea   prov_aic_janusgraph_1   285.48%   749.6MiB / 15.66GiB   4.67%     6.62kB / 0B   0B / 233kB        23
Dec 23 23:23:53 175a7162e018   portainer               0.00%     16.66MiB / 15.66GiB   0.10%     9.79kB / 0B   58.3MB / 4.17MB   7
Dec 23 23:23:57 CONTAINER ID   NAME                    CPU %     MEM USAGE / LIMIT     MEM %     NET I/O       BLOCK I/O         PIDS
Dec 23 23:23:57 807a2f2882ea   prov_aic_janusgraph_1   0.14%     757.4MiB / 15.66GiB   4.72%     6.84kB / 0B   0B / 233kB        23
Dec 23 23:23:57 175a7162e018   portainer               0.00%     16.66MiB / 15.66GiB   0.10%     9.79kB / 0B   58.3MB / 4.17MB   7
Dec 23 23:24:00 CONTAINER ID   NAME                    CPU %     MEM USAGE / LIMIT     MEM %     NET I/O       BLOCK I/O         PIDS
Dec 23 23:24:00 807a2f2882ea   prov_aic_janusgraph_1   279.31%   579.4MiB / 15.66GiB   3.61%     6.84kB / 0B   0B / 332kB        21
Dec 23 23:24:00 175a7162e018   portainer               0.00%     16.66MiB / 15.66GiB   0.10%     9.79kB / 0B   58.3MB / 4.17MB   7
Dec 23 23:24:04 CONTAINER ID   NAME                    CPU %     MEM USAGE / LIMIT     MEM %     NET I/O       BLOCK I/O         PIDS
Dec 23 23:24:04 807a2f2882ea   prov_aic_janusgraph_1   0.11%     731.2MiB / 15.66GiB   4.56%     7.21kB / 0B   0B / 332kB        22
Dec 23 23:24:04 175a7162e018   portainer               0.00%     16.67MiB / 15.66GiB   0.10%     9.79kB / 0B   58.3MB / 4.17MB   7
Dec 23 23:24:08 CONTAINER ID   NAME                    CPU %     MEM USAGE / LIMIT     MEM %     NET I/O       BLOCK I/O         PIDS
Dec 23 23:24:08 807a2f2882ea   prov_aic_janusgraph_1   0.08%     731.2MiB / 15.66GiB   4.56%     7.21kB / 0B   0B / 332kB        22
Dec 23 23:24:08 175a7162e018   portainer               0.00%     16.67MiB / 15.66GiB   0.10%     9.79kB / 0B   58.3MB / 4.17MB   7
Dec 23 23:24:11 CONTAINER ID   NAME                    CPU %     MEM USAGE / LIMIT     MEM %     NET I/O       BLOCK I/O         PIDS
Dec 23 23:24:11 807a2f2882ea   prov_aic_janusgraph_1   0.10%     731.2MiB / 15.66GiB   4.56%     7.21kB / 0B   0B / 332kB        22
Dec 23 23:24:11 175a7162e018   portainer               0.00%     16.67MiB / 15.66GiB   0.10%     9.79kB / 0B   58.3MB / 4.17MB   7
Dec 23 23:24:15 CONTAINER ID   NAME                    CPU %     MEM USAGE / LIMIT     MEM %     NET I/O       BLOCK I/O         PIDS
Dec 23 23:24:15 807a2f2882ea   prov_aic_janusgraph_1   0.30%     731.2MiB / 15.66GiB   4.56%     7.21kB / 0B   0B / 332kB        22
Dec 23 23:24:15 175a7162e018   portainer               0.00%     16.67MiB / 15.66GiB   0.10%     9.79kB / 0B   58.3MB / 4.17MB   7
Dec 23 23:24:18 CONTAINER ID   NAME                    CPU %     MEM USAGE / LIMIT     MEM %     NET I/O       BLOCK I/O         PIDS
Dec 23 23:24:18 807a2f2882ea   prov_aic_janusgraph_1   0.32%     731.2MiB / 15.66GiB   4.56%     7.47kB / 0B   0B / 332kB        22
Dec 23 23:24:18 175a7162e018   portainer               0.00%     16.67MiB / 15.66GiB   0.10%     9.79kB / 0B   58.3MB / 4.17MB   7
Dec 23 23:24:22 CONTAINER ID   NAME                    CPU %     MEM USAGE / LIMIT     MEM %     NET I/O       BLOCK I/O         PIDS
Dec 23 23:24:22 807a2f2882ea   prov_aic_janusgraph_1   0.10%     731.2MiB / 15.66GiB   4.56%     7.58kB / 0B   0B / 332kB        22
Dec 23 23:24:22 175a7162e018   portainer               0.00%     16.67MiB / 15.66GiB   0.10%     9.79kB / 0B   58.3MB / 4.17MB   7
Dec 23 23:24:26 CONTAINER ID   NAME                    CPU %     MEM USAGE / LIMIT     MEM %     NET I/O       BLOCK I/O         PIDS
Dec 23 23:24:26 807a2f2882ea   prov_aic_janusgraph_1   0.09%     731.2MiB / 15.66GiB   4.56%     7.58kB / 0B   0B / 332kB        22
Dec 23 23:24:26 175a7162e018   portainer               0.00%     16.67MiB / 15.66GiB   0.10%     9.79kB / 0B   58.3MB / 4.17MB   7
Dec 23 23:24:29 CONTAINER ID   NAME                    CPU %     MEM USAGE / LIMIT     MEM %     NET I/O           BLOCK I/O         PIDS
Dec 23 23:24:29 807a2f2882ea   prov_aic_janusgraph_1   32.19%    746.7MiB / 15.66GiB   4.66%     12.7kB / 3.43kB   0B / 332kB        49
Dec 23 23:24:29 175a7162e018   portainer               0.02%     16.67MiB / 15.66GiB   0.10%     9.79kB / 0B       58.3MB / 4.17MB   7
Dec 23 23:24:33 CONTAINER ID   NAME                    CPU %     MEM USAGE / LIMIT     MEM %     NET I/O          BLOCK I/O         PIDS
Dec 23 23:24:33 807a2f2882ea   prov_aic_janusgraph_1   111.07%   756MiB / 15.66GiB     4.71%     119kB / 53.9kB   0B / 332kB        55
Dec 23 23:24:33 175a7162e018   portainer               0.03%     16.67MiB / 15.66GiB   0.10%     9.79kB / 0B      58.3MB / 4.17MB   7
Dec 23 23:24:36 CONTAINER ID   NAME                    CPU %     MEM USAGE / LIMIT     MEM %     NET I/O         BLOCK I/O         PIDS
Dec 23 23:24:36 807a2f2882ea   prov_aic_janusgraph_1   0.14%     760.4MiB / 15.66GiB   4.74%     299kB / 140kB   0B / 332kB        55
Dec 23 23:24:36 175a7162e018   portainer               0.00%     16.67MiB / 15.66GiB   0.10%     9.79kB / 0B     58.3MB / 4.17MB   7
Dec 23 23:24:40 CONTAINER ID   NAME                    CPU %     MEM USAGE / LIMIT     MEM %     NET I/O         BLOCK I/O         PIDS
Dec 23 23:24:40 807a2f2882ea   prov_aic_janusgraph_1   0.26%     761.8MiB / 15.66GiB   4.75%     509kB / 240kB   0B / 332kB        55
Dec 23 23:24:40 175a7162e018   portainer               0.00%     16.67MiB / 15.66GiB   0.10%     9.79kB / 0B     58.3MB / 4.17MB   7
Dec 23 23:24:44 CONTAINER ID   NAME                    CPU %     MEM USAGE / LIMIT     MEM %     NET I/O         BLOCK I/O         PIDS
Dec 23 23:24:44 807a2f2882ea   prov_aic_janusgraph_1   151.51%   763.3MiB / 15.66GiB   4.76%     713kB / 338kB   0B / 332kB        55
Dec 23 23:24:44 175a7162e018   portainer               0.03%     16.67MiB / 15.66GiB   0.10%     9.79kB / 0B     58.3MB / 4.17MB   7
Dec 23 23:24:47 CONTAINER ID   NAME                    CPU %     MEM USAGE / LIMIT     MEM %     NET I/O         BLOCK I/O         PIDS
Dec 23 23:24:47 807a2f2882ea   prov_aic_janusgraph_1   153.01%   764.4MiB / 15.66GiB   4.77%     918kB / 436kB   0B / 332kB        55
Dec 23 23:24:47 175a7162e018   portainer               0.00%     16.67MiB / 15.66GiB   0.10%     9.79kB / 0B     58.3MB / 4.17MB   7
Dec 23 23:24:51 CONTAINER ID   NAME                    CPU %     MEM USAGE / LIMIT     MEM %     NET I/O         BLOCK I/O         PIDS
Dec 23 23:24:51 807a2f2882ea   prov_aic_janusgraph_1   0.11%     764.4MiB / 15.66GiB   4.77%     930kB / 442kB   0B / 332kB        55
Dec 23 23:24:51 175a7162e018   portainer               0.00%     16.67MiB / 15.66GiB   0.10%     9.79kB / 0B     58.3MB / 4.17MB   7
Dec 23 23:24:54 CONTAINER ID   NAME                    CPU %     MEM USAGE / LIMIT     MEM %     NET I/O          BLOCK I/O         PIDS
Dec 23 23:24:54 807a2f2882ea   prov_aic_janusgraph_1   0.10%     764.8MiB / 15.66GiB   4.77%     1.14MB / 539kB   0B / 332kB        55
Dec 23 23:24:54 175a7162e018   portainer               0.11%     16.67MiB / 15.66GiB   0.10%     9.79kB / 0B      58.3MB / 4.17MB   7
Dec 23 23:24:58 CONTAINER ID   NAME                    CPU %     MEM USAGE / LIMIT     MEM %     NET I/O          BLOCK I/O         PIDS
Dec 23 23:24:58 807a2f2882ea   prov_aic_janusgraph_1   2.31%     765MiB / 15.66GiB     4.77%     1.34MB / 637kB   0B / 332kB        55
Dec 23 23:24:58 175a7162e018   portainer               0.00%     16.67MiB / 15.66GiB   0.10%     9.79kB / 0B      58.3MB / 4.17MB   7
Dec 23 23:25:02 CONTAINER ID   NAME                    CPU %     MEM USAGE / LIMIT     MEM %     NET I/O          BLOCK I/O         PIDS
Dec 23 23:25:02 807a2f2882ea   prov_aic_janusgraph_1   155.04%   765.5MiB / 15.66GiB   4.77%     1.56MB / 740kB   0B / 332kB        55
Dec 23 23:25:02 175a7162e018   portainer               0.00%     16.67MiB / 15.66GiB   0.10%     9.79kB / 0B      58.3MB / 4.17MB   7
Dec 23 23:25:05 CONTAINER ID   NAME                    CPU %     MEM USAGE / LIMIT     MEM %     NET I/O          BLOCK I/O         PIDS
Dec 23 23:25:05 807a2f2882ea   prov_aic_janusgraph_1   2.41%     765.6MiB / 15.66GiB   4.77%     1.57MB / 746kB   0B / 332kB        55
Dec 23 23:25:05 175a7162e018   portainer               0.00%     16.67MiB / 15.66GiB   0.10%     9.79kB / 0B      58.3MB / 4.17MB   7
Dec 23 23:25:09 CONTAINER ID   NAME                    CPU %     MEM USAGE / LIMIT     MEM %     NET I/O          BLOCK I/O         PIDS
Dec 23 23:25:09 807a2f2882ea   prov_aic_janusgraph_1   0.14%     766.4MiB / 15.66GiB   4.78%     1.77MB / 844kB   0B / 332kB        55
Dec 23 23:25:09 175a7162e018   portainer               0.03%     16.67MiB / 15.66GiB   0.10%     9.79kB / 0B      58.3MB / 4.17MB   7
Dec 23 23:25:13 CONTAINER ID   NAME                    CPU %     MEM USAGE / LIMIT     MEM %     NET I/O          BLOCK I/O         PIDS
Dec 23 23:25:13 807a2f2882ea   prov_aic_janusgraph_1   2.12%     766.6MiB / 15.66GiB   4.78%     1.98MB / 942kB   0B / 332kB        55
Dec 23 23:25:13 175a7162e018   portainer               0.00%     16.67MiB / 15.66GiB   0.10%     9.79kB / 0B      58.3MB / 4.17MB   7
Dec 23 23:25:16 CONTAINER ID   NAME                    CPU %     MEM USAGE / LIMIT     MEM %     NET I/O          BLOCK I/O         PIDS
Dec 23 23:25:16 807a2f2882ea   prov_aic_janusgraph_1   3.16%     766.6MiB / 15.66GiB   4.78%     1.99MB / 948kB   0B / 332kB        55
Dec 23 23:25:16 175a7162e018   portainer               0.00%     16.67MiB / 15.66GiB   0.10%     9.79kB / 0B      58.3MB / 4.17MB   7
Dec 23 23:25:20 CONTAINER ID   NAME                    CPU %     MEM USAGE / LIMIT     MEM %     NET I/O          BLOCK I/O         PIDS
Dec 23 23:25:20 807a2f2882ea   prov_aic_janusgraph_1   0.10%     766.6MiB / 15.66GiB   4.78%     2.2MB / 1.05MB   0B / 332kB        55
Dec 23 23:25:20 175a7162e018   portainer               0.00%     16.67MiB / 15.66GiB   0.10%     9.79kB / 0B      58.3MB / 4.17MB   7
Dec 23 23:25:23 CONTAINER ID   NAME                    CPU %     MEM USAGE / LIMIT     MEM %     NET I/O           BLOCK I/O         PIDS
Dec 23 23:25:23 807a2f2882ea   prov_aic_janusgraph_1   1.19%     766.6MiB / 15.66GiB   4.78%     2.38MB / 1.14MB   0B / 332kB        55
Dec 23 23:25:23 175a7162e018   portainer               0.12%     16.67MiB / 15.66GiB   0.10%     9.79kB / 0B       58.3MB / 4.17MB   7
Dec 23 23:25:27 CONTAINER ID   NAME                    CPU %     MEM USAGE / LIMIT     MEM %     NET I/O           BLOCK I/O         PIDS
Dec 23 23:25:27 807a2f2882ea   prov_aic_janusgraph_1   1.92%     766.7MiB / 15.66GiB   4.78%     2.59MB / 1.24MB   0B / 332kB        55
Dec 23 23:25:27 175a7162e018   portainer               0.00%     16.67MiB / 15.66GiB   0.10%     9.79kB / 0B       58.3MB / 4.17MB   7
Dec 23 23:25:31 CONTAINER ID   NAME                    CPU %     MEM USAGE / LIMIT     MEM %     NET I/O           BLOCK I/O         PIDS
Dec 23 23:25:31 807a2f2882ea   prov_aic_janusgraph_1   46.30%    766.7MiB / 15.66GiB   4.78%     2.81MB / 1.34MB   0B / 332kB        55
Dec 23 23:25:31 175a7162e018   portainer               0.00%     16.67MiB / 15.66GiB   0.10%     9.79kB / 0B       58.3MB / 4.17MB   7
Dec 23 23:25:34 CONTAINER ID   NAME                    CPU %     MEM USAGE / LIMIT     MEM %     NET I/O           BLOCK I/O         PIDS
Dec 23 23:25:34 807a2f2882ea   prov_aic_janusgraph_1   0.51%     766.7MiB / 15.66GiB   4.78%     2.82MB / 1.35MB   0B / 332kB        55
Dec 23 23:25:34 175a7162e018   portainer               0.00%     16.67MiB / 15.66GiB   0.10%     9.79kB / 0B       58.3MB / 4.17MB   7
Dec 23 23:25:38 CONTAINER ID   NAME                    CPU %     MEM USAGE / LIMIT     MEM %     NET I/O           BLOCK I/O         PIDS
Dec 23 23:25:38 807a2f2882ea   prov_aic_janusgraph_1   4.49%     766.7MiB / 15.66GiB   4.78%     3.01MB / 1.44MB   0B / 332kB        55
Dec 23 23:25:38 175a7162e018   portainer               0.02%     16.67MiB / 15.66GiB   0.10%     9.79kB / 0B       58.3MB / 4.17MB   7
Dec 23 23:25:41 CONTAINER ID   NAME                    CPU %     MEM USAGE / LIMIT     MEM %     NET I/O           BLOCK I/O         PIDS
Dec 23 23:25:41 807a2f2882ea   prov_aic_janusgraph_1   7.46%     766.7MiB / 15.66GiB   4.78%     3.24MB / 1.55MB   0B / 332kB        55
Dec 23 23:25:41 175a7162e018   portainer               0.00%     16.67MiB / 15.66GiB   0.10%     9.79kB / 0B       58.3MB / 4.17MB   7
Dec 23 23:25:45 CONTAINER ID   NAME                    CPU %     MEM USAGE / LIMIT     MEM %     NET I/O          BLOCK I/O         PIDS
Dec 23 23:25:45 807a2f2882ea   prov_aic_janusgraph_1   46.07%    766.7MiB / 15.66GiB   4.78%     3.35MB / 1.6MB   0B / 332kB        55
Dec 23 23:25:45 175a7162e018   portainer               0.00%     16.67MiB / 15.66GiB   0.10%     9.79kB / 0B      58.3MB / 4.17MB   7
Dec 23 23:25:47 CONTAINER ID   NAME                    CPU %     MEM USAGE / LIMIT     MEM %     NET I/O           BLOCK I/O         PIDS
Dec 23 23:25:47 807a2f2882ea   prov_aic_janusgraph_1   0.12%     766.7MiB / 15.66GiB   4.78%     3.43MB / 1.64MB   0B / 332kB        55
Dec 23 23:25:47 175a7162e018   portainer               0.00%     16.67MiB / 15.66GiB   0.10%     9.79kB / 0B       58.3MB / 4.17MB   7
Dec 23 23:25:51 CONTAINER ID   NAME                    CPU %     MEM USAGE / LIMIT     MEM %     NET I/O           BLOCK I/O         PIDS
Dec 23 23:25:51 807a2f2882ea   prov_aic_janusgraph_1   39.44%    766.7MiB / 15.66GiB   4.78%     3.63MB / 1.73MB   0B / 332kB        55
Dec 23 23:25:51 175a7162e018   portainer               0.00%     16.28MiB / 15.66GiB   0.10%     9.79kB / 0B       58.3MB / 4.17MB   7
Dec 23 23:25:55 CONTAINER ID   NAME                    CPU %     MEM USAGE / LIMIT     MEM %     NET I/O           BLOCK I/O         PIDS
Dec 23 23:25:55 807a2f2882ea   prov_aic_janusgraph_1   3.37%     766.7MiB / 15.66GiB   4.78%     3.65MB / 1.74MB   0B / 332kB        55
Dec 23 23:25:55 175a7162e018   portainer               0.00%     16.28MiB / 15.66GiB   0.10%     9.79kB / 0B       58.3MB / 4.17MB   7
Dec 23 23:25:58 CONTAINER ID   NAME                    CPU %     MEM USAGE / LIMIT     MEM %     NET I/O           BLOCK I/O         PIDS
Dec 23 23:25:58 807a2f2882ea   prov_aic_janusgraph_1   0.80%     766.7MiB / 15.66GiB   4.78%     3.84MB / 1.83MB   0B / 332kB        55
Dec 23 23:25:58 175a7162e018   portainer               0.00%     16.28MiB / 15.66GiB   0.10%     9.79kB / 0B       58.3MB / 4.17MB   7
Dec 23 23:26:02 CONTAINER ID   NAME                    CPU %     MEM USAGE / LIMIT     MEM %     NET I/O           BLOCK I/O         PIDS
Dec 23 23:26:02 807a2f2882ea   prov_aic_janusgraph_1   5.19%     776.7MiB / 15.66GiB   4.84%     4.05MB / 1.93MB   0B / 332kB        55
Dec 23 23:26:02 175a7162e018   portainer               0.00%     16.28MiB / 15.66GiB   0.10%     9.79kB / 0B       58.3MB / 4.17MB   7
Dec 23 23:26:05 CONTAINER ID   NAME                    CPU %     MEM USAGE / LIMIT     MEM %     NET I/O           BLOCK I/O         PIDS
Dec 23 23:26:05 807a2f2882ea   prov_aic_janusgraph_1   13.08%    776.7MiB / 15.66GiB   4.84%     4.14MB / 1.98MB   0B / 332kB        55
Dec 23 23:26:05 175a7162e018   portainer               0.00%     16.28MiB / 15.66GiB   0.10%     9.79kB / 0B       58.3MB / 4.17MB   7
Dec 23 23:26:09 CONTAINER ID   NAME                    CPU %     MEM USAGE / LIMIT     MEM %     NET I/O           BLOCK I/O         PIDS
Dec 23 23:26:09 807a2f2882ea   prov_aic_janusgraph_1   0.11%     776.7MiB / 15.66GiB   4.84%     4.29MB / 2.05MB   0B / 332kB        55
Dec 23 23:26:09 175a7162e018   portainer               0.02%     16.28MiB / 15.66GiB   0.10%     9.79kB / 0B       58.3MB / 4.17MB   7
Dec 23 23:26:13 CONTAINER ID   NAME                    CPU %     MEM USAGE / LIMIT     MEM %     NET I/O           BLOCK I/O         PIDS
Dec 23 23:26:13 807a2f2882ea   prov_aic_janusgraph_1   2.37%     776.7MiB / 15.66GiB   4.84%     4.47MB / 2.13MB   0B / 332kB        55
Dec 23 23:26:13 175a7162e018   portainer               0.00%     16.28MiB / 15.66GiB   0.10%     9.79kB / 0B       58.3MB / 4.17MB   7
Dec 23 23:26:16 CONTAINER ID   NAME                    CPU %     MEM USAGE / LIMIT     MEM %     NET I/O           BLOCK I/O         PIDS
Dec 23 23:26:16 807a2f2882ea   prov_aic_janusgraph_1   21.58%    776.7MiB / 15.66GiB   4.84%     4.69MB / 2.24MB   0B / 332kB        55
Dec 23 23:26:16 175a7162e018   portainer               0.00%     16.29MiB / 15.66GiB   0.10%     9.79kB / 0B       58.3MB / 4.17MB   7
Dec 23 23:26:20 CONTAINER ID   NAME                    CPU %     MEM USAGE / LIMIT     MEM %     NET I/O           BLOCK I/O         PIDS
Dec 23 23:26:20 807a2f2882ea   prov_aic_janusgraph_1   23.29%    776.7MiB / 15.66GiB   4.84%     4.86MB / 2.32MB   0B / 332kB        55
Dec 23 23:26:20 175a7162e018   portainer               0.00%     16.29MiB / 15.66GiB   0.10%     9.79kB / 0B       58.3MB / 4.17MB   7
Dec 23 23:26:23 CONTAINER ID   NAME                    CPU %     MEM USAGE / LIMIT     MEM %     NET I/O           BLOCK I/O         PIDS
Dec 23 23:26:23 807a2f2882ea   prov_aic_janusgraph_1   0.36%     776.7MiB / 15.66GiB   4.84%     4.87MB / 2.32MB   0B / 332kB        55
Dec 23 23:26:23 175a7162e018   portainer               0.00%     16.29MiB / 15.66GiB   0.10%     9.79kB / 0B       58.3MB / 4.17MB   7
Dec 23 23:26:27 CONTAINER ID   NAME                    CPU %     MEM USAGE / LIMIT     MEM %     NET I/O           BLOCK I/O         PIDS
Dec 23 23:26:27 807a2f2882ea   prov_aic_janusgraph_1   0.34%     776.7MiB / 15.66GiB   4.84%     5.11MB / 2.44MB   0B / 332kB        55
Dec 23 23:26:27 175a7162e018   portainer               0.00%     16.29MiB / 15.66GiB   0.10%     9.79kB / 0B       58.3MB / 4.17MB   7
Dec 23 23:26:31 CONTAINER ID   NAME                    CPU %     MEM USAGE / LIMIT     MEM %     NET I/O           BLOCK I/O         PIDS
Dec 23 23:26:31 807a2f2882ea   prov_aic_janusgraph_1   3.51%     776.7MiB / 15.66GiB   4.84%     5.33MB / 2.54MB   0B / 332kB        55
Dec 23 23:26:31 175a7162e018   portainer               0.00%     16.29MiB / 15.66GiB   0.10%     9.79kB / 0B       58.3MB / 4.17MB   7
Dec 23 23:26:34 CONTAINER ID   NAME                    CPU %     MEM USAGE / LIMIT     MEM %     NET I/O          BLOCK I/O         PIDS
Dec 23 23:26:34 807a2f2882ea   prov_aic_janusgraph_1   23.90%    776.8MiB / 15.66GiB   4.84%     5.5MB / 2.62MB   0B / 332kB        55
Dec 23 23:26:34 175a7162e018   portainer               0.09%     16.29MiB / 15.66GiB   0.10%     9.79kB / 0B      58.3MB / 4.17MB   7
Dec 23 23:26:38 CONTAINER ID   NAME                    CPU %     MEM USAGE / LIMIT     MEM %     NET I/O           BLOCK I/O         PIDS
Dec 23 23:26:38 807a2f2882ea   prov_aic_janusgraph_1   2.40%     776.8MiB / 15.66GiB   4.84%     5.51MB / 2.63MB   0B / 332kB        55
Dec 23 23:26:38 175a7162e018   portainer               0.00%     16.29MiB / 15.66GiB   0.10%     9.79kB / 0B       58.3MB / 4.17MB   7
Dec 23 23:26:41 CONTAINER ID   NAME                    CPU %     MEM USAGE / LIMIT     MEM %     NET I/O           BLOCK I/O         PIDS
Dec 23 23:26:41 807a2f2882ea   prov_aic_janusgraph_1   2.51%     776.8MiB / 15.66GiB   4.84%     5.78MB / 2.76MB   0B / 332kB        55
Dec 23 23:26:41 175a7162e018   portainer               0.00%     16.29MiB / 15.66GiB   0.10%     9.79kB / 0B       58.3MB / 4.17MB   7
Dec 23 23:26:45 CONTAINER ID   NAME                    CPU %     MEM USAGE / LIMIT     MEM %     NET I/O           BLOCK I/O         PIDS
Dec 23 23:26:45 807a2f2882ea   prov_aic_janusgraph_1   34.92%    776.8MiB / 15.66GiB   4.84%     5.99MB / 2.86MB   0B / 332kB        55
Dec 23 23:26:45 175a7162e018   portainer               0.00%     16.29MiB / 15.66GiB   0.10%     9.79kB / 0B       58.3MB / 4.17MB   7
Dec 23 23:26:49 CONTAINER ID   NAME                    CPU %     MEM USAGE / LIMIT     MEM %     NET I/O           BLOCK I/O         PIDS
Dec 23 23:26:49 807a2f2882ea   prov_aic_janusgraph_1   0.31%     776.8MiB / 15.66GiB   4.84%     6.11MB / 2.92MB   0B / 332kB        55
Dec 23 23:26:49 175a7162e018   portainer               0.00%     16.29MiB / 15.66GiB   0.10%     9.79kB / 0B       58.3MB / 4.17MB   7
Dec 23 23:26:52 CONTAINER ID   NAME                    CPU %     MEM USAGE / LIMIT     MEM %     NET I/O           BLOCK I/O         PIDS
Dec 23 23:26:52 807a2f2882ea   prov_aic_janusgraph_1   2.65%     776.8MiB / 15.66GiB   4.84%     6.53MB / 3.12MB   0B / 332kB        55
Dec 23 23:26:52 175a7162e018   portainer               0.00%     16.29MiB / 15.66GiB   0.10%     9.79kB / 0B       58.3MB / 4.17MB   7
Dec 23 23:26:56 CONTAINER ID   NAME                    CPU %     MEM USAGE / LIMIT     MEM %     NET I/O           BLOCK I/O         PIDS
Dec 23 23:26:56 807a2f2882ea   prov_aic_janusgraph_1   3.63%     776.8MiB / 15.66GiB   4.84%     6.53MB / 3.12MB   0B / 332kB        55
Dec 23 23:26:56 175a7162e018   portainer               0.00%     16.29MiB / 15.66GiB   0.10%     9.79kB / 0B       58.3MB / 4.17MB   7
Dec 23 23:26:59 CONTAINER ID   NAME                    CPU %     MEM USAGE / LIMIT     MEM %     NET I/O           BLOCK I/O         PIDS
Dec 23 23:26:59 807a2f2882ea   prov_aic_janusgraph_1   4.03%     811MiB / 15.66GiB     5.06%     6.68MB / 3.18MB   0B / 332kB        55
Dec 23 23:26:59 175a7162e018   portainer               0.02%     16.29MiB / 15.66GiB   0.10%     9.79kB / 0B       58.3MB / 4.17MB   7
