Dec 23 23:06:41 CONTAINER ID   NAME        CPU %     MEM USAGE / LIMIT     MEM %     NET I/O       BLOCK I/O         PIDS
Dec 23 23:06:41 175a7162e018   portainer   0.00%     16.73MiB / 15.66GiB   0.10%     9.79kB / 0B   58.1MB / 3.58MB   7
Dec 23 23:06:41                --          0.00%     0B / 0B               0.00%     0B / 0B       0B / 0B           0
Dec 23 23:06:45 CONTAINER ID   NAME                    CPU %     MEM USAGE / LIMIT     MEM %     NET I/O       BLOCK I/O         PIDS
Dec 23 23:06:45 3bb6ccdcc2ca   prov_aic_janusgraph_1   297.79%   555MiB / 15.66GiB     3.46%     4.99kB / 0B   0B / 233kB        21
Dec 23 23:06:45 175a7162e018   portainer               0.00%     16.73MiB / 15.66GiB   0.10%     9.79kB / 0B   58.1MB / 3.58MB   7
Dec 23 23:06:48 CONTAINER ID   NAME                    CPU %     MEM USAGE / LIMIT     MEM %     NET I/O       BLOCK I/O         PIDS
Dec 23 23:06:48 3bb6ccdcc2ca   prov_aic_janusgraph_1   295.35%   744.8MiB / 15.66GiB   4.64%     6.64kB / 0B   0B / 233kB        23
Dec 23 23:06:48 175a7162e018   portainer               0.00%     16.73MiB / 15.66GiB   0.10%     9.79kB / 0B   58.1MB / 3.58MB   7
Dec 23 23:06:52 CONTAINER ID   NAME                    CPU %     MEM USAGE / LIMIT     MEM %     NET I/O       BLOCK I/O         PIDS
Dec 23 23:06:52 3bb6ccdcc2ca   prov_aic_janusgraph_1   157.33%   117.1MiB / 15.66GiB   0.73%     6.86kB / 0B   0B / 332kB        16
Dec 23 23:06:52 175a7162e018   portainer               0.00%     16.73MiB / 15.66GiB   0.10%     9.79kB / 0B   58.1MB / 3.58MB   7
Dec 23 23:06:55 CONTAINER ID   NAME                    CPU %     MEM USAGE / LIMIT     MEM %     NET I/O       BLOCK I/O         PIDS
Dec 23 23:06:55 3bb6ccdcc2ca   prov_aic_janusgraph_1   180.14%   707.9MiB / 15.66GiB   4.41%     6.93kB / 0B   0B / 332kB        21
Dec 23 23:06:55 175a7162e018   portainer               0.00%     16.73MiB / 15.66GiB   0.10%     9.79kB / 0B   58.1MB / 3.58MB   7
Dec 23 23:06:59 CONTAINER ID   NAME                    CPU %     MEM USAGE / LIMIT     MEM %     NET I/O       BLOCK I/O         PIDS
Dec 23 23:06:59 3bb6ccdcc2ca   prov_aic_janusgraph_1   0.44%     713.8MiB / 15.66GiB   4.45%     7.23kB / 0B   0B / 332kB        22
Dec 23 23:06:59 175a7162e018   portainer               0.00%     16.73MiB / 15.66GiB   0.10%     9.79kB / 0B   58.1MB / 3.58MB   7
Dec 23 23:07:03 CONTAINER ID   NAME                    CPU %     MEM USAGE / LIMIT     MEM %     NET I/O       BLOCK I/O         PIDS
Dec 23 23:07:03 3bb6ccdcc2ca   prov_aic_janusgraph_1   0.09%     706.9MiB / 15.66GiB   4.41%     7.23kB / 0B   0B / 332kB        22
Dec 23 23:07:03 175a7162e018   portainer               0.00%     16.73MiB / 15.66GiB   0.10%     9.79kB / 0B   58.1MB / 3.58MB   7
Dec 23 23:07:06 CONTAINER ID   NAME                    CPU %     MEM USAGE / LIMIT     MEM %     NET I/O       BLOCK I/O         PIDS
Dec 23 23:07:06 3bb6ccdcc2ca   prov_aic_janusgraph_1   0.10%     706.9MiB / 15.66GiB   4.41%     7.23kB / 0B   0B / 332kB        22
Dec 23 23:07:06 175a7162e018   portainer               0.00%     16.73MiB / 15.66GiB   0.10%     9.79kB / 0B   58.1MB / 3.58MB   7
Dec 23 23:07:10 CONTAINER ID   NAME                    CPU %     MEM USAGE / LIMIT     MEM %     NET I/O       BLOCK I/O         PIDS
Dec 23 23:07:10 3bb6ccdcc2ca   prov_aic_janusgraph_1   0.16%     706.9MiB / 15.66GiB   4.41%     7.23kB / 0B   0B / 332kB        22
Dec 23 23:07:10 175a7162e018   portainer               0.00%     16.73MiB / 15.66GiB   0.10%     9.79kB / 0B   58.1MB / 3.58MB   7
Dec 23 23:07:13 CONTAINER ID   NAME                    CPU %     MEM USAGE / LIMIT     MEM %     NET I/O       BLOCK I/O         PIDS
Dec 23 23:07:13 3bb6ccdcc2ca   prov_aic_janusgraph_1   0.36%     706.9MiB / 15.66GiB   4.41%     7.32kB / 0B   0B / 332kB        22
Dec 23 23:07:13 175a7162e018   portainer               0.00%     16.73MiB / 15.66GiB   0.10%     9.79kB / 0B   58.1MB / 3.58MB   7
Dec 23 23:07:17 CONTAINER ID   NAME                    CPU %     MEM USAGE / LIMIT     MEM %     NET I/O       BLOCK I/O         PIDS
Dec 23 23:07:17 3bb6ccdcc2ca   prov_aic_janusgraph_1   0.10%     706.9MiB / 15.66GiB   4.41%     7.6kB / 0B    0B / 332kB        22
Dec 23 23:07:17 175a7162e018   portainer               0.00%     16.74MiB / 15.66GiB   0.10%     9.79kB / 0B   58.1MB / 3.58MB   7
Dec 23 23:07:21 CONTAINER ID   NAME                    CPU %     MEM USAGE / LIMIT     MEM %     NET I/O       BLOCK I/O         PIDS
Dec 23 23:07:21 3bb6ccdcc2ca   prov_aic_janusgraph_1   0.10%     706.9MiB / 15.66GiB   4.41%     7.6kB / 0B    0B / 332kB        22
Dec 23 23:07:21 175a7162e018   portainer               0.00%     16.24MiB / 15.66GiB   0.10%     9.79kB / 0B   58.1MB / 3.58MB   7
Dec 23 23:07:24 CONTAINER ID   NAME                    CPU %     MEM USAGE / LIMIT     MEM %     NET I/O           BLOCK I/O         PIDS
Dec 23 23:07:24 3bb6ccdcc2ca   prov_aic_janusgraph_1   71.21%    720MiB / 15.66GiB     4.49%     10.3kB / 1.84kB   0B / 332kB        42
Dec 23 23:07:24 175a7162e018   portainer               0.00%     16.24MiB / 15.66GiB   0.10%     9.79kB / 0B       58.1MB / 3.58MB   7
Dec 23 23:07:28 CONTAINER ID   NAME                    CPU %     MEM USAGE / LIMIT     MEM %     NET I/O          BLOCK I/O         PIDS
Dec 23 23:07:28 3bb6ccdcc2ca   prov_aic_janusgraph_1   111.31%   725.9MiB / 15.66GiB   4.53%     188kB / 86.3kB   0B / 332kB        53
Dec 23 23:07:28 175a7162e018   portainer               0.00%     16.24MiB / 15.66GiB   0.10%     9.79kB / 0B      58.1MB / 3.58MB   7
Dec 23 23:07:31 CONTAINER ID   NAME                    CPU %     MEM USAGE / LIMIT     MEM %     NET I/O         BLOCK I/O         PIDS
Dec 23 23:07:31 3bb6ccdcc2ca   prov_aic_janusgraph_1   0.12%     729.4MiB / 15.66GiB   4.55%     300kB / 139kB   0B / 332kB        53
Dec 23 23:07:31 175a7162e018   portainer               0.00%     16.24MiB / 15.66GiB   0.10%     9.79kB / 0B     58.1MB / 3.58MB   7
Dec 23 23:07:35 CONTAINER ID   NAME                    CPU %     MEM USAGE / LIMIT     MEM %     NET I/O         BLOCK I/O         PIDS
Dec 23 23:07:35 3bb6ccdcc2ca   prov_aic_janusgraph_1   0.16%     734.1MiB / 15.66GiB   4.58%     510kB / 239kB   0B / 332kB        53
Dec 23 23:07:35 175a7162e018   portainer               0.00%     16.24MiB / 15.66GiB   0.10%     9.79kB / 0B     58.1MB / 3.58MB   7
Dec 23 23:07:39 CONTAINER ID   NAME                    CPU %     MEM USAGE / LIMIT     MEM %     NET I/O         BLOCK I/O         PIDS
Dec 23 23:07:39 3bb6ccdcc2ca   prov_aic_janusgraph_1   0.15%     735.2MiB / 15.66GiB   4.58%     715kB / 336kB   0B / 332kB        53
Dec 23 23:07:39 175a7162e018   portainer               0.02%     16.24MiB / 15.66GiB   0.10%     9.79kB / 0B     58.1MB / 3.58MB   7
Dec 23 23:07:42 CONTAINER ID   NAME                    CPU %     MEM USAGE / LIMIT     MEM %     NET I/O         BLOCK I/O         PIDS
Dec 23 23:07:42 3bb6ccdcc2ca   prov_aic_janusgraph_1   94.57%    735.4MiB / 15.66GiB   4.59%     773kB / 363kB   0B / 332kB        53
Dec 23 23:07:42 175a7162e018   portainer               0.00%     16.24MiB / 15.66GiB   0.10%     9.79kB / 0B     58.1MB / 3.58MB   7
Dec 23 23:07:46 CONTAINER ID   NAME                    CPU %     MEM USAGE / LIMIT     MEM %     NET I/O         BLOCK I/O         PIDS
Dec 23 23:07:46 3bb6ccdcc2ca   prov_aic_janusgraph_1   0.11%     749.6MiB / 15.66GiB   4.67%     932kB / 438kB   0B / 332kB        53
Dec 23 23:07:46 175a7162e018   portainer               0.00%     16.24MiB / 15.66GiB   0.10%     9.79kB / 0B     58.1MB / 3.58MB   7
Dec 23 23:07:49 CONTAINER ID   NAME                    CPU %     MEM USAGE / LIMIT     MEM %     NET I/O          BLOCK I/O         PIDS
Dec 23 23:07:49 3bb6ccdcc2ca   prov_aic_janusgraph_1   0.10%     746.6MiB / 15.66GiB   4.65%     1.14MB / 535kB   0B / 332kB        53
Dec 23 23:07:49 175a7162e018   portainer               0.02%     16.24MiB / 15.66GiB   0.10%     9.79kB / 0B      58.1MB / 3.58MB   7
Dec 23 23:07:53 CONTAINER ID   NAME                    CPU %     MEM USAGE / LIMIT     MEM %     NET I/O          BLOCK I/O         PIDS
Dec 23 23:07:53 3bb6ccdcc2ca   prov_aic_janusgraph_1   51.52%    747MiB / 15.66GiB     4.66%     1.34MB / 632kB   0B / 332kB        53
Dec 23 23:07:53 175a7162e018   portainer               0.09%     16.24MiB / 15.66GiB   0.10%     9.79kB / 0B      58.1MB / 3.58MB   7
Dec 23 23:07:57 CONTAINER ID   NAME                    CPU %     MEM USAGE / LIMIT     MEM %     NET I/O          BLOCK I/O         PIDS
Dec 23 23:07:57 3bb6ccdcc2ca   prov_aic_janusgraph_1   114.95%   761.5MiB / 15.66GiB   4.75%     1.55MB / 731kB   0B / 332kB        53
Dec 23 23:07:57 175a7162e018   portainer               0.00%     16.24MiB / 15.66GiB   0.10%     9.79kB / 0B      58.1MB / 3.58MB   7
Dec 23 23:08:00 CONTAINER ID   NAME                    CPU %     MEM USAGE / LIMIT     MEM %     NET I/O          BLOCK I/O         PIDS
Dec 23 23:08:00 3bb6ccdcc2ca   prov_aic_janusgraph_1   1.75%     761.4MiB / 15.66GiB   4.75%     1.57MB / 741kB   0B / 332kB        53
Dec 23 23:08:00 175a7162e018   portainer               0.00%     16.24MiB / 15.66GiB   0.10%     9.79kB / 0B      58.1MB / 3.58MB   7
Dec 23 23:08:04 CONTAINER ID   NAME                    CPU %     MEM USAGE / LIMIT     MEM %     NET I/O          BLOCK I/O         PIDS
Dec 23 23:08:04 3bb6ccdcc2ca   prov_aic_janusgraph_1   0.13%     761.5MiB / 15.66GiB   4.75%     1.77MB / 838kB   0B / 332kB        53
Dec 23 23:08:04 175a7162e018   portainer               0.10%     16.24MiB / 15.66GiB   0.10%     9.79kB / 0B      58.1MB / 3.58MB   7
Dec 23 23:08:08 CONTAINER ID   NAME                    CPU %     MEM USAGE / LIMIT     MEM %     NET I/O          BLOCK I/O         PIDS
Dec 23 23:08:08 3bb6ccdcc2ca   prov_aic_janusgraph_1   2.19%     761.7MiB / 15.66GiB   4.75%     1.98MB / 935kB   0B / 332kB        53
Dec 23 23:08:08 175a7162e018   portainer               0.00%     16.24MiB / 15.66GiB   0.10%     9.79kB / 0B      58.1MB / 3.58MB   7
Dec 23 23:08:11 CONTAINER ID   NAME                    CPU %     MEM USAGE / LIMIT     MEM %     NET I/O           BLOCK I/O         PIDS
Dec 23 23:08:11 3bb6ccdcc2ca   prov_aic_janusgraph_1   108.77%   761.9MiB / 15.66GiB   4.75%     2.18MB / 1.03MB   0B / 332kB        53
Dec 23 23:08:11 175a7162e018   portainer               0.00%     16.24MiB / 15.66GiB   0.10%     9.79kB / 0B       58.1MB / 3.58MB   7
Dec 23 23:08:15 CONTAINER ID   NAME                    CPU %     MEM USAGE / LIMIT     MEM %     NET I/O           BLOCK I/O         PIDS
Dec 23 23:08:15 3bb6ccdcc2ca   prov_aic_janusgraph_1   0.11%     762MiB / 15.66GiB     4.75%     2.21MB / 1.04MB   0B / 332kB        53
Dec 23 23:08:15 175a7162e018   portainer               0.08%     16.24MiB / 15.66GiB   0.10%     9.79kB / 0B       58.1MB / 3.58MB   7
Dec 23 23:08:18 CONTAINER ID   NAME                    CPU %     MEM USAGE / LIMIT     MEM %     NET I/O           BLOCK I/O         PIDS
Dec 23 23:08:18 3bb6ccdcc2ca   prov_aic_janusgraph_1   0.14%     762MiB / 15.66GiB     4.75%     2.39MB / 1.13MB   0B / 332kB        53
Dec 23 23:08:18 175a7162e018   portainer               0.00%     16.24MiB / 15.66GiB   0.10%     9.79kB / 0B       58.1MB / 3.58MB   7
Dec 23 23:08:22 CONTAINER ID   NAME                    CPU %     MEM USAGE / LIMIT     MEM %     NET I/O          BLOCK I/O         PIDS
Dec 23 23:08:22 3bb6ccdcc2ca   prov_aic_janusgraph_1   66.11%    762.2MiB / 15.66GiB   4.75%     2.6MB / 1.23MB   0B / 332kB        53
Dec 23 23:08:22 175a7162e018   portainer               0.00%     16.24MiB / 15.66GiB   0.10%     9.79kB / 0B      58.1MB / 3.58MB   7
Dec 23 23:08:25 CONTAINER ID   NAME                    CPU %     MEM USAGE / LIMIT     MEM %     NET I/O           BLOCK I/O         PIDS
Dec 23 23:08:25 3bb6ccdcc2ca   prov_aic_janusgraph_1   0.12%     762.2MiB / 15.66GiB   4.75%     2.61MB / 1.23MB   0B / 332kB        53
Dec 23 23:08:25 175a7162e018   portainer               0.00%     16.24MiB / 15.66GiB   0.10%     9.79kB / 0B       58.1MB / 3.58MB   7
Dec 23 23:08:29 CONTAINER ID   NAME                    CPU %     MEM USAGE / LIMIT     MEM %     NET I/O           BLOCK I/O         PIDS
Dec 23 23:08:29 3bb6ccdcc2ca   prov_aic_janusgraph_1   0.12%     762.2MiB / 15.66GiB   4.75%     2.83MB / 1.34MB   0B / 332kB        53
Dec 23 23:08:29 175a7162e018   portainer               0.02%     16.24MiB / 15.66GiB   0.10%     9.79kB / 0B       58.1MB / 3.58MB   7
Dec 23 23:08:33 CONTAINER ID   NAME                    CPU %     MEM USAGE / LIMIT     MEM %     NET I/O           BLOCK I/O         PIDS
Dec 23 23:08:33 3bb6ccdcc2ca   prov_aic_janusgraph_1   5.00%     762.2MiB / 15.66GiB   4.75%     3.02MB / 1.43MB   0B / 332kB        53
Dec 23 23:08:33 175a7162e018   portainer               0.02%     16.24MiB / 15.66GiB   0.10%     9.79kB / 0B       58.1MB / 3.58MB   7
Dec 23 23:08:36 CONTAINER ID   NAME                    CPU %     MEM USAGE / LIMIT     MEM %     NET I/O           BLOCK I/O         PIDS
Dec 23 23:08:36 3bb6ccdcc2ca   prov_aic_janusgraph_1   4.90%     762.2MiB / 15.66GiB   4.75%     3.25MB / 1.54MB   0B / 332kB        53
Dec 23 23:08:36 175a7162e018   portainer               0.00%     16.73MiB / 15.66GiB   0.10%     9.79kB / 0B       58.1MB / 3.73MB   7
Dec 23 23:08:40 CONTAINER ID   NAME                    CPU %     MEM USAGE / LIMIT     MEM %     NET I/O           BLOCK I/O         PIDS
Dec 23 23:08:40 3bb6ccdcc2ca   prov_aic_janusgraph_1   43.34%    762.2MiB / 15.66GiB   4.75%     3.31MB / 1.57MB   0B / 332kB        53
Dec 23 23:08:40 175a7162e018   portainer               0.00%     16.73MiB / 15.66GiB   0.10%     9.79kB / 0B       58.1MB / 3.73MB   7
Dec 23 23:08:43 CONTAINER ID   NAME                    CPU %     MEM USAGE / LIMIT     MEM %     NET I/O           BLOCK I/O         PIDS
Dec 23 23:08:43 3bb6ccdcc2ca   prov_aic_janusgraph_1   0.14%     762.9MiB / 15.66GiB   4.76%     3.44MB / 1.63MB   0B / 332kB        53
Dec 23 23:08:43 175a7162e018   portainer               0.00%     16.73MiB / 15.66GiB   0.10%     9.79kB / 0B       58.1MB / 3.73MB   7
Dec 23 23:08:47 CONTAINER ID   NAME                    CPU %     MEM USAGE / LIMIT     MEM %     NET I/O           BLOCK I/O         PIDS
Dec 23 23:08:47 3bb6ccdcc2ca   prov_aic_janusgraph_1   0.13%     762.9MiB / 15.66GiB   4.76%     3.64MB / 1.72MB   0B / 332kB        53
Dec 23 23:08:47 175a7162e018   portainer               0.00%     16.73MiB / 15.66GiB   0.10%     9.79kB / 0B       58.1MB / 3.73MB   7
Dec 23 23:08:51 CONTAINER ID   NAME                    CPU %     MEM USAGE / LIMIT     MEM %     NET I/O           BLOCK I/O         PIDS
Dec 23 23:08:51 3bb6ccdcc2ca   prov_aic_janusgraph_1   15.92%    762.9MiB / 15.66GiB   4.76%     3.83MB / 1.81MB   0B / 332kB        53
Dec 23 23:08:51 175a7162e018   portainer               0.00%     16.73MiB / 15.66GiB   0.10%     9.79kB / 0B       58.1MB / 3.73MB   7
Dec 23 23:08:54 CONTAINER ID   NAME                    CPU %     MEM USAGE / LIMIT     MEM %     NET I/O           BLOCK I/O         PIDS
Dec 23 23:08:54 3bb6ccdcc2ca   prov_aic_janusgraph_1   0.19%     762.9MiB / 15.66GiB   4.76%     3.85MB / 1.82MB   0B / 332kB        53
Dec 23 23:08:54 175a7162e018   portainer               0.00%     16.73MiB / 15.66GiB   0.10%     9.79kB / 0B       58.1MB / 3.73MB   7
Dec 23 23:08:58 CONTAINER ID   NAME                    CPU %     MEM USAGE / LIMIT     MEM %     NET I/O           BLOCK I/O         PIDS
Dec 23 23:08:58 3bb6ccdcc2ca   prov_aic_janusgraph_1   0.11%     762.9MiB / 15.66GiB   4.76%     4.06MB / 1.92MB   0B / 332kB        53
Dec 23 23:08:58 175a7162e018   portainer               0.00%     16.73MiB / 15.66GiB   0.10%     9.79kB / 0B       58.1MB / 3.73MB   7
Dec 23 23:09:01 CONTAINER ID   NAME                    CPU %     MEM USAGE / LIMIT     MEM %     NET I/O           BLOCK I/O         PIDS
Dec 23 23:09:01 3bb6ccdcc2ca   prov_aic_janusgraph_1   2.79%     781.1MiB / 15.66GiB   4.87%     4.29MB / 2.03MB   0B / 332kB        53
Dec 23 23:09:01 175a7162e018   portainer               0.00%     16.73MiB / 15.66GiB   0.10%     9.79kB / 0B       58.1MB / 3.73MB   7
Dec 23 23:09:05 CONTAINER ID   NAME                    CPU %     MEM USAGE / LIMIT     MEM %     NET I/O           BLOCK I/O         PIDS
Dec 23 23:09:05 3bb6ccdcc2ca   prov_aic_janusgraph_1   38.89%    807MiB / 15.66GiB     5.03%     4.46MB / 2.11MB   0B / 332kB        53
Dec 23 23:09:05 175a7162e018   portainer               0.00%     16.73MiB / 15.66GiB   0.10%     9.79kB / 0B       58.1MB / 3.73MB   7
Dec 23 23:09:09 CONTAINER ID   NAME                    CPU %     MEM USAGE / LIMIT     MEM %     NET I/O           BLOCK I/O         PIDS
Dec 23 23:09:09 3bb6ccdcc2ca   prov_aic_janusgraph_1   0.17%     807MiB / 15.66GiB     5.03%     4.48MB / 2.12MB   0B / 332kB        53
Dec 23 23:09:09 175a7162e018   portainer               0.02%     16.73MiB / 15.66GiB   0.10%     9.79kB / 0B       58.1MB / 3.73MB   7
Dec 23 23:09:12 CONTAINER ID   NAME                    CPU %     MEM USAGE / LIMIT     MEM %     NET I/O           BLOCK I/O         PIDS
Dec 23 23:09:12 3bb6ccdcc2ca   prov_aic_janusgraph_1   2.24%     843.1MiB / 15.66GiB   5.26%     4.72MB / 2.23MB   0B / 332kB        53
Dec 23 23:09:12 175a7162e018   portainer               0.00%     16.73MiB / 15.66GiB   0.10%     9.79kB / 0B       58.1MB / 3.73MB   7
Dec 23 23:09:16 CONTAINER ID   NAME                    CPU %     MEM USAGE / LIMIT     MEM %     NET I/O          BLOCK I/O         PIDS
Dec 23 23:09:16 3bb6ccdcc2ca   prov_aic_janusgraph_1   1.18%     873.1MiB / 15.66GiB   5.44%     4.86MB / 2.3MB   0B / 332kB        53
Dec 23 23:09:16 175a7162e018   portainer               0.00%     16.73MiB / 15.66GiB   0.10%     9.79kB / 0B      58.1MB / 3.73MB   7
Dec 23 23:09:19 CONTAINER ID   NAME                    CPU %     MEM USAGE / LIMIT     MEM %     NET I/O           BLOCK I/O         PIDS
Dec 23 23:09:19 3bb6ccdcc2ca   prov_aic_janusgraph_1   33.83%    873.1MiB / 15.66GiB   5.44%     5.09MB / 2.41MB   0B / 332kB        53
Dec 23 23:09:19 175a7162e018   portainer               1.43%     16.73MiB / 15.66GiB   0.10%     9.79kB / 0B       58.1MB / 3.73MB   7
Dec 23 23:09:23 CONTAINER ID   NAME                    CPU %     MEM USAGE / LIMIT     MEM %     NET I/O           BLOCK I/O         PIDS
Dec 23 23:09:23 3bb6ccdcc2ca   prov_aic_janusgraph_1   2.85%     873.1MiB / 15.66GiB   5.44%     5.13MB / 2.43MB   0B / 332kB        53
Dec 23 23:09:23 175a7162e018   portainer               0.00%     16.73MiB / 15.66GiB   0.10%     9.79kB / 0B       58.1MB / 3.73MB   7
Dec 23 23:09:27 CONTAINER ID   NAME                    CPU %     MEM USAGE / LIMIT     MEM %     NET I/O           BLOCK I/O         PIDS
Dec 23 23:09:27 3bb6ccdcc2ca   prov_aic_janusgraph_1   0.33%     873.1MiB / 15.66GiB   5.44%     5.34MB / 2.53MB   0B / 332kB        53
Dec 23 23:09:27 175a7162e018   portainer               0.00%     16.73MiB / 15.66GiB   0.10%     9.79kB / 0B       58.1MB / 3.73MB   7
Dec 23 23:09:30 CONTAINER ID   NAME                    CPU %     MEM USAGE / LIMIT     MEM %     NET I/O         BLOCK I/O         PIDS
Dec 23 23:09:30 3bb6ccdcc2ca   prov_aic_janusgraph_1   4.46%     873.1MiB / 15.66GiB   5.44%     5.5MB / 2.6MB   0B / 332kB        53
Dec 23 23:09:30 175a7162e018   portainer               0.00%     16.73MiB / 15.66GiB   0.10%     9.79kB / 0B     58.1MB / 3.73MB   7
Dec 23 23:09:34 CONTAINER ID   NAME                    CPU %     MEM USAGE / LIMIT     MEM %     NET I/O           BLOCK I/O         PIDS
Dec 23 23:09:34 3bb6ccdcc2ca   prov_aic_janusgraph_1   14.77%    873.1MiB / 15.66GiB   5.44%     5.61MB / 2.66MB   0B / 332kB        53
Dec 23 23:09:34 175a7162e018   portainer               0.02%     16.73MiB / 15.66GiB   0.10%     9.79kB / 0B       58.1MB / 3.73MB   7
Dec 23 23:09:37 CONTAINER ID   NAME                    CPU %     MEM USAGE / LIMIT     MEM %     NET I/O           BLOCK I/O         PIDS
Dec 23 23:09:37 3bb6ccdcc2ca   prov_aic_janusgraph_1   0.32%     873.1MiB / 15.66GiB   5.44%     5.79MB / 2.74MB   0B / 332kB        53
Dec 23 23:09:37 175a7162e018   portainer               0.00%     16.75MiB / 15.66GiB   0.10%     9.79kB / 0B       58.1MB / 3.73MB   7
Dec 23 23:09:41 CONTAINER ID   NAME                    CPU %     MEM USAGE / LIMIT     MEM %     NET I/O           BLOCK I/O         PIDS
Dec 23 23:09:41 3bb6ccdcc2ca   prov_aic_janusgraph_1   3.00%     873.1MiB / 15.66GiB   5.44%     6.11MB / 2.89MB   0B / 332kB        53
Dec 23 23:09:41 175a7162e018   portainer               0.00%     16.75MiB / 15.66GiB   0.10%     9.79kB / 0B       58.1MB / 3.73MB   7
Dec 23 23:09:45 CONTAINER ID   NAME                    CPU %     MEM USAGE / LIMIT     MEM %     NET I/O           BLOCK I/O         PIDS
Dec 23 23:09:45 3bb6ccdcc2ca   prov_aic_janusgraph_1   2.51%     873.1MiB / 15.66GiB   5.44%     6.12MB / 2.89MB   0B / 332kB        53
Dec 23 23:09:45 175a7162e018   portainer               0.05%     16.76MiB / 15.66GiB   0.10%     9.79kB / 0B       58.1MB / 3.73MB   7
Dec 23 23:09:48 CONTAINER ID   NAME                    CPU %     MEM USAGE / LIMIT     MEM %     NET I/O           BLOCK I/O         PIDS
Dec 23 23:09:48 3bb6ccdcc2ca   prov_aic_janusgraph_1   0.12%     873.1MiB / 15.66GiB   5.44%     6.54MB / 3.09MB   0B / 332kB        53
Dec 23 23:09:48 175a7162e018   portainer               0.00%     16.76MiB / 15.66GiB   0.10%     9.79kB / 0B       58.1MB / 3.73MB   7
Dec 23 23:09:52 CONTAINER ID   NAME                    CPU %     MEM USAGE / LIMIT     MEM %     NET I/O           BLOCK I/O         PIDS
Dec 23 23:09:52 3bb6ccdcc2ca   prov_aic_janusgraph_1   16.60%    873.2MiB / 15.66GiB   5.44%     6.68MB / 3.16MB   0B / 332kB        53
Dec 23 23:09:52 175a7162e018   portainer               0.00%     16.76MiB / 15.66GiB   0.10%     9.79kB / 0B       58.1MB / 3.73MB   7
Dec 23 23:09:55 CONTAINER ID   NAME                    CPU %     MEM USAGE / LIMIT     MEM %     NET I/O           BLOCK I/O         PIDS
Dec 23 23:09:55 3bb6ccdcc2ca   prov_aic_janusgraph_1   1.24%     873.3MiB / 15.66GiB   5.44%     6.68MB / 3.16MB   0B / 332kB        53
Dec 23 23:09:55 175a7162e018   portainer               0.00%     16.76MiB / 15.66GiB   0.10%     9.79kB / 0B       58.1MB / 3.73MB   7
