file,elapsedWallMillis,peakMemoryBytes
prov_AIC/java/memory-1640296621296.csv,106851,12476736
prov_AIC/java/memory-1640296779837.csv,106974,12482200
prov_AIC/java/memory-1640296938443.csv,106946,12479856
prov_AIC/java/memory-1640297097100.csv,106849,12479216
prov_AIC/java/memory-1640297255617.csv,106894,12478624
prov_AIC/java/memory-1640297414264.csv,106928,12481608
prov_AIC/java/memory-1640297572822.csv,106915,12478008
prov_AIC/java/memory-1640297731354.csv,106925,12481840
prov_AIC/java/memory-1640297889953.csv,107018,12482768
prov_AIC/java/memory-1640298048614.csv,106840,12484992
