file,machine,seconds,memory_bytes,netIO_bytes
prov_AIC/docker/docker-stats-10.txt,portainer,0.0,17584619.52,9420.0
prov_AIC/docker/docker-stats-10.txt,prov_aic_janusgraph_1,4.0,563504742.4,4920.0
prov_AIC/docker/docker-stats-10.txt,portainer,4.0,17605591.04,9420.0
prov_AIC/docker/docker-stats-10.txt,prov_aic_janusgraph_1,8.0,777204531.2,6570.0
prov_AIC/docker/docker-stats-10.txt,portainer,8.0,17605591.04,9420.0
prov_AIC/docker/docker-stats-10.txt,prov_aic_janusgraph_1,11.0,125095116.8,6790.0
prov_AIC/docker/docker-stats-10.txt,portainer,11.0,17605591.04,9420.0
prov_AIC/docker/docker-stats-10.txt,prov_aic_janusgraph_1,15.0,690697011.2,6790.0
prov_AIC/docker/docker-stats-10.txt,portainer,15.0,17605591.04,9420.0
prov_AIC/docker/docker-stats-10.txt,prov_aic_janusgraph_1,18.0,766928486.4,7160.0
prov_AIC/docker/docker-stats-10.txt,portainer,18.0,17605591.04,9420.0
prov_AIC/docker/docker-stats-10.txt,prov_aic_janusgraph_1,22.0,761580748.8,7160.0
prov_AIC/docker/docker-stats-10.txt,portainer,22.0,17605591.04,9420.0
prov_AIC/docker/docker-stats-10.txt,prov_aic_janusgraph_1,26.0,761580748.8,7160.0
prov_AIC/docker/docker-stats-10.txt,portainer,26.0,17605591.04,9420.0
prov_AIC/docker/docker-stats-10.txt,prov_aic_janusgraph_1,29.0,761580748.8,7160.0
prov_AIC/docker/docker-stats-10.txt,portainer,29.0,17605591.04,9420.0
prov_AIC/docker/docker-stats-10.txt,prov_aic_janusgraph_1,33.0,761580748.8,7240.0
prov_AIC/docker/docker-stats-10.txt,portainer,33.0,17605591.04,9420.0
prov_AIC/docker/docker-stats-10.txt,prov_aic_janusgraph_1,36.0,761580748.8,7530.0
prov_AIC/docker/docker-stats-10.txt,portainer,36.0,17605591.04,9420.0
prov_AIC/docker/docker-stats-10.txt,prov_aic_janusgraph_1,40.0,761580748.8,7530.0
prov_AIC/docker/docker-stats-10.txt,portainer,40.0,17605591.04,9420.0
prov_AIC/docker/docker-stats-10.txt,prov_aic_janusgraph_1,44.0,778357964.8,12900.0
prov_AIC/docker/docker-stats-10.txt,portainer,44.0,17605591.04,9420.0
prov_AIC/docker/docker-stats-10.txt,prov_aic_janusgraph_1,47.0,783600844.8,200000.0
prov_AIC/docker/docker-stats-10.txt,portainer,47.0,17605591.04,9420.0
prov_AIC/docker/docker-stats-10.txt,prov_aic_janusgraph_1,51.0,789682585.6,300000.0
prov_AIC/docker/docker-stats-10.txt,portainer,51.0,17605591.04,9420.0
prov_AIC/docker/docker-stats-10.txt,prov_aic_janusgraph_1,55.0,792094310.4,492000.0
prov_AIC/docker/docker-stats-10.txt,portainer,55.0,17605591.04,9420.0
prov_AIC/docker/docker-stats-10.txt,prov_aic_janusgraph_1,58.0,793352601.6,732000.0
prov_AIC/docker/docker-stats-10.txt,portainer,58.0,17616076.8,9420.0
prov_AIC/docker/docker-stats-10.txt,prov_aic_janusgraph_1,61.0,793562316.8,852000.0
prov_AIC/docker/docker-stats-10.txt,portainer,61.0,17616076.8,9420.0
prov_AIC/docker/docker-stats-10.txt,prov_aic_janusgraph_1,64.0,794191462.4,973000.0
prov_AIC/docker/docker-stats-10.txt,portainer,64.0,17616076.8,9420.0
prov_AIC/docker/docker-stats-10.txt,prov_aic_janusgraph_1,68.0,794610892.8,1180000.0
prov_AIC/docker/docker-stats-10.txt,portainer,68.0,17616076.8,9420.0
prov_AIC/docker/docker-stats-10.txt,prov_aic_janusgraph_1,72.0,794925465.6,1390000.0
prov_AIC/docker/docker-stats-10.txt,portainer,72.0,17616076.8,9420.0
prov_AIC/docker/docker-stats-10.txt,prov_aic_janusgraph_1,75.0,794925465.6,1470000.0
prov_AIC/docker/docker-stats-10.txt,portainer,75.0,17616076.8,9420.0
prov_AIC/docker/docker-stats-10.txt,prov_aic_janusgraph_1,79.0,795240038.4,1600000.0
prov_AIC/docker/docker-stats-10.txt,portainer,79.0,17616076.8,9420.0
prov_AIC/docker/docker-stats-10.txt,prov_aic_janusgraph_1,82.0,795554611.2,1790000.0
prov_AIC/docker/docker-stats-10.txt,portainer,82.0,17616076.8,9420.0
prov_AIC/docker/docker-stats-10.txt,prov_aic_janusgraph_1,86.0,795659468.8,1980000.0
prov_AIC/docker/docker-stats-10.txt,portainer,86.0,17616076.8,9420.0
prov_AIC/docker/docker-stats-10.txt,prov_aic_janusgraph_1,90.0,795659468.8,2020000.0
prov_AIC/docker/docker-stats-10.txt,portainer,90.0,17616076.8,9420.0
prov_AIC/docker/docker-stats-10.txt,prov_aic_janusgraph_1,93.0,795764326.4,2200000.0
prov_AIC/docker/docker-stats-10.txt,portainer,93.0,17616076.8,9420.0
prov_AIC/docker/docker-stats-10.txt,prov_aic_janusgraph_1,97.0,795869184.0,2410000.0
prov_AIC/docker/docker-stats-10.txt,portainer,97.0,17616076.8,9420.0
prov_AIC/docker/docker-stats-10.txt,prov_aic_janusgraph_1,100.0,796078899.2,2610000.0
prov_AIC/docker/docker-stats-10.txt,portainer,100.0,17616076.8,9420.0
prov_AIC/docker/docker-stats-10.txt,prov_aic_janusgraph_1,104.0,796078899.2,2630000.0
prov_AIC/docker/docker-stats-10.txt,portainer,104.0,17616076.8,9420.0
prov_AIC/docker/docker-stats-10.txt,prov_aic_janusgraph_1,107.0,795764326.4,2870000.0
prov_AIC/docker/docker-stats-10.txt,portainer,107.0,17616076.8,9420.0
prov_AIC/docker/docker-stats-10.txt,prov_aic_janusgraph_1,111.0,795764326.4,3040000.0
prov_AIC/docker/docker-stats-10.txt,portainer,111.0,17616076.8,9420.0
prov_AIC/docker/docker-stats-10.txt,prov_aic_janusgraph_1,115.0,795764326.4,3050000.0
prov_AIC/docker/docker-stats-10.txt,portainer,115.0,16986931.2,9420.0
prov_AIC/docker/docker-stats-10.txt,prov_aic_janusgraph_1,118.0,795764326.4,3280000.0
prov_AIC/docker/docker-stats-10.txt,portainer,118.0,16986931.2,9420.0
prov_AIC/docker/docker-stats-10.txt,prov_aic_janusgraph_1,122.0,795764326.4,3500000.0
prov_AIC/docker/docker-stats-10.txt,portainer,122.0,16986931.2,9420.0
prov_AIC/docker/docker-stats-10.txt,prov_aic_janusgraph_1,125.0,795764326.4,3670000.0
prov_AIC/docker/docker-stats-10.txt,portainer,125.0,16986931.2,9420.0
prov_AIC/docker/docker-stats-10.txt,prov_aic_janusgraph_1,129.0,795764326.4,3800000.0
prov_AIC/docker/docker-stats-10.txt,portainer,129.0,16986931.2,9420.0
prov_AIC/docker/docker-stats-10.txt,prov_aic_janusgraph_1,133.0,795764326.4,3910000.0
prov_AIC/docker/docker-stats-10.txt,portainer,133.0,16986931.2,9420.0
prov_AIC/docker/docker-stats-10.txt,prov_aic_janusgraph_1,136.0,806250086.4,4090000.0
prov_AIC/docker/docker-stats-10.txt,portainer,136.0,16986931.2,9420.0
prov_AIC/docker/docker-stats-10.txt,prov_aic_janusgraph_1,140.0,806250086.4,4350000.0
prov_AIC/docker/docker-stats-10.txt,portainer,140.0,16986931.2,9420.0
prov_AIC/docker/docker-stats-10.txt,prov_aic_janusgraph_1,143.0,806250086.4,4380000.0
prov_AIC/docker/docker-stats-10.txt,portainer,143.0,16986931.2,9420.0
prov_AIC/docker/docker-stats-10.txt,prov_aic_janusgraph_1,147.0,806250086.4,4720000.0
prov_AIC/docker/docker-stats-10.txt,portainer,147.0,16986931.2,9420.0
prov_AIC/docker/docker-stats-1.txt,portainer,0.0,17511219.2,9050.0
prov_AIC/docker/docker-stats-1.txt,prov_aic_janusgraph_1,4.0,551865548.8,4500.0
prov_AIC/docker/docker-stats-1.txt,portainer,4.0,17521704.96,9050.0
prov_AIC/docker/docker-stats-1.txt,prov_aic_janusgraph_1,7.0,782552268.8,6280.0
prov_AIC/docker/docker-stats-1.txt,portainer,7.0,17521704.96,9050.0
prov_AIC/docker/docker-stats-1.txt,prov_aic_janusgraph_1,11.0,122054246.4,6580.0
prov_AIC/docker/docker-stats-1.txt,portainer,11.0,17521704.96,9050.0
prov_AIC/docker/docker-stats-1.txt,prov_aic_janusgraph_1,14.0,646447104.0,6580.0
prov_AIC/docker/docker-stats-1.txt,portainer,14.0,17521704.96,9050.0
prov_AIC/docker/docker-stats-1.txt,prov_aic_janusgraph_1,18.0,763258470.4,6950.0
prov_AIC/docker/docker-stats-1.txt,portainer,18.0,17521704.96,9050.0
prov_AIC/docker/docker-stats-1.txt,prov_aic_janusgraph_1,22.0,748158976.0,6950.0
prov_AIC/docker/docker-stats-1.txt,portainer,22.0,17521704.96,9050.0
prov_AIC/docker/docker-stats-1.txt,prov_aic_janusgraph_1,25.0,748158976.0,6950.0
prov_AIC/docker/docker-stats-1.txt,portainer,25.0,17521704.96,9050.0
prov_AIC/docker/docker-stats-1.txt,prov_aic_janusgraph_1,28.0,748158976.0,6950.0
prov_AIC/docker/docker-stats-1.txt,portainer,28.0,17521704.96,9050.0
prov_AIC/docker/docker-stats-1.txt,prov_aic_janusgraph_1,31.0,748158976.0,7110.0
prov_AIC/docker/docker-stats-1.txt,portainer,31.0,17521704.96,9050.0
prov_AIC/docker/docker-stats-1.txt,prov_aic_janusgraph_1,35.0,748158976.0,7320.0
prov_AIC/docker/docker-stats-1.txt,portainer,35.0,17532190.72,9050.0
prov_AIC/docker/docker-stats-1.txt,prov_aic_janusgraph_1,39.0,748158976.0,7320.0
prov_AIC/docker/docker-stats-1.txt,portainer,39.0,17532190.72,9050.0
prov_AIC/docker/docker-stats-1.txt,prov_aic_janusgraph_1,42.0,757910732.8,9150.0
prov_AIC/docker/docker-stats-1.txt,portainer,42.0,17542676.48,9050.0
prov_AIC/docker/docker-stats-1.txt,prov_aic_janusgraph_1,46.0,759903027.2,80100.0
prov_AIC/docker/docker-stats-1.txt,portainer,46.0,17542676.48,9050.0
prov_AIC/docker/docker-stats-1.txt,prov_aic_janusgraph_1,49.0,773115084.8,300000.0
prov_AIC/docker/docker-stats-1.txt,portainer,49.0,17542676.48,9050.0
prov_AIC/docker/docker-stats-1.txt,prov_aic_janusgraph_1,53.0,773324800.0,492000.0
prov_AIC/docker/docker-stats-1.txt,portainer,53.0,17542676.48,9050.0
prov_AIC/docker/docker-stats-1.txt,prov_aic_janusgraph_1,57.0,774373376.0,604000.0
prov_AIC/docker/docker-stats-1.txt,portainer,57.0,17542676.48,9050.0
prov_AIC/docker/docker-stats-1.txt,prov_aic_janusgraph_1,60.0,776260812.8,804000.0
prov_AIC/docker/docker-stats-1.txt,portainer,60.0,17542676.48,9050.0
prov_AIC/docker/docker-stats-1.txt,prov_aic_janusgraph_1,64.0,779825971.2,973000.0
prov_AIC/docker/docker-stats-1.txt,portainer,64.0,16903045.12,9050.0
prov_AIC/docker/docker-stats-1.txt,prov_aic_janusgraph_1,68.0,782237696.0,1180000.0
prov_AIC/docker/docker-stats-1.txt,portainer,68.0,16903045.12,9050.0
prov_AIC/docker/docker-stats-1.txt,prov_aic_janusgraph_1,71.0,782342553.6,1300000.0
prov_AIC/docker/docker-stats-1.txt,portainer,71.0,16913530.88,9050.0
prov_AIC/docker/docker-stats-1.txt,prov_aic_janusgraph_1,75.0,782447411.2,1390000.0
prov_AIC/docker/docker-stats-1.txt,portainer,75.0,16913530.88,9050.0
prov_AIC/docker/docker-stats-1.txt,prov_aic_janusgraph_1,78.0,782971699.2,1600000.0
prov_AIC/docker/docker-stats-1.txt,portainer,78.0,16913530.88,9050.0
prov_AIC/docker/docker-stats-1.txt,prov_aic_janusgraph_1,82.0,783286272.0,1780000.0
prov_AIC/docker/docker-stats-1.txt,portainer,82.0,16924016.64,9050.0
prov_AIC/docker/docker-stats-1.txt,prov_aic_janusgraph_1,86.0,783495987.2,1980000.0
prov_AIC/docker/docker-stats-1.txt,portainer,86.0,16924016.64,9050.0
prov_AIC/docker/docker-stats-1.txt,prov_aic_janusgraph_1,89.0,783495987.2,2000000.0
prov_AIC/docker/docker-stats-1.txt,portainer,89.0,16924016.64,9050.0
prov_AIC/docker/docker-stats-1.txt,prov_aic_janusgraph_1,92.0,783810560.0,2200000.0
prov_AIC/docker/docker-stats-1.txt,portainer,92.0,16924016.64,9050.0
prov_AIC/docker/docker-stats-1.txt,prov_aic_janusgraph_1,95.0,783810560.0,2290000.0
prov_AIC/docker/docker-stats-1.txt,portainer,95.0,16924016.64,9050.0
prov_AIC/docker/docker-stats-1.txt,prov_aic_janusgraph_1,99.0,783810560.0,2420000.0
prov_AIC/docker/docker-stats-1.txt,portainer,99.0,16924016.64,9050.0
prov_AIC/docker/docker-stats-1.txt,prov_aic_janusgraph_1,103.0,783810560.0,2630000.0
prov_AIC/docker/docker-stats-1.txt,portainer,103.0,16934502.4,9050.0
prov_AIC/docker/docker-stats-1.txt,prov_aic_janusgraph_1,106.0,783810560.0,2870000.0
prov_AIC/docker/docker-stats-1.txt,portainer,106.0,16934502.4,9050.0
prov_AIC/docker/docker-stats-1.txt,prov_aic_janusgraph_1,110.0,788843724.8,3010000.0
prov_AIC/docker/docker-stats-1.txt,portainer,110.0,16934502.4,9050.0
prov_AIC/docker/docker-stats-1.txt,prov_aic_janusgraph_1,113.0,785802854.4,3050000.0
prov_AIC/docker/docker-stats-1.txt,portainer,113.0,16944988.16,9050.0
prov_AIC/docker/docker-stats-1.txt,prov_aic_janusgraph_1,117.0,785802854.4,3280000.0
prov_AIC/docker/docker-stats-1.txt,portainer,117.0,16944988.16,9050.0
prov_AIC/docker/docker-stats-1.txt,prov_aic_janusgraph_1,121.0,785802854.4,3500000.0
prov_AIC/docker/docker-stats-1.txt,portainer,121.0,16944988.16,9050.0
prov_AIC/docker/docker-stats-1.txt,prov_aic_janusgraph_1,124.0,785802854.4,3660000.0
prov_AIC/docker/docker-stats-1.txt,portainer,124.0,16944988.16,9050.0
prov_AIC/docker/docker-stats-1.txt,prov_aic_janusgraph_1,128.0,785802854.4,3670000.0
prov_AIC/docker/docker-stats-1.txt,portainer,128.0,16944988.16,9050.0
prov_AIC/docker/docker-stats-1.txt,prov_aic_janusgraph_1,131.0,785802854.4,3910000.0
prov_AIC/docker/docker-stats-1.txt,portainer,131.0,16944988.16,9050.0
prov_AIC/docker/docker-stats-1.txt,prov_aic_janusgraph_1,135.0,785802854.4,4080000.0
prov_AIC/docker/docker-stats-1.txt,portainer,135.0,17322475.52,9050.0
prov_AIC/docker/docker-stats-1.txt,prov_aic_janusgraph_1,138.0,796498329.6,4170000.0
prov_AIC/docker/docker-stats-1.txt,portainer,138.0,17322475.52,9050.0
prov_AIC/docker/docker-stats-1.txt,prov_aic_janusgraph_1,142.0,796393472.0,4370000.0
prov_AIC/docker/docker-stats-1.txt,portainer,142.0,17322475.52,9050.0
prov_AIC/docker/docker-stats-1.txt,prov_aic_janusgraph_1,146.0,796393472.0,4720000.0
prov_AIC/docker/docker-stats-1.txt,portainer,146.0,17322475.52,9050.0
prov_AIC/docker/docker-stats-2.txt,portainer,0.0,17322475.52,9050.0
prov_AIC/docker/docker-stats-2.txt,prov_aic_janusgraph_1,3.0,699400192.0,5320.0
prov_AIC/docker/docker-stats-2.txt,portainer,3.0,17332961.28,9050.0
prov_AIC/docker/docker-stats-2.txt,prov_aic_janusgraph_1,7.0,761161318.4,6300.0
prov_AIC/docker/docker-stats-2.txt,portainer,7.0,17332961.28,9050.0
prov_AIC/docker/docker-stats-2.txt,prov_aic_janusgraph_1,10.0,59863203.84,6800.0
prov_AIC/docker/docker-stats-2.txt,portainer,10.0,17332961.28,9050.0
prov_AIC/docker/docker-stats-2.txt,prov_aic_janusgraph_1,14.0,469552332.8,6800.0
prov_AIC/docker/docker-stats-2.txt,portainer,14.0,17332961.28,9050.0
prov_AIC/docker/docker-stats-2.txt,prov_aic_janusgraph_1,18.0,760217600.0,7070.0
prov_AIC/docker/docker-stats-2.txt,portainer,18.0,17332961.28,9050.0
prov_AIC/docker/docker-stats-2.txt,prov_aic_janusgraph_1,21.0,743859814.4,7180.0
prov_AIC/docker/docker-stats-2.txt,portainer,21.0,17332961.28,9050.0
prov_AIC/docker/docker-stats-2.txt,prov_aic_janusgraph_1,25.0,743859814.4,7180.0
prov_AIC/docker/docker-stats-2.txt,portainer,25.0,17364418.56,9050.0
prov_AIC/docker/docker-stats-2.txt,prov_aic_janusgraph_1,28.0,743859814.4,7180.0
prov_AIC/docker/docker-stats-2.txt,portainer,28.0,17364418.56,9050.0
prov_AIC/docker/docker-stats-2.txt,prov_aic_janusgraph_1,32.0,743859814.4,7330.0
prov_AIC/docker/docker-stats-2.txt,portainer,32.0,17364418.56,9050.0
prov_AIC/docker/docker-stats-2.txt,prov_aic_janusgraph_1,36.0,743859814.4,7550.0
prov_AIC/docker/docker-stats-2.txt,portainer,36.0,17364418.56,9050.0
prov_AIC/docker/docker-stats-2.txt,prov_aic_janusgraph_1,39.0,743859814.4,7550.0
prov_AIC/docker/docker-stats-2.txt,portainer,39.0,17364418.56,9050.0
prov_AIC/docker/docker-stats-2.txt,prov_aic_janusgraph_1,43.0,756128153.6,10200.0
prov_AIC/docker/docker-stats-2.txt,portainer,43.0,17364418.56,9050.0
prov_AIC/docker/docker-stats-2.txt,prov_aic_janusgraph_1,47.0,770808217.6,189000.0
prov_AIC/docker/docker-stats-2.txt,portainer,47.0,17364418.56,9050.0
prov_AIC/docker/docker-stats-2.txt,prov_aic_janusgraph_1,50.0,779825971.2,366000.0
prov_AIC/docker/docker-stats-2.txt,portainer,50.0,17364418.56,9050.0
prov_AIC/docker/docker-stats-2.txt,prov_aic_janusgraph_1,54.0,780559974.4,492000.0
prov_AIC/docker/docker-stats-2.txt,portainer,54.0,17364418.56,9050.0
prov_AIC/docker/docker-stats-2.txt,prov_aic_janusgraph_1,57.0,782866841.6,733000.0
prov_AIC/docker/docker-stats-2.txt,portainer,57.0,17364418.56,9050.0
prov_AIC/docker/docker-stats-2.txt,prov_aic_janusgraph_1,61.0,784754278.4,961000.0
prov_AIC/docker/docker-stats-2.txt,portainer,61.0,17364418.56,9050.0
prov_AIC/docker/docker-stats-2.txt,prov_aic_janusgraph_1,65.0,784963993.6,1050000.0
prov_AIC/docker/docker-stats-2.txt,portainer,65.0,17364418.56,9050.0
prov_AIC/docker/docker-stats-2.txt,prov_aic_janusgraph_1,68.0,786012569.6,1180000.0
prov_AIC/docker/docker-stats-2.txt,portainer,68.0,17364418.56,9050.0
prov_AIC/docker/docker-stats-2.txt,prov_aic_janusgraph_1,72.0,786327142.4,1400000.0
prov_AIC/docker/docker-stats-2.txt,portainer,72.0,17364418.56,9050.0
prov_AIC/docker/docker-stats-2.txt,prov_aic_janusgraph_1,75.0,786641715.2,1590000.0
prov_AIC/docker/docker-stats-2.txt,portainer,75.0,17374904.32,9050.0
prov_AIC/docker/docker-stats-2.txt,prov_aic_janusgraph_1,79.0,790521446.4,1620000.0
prov_AIC/docker/docker-stats-2.txt,portainer,79.0,17374904.32,9050.0
prov_AIC/docker/docker-stats-2.txt,prov_aic_janusgraph_1,83.0,799539200.0,1790000.0
prov_AIC/docker/docker-stats-2.txt,portainer,83.0,17374904.32,9050.0
prov_AIC/docker/docker-stats-2.txt,prov_aic_janusgraph_1,86.0,796183756.8,2000000.0
prov_AIC/docker/docker-stats-2.txt,portainer,86.0,17374904.32,9050.0
prov_AIC/docker/docker-stats-2.txt,prov_aic_janusgraph_1,90.0,796288614.4,2200000.0
prov_AIC/docker/docker-stats-2.txt,portainer,90.0,17374904.32,9050.0
prov_AIC/docker/docker-stats-2.txt,prov_aic_janusgraph_1,93.0,796288614.4,2200000.0
prov_AIC/docker/docker-stats-2.txt,portainer,93.0,17374904.32,9050.0
prov_AIC/docker/docker-stats-2.txt,prov_aic_janusgraph_1,97.0,796393472.0,2410000.0
prov_AIC/docker/docker-stats-2.txt,portainer,97.0,17374904.32,9050.0
prov_AIC/docker/docker-stats-2.txt,prov_aic_janusgraph_1,101.0,796498329.6,2630000.0
prov_AIC/docker/docker-stats-2.txt,portainer,101.0,17374904.32,9050.0
prov_AIC/docker/docker-stats-2.txt,prov_aic_janusgraph_1,104.0,796498329.6,2630000.0
prov_AIC/docker/docker-stats-2.txt,portainer,104.0,17374904.32,9050.0
prov_AIC/docker/docker-stats-2.txt,prov_aic_janusgraph_1,108.0,796498329.6,2870000.0
prov_AIC/docker/docker-stats-2.txt,portainer,108.0,17374904.32,9050.0
prov_AIC/docker/docker-stats-2.txt,prov_aic_janusgraph_1,111.0,796498329.6,3040000.0
prov_AIC/docker/docker-stats-2.txt,portainer,111.0,17374904.32,9050.0
prov_AIC/docker/docker-stats-2.txt,prov_aic_janusgraph_1,115.0,796498329.6,3260000.0
prov_AIC/docker/docker-stats-2.txt,portainer,115.0,17374904.32,9050.0
prov_AIC/docker/docker-stats-2.txt,prov_aic_janusgraph_1,119.0,796498329.6,3280000.0
prov_AIC/docker/docker-stats-2.txt,portainer,119.0,17374904.32,9050.0
prov_AIC/docker/docker-stats-2.txt,prov_aic_janusgraph_1,121.0,796498329.6,3500000.0
prov_AIC/docker/docker-stats-2.txt,portainer,121.0,17374904.32,9050.0
prov_AIC/docker/docker-stats-2.txt,prov_aic_janusgraph_1,125.0,796498329.6,3660000.0
prov_AIC/docker/docker-stats-2.txt,portainer,125.0,17374904.32,9050.0
prov_AIC/docker/docker-stats-2.txt,prov_aic_janusgraph_1,128.0,796498329.6,3790000.0
prov_AIC/docker/docker-stats-2.txt,portainer,128.0,17374904.32,9050.0
prov_AIC/docker/docker-stats-2.txt,prov_aic_janusgraph_1,132.0,796498329.6,3910000.0
prov_AIC/docker/docker-stats-2.txt,portainer,132.0,17374904.32,9050.0
prov_AIC/docker/docker-stats-2.txt,prov_aic_janusgraph_1,136.0,807088947.2,4090000.0
prov_AIC/docker/docker-stats-2.txt,portainer,136.0,17374904.32,9050.0
prov_AIC/docker/docker-stats-2.txt,prov_aic_janusgraph_1,139.0,807088947.2,4350000.0
prov_AIC/docker/docker-stats-2.txt,portainer,139.0,17374904.32,9050.0
prov_AIC/docker/docker-stats-2.txt,prov_aic_janusgraph_1,143.0,807088947.2,4370000.0
prov_AIC/docker/docker-stats-2.txt,portainer,143.0,17374904.32,9050.0
prov_AIC/docker/docker-stats-2.txt,prov_aic_janusgraph_1,146.0,807088947.2,4720000.0
prov_AIC/docker/docker-stats-2.txt,portainer,146.0,17374904.32,9050.0
prov_AIC/docker/docker-stats-3.txt,portainer,0.0,16892559.36,9050.0
prov_AIC/docker/docker-stats-3.txt,prov_aic_janusgraph_1,4.0,698980761.6,5050.0
prov_AIC/docker/docker-stats-3.txt,portainer,4.0,16892559.36,9050.0
prov_AIC/docker/docker-stats-3.txt,prov_aic_janusgraph_1,7.0,760846745.6,6410.0
prov_AIC/docker/docker-stats-3.txt,portainer,7.0,16892559.36,9050.0
prov_AIC/docker/docker-stats-3.txt,prov_aic_janusgraph_1,11.0,115657932.8,6710.0
prov_AIC/docker/docker-stats-3.txt,portainer,11.0,16892559.36,9050.0
prov_AIC/docker/docker-stats-3.txt,prov_aic_janusgraph_1,15.0,742601523.2,6790.0
prov_AIC/docker/docker-stats-3.txt,portainer,15.0,16892559.36,9050.0
prov_AIC/docker/docker-stats-3.txt,prov_aic_janusgraph_1,18.0,760427315.2,7090.0
prov_AIC/docker/docker-stats-3.txt,portainer,18.0,16892559.36,9050.0
prov_AIC/docker/docker-stats-3.txt,prov_aic_janusgraph_1,22.0,749522124.8,7090.0
prov_AIC/docker/docker-stats-3.txt,portainer,22.0,16892559.36,9050.0
prov_AIC/docker/docker-stats-3.txt,prov_aic_janusgraph_1,25.0,749522124.8,7090.0
prov_AIC/docker/docker-stats-3.txt,portainer,25.0,16892559.36,9050.0
prov_AIC/docker/docker-stats-3.txt,prov_aic_janusgraph_1,29.0,749522124.8,7160.0
prov_AIC/docker/docker-stats-3.txt,portainer,29.0,16892559.36,9050.0
prov_AIC/docker/docker-stats-3.txt,prov_aic_janusgraph_1,33.0,749522124.8,7240.0
prov_AIC/docker/docker-stats-3.txt,portainer,33.0,16892559.36,9050.0
prov_AIC/docker/docker-stats-3.txt,prov_aic_janusgraph_1,36.0,749522124.8,7460.0
prov_AIC/docker/docker-stats-3.txt,portainer,36.0,16892559.36,9050.0
prov_AIC/docker/docker-stats-3.txt,prov_aic_janusgraph_1,40.0,749522124.8,7460.0
prov_AIC/docker/docker-stats-3.txt,portainer,40.0,16892559.36,9050.0
prov_AIC/docker/docker-stats-3.txt,prov_aic_janusgraph_1,43.0,766299340.8,12800.0
prov_AIC/docker/docker-stats-3.txt,portainer,43.0,16892559.36,9050.0
prov_AIC/docker/docker-stats-3.txt,prov_aic_janusgraph_1,47.0,780769689.6,187000.0
prov_AIC/docker/docker-stats-3.txt,portainer,47.0,16892559.36,9050.0
prov_AIC/docker/docker-stats-3.txt,prov_aic_janusgraph_1,51.0,787690291.2,360000.0
prov_AIC/docker/docker-stats-3.txt,portainer,51.0,16892559.36,9050.0
prov_AIC/docker/docker-stats-3.txt,prov_aic_janusgraph_1,54.0,788529152.0,493000.0
prov_AIC/docker/docker-stats-3.txt,portainer,54.0,16892559.36,9050.0
prov_AIC/docker/docker-stats-3.txt,prov_aic_janusgraph_1,58.0,797546905.6,733000.0
prov_AIC/docker/docker-stats-3.txt,portainer,58.0,16892559.36,9050.0
prov_AIC/docker/docker-stats-3.txt,prov_aic_janusgraph_1,61.0,799224627.2,803000.0
prov_AIC/docker/docker-stats-3.txt,portainer,61.0,16892559.36,9140.0
prov_AIC/docker/docker-stats-3.txt,prov_aic_janusgraph_1,65.0,799748915.2,1010000.0
prov_AIC/docker/docker-stats-3.txt,portainer,65.0,16892559.36,9350.0
prov_AIC/docker/docker-stats-3.txt,prov_aic_janusgraph_1,69.0,801007206.4,1180000.0
prov_AIC/docker/docker-stats-3.txt,portainer,69.0,16892559.36,9350.0
prov_AIC/docker/docker-stats-3.txt,prov_aic_janusgraph_1,72.0,796288614.4,1390000.0
prov_AIC/docker/docker-stats-3.txt,portainer,72.0,16892559.36,9350.0
prov_AIC/docker/docker-stats-3.txt,prov_aic_janusgraph_1,76.0,798490624.0,1590000.0
prov_AIC/docker/docker-stats-3.txt,portainer,76.0,16892559.36,9350.0
prov_AIC/docker/docker-stats-3.txt,prov_aic_janusgraph_1,79.0,798490624.0,1600000.0
prov_AIC/docker/docker-stats-3.txt,portainer,79.0,16892559.36,9350.0
prov_AIC/docker/docker-stats-3.txt,prov_aic_janusgraph_1,83.0,798700339.2,1780000.0
prov_AIC/docker/docker-stats-3.txt,portainer,83.0,16892559.36,9350.0
prov_AIC/docker/docker-stats-3.txt,prov_aic_janusgraph_1,87.0,799119769.6,1980000.0
prov_AIC/docker/docker-stats-3.txt,portainer,87.0,16892559.36,9350.0
prov_AIC/docker/docker-stats-3.txt,prov_aic_janusgraph_1,90.0,799119769.6,2000000.0
prov_AIC/docker/docker-stats-3.txt,portainer,90.0,16892559.36,9350.0
prov_AIC/docker/docker-stats-3.txt,prov_aic_janusgraph_1,94.0,799329484.8,2210000.0
prov_AIC/docker/docker-stats-3.txt,portainer,94.0,16892559.36,9350.0
prov_AIC/docker/docker-stats-3.txt,prov_aic_janusgraph_1,97.0,799329484.8,2400000.0
prov_AIC/docker/docker-stats-3.txt,portainer,97.0,16892559.36,9350.0
prov_AIC/docker/docker-stats-3.txt,prov_aic_janusgraph_1,101.0,799329484.8,2610000.0
prov_AIC/docker/docker-stats-3.txt,portainer,101.0,16892559.36,9350.0
prov_AIC/docker/docker-stats-3.txt,prov_aic_janusgraph_1,105.0,799329484.8,2780000.0
prov_AIC/docker/docker-stats-3.txt,portainer,105.0,16892559.36,9350.0
prov_AIC/docker/docker-stats-3.txt,prov_aic_janusgraph_1,108.0,799329484.8,2870000.0
prov_AIC/docker/docker-stats-3.txt,portainer,108.0,16892559.36,9350.0
prov_AIC/docker/docker-stats-3.txt,prov_aic_janusgraph_1,112.0,799434342.4,3040000.0
prov_AIC/docker/docker-stats-3.txt,portainer,112.0,16892559.36,9350.0
prov_AIC/docker/docker-stats-3.txt,prov_aic_janusgraph_1,114.0,799434342.4,3230000.0
prov_AIC/docker/docker-stats-3.txt,portainer,114.0,17416847.36,9350.0
prov_AIC/docker/docker-stats-3.txt,prov_aic_janusgraph_1,118.0,799539200.0,3280000.0
prov_AIC/docker/docker-stats-3.txt,portainer,118.0,17416847.36,9350.0
prov_AIC/docker/docker-stats-3.txt,prov_aic_janusgraph_1,122.0,799539200.0,3500000.0
prov_AIC/docker/docker-stats-3.txt,portainer,122.0,17416847.36,9350.0
prov_AIC/docker/docker-stats-3.txt,prov_aic_janusgraph_1,125.0,799539200.0,3670000.0
prov_AIC/docker/docker-stats-3.txt,portainer,125.0,17427333.12,9350.0
prov_AIC/docker/docker-stats-3.txt,prov_aic_janusgraph_1,129.0,799539200.0,3670000.0
prov_AIC/docker/docker-stats-3.txt,portainer,129.0,17427333.12,9350.0
prov_AIC/docker/docker-stats-3.txt,prov_aic_janusgraph_1,132.0,799644057.6,3910000.0
prov_AIC/docker/docker-stats-3.txt,portainer,132.0,17427333.12,9350.0
prov_AIC/docker/docker-stats-3.txt,prov_aic_janusgraph_1,136.0,799644057.6,4090000.0
prov_AIC/docker/docker-stats-3.txt,portainer,136.0,17427333.12,9350.0
prov_AIC/docker/docker-stats-3.txt,prov_aic_janusgraph_1,140.0,810129817.6,4120000.0
prov_AIC/docker/docker-stats-3.txt,portainer,140.0,17427333.12,9350.0
prov_AIC/docker/docker-stats-3.txt,prov_aic_janusgraph_1,143.0,810129817.6,4370000.0
prov_AIC/docker/docker-stats-3.txt,portainer,143.0,17427333.12,9350.0
prov_AIC/docker/docker-stats-3.txt,prov_aic_janusgraph_1,147.0,810129817.6,4720000.0
prov_AIC/docker/docker-stats-3.txt,portainer,147.0,17427333.12,9350.0
prov_AIC/docker/docker-stats-4.txt,portainer,0.0,17427333.12,9350.0
prov_AIC/docker/docker-stats-4.txt,prov_aic_janusgraph_1,3.0,700553625.6,5400.0
prov_AIC/docker/docker-stats-4.txt,portainer,3.0,17427333.12,9350.0
prov_AIC/docker/docker-stats-4.txt,prov_aic_janusgraph_1,7.0,758225305.6,6260.0
prov_AIC/docker/docker-stats-4.txt,portainer,7.0,17427333.12,9350.0
prov_AIC/docker/docker-stats-4.txt,prov_aic_janusgraph_1,11.0,105486745.6,6560.0
prov_AIC/docker/docker-stats-4.txt,portainer,11.0,17427333.12,9350.0
prov_AIC/docker/docker-stats-4.txt,prov_aic_janusgraph_1,14.0,634703052.8,6560.0
prov_AIC/docker/docker-stats-4.txt,portainer,14.0,17427333.12,9350.0
prov_AIC/docker/docker-stats-4.txt,prov_aic_janusgraph_1,18.0,766613913.6,6930.0
prov_AIC/docker/docker-stats-4.txt,portainer,18.0,17437818.88,9350.0
prov_AIC/docker/docker-stats-4.txt,prov_aic_janusgraph_1,21.0,754869862.4,6930.0
prov_AIC/docker/docker-stats-4.txt,portainer,21.0,17437818.88,9350.0
prov_AIC/docker/docker-stats-4.txt,prov_aic_janusgraph_1,25.0,754869862.4,6930.0
prov_AIC/docker/docker-stats-4.txt,portainer,25.0,17437818.88,9350.0
prov_AIC/docker/docker-stats-4.txt,prov_aic_janusgraph_1,29.0,754869862.4,6930.0
prov_AIC/docker/docker-stats-4.txt,portainer,29.0,17437818.88,9350.0
prov_AIC/docker/docker-stats-4.txt,prov_aic_janusgraph_1,32.0,754869862.4,7300.0
prov_AIC/docker/docker-stats-4.txt,portainer,32.0,17437818.88,9350.0
prov_AIC/docker/docker-stats-4.txt,prov_aic_janusgraph_1,36.0,754869862.4,7300.0
prov_AIC/docker/docker-stats-4.txt,portainer,36.0,17448304.64,9350.0
prov_AIC/docker/docker-stats-4.txt,prov_aic_janusgraph_1,39.0,754869862.4,7300.0
prov_AIC/docker/docker-stats-4.txt,portainer,39.0,17448304.64,9350.0
prov_AIC/docker/docker-stats-4.txt,prov_aic_janusgraph_1,43.0,770913075.2,12400.0
prov_AIC/docker/docker-stats-4.txt,portainer,43.0,17448304.64,9350.0
prov_AIC/docker/docker-stats-4.txt,prov_aic_janusgraph_1,47.0,782342553.6,107000.0
prov_AIC/docker/docker-stats-4.txt,portainer,47.0,17448304.64,9350.0
prov_AIC/docker/docker-stats-4.txt,prov_aic_janusgraph_1,50.0,789053440.0,361000.0
prov_AIC/docker/docker-stats-4.txt,portainer,50.0,17448304.64,9350.0
prov_AIC/docker/docker-stats-4.txt,prov_aic_janusgraph_1,54.0,789682585.6,492000.0
prov_AIC/docker/docker-stats-4.txt,portainer,54.0,17448304.64,9350.0
prov_AIC/docker/docker-stats-4.txt,prov_aic_janusgraph_1,58.0,794191462.4,733000.0
prov_AIC/docker/docker-stats-4.txt,portainer,58.0,17448304.64,9350.0
prov_AIC/docker/docker-stats-4.txt,prov_aic_janusgraph_1,61.0,794401177.6,803000.0
prov_AIC/docker/docker-stats-4.txt,portainer,61.0,17448304.64,9350.0
prov_AIC/docker/docker-stats-4.txt,prov_aic_janusgraph_1,65.0,795030323.2,1020000.0
prov_AIC/docker/docker-stats-4.txt,portainer,65.0,17448304.64,9350.0
prov_AIC/docker/docker-stats-4.txt,prov_aic_janusgraph_1,68.0,795135180.8,1180000.0
prov_AIC/docker/docker-stats-4.txt,portainer,68.0,17448304.64,9350.0
prov_AIC/docker/docker-stats-4.txt,prov_aic_janusgraph_1,72.0,795135180.8,1390000.0
prov_AIC/docker/docker-stats-4.txt,portainer,72.0,17448304.64,9350.0
prov_AIC/docker/docker-stats-4.txt,prov_aic_janusgraph_1,76.0,795135180.8,1590000.0
prov_AIC/docker/docker-stats-4.txt,portainer,76.0,17448304.64,9350.0
prov_AIC/docker/docker-stats-4.txt,prov_aic_janusgraph_1,79.0,795135180.8,1600000.0
prov_AIC/docker/docker-stats-4.txt,portainer,79.0,17448304.64,9350.0
prov_AIC/docker/docker-stats-4.txt,prov_aic_janusgraph_1,83.0,795240038.4,1780000.0
prov_AIC/docker/docker-stats-4.txt,portainer,83.0,17448304.64,9350.0
prov_AIC/docker/docker-stats-4.txt,prov_aic_janusgraph_1,86.0,795449753.6,1980000.0
prov_AIC/docker/docker-stats-4.txt,portainer,86.0,17448304.64,9350.0
prov_AIC/docker/docker-stats-4.txt,prov_aic_janusgraph_1,90.0,795449753.6,2000000.0
prov_AIC/docker/docker-stats-4.txt,portainer,90.0,17448304.64,9350.0
prov_AIC/docker/docker-stats-4.txt,prov_aic_janusgraph_1,94.0,795449753.6,2210000.0
prov_AIC/docker/docker-stats-4.txt,portainer,94.0,17448304.64,9350.0
prov_AIC/docker/docker-stats-4.txt,prov_aic_janusgraph_1,96.0,795449753.6,2400000.0
prov_AIC/docker/docker-stats-4.txt,portainer,96.0,17448304.64,9350.0
prov_AIC/docker/docker-stats-4.txt,prov_aic_janusgraph_1,100.0,795449753.6,2610000.0
prov_AIC/docker/docker-stats-4.txt,portainer,100.0,17448304.64,9350.0
prov_AIC/docker/docker-stats-4.txt,prov_aic_janusgraph_1,103.0,795449753.6,2630000.0
prov_AIC/docker/docker-stats-4.txt,portainer,103.0,17448304.64,9350.0
prov_AIC/docker/docker-stats-4.txt,prov_aic_janusgraph_1,107.0,795449753.6,2870000.0
prov_AIC/docker/docker-stats-4.txt,portainer,107.0,17458790.4,9350.0
prov_AIC/docker/docker-stats-4.txt,prov_aic_janusgraph_1,110.0,795764326.4,3040000.0
prov_AIC/docker/docker-stats-4.txt,portainer,110.0,17458790.4,9350.0
prov_AIC/docker/docker-stats-4.txt,prov_aic_janusgraph_1,114.0,795659468.8,3050000.0
prov_AIC/docker/docker-stats-4.txt,portainer,114.0,17458790.4,9350.0
prov_AIC/docker/docker-stats-4.txt,prov_aic_janusgraph_1,118.0,795764326.4,3280000.0
prov_AIC/docker/docker-stats-4.txt,portainer,118.0,17458790.4,9350.0
prov_AIC/docker/docker-stats-4.txt,prov_aic_janusgraph_1,121.0,795764326.4,3500000.0
prov_AIC/docker/docker-stats-4.txt,portainer,121.0,17458790.4,9350.0
prov_AIC/docker/docker-stats-4.txt,prov_aic_janusgraph_1,125.0,795764326.4,3670000.0
prov_AIC/docker/docker-stats-4.txt,portainer,125.0,17458790.4,9350.0
prov_AIC/docker/docker-stats-4.txt,prov_aic_janusgraph_1,128.0,795764326.4,3670000.0
prov_AIC/docker/docker-stats-4.txt,portainer,128.0,17458790.4,9350.0
prov_AIC/docker/docker-stats-4.txt,prov_aic_janusgraph_1,132.0,795869184.0,3910000.0
prov_AIC/docker/docker-stats-4.txt,portainer,132.0,17458790.4,9350.0
prov_AIC/docker/docker-stats-4.txt,prov_aic_janusgraph_1,136.0,795869184.0,4090000.0
prov_AIC/docker/docker-stats-4.txt,portainer,136.0,17458790.4,9350.0
prov_AIC/docker/docker-stats-4.txt,prov_aic_janusgraph_1,139.0,806459801.6,4340000.0
prov_AIC/docker/docker-stats-4.txt,portainer,139.0,17458790.4,9350.0
prov_AIC/docker/docker-stats-4.txt,prov_aic_janusgraph_1,143.0,806354944.0,4370000.0
prov_AIC/docker/docker-stats-4.txt,portainer,143.0,17458790.4,9350.0
prov_AIC/docker/docker-stats-4.txt,prov_aic_janusgraph_1,146.0,806354944.0,4720000.0
prov_AIC/docker/docker-stats-4.txt,portainer,146.0,17458790.4,9350.0
prov_AIC/docker/docker-stats-5.txt,portainer,0.0,17479761.92,9350.0
prov_AIC/docker/docker-stats-5.txt,prov_aic_janusgraph_1,4.0,549244108.8,4800.0
prov_AIC/docker/docker-stats-5.txt,portainer,4.0,17479761.92,9350.0
prov_AIC/docker/docker-stats-5.txt,prov_aic_janusgraph_1,8.0,763468185.6,6470.0
prov_AIC/docker/docker-stats-5.txt,portainer,8.0,17479761.92,9350.0
prov_AIC/docker/docker-stats-5.txt,prov_aic_janusgraph_1,11.0,116391936.0,6770.0
prov_AIC/docker/docker-stats-5.txt,portainer,11.0,17479761.92,9350.0
prov_AIC/docker/docker-stats-5.txt,prov_aic_janusgraph_1,15.0,746586112.0,6770.0
prov_AIC/docker/docker-stats-5.txt,portainer,15.0,17479761.92,9350.0
prov_AIC/docker/docker-stats-5.txt,prov_aic_janusgraph_1,18.0,763992473.6,7140.0
prov_AIC/docker/docker-stats-5.txt,portainer,18.0,17479761.92,9350.0
prov_AIC/docker/docker-stats-5.txt,prov_aic_janusgraph_1,22.0,759483596.8,7140.0
prov_AIC/docker/docker-stats-5.txt,portainer,22.0,17479761.92,9350.0
prov_AIC/docker/docker-stats-5.txt,prov_aic_janusgraph_1,26.0,759483596.8,7140.0
prov_AIC/docker/docker-stats-5.txt,portainer,26.0,17479761.92,9350.0
prov_AIC/docker/docker-stats-5.txt,prov_aic_janusgraph_1,29.0,759483596.8,7140.0
prov_AIC/docker/docker-stats-5.txt,portainer,29.0,17479761.92,9350.0
prov_AIC/docker/docker-stats-5.txt,prov_aic_janusgraph_1,33.0,759483596.8,7230.0
prov_AIC/docker/docker-stats-5.txt,portainer,33.0,17479761.92,9350.0
prov_AIC/docker/docker-stats-5.txt,prov_aic_janusgraph_1,37.0,759483596.8,7510.0
prov_AIC/docker/docker-stats-5.txt,portainer,37.0,17479761.92,9350.0
prov_AIC/docker/docker-stats-5.txt,prov_aic_janusgraph_1,40.0,759483596.8,7510.0
prov_AIC/docker/docker-stats-5.txt,portainer,40.0,17490247.68,9350.0
prov_AIC/docker/docker-stats-5.txt,prov_aic_janusgraph_1,44.0,773429657.6,13000.0
prov_AIC/docker/docker-stats-5.txt,portainer,44.0,17490247.68,9350.0
prov_AIC/docker/docker-stats-5.txt,prov_aic_janusgraph_1,47.0,782657126.4,198000.0
prov_AIC/docker/docker-stats-5.txt,portainer,47.0,17490247.68,9350.0
prov_AIC/docker/docker-stats-5.txt,prov_aic_janusgraph_1,51.0,784125132.8,300000.0
prov_AIC/docker/docker-stats-5.txt,portainer,51.0,16955473.92,9350.0
prov_AIC/docker/docker-stats-5.txt,prov_aic_janusgraph_1,55.0,788424294.4,492000.0
prov_AIC/docker/docker-stats-5.txt,portainer,55.0,16955473.92,9350.0
prov_AIC/docker/docker-stats-5.txt,prov_aic_janusgraph_1,58.0,805096652.8,732000.0
prov_AIC/docker/docker-stats-5.txt,portainer,58.0,16955473.92,9350.0
prov_AIC/docker/docker-stats-5.txt,prov_aic_janusgraph_1,62.0,782027980.8,973000.0
prov_AIC/docker/docker-stats-5.txt,portainer,62.0,16955473.92,9350.0
prov_AIC/docker/docker-stats-5.txt,prov_aic_janusgraph_1,66.0,782027980.8,1060000.0
prov_AIC/docker/docker-stats-5.txt,portainer,66.0,16955473.92,9350.0
prov_AIC/docker/docker-stats-5.txt,prov_aic_janusgraph_1,69.0,783181414.4,1180000.0
prov_AIC/docker/docker-stats-5.txt,portainer,69.0,16965959.68,9350.0
prov_AIC/docker/docker-stats-5.txt,prov_aic_janusgraph_1,73.0,783286272.0,1390000.0
prov_AIC/docker/docker-stats-5.txt,portainer,73.0,16965959.68,9350.0
prov_AIC/docker/docker-stats-5.txt,prov_aic_janusgraph_1,76.0,783495987.2,1590000.0
prov_AIC/docker/docker-stats-5.txt,portainer,76.0,16965959.68,9350.0
prov_AIC/docker/docker-stats-5.txt,prov_aic_janusgraph_1,80.0,783600844.8,1640000.0
prov_AIC/docker/docker-stats-5.txt,portainer,80.0,16986931.2,9350.0
prov_AIC/docker/docker-stats-5.txt,prov_aic_janusgraph_1,84.0,795240038.4,1790000.0
prov_AIC/docker/docker-stats-5.txt,portainer,84.0,16986931.2,9350.0
prov_AIC/docker/docker-stats-5.txt,prov_aic_janusgraph_1,87.0,795554611.2,2000000.0
prov_AIC/docker/docker-stats-5.txt,portainer,87.0,16986931.2,9350.0
prov_AIC/docker/docker-stats-5.txt,prov_aic_janusgraph_1,91.0,795659468.8,2200000.0
prov_AIC/docker/docker-stats-5.txt,portainer,91.0,16986931.2,9350.0
prov_AIC/docker/docker-stats-5.txt,prov_aic_janusgraph_1,94.0,795764326.4,2210000.0
prov_AIC/docker/docker-stats-5.txt,portainer,94.0,16986931.2,9350.0
prov_AIC/docker/docker-stats-5.txt,prov_aic_janusgraph_1,98.0,795764326.4,2400000.0
prov_AIC/docker/docker-stats-5.txt,portainer,98.0,17406361.6,9350.0
prov_AIC/docker/docker-stats-5.txt,prov_aic_janusgraph_1,102.0,795869184.0,2630000.0
prov_AIC/docker/docker-stats-5.txt,portainer,102.0,17406361.6,9350.0
prov_AIC/docker/docker-stats-5.txt,prov_aic_janusgraph_1,105.0,795869184.0,2860000.0
prov_AIC/docker/docker-stats-5.txt,portainer,105.0,17406361.6,9350.0
prov_AIC/docker/docker-stats-5.txt,prov_aic_janusgraph_1,109.0,795869184.0,2870000.0
prov_AIC/docker/docker-stats-5.txt,portainer,109.0,17416847.36,9350.0
prov_AIC/docker/docker-stats-5.txt,prov_aic_janusgraph_1,112.0,795869184.0,3040000.0
prov_AIC/docker/docker-stats-5.txt,portainer,112.0,17416847.36,9350.0
prov_AIC/docker/docker-stats-5.txt,prov_aic_janusgraph_1,116.0,796078899.2,3270000.0
prov_AIC/docker/docker-stats-5.txt,portainer,116.0,17416847.36,9350.0
prov_AIC/docker/docker-stats-5.txt,prov_aic_janusgraph_1,120.0,796078899.2,3280000.0
prov_AIC/docker/docker-stats-5.txt,portainer,120.0,17416847.36,9350.0
prov_AIC/docker/docker-stats-5.txt,prov_aic_janusgraph_1,123.0,796078899.2,3500000.0
prov_AIC/docker/docker-stats-5.txt,portainer,123.0,17416847.36,9350.0
prov_AIC/docker/docker-stats-5.txt,prov_aic_janusgraph_1,127.0,796183756.8,3670000.0
prov_AIC/docker/docker-stats-5.txt,portainer,127.0,17416847.36,9350.0
prov_AIC/docker/docker-stats-5.txt,prov_aic_janusgraph_1,129.0,796288614.4,3860000.0
prov_AIC/docker/docker-stats-5.txt,portainer,129.0,17416847.36,9350.0
prov_AIC/docker/docker-stats-5.txt,prov_aic_janusgraph_1,133.0,796288614.4,3910000.0
prov_AIC/docker/docker-stats-5.txt,portainer,133.0,17416847.36,9350.0
prov_AIC/docker/docker-stats-5.txt,prov_aic_janusgraph_1,137.0,806774374.4,4090000.0
prov_AIC/docker/docker-stats-5.txt,portainer,137.0,17416847.36,9350.0
prov_AIC/docker/docker-stats-5.txt,prov_aic_janusgraph_1,140.0,806774374.4,4360000.0
prov_AIC/docker/docker-stats-5.txt,portainer,140.0,17416847.36,9350.0
prov_AIC/docker/docker-stats-5.txt,prov_aic_janusgraph_1,144.0,806774374.4,4380000.0
prov_AIC/docker/docker-stats-5.txt,portainer,144.0,17416847.36,9350.0
prov_AIC/docker/docker-stats-5.txt,prov_aic_janusgraph_1,147.0,806774374.4,4720000.0
prov_AIC/docker/docker-stats-5.txt,portainer,147.0,17416847.36,9350.0
prov_AIC/docker/docker-stats-6.txt,portainer,0.0,17427333.12,9350.0
prov_AIC/docker/docker-stats-6.txt,prov_aic_janusgraph_1,4.0,551026688.0,4840.0
prov_AIC/docker/docker-stats-6.txt,portainer,4.0,17427333.12,9350.0
prov_AIC/docker/docker-stats-6.txt,prov_aic_janusgraph_1,7.0,788634009.6,6500.0
prov_AIC/docker/docker-stats-6.txt,portainer,7.0,17427333.12,9350.0
prov_AIC/docker/docker-stats-6.txt,prov_aic_janusgraph_1,11.0,97087651.84,6710.0
prov_AIC/docker/docker-stats-6.txt,portainer,11.0,17458790.4,9350.0
prov_AIC/docker/docker-stats-6.txt,prov_aic_janusgraph_1,14.0,739665510.4,6780.0
prov_AIC/docker/docker-stats-6.txt,portainer,14.0,17458790.4,9350.0
prov_AIC/docker/docker-stats-6.txt,prov_aic_janusgraph_1,18.0,759588454.4,7080.0
prov_AIC/docker/docker-stats-6.txt,portainer,18.0,17458790.4,9350.0
prov_AIC/docker/docker-stats-6.txt,prov_aic_janusgraph_1,22.0,755184435.2,7080.0
prov_AIC/docker/docker-stats-6.txt,portainer,22.0,17458790.4,9350.0
prov_AIC/docker/docker-stats-6.txt,prov_aic_janusgraph_1,25.0,755184435.2,7080.0
prov_AIC/docker/docker-stats-6.txt,portainer,25.0,17458790.4,9350.0
prov_AIC/docker/docker-stats-6.txt,prov_aic_janusgraph_1,29.0,755184435.2,7080.0
prov_AIC/docker/docker-stats-6.txt,portainer,29.0,17458790.4,9350.0
prov_AIC/docker/docker-stats-6.txt,prov_aic_janusgraph_1,32.0,755184435.2,7270.0
prov_AIC/docker/docker-stats-6.txt,portainer,32.0,17458790.4,9350.0
prov_AIC/docker/docker-stats-6.txt,prov_aic_janusgraph_1,36.0,755184435.2,7450.0
prov_AIC/docker/docker-stats-6.txt,portainer,36.0,17458790.4,9350.0
prov_AIC/docker/docker-stats-6.txt,prov_aic_janusgraph_1,39.0,755184435.2,7450.0
prov_AIC/docker/docker-stats-6.txt,portainer,39.0,17469276.16,9350.0
prov_AIC/docker/docker-stats-6.txt,prov_aic_janusgraph_1,42.0,768606208.0,9870.0
prov_AIC/docker/docker-stats-6.txt,portainer,42.0,17469276.16,9350.0
prov_AIC/docker/docker-stats-6.txt,prov_aic_janusgraph_1,46.0,774373376.0,58100.0
prov_AIC/docker/docker-stats-6.txt,portainer,46.0,17469276.16,9350.0
prov_AIC/docker/docker-stats-6.txt,prov_aic_janusgraph_1,50.0,774687948.8,300000.0
prov_AIC/docker/docker-stats-6.txt,portainer,50.0,17469276.16,9350.0
prov_AIC/docker/docker-stats-6.txt,prov_aic_janusgraph_1,53.0,776155955.2,492000.0
prov_AIC/docker/docker-stats-6.txt,portainer,53.0,17469276.16,9350.0
prov_AIC/docker/docker-stats-6.txt,prov_aic_janusgraph_1,57.0,777833676.8,733000.0
prov_AIC/docker/docker-stats-6.txt,portainer,57.0,17469276.16,9420.0
prov_AIC/docker/docker-stats-6.txt,prov_aic_janusgraph_1,60.0,778148249.6,812000.0
prov_AIC/docker/docker-stats-6.txt,portainer,60.0,17469276.16,9420.0
prov_AIC/docker/docker-stats-6.txt,prov_aic_janusgraph_1,64.0,778253107.2,973000.0
prov_AIC/docker/docker-stats-6.txt,portainer,64.0,17469276.16,9420.0
prov_AIC/docker/docker-stats-6.txt,prov_aic_janusgraph_1,68.0,783181414.4,1180000.0
prov_AIC/docker/docker-stats-6.txt,portainer,68.0,17469276.16,9420.0
prov_AIC/docker/docker-stats-6.txt,prov_aic_janusgraph_1,71.0,783286272.0,1390000.0
prov_AIC/docker/docker-stats-6.txt,portainer,71.0,17469276.16,9420.0
prov_AIC/docker/docker-stats-6.txt,prov_aic_janusgraph_1,75.0,783600844.8,1500000.0
prov_AIC/docker/docker-stats-6.txt,portainer,75.0,17469276.16,9420.0
prov_AIC/docker/docker-stats-6.txt,prov_aic_janusgraph_1,78.0,783810560.0,1600000.0
prov_AIC/docker/docker-stats-6.txt,portainer,78.0,17469276.16,9420.0
prov_AIC/docker/docker-stats-6.txt,prov_aic_janusgraph_1,82.0,784229990.4,1780000.0
prov_AIC/docker/docker-stats-6.txt,portainer,82.0,17469276.16,9420.0
prov_AIC/docker/docker-stats-6.txt,prov_aic_janusgraph_1,86.0,784334848.0,1980000.0
prov_AIC/docker/docker-stats-6.txt,portainer,86.0,17469276.16,9420.0
prov_AIC/docker/docker-stats-6.txt,prov_aic_janusgraph_1,89.0,784334848.0,2029999.9999999998
prov_AIC/docker/docker-stats-6.txt,portainer,89.0,17469276.16,9420.0
prov_AIC/docker/docker-stats-6.txt,prov_aic_janusgraph_1,93.0,784544563.2,2200000.0
prov_AIC/docker/docker-stats-6.txt,portainer,93.0,17469276.16,9420.0
prov_AIC/docker/docker-stats-6.txt,prov_aic_janusgraph_1,96.0,784544563.2,2400000.0
prov_AIC/docker/docker-stats-6.txt,portainer,96.0,17469276.16,9420.0
prov_AIC/docker/docker-stats-6.txt,prov_aic_janusgraph_1,100.0,784544563.2,2610000.0
prov_AIC/docker/docker-stats-6.txt,portainer,100.0,17469276.16,9420.0
prov_AIC/docker/docker-stats-6.txt,prov_aic_janusgraph_1,104.0,784544563.2,2630000.0
prov_AIC/docker/docker-stats-6.txt,portainer,104.0,17469276.16,9420.0
prov_AIC/docker/docker-stats-6.txt,prov_aic_janusgraph_1,107.0,784544563.2,2870000.0
prov_AIC/docker/docker-stats-6.txt,portainer,107.0,17469276.16,9420.0
prov_AIC/docker/docker-stats-6.txt,prov_aic_janusgraph_1,111.0,784544563.2,3040000.0
prov_AIC/docker/docker-stats-6.txt,portainer,111.0,17479761.92,9420.0
prov_AIC/docker/docker-stats-6.txt,prov_aic_janusgraph_1,114.0,784544563.2,3260000.0
prov_AIC/docker/docker-stats-6.txt,portainer,114.0,17479761.92,9420.0
prov_AIC/docker/docker-stats-6.txt,prov_aic_janusgraph_1,118.0,789158297.6,3280000.0
prov_AIC/docker/docker-stats-6.txt,portainer,118.0,17479761.92,9420.0
prov_AIC/docker/docker-stats-6.txt,prov_aic_janusgraph_1,122.0,789158297.6,3500000.0
prov_AIC/docker/docker-stats-6.txt,portainer,122.0,17490247.68,9420.0
prov_AIC/docker/docker-stats-6.txt,prov_aic_janusgraph_1,125.0,789158297.6,3670000.0
prov_AIC/docker/docker-stats-6.txt,portainer,125.0,17490247.68,9420.0
prov_AIC/docker/docker-stats-6.txt,prov_aic_janusgraph_1,129.0,789158297.6,3670000.0
prov_AIC/docker/docker-stats-6.txt,portainer,129.0,17490247.68,9420.0
prov_AIC/docker/docker-stats-6.txt,prov_aic_janusgraph_1,132.0,789158297.6,3910000.0
prov_AIC/docker/docker-stats-6.txt,portainer,132.0,17490247.68,9420.0
prov_AIC/docker/docker-stats-6.txt,prov_aic_janusgraph_1,136.0,789158297.6,4090000.0
prov_AIC/docker/docker-stats-6.txt,portainer,136.0,16986931.2,9420.0
prov_AIC/docker/docker-stats-6.txt,prov_aic_janusgraph_1,140.0,799748915.2,4350000.0
prov_AIC/docker/docker-stats-6.txt,portainer,140.0,16986931.2,9420.0
prov_AIC/docker/docker-stats-6.txt,prov_aic_janusgraph_1,143.0,799748915.2,4380000.0
prov_AIC/docker/docker-stats-6.txt,portainer,143.0,16986931.2,9420.0
prov_AIC/docker/docker-stats-6.txt,prov_aic_janusgraph_1,147.0,799748915.2,4720000.0
prov_AIC/docker/docker-stats-6.txt,portainer,147.0,16986931.2,9420.0
prov_AIC/docker/docker-stats-7.txt,portainer,0.0,16986931.2,9420.0
prov_AIC/docker/docker-stats-7.txt,prov_aic_janusgraph_1,3.0,703384780.8,5420.0
prov_AIC/docker/docker-stats-7.txt,portainer,3.0,16986931.2,9420.0
prov_AIC/docker/docker-stats-7.txt,prov_aic_janusgraph_1,7.0,753506713.6,6280.0
prov_AIC/docker/docker-stats-7.txt,portainer,7.0,16986931.2,9420.0
prov_AIC/docker/docker-stats-7.txt,prov_aic_janusgraph_1,10.0,782447411.2,6580.0
prov_AIC/docker/docker-stats-7.txt,portainer,10.0,16986931.2,9420.0
prov_AIC/docker/docker-stats-7.txt,prov_aic_janusgraph_1,14.0,749626982.4,6660.0
prov_AIC/docker/docker-stats-7.txt,portainer,14.0,16986931.2,9420.0
prov_AIC/docker/docker-stats-7.txt,prov_aic_janusgraph_1,18.0,767662489.6,6960.0
prov_AIC/docker/docker-stats-7.txt,portainer,18.0,16986931.2,9420.0
prov_AIC/docker/docker-stats-7.txt,prov_aic_janusgraph_1,21.0,763573043.2,6960.0
prov_AIC/docker/docker-stats-7.txt,portainer,21.0,16986931.2,9420.0
prov_AIC/docker/docker-stats-7.txt,prov_aic_janusgraph_1,25.0,763573043.2,6960.0
prov_AIC/docker/docker-stats-7.txt,portainer,25.0,16986931.2,9420.0
prov_AIC/docker/docker-stats-7.txt,prov_aic_janusgraph_1,28.0,763573043.2,6960.0
prov_AIC/docker/docker-stats-7.txt,portainer,28.0,16986931.2,9420.0
prov_AIC/docker/docker-stats-7.txt,prov_aic_janusgraph_1,32.0,763573043.2,7220.0
prov_AIC/docker/docker-stats-7.txt,portainer,32.0,16986931.2,9420.0
prov_AIC/docker/docker-stats-7.txt,prov_aic_janusgraph_1,36.0,763573043.2,7330.0
prov_AIC/docker/docker-stats-7.txt,portainer,36.0,16986931.2,9420.0
prov_AIC/docker/docker-stats-7.txt,prov_aic_janusgraph_1,39.0,763573043.2,7330.0
prov_AIC/docker/docker-stats-7.txt,portainer,39.0,16986931.2,9420.0
prov_AIC/docker/docker-stats-7.txt,prov_aic_janusgraph_1,43.0,779301683.2,12200.0
prov_AIC/docker/docker-stats-7.txt,portainer,43.0,16986931.2,9420.0
prov_AIC/docker/docker-stats-7.txt,prov_aic_janusgraph_1,46.0,790206873.6,181000.0
prov_AIC/docker/docker-stats-7.txt,portainer,46.0,16986931.2,9420.0
prov_AIC/docker/docker-stats-7.txt,prov_aic_janusgraph_1,50.0,794401177.6,358000.0
prov_AIC/docker/docker-stats-7.txt,portainer,50.0,16986931.2,9420.0
prov_AIC/docker/docker-stats-7.txt,prov_aic_janusgraph_1,54.0,795135180.8,492000.0
prov_AIC/docker/docker-stats-7.txt,portainer,54.0,16986931.2,9420.0
prov_AIC/docker/docker-stats-7.txt,prov_aic_janusgraph_1,57.0,796078899.2,732000.0
prov_AIC/docker/docker-stats-7.txt,portainer,57.0,16986931.2,9420.0
prov_AIC/docker/docker-stats-7.txt,prov_aic_janusgraph_1,61.0,798910054.4,959000.0
prov_AIC/docker/docker-stats-7.txt,portainer,61.0,16986931.2,9420.0
prov_AIC/docker/docker-stats-7.txt,prov_aic_janusgraph_1,64.0,799014912.0,972000.0
prov_AIC/docker/docker-stats-7.txt,portainer,64.0,16986931.2,9420.0
prov_AIC/docker/docker-stats-7.txt,prov_aic_janusgraph_1,68.0,799434342.4,1180000.0
prov_AIC/docker/docker-stats-7.txt,portainer,68.0,16986931.2,9420.0
prov_AIC/docker/docker-stats-7.txt,prov_aic_janusgraph_1,72.0,799853772.8,1390000.0
prov_AIC/docker/docker-stats-7.txt,portainer,72.0,16986931.2,9420.0
prov_AIC/docker/docker-stats-7.txt,prov_aic_janusgraph_1,75.0,799853772.8,1440000.0
prov_AIC/docker/docker-stats-7.txt,portainer,75.0,16986931.2,9420.0
prov_AIC/docker/docker-stats-7.txt,prov_aic_janusgraph_1,79.0,800063488.0,1600000.0
prov_AIC/docker/docker-stats-7.txt,portainer,79.0,16986931.2,9420.0
prov_AIC/docker/docker-stats-7.txt,prov_aic_janusgraph_1,82.0,800378060.8,1780000.0
prov_AIC/docker/docker-stats-7.txt,portainer,82.0,17374904.32,9420.0
prov_AIC/docker/docker-stats-7.txt,prov_aic_janusgraph_1,86.0,800797491.2,1980000.0
prov_AIC/docker/docker-stats-7.txt,portainer,86.0,17374904.32,9420.0
prov_AIC/docker/docker-stats-7.txt,prov_aic_janusgraph_1,90.0,801007206.4,2200000.0
prov_AIC/docker/docker-stats-7.txt,portainer,90.0,17374904.32,9420.0
prov_AIC/docker/docker-stats-7.txt,prov_aic_janusgraph_1,93.0,800902348.8,2200000.0
prov_AIC/docker/docker-stats-7.txt,portainer,93.0,17374904.32,9420.0
prov_AIC/docker/docker-stats-7.txt,prov_aic_janusgraph_1,97.0,801216921.6,2400000.0
prov_AIC/docker/docker-stats-7.txt,portainer,97.0,17416847.36,9420.0
prov_AIC/docker/docker-stats-7.txt,prov_aic_janusgraph_1,100.0,801216921.6,2630000.0
prov_AIC/docker/docker-stats-7.txt,portainer,100.0,17416847.36,9420.0
prov_AIC/docker/docker-stats-7.txt,prov_aic_janusgraph_1,104.0,801216921.6,2780000.0
prov_AIC/docker/docker-stats-7.txt,portainer,104.0,17416847.36,9420.0
prov_AIC/docker/docker-stats-7.txt,prov_aic_janusgraph_1,108.0,801216921.6,2870000.0
prov_AIC/docker/docker-stats-7.txt,portainer,108.0,17416847.36,9420.0
prov_AIC/docker/docker-stats-7.txt,prov_aic_janusgraph_1,111.0,801216921.6,3040000.0
prov_AIC/docker/docker-stats-7.txt,portainer,111.0,17416847.36,9420.0
prov_AIC/docker/docker-stats-7.txt,prov_aic_janusgraph_1,114.0,801216921.6,3260000.0
prov_AIC/docker/docker-stats-7.txt,portainer,114.0,17416847.36,9420.0
prov_AIC/docker/docker-stats-7.txt,prov_aic_janusgraph_1,117.0,801321779.2,3280000.0
prov_AIC/docker/docker-stats-7.txt,portainer,117.0,17416847.36,9420.0
prov_AIC/docker/docker-stats-7.txt,prov_aic_janusgraph_1,121.0,801321779.2,3490000.0
prov_AIC/docker/docker-stats-7.txt,portainer,121.0,17416847.36,9420.0
prov_AIC/docker/docker-stats-7.txt,prov_aic_janusgraph_1,125.0,801321779.2,3660000.0
prov_AIC/docker/docker-stats-7.txt,portainer,125.0,17416847.36,9420.0
prov_AIC/docker/docker-stats-7.txt,prov_aic_janusgraph_1,128.0,801321779.2,3770000.0
prov_AIC/docker/docker-stats-7.txt,portainer,128.0,17416847.36,9420.0
prov_AIC/docker/docker-stats-7.txt,prov_aic_janusgraph_1,132.0,801321779.2,3910000.0
prov_AIC/docker/docker-stats-7.txt,portainer,132.0,17416847.36,9420.0
prov_AIC/docker/docker-stats-7.txt,prov_aic_janusgraph_1,135.0,811807539.2,4090000.0
prov_AIC/docker/docker-stats-7.txt,portainer,135.0,17416847.36,9420.0
prov_AIC/docker/docker-stats-7.txt,prov_aic_janusgraph_1,139.0,811807539.2,4350000.0
prov_AIC/docker/docker-stats-7.txt,portainer,139.0,17416847.36,9420.0
prov_AIC/docker/docker-stats-7.txt,prov_aic_janusgraph_1,143.0,811807539.2,4380000.0
prov_AIC/docker/docker-stats-7.txt,portainer,143.0,17416847.36,9420.0
prov_AIC/docker/docker-stats-7.txt,prov_aic_janusgraph_1,146.0,811912396.8,4720000.0
prov_AIC/docker/docker-stats-7.txt,portainer,146.0,17416847.36,9420.0
prov_AIC/docker/docker-stats-8.txt,portainer,0.0,17416847.36,9420.0
prov_AIC/docker/docker-stats-8.txt,prov_aic_janusgraph_1,4.0,532991180.8,3770.0
prov_AIC/docker/docker-stats-8.txt,portainer,4.0,17416847.36,9420.0
prov_AIC/docker/docker-stats-8.txt,prov_aic_janusgraph_1,7.0,777623961.6,6500.0
prov_AIC/docker/docker-stats-8.txt,portainer,7.0,17416847.36,9420.0
prov_AIC/docker/docker-stats-8.txt,prov_aic_janusgraph_1,11.0,104322826.24,6720.0
prov_AIC/docker/docker-stats-8.txt,portainer,11.0,17416847.36,9420.0
prov_AIC/docker/docker-stats-8.txt,prov_aic_janusgraph_1,15.0,610795520.0,6720.0
prov_AIC/docker/docker-stats-8.txt,portainer,15.0,17416847.36,9420.0
prov_AIC/docker/docker-stats-8.txt,prov_aic_janusgraph_1,18.0,760322457.6,7090.0
prov_AIC/docker/docker-stats-8.txt,portainer,18.0,17416847.36,9420.0
prov_AIC/docker/docker-stats-8.txt,prov_aic_janusgraph_1,22.0,755394150.4,7090.0
prov_AIC/docker/docker-stats-8.txt,portainer,22.0,17416847.36,9420.0
prov_AIC/docker/docker-stats-8.txt,prov_aic_janusgraph_1,25.0,755394150.4,7090.0
prov_AIC/docker/docker-stats-8.txt,portainer,25.0,17416847.36,9420.0
prov_AIC/docker/docker-stats-8.txt,prov_aic_janusgraph_1,29.0,755394150.4,7090.0
prov_AIC/docker/docker-stats-8.txt,portainer,29.0,17416847.36,9420.0
prov_AIC/docker/docker-stats-8.txt,prov_aic_janusgraph_1,33.0,755394150.4,7250.0
prov_AIC/docker/docker-stats-8.txt,portainer,33.0,17416847.36,9420.0
prov_AIC/docker/docker-stats-8.txt,prov_aic_janusgraph_1,36.0,755394150.4,7460.0
prov_AIC/docker/docker-stats-8.txt,portainer,36.0,17416847.36,9420.0
prov_AIC/docker/docker-stats-8.txt,prov_aic_janusgraph_1,40.0,755394150.4,7460.0
prov_AIC/docker/docker-stats-8.txt,portainer,40.0,17416847.36,9420.0
prov_AIC/docker/docker-stats-8.txt,prov_aic_janusgraph_1,43.0,771017932.8,12700.0
prov_AIC/docker/docker-stats-8.txt,portainer,43.0,17416847.36,9420.0
prov_AIC/docker/docker-stats-8.txt,prov_aic_janusgraph_1,47.0,771647078.4,186000.0
prov_AIC/docker/docker-stats-8.txt,portainer,47.0,17416847.36,9420.0
prov_AIC/docker/docker-stats-8.txt,prov_aic_janusgraph_1,51.0,786956288.0,370000.0
prov_AIC/docker/docker-stats-8.txt,portainer,51.0,17416847.36,9420.0
prov_AIC/docker/docker-stats-8.txt,prov_aic_janusgraph_1,53.0,783600844.8,493000.0
prov_AIC/docker/docker-stats-8.txt,portainer,53.0,17416847.36,9420.0
prov_AIC/docker/docker-stats-8.txt,prov_aic_janusgraph_1,57.0,785802854.4,733000.0
prov_AIC/docker/docker-stats-8.txt,portainer,57.0,17416847.36,9420.0
prov_AIC/docker/docker-stats-8.txt,prov_aic_janusgraph_1,60.0,786012569.6,818000.0
prov_AIC/docker/docker-stats-8.txt,portainer,60.0,17416847.36,9420.0
prov_AIC/docker/docker-stats-8.txt,prov_aic_janusgraph_1,64.0,787900006.4,973000.0
prov_AIC/docker/docker-stats-8.txt,portainer,64.0,16955473.92,9420.0
prov_AIC/docker/docker-stats-8.txt,prov_aic_janusgraph_1,68.0,788214579.2,1180000.0
prov_AIC/docker/docker-stats-8.txt,portainer,68.0,16955473.92,9420.0
prov_AIC/docker/docker-stats-8.txt,prov_aic_janusgraph_1,71.0,788424294.4,1400000.0
prov_AIC/docker/docker-stats-8.txt,portainer,71.0,16955473.92,9420.0
prov_AIC/docker/docker-stats-8.txt,prov_aic_janusgraph_1,75.0,788529152.0,1480000.0
prov_AIC/docker/docker-stats-8.txt,portainer,75.0,16955473.92,9420.0
prov_AIC/docker/docker-stats-8.txt,prov_aic_janusgraph_1,78.0,788843724.8,1600000.0
prov_AIC/docker/docker-stats-8.txt,portainer,78.0,16955473.92,9420.0
prov_AIC/docker/docker-stats-8.txt,prov_aic_janusgraph_1,82.0,789263155.2,1780000.0
prov_AIC/docker/docker-stats-8.txt,portainer,82.0,16955473.92,9420.0
prov_AIC/docker/docker-stats-8.txt,prov_aic_janusgraph_1,86.0,789263155.2,1860000.0
prov_AIC/docker/docker-stats-8.txt,portainer,86.0,16955473.92,9420.0
prov_AIC/docker/docker-stats-8.txt,prov_aic_janusgraph_1,89.0,789263155.2,2009999.9999999998
prov_AIC/docker/docker-stats-8.txt,portainer,89.0,16955473.92,9420.0
prov_AIC/docker/docker-stats-8.txt,prov_aic_janusgraph_1,93.0,789472870.4,2200000.0
prov_AIC/docker/docker-stats-8.txt,portainer,93.0,16955473.92,9420.0
prov_AIC/docker/docker-stats-8.txt,prov_aic_janusgraph_1,97.0,789472870.4,2410000.0
prov_AIC/docker/docker-stats-8.txt,portainer,97.0,16955473.92,9420.0
prov_AIC/docker/docker-stats-8.txt,prov_aic_janusgraph_1,100.0,789577728.0,2620000.0
prov_AIC/docker/docker-stats-8.txt,portainer,100.0,16955473.92,9420.0
prov_AIC/docker/docker-stats-8.txt,prov_aic_janusgraph_1,104.0,789577728.0,2630000.0
prov_AIC/docker/docker-stats-8.txt,portainer,104.0,16965959.68,9420.0
prov_AIC/docker/docker-stats-8.txt,prov_aic_janusgraph_1,107.0,789577728.0,2870000.0
prov_AIC/docker/docker-stats-8.txt,portainer,107.0,16965959.68,9420.0
prov_AIC/docker/docker-stats-8.txt,prov_aic_janusgraph_1,111.0,789682585.6,3040000.0
prov_AIC/docker/docker-stats-8.txt,portainer,111.0,16965959.68,9420.0
prov_AIC/docker/docker-stats-8.txt,prov_aic_janusgraph_1,115.0,789682585.6,3260000.0
prov_AIC/docker/docker-stats-8.txt,portainer,115.0,16965959.68,9420.0
prov_AIC/docker/docker-stats-8.txt,prov_aic_janusgraph_1,118.0,792199168.0,3280000.0
prov_AIC/docker/docker-stats-8.txt,portainer,118.0,16965959.68,9420.0
prov_AIC/docker/docker-stats-8.txt,prov_aic_janusgraph_1,122.0,792199168.0,3500000.0
prov_AIC/docker/docker-stats-8.txt,portainer,122.0,16965959.68,9420.0
prov_AIC/docker/docker-stats-8.txt,prov_aic_janusgraph_1,125.0,792199168.0,3660000.0
prov_AIC/docker/docker-stats-8.txt,portainer,125.0,16965959.68,9420.0
prov_AIC/docker/docker-stats-8.txt,prov_aic_janusgraph_1,129.0,792199168.0,3830000.0
prov_AIC/docker/docker-stats-8.txt,portainer,129.0,16965959.68,9420.0
prov_AIC/docker/docker-stats-8.txt,prov_aic_janusgraph_1,133.0,792199168.0,3910000.0
prov_AIC/docker/docker-stats-8.txt,portainer,133.0,16965959.68,9420.0
prov_AIC/docker/docker-stats-8.txt,prov_aic_janusgraph_1,136.0,802684928.0,4090000.0
prov_AIC/docker/docker-stats-8.txt,portainer,136.0,16965959.68,9420.0
prov_AIC/docker/docker-stats-8.txt,prov_aic_janusgraph_1,140.0,802684928.0,4350000.0
prov_AIC/docker/docker-stats-8.txt,portainer,140.0,16965959.68,9420.0
prov_AIC/docker/docker-stats-8.txt,prov_aic_janusgraph_1,143.0,802684928.0,4390000.0
prov_AIC/docker/docker-stats-8.txt,portainer,143.0,16965959.68,9420.0
prov_AIC/docker/docker-stats-8.txt,prov_aic_janusgraph_1,147.0,802789785.6,4720000.0
prov_AIC/docker/docker-stats-8.txt,portainer,147.0,16965959.68,9420.0
prov_AIC/docker/docker-stats-9.txt,portainer,0.0,16965959.68,9420.0
prov_AIC/docker/docker-stats-9.txt,prov_aic_janusgraph_1,3.0,702441062.4,4850.0
prov_AIC/docker/docker-stats-9.txt,portainer,3.0,16965959.68,9420.0
prov_AIC/docker/docker-stats-9.txt,prov_aic_janusgraph_1,7.0,754765004.8,6420.0
prov_AIC/docker/docker-stats-9.txt,portainer,7.0,16965959.68,9420.0
prov_AIC/docker/docker-stats-9.txt,prov_aic_janusgraph_1,11.0,75476500.48,6720.0
prov_AIC/docker/docker-stats-9.txt,portainer,11.0,16965959.68,9420.0
prov_AIC/docker/docker-stats-9.txt,prov_aic_janusgraph_1,14.0,751409561.6,6790.0
prov_AIC/docker/docker-stats-9.txt,portainer,14.0,16965959.68,9420.0
prov_AIC/docker/docker-stats-9.txt,prov_aic_janusgraph_1,18.0,769130496.0,7090.0
prov_AIC/docker/docker-stats-9.txt,portainer,18.0,16965959.68,9420.0
prov_AIC/docker/docker-stats-9.txt,prov_aic_janusgraph_1,21.0,760322457.6,7090.0
prov_AIC/docker/docker-stats-9.txt,portainer,21.0,16965959.68,9420.0
prov_AIC/docker/docker-stats-9.txt,prov_aic_janusgraph_1,24.0,760322457.6,7090.0
prov_AIC/docker/docker-stats-9.txt,portainer,24.0,16965959.68,9420.0
prov_AIC/docker/docker-stats-9.txt,prov_aic_janusgraph_1,28.0,760322457.6,7090.0
prov_AIC/docker/docker-stats-9.txt,portainer,28.0,16965959.68,9420.0
prov_AIC/docker/docker-stats-9.txt,prov_aic_janusgraph_1,31.0,760322457.6,7090.0
prov_AIC/docker/docker-stats-9.txt,portainer,31.0,16965959.68,9420.0
prov_AIC/docker/docker-stats-9.txt,prov_aic_janusgraph_1,35.0,760322457.6,7460.0
prov_AIC/docker/docker-stats-9.txt,portainer,35.0,16965959.68,9420.0
prov_AIC/docker/docker-stats-9.txt,prov_aic_janusgraph_1,38.0,760322457.6,7460.0
prov_AIC/docker/docker-stats-9.txt,portainer,38.0,16965959.68,9420.0
prov_AIC/docker/docker-stats-9.txt,prov_aic_janusgraph_1,42.0,774897664.0,10200.0
prov_AIC/docker/docker-stats-9.txt,portainer,42.0,16965959.68,9420.0
prov_AIC/docker/docker-stats-9.txt,prov_aic_janusgraph_1,46.0,775421952.0,118000.0
prov_AIC/docker/docker-stats-9.txt,portainer,46.0,16965959.68,9420.0
prov_AIC/docker/docker-stats-9.txt,prov_aic_janusgraph_1,49.0,792094310.4,300000.0
prov_AIC/docker/docker-stats-9.txt,portainer,49.0,16965959.68,9420.0
prov_AIC/docker/docker-stats-9.txt,prov_aic_janusgraph_1,53.0,793667174.4,492000.0
prov_AIC/docker/docker-stats-9.txt,portainer,53.0,16965959.68,9420.0
prov_AIC/docker/docker-stats-9.txt,prov_aic_janusgraph_1,57.0,794296320.0,642000.0
prov_AIC/docker/docker-stats-9.txt,portainer,57.0,16965959.68,9420.0
prov_AIC/docker/docker-stats-9.txt,prov_aic_janusgraph_1,60.0,799853772.8,732000.0
prov_AIC/docker/docker-stats-9.txt,portainer,60.0,16965959.68,9420.0
prov_AIC/docker/docker-stats-9.txt,prov_aic_janusgraph_1,64.0,797232332.8,973000.0
prov_AIC/docker/docker-stats-9.txt,portainer,64.0,17532190.72,9420.0
prov_AIC/docker/docker-stats-9.txt,prov_aic_janusgraph_1,67.0,797651763.2,1180000.0
prov_AIC/docker/docker-stats-9.txt,portainer,67.0,17532190.72,9420.0
prov_AIC/docker/docker-stats-9.txt,prov_aic_janusgraph_1,70.0,797756620.8,1320000.0
prov_AIC/docker/docker-stats-9.txt,portainer,70.0,17532190.72,9420.0
prov_AIC/docker/docker-stats-9.txt,prov_aic_janusgraph_1,74.0,797756620.8,1390000.0
prov_AIC/docker/docker-stats-9.txt,portainer,74.0,17532190.72,9420.0
prov_AIC/docker/docker-stats-9.txt,prov_aic_janusgraph_1,77.0,798071193.6,1600000.0
prov_AIC/docker/docker-stats-9.txt,portainer,77.0,17532190.72,9420.0
prov_AIC/docker/docker-stats-9.txt,prov_aic_janusgraph_1,81.0,800378060.8,1780000.0
prov_AIC/docker/docker-stats-9.txt,portainer,81.0,17532190.72,9420.0
prov_AIC/docker/docker-stats-9.txt,prov_aic_janusgraph_1,84.0,800482918.4,1880000.0
prov_AIC/docker/docker-stats-9.txt,portainer,84.0,17532190.72,9420.0
prov_AIC/docker/docker-stats-9.txt,prov_aic_janusgraph_1,88.0,800587776.0,2000000.0
prov_AIC/docker/docker-stats-9.txt,portainer,88.0,17532190.72,9420.0
prov_AIC/docker/docker-stats-9.txt,prov_aic_janusgraph_1,92.0,800797491.2,2200000.0
prov_AIC/docker/docker-stats-9.txt,portainer,92.0,17532190.72,9420.0
prov_AIC/docker/docker-stats-9.txt,prov_aic_janusgraph_1,95.0,800902348.8,2410000.0
prov_AIC/docker/docker-stats-9.txt,portainer,95.0,17532190.72,9420.0
prov_AIC/docker/docker-stats-9.txt,prov_aic_janusgraph_1,99.0,801007206.4,2430000.0
prov_AIC/docker/docker-stats-9.txt,portainer,99.0,17532190.72,9420.0
prov_AIC/docker/docker-stats-9.txt,prov_aic_janusgraph_1,102.0,801112064.0,2630000.0
prov_AIC/docker/docker-stats-9.txt,portainer,102.0,17532190.72,9420.0
prov_AIC/docker/docker-stats-9.txt,prov_aic_janusgraph_1,106.0,801216921.6,2870000.0
prov_AIC/docker/docker-stats-9.txt,portainer,106.0,17542676.48,9420.0
prov_AIC/docker/docker-stats-9.txt,prov_aic_janusgraph_1,110.0,801216921.6,3040000.0
prov_AIC/docker/docker-stats-9.txt,portainer,110.0,17542676.48,9420.0
prov_AIC/docker/docker-stats-9.txt,prov_aic_janusgraph_1,113.0,801216921.6,3040000.0
prov_AIC/docker/docker-stats-9.txt,portainer,113.0,17542676.48,9420.0
prov_AIC/docker/docker-stats-9.txt,prov_aic_janusgraph_1,117.0,801216921.6,3280000.0
prov_AIC/docker/docker-stats-9.txt,portainer,117.0,17542676.48,9420.0
prov_AIC/docker/docker-stats-9.txt,prov_aic_janusgraph_1,120.0,801216921.6,3490000.0
prov_AIC/docker/docker-stats-9.txt,portainer,120.0,17542676.48,9420.0
prov_AIC/docker/docker-stats-9.txt,prov_aic_janusgraph_1,124.0,801216921.6,3500000.0
prov_AIC/docker/docker-stats-9.txt,portainer,124.0,17542676.48,9420.0
prov_AIC/docker/docker-stats-9.txt,prov_aic_janusgraph_1,128.0,800482918.4,3670000.0
prov_AIC/docker/docker-stats-9.txt,portainer,128.0,17542676.48,9420.0
prov_AIC/docker/docker-stats-9.txt,prov_aic_janusgraph_1,131.0,800482918.4,3910000.0
prov_AIC/docker/docker-stats-9.txt,portainer,131.0,17542676.48,9420.0
prov_AIC/docker/docker-stats-9.txt,prov_aic_janusgraph_1,135.0,811073536.0,4090000.0
prov_AIC/docker/docker-stats-9.txt,portainer,135.0,17542676.48,9420.0
prov_AIC/docker/docker-stats-9.txt,prov_aic_janusgraph_1,138.0,811073536.0,4220000.0
prov_AIC/docker/docker-stats-9.txt,portainer,138.0,17542676.48,9420.0
prov_AIC/docker/docker-stats-9.txt,prov_aic_janusgraph_1,142.0,811073536.0,4370000.0
prov_AIC/docker/docker-stats-9.txt,portainer,142.0,17553162.24,9420.0
prov_AIC/docker/docker-stats-9.txt,prov_aic_janusgraph_1,146.0,811073536.0,4720000.0
prov_AIC/docker/docker-stats-9.txt,portainer,146.0,17553162.24,9420.0
