Dec 23 23:45:09 CONTAINER ID   NAME        CPU %     MEM USAGE / LIMIT     MEM %     NET I/O       BLOCK I/O         PIDS
Dec 23 23:45:09 175a7162e018   portainer   0.00%     16.79MiB / 15.66GiB   0.10%     10.1kB / 0B   58.3MB / 4.77MB   7
Dec 23 23:45:09                --          0.00%     0B / 0B               0.00%     0B / 0B       0B / 0B           0
Dec 23 23:45:13 CONTAINER ID   NAME                    CPU %     MEM USAGE / LIMIT     MEM %     NET I/O       BLOCK I/O         PIDS
Dec 23 23:45:13 ae1807f986dd   base_aic_janusgraph_1   242.99%   671.8MiB / 15.66GiB   4.19%     5.52kB / 0B   0B / 233kB        21
Dec 23 23:45:13 175a7162e018   portainer               0.00%     16.79MiB / 15.66GiB   0.10%     10.1kB / 0B   58.3MB / 4.77MB   7
Dec 23 23:45:17 CONTAINER ID   NAME                    CPU %     MEM USAGE / LIMIT     MEM %     NET I/O       BLOCK I/O         PIDS
Dec 23 23:45:17 ae1807f986dd   base_aic_janusgraph_1   298.78%   727.5MiB / 15.66GiB   4.54%     6.51kB / 0B   0B / 233kB        22
Dec 23 23:45:17 175a7162e018   portainer               0.00%     16.8MiB / 15.66GiB    0.10%     10.1kB / 0B   58.3MB / 4.77MB   7
Dec 23 23:45:19 CONTAINER ID   NAME                    CPU %     MEM USAGE / LIMIT     MEM %     NET I/O       BLOCK I/O         PIDS
Dec 23 23:45:19 ae1807f986dd   base_aic_janusgraph_1   0.14%     766.7MiB / 15.66GiB   4.78%     6.81kB / 0B   0B / 233kB        23
Dec 23 23:45:19 175a7162e018   portainer               0.00%     16.8MiB / 15.66GiB    0.10%     10.1kB / 0B   58.3MB / 4.77MB   7
Dec 23 23:45:23 CONTAINER ID   NAME                    CPU %     MEM USAGE / LIMIT     MEM %     NET I/O       BLOCK I/O         PIDS
Dec 23 23:45:23 ae1807f986dd   base_aic_janusgraph_1   288.64%   649.9MiB / 15.66GiB   4.05%     6.88kB / 0B   0B / 233kB        21
Dec 23 23:45:23 175a7162e018   portainer               0.00%     16.8MiB / 15.66GiB    0.10%     10.1kB / 0B   58.3MB / 4.77MB   7
Dec 23 23:45:26 CONTAINER ID   NAME                    CPU %     MEM USAGE / LIMIT     MEM %     NET I/O       BLOCK I/O         PIDS
Dec 23 23:45:26 ae1807f986dd   base_aic_janusgraph_1   200.65%   727.3MiB / 15.66GiB   4.53%     6.97kB / 0B   0B / 233kB        22
Dec 23 23:45:26 175a7162e018   portainer               0.00%     16.8MiB / 15.66GiB    0.10%     10.1kB / 0B   58.3MB / 4.77MB   7
Dec 23 23:45:29 CONTAINER ID   NAME                    CPU %     MEM USAGE / LIMIT     MEM %     NET I/O       BLOCK I/O         PIDS
Dec 23 23:45:29 ae1807f986dd   base_aic_janusgraph_1   0.09%     727.2MiB / 15.66GiB   4.53%     7.18kB / 0B   0B / 233kB        22
Dec 23 23:45:29 175a7162e018   portainer               0.00%     16.8MiB / 15.66GiB    0.10%     10.1kB / 0B   58.3MB / 4.77MB   7
Dec 23 23:45:33 CONTAINER ID   NAME                    CPU %     MEM USAGE / LIMIT     MEM %     NET I/O       BLOCK I/O         PIDS
Dec 23 23:45:33 ae1807f986dd   base_aic_janusgraph_1   0.20%     715.9MiB / 15.66GiB   4.46%     7.18kB / 0B   0B / 233kB        22
Dec 23 23:45:33 175a7162e018   portainer               0.02%     16.8MiB / 15.66GiB    0.10%     10.1kB / 0B   58.3MB / 4.77MB   7
Dec 23 23:45:36 CONTAINER ID   NAME                    CPU %     MEM USAGE / LIMIT     MEM %     NET I/O       BLOCK I/O         PIDS
Dec 23 23:45:36 ae1807f986dd   base_aic_janusgraph_1   0.10%     715.9MiB / 15.66GiB   4.46%     7.18kB / 0B   0B / 233kB        22
Dec 23 23:45:36 175a7162e018   portainer               0.00%     16.8MiB / 15.66GiB    0.10%     10.1kB / 0B   58.3MB / 4.77MB   7
Dec 23 23:45:40 CONTAINER ID   NAME                    CPU %     MEM USAGE / LIMIT     MEM %     NET I/O       BLOCK I/O         PIDS
Dec 23 23:45:40 ae1807f986dd   base_aic_janusgraph_1   0.10%     715.9MiB / 15.66GiB   4.46%     7.25kB / 0B   0B / 233kB        22
Dec 23 23:45:40 175a7162e018   portainer               0.00%     16.8MiB / 15.66GiB    0.10%     10.1kB / 0B   58.3MB / 4.77MB   7
Dec 23 23:45:43 CONTAINER ID   NAME                    CPU %     MEM USAGE / LIMIT     MEM %     NET I/O       BLOCK I/O         PIDS
Dec 23 23:45:43 ae1807f986dd   base_aic_janusgraph_1   0.10%     715.9MiB / 15.66GiB   4.46%     7.55kB / 0B   0B / 233kB        22
Dec 23 23:45:43 175a7162e018   portainer               0.00%     16.8MiB / 15.66GiB    0.10%     10.1kB / 0B   58.3MB / 4.77MB   7
Dec 23 23:45:47 CONTAINER ID   NAME                    CPU %     MEM USAGE / LIMIT     MEM %     NET I/O       BLOCK I/O         PIDS
Dec 23 23:45:47 ae1807f986dd   base_aic_janusgraph_1   0.17%     715.9MiB / 15.66GiB   4.46%     7.55kB / 0B   0B / 233kB        22
Dec 23 23:45:47 175a7162e018   portainer               0.00%     16.8MiB / 15.66GiB    0.10%     10.1kB / 0B   58.3MB / 4.77MB   7
Dec 23 23:45:51 CONTAINER ID   NAME                    CPU %     MEM USAGE / LIMIT     MEM %     NET I/O       BLOCK I/O         PIDS
Dec 23 23:45:51 ae1807f986dd   base_aic_janusgraph_1   0.11%     715.9MiB / 15.66GiB   4.46%     7.55kB / 0B   0B / 233kB        22
Dec 23 23:45:51 175a7162e018   portainer               0.00%     16.8MiB / 15.66GiB    0.10%     10.1kB / 0B   58.3MB / 4.77MB   7
Dec 23 23:45:54 CONTAINER ID   NAME                    CPU %     MEM USAGE / LIMIT     MEM %     NET I/O       BLOCK I/O         PIDS
Dec 23 23:45:54 ae1807f986dd   base_aic_janusgraph_1   0.11%     715.9MiB / 15.66GiB   4.46%     7.55kB / 0B   0B / 233kB        22
Dec 23 23:45:54 175a7162e018   portainer               0.00%     16.8MiB / 15.66GiB    0.10%     10.1kB / 0B   58.3MB / 4.77MB   7
Dec 23 23:45:58 CONTAINER ID   NAME                    CPU %     MEM USAGE / LIMIT     MEM %     NET I/O       BLOCK I/O         PIDS
Dec 23 23:45:58 ae1807f986dd   base_aic_janusgraph_1   0.10%     715.9MiB / 15.66GiB   4.46%     7.55kB / 0B   0B / 233kB        22
Dec 23 23:45:58 175a7162e018   portainer               0.00%     16.8MiB / 15.66GiB    0.10%     10.1kB / 0B   58.3MB / 4.77MB   7
Dec 23 23:46:01 CONTAINER ID   NAME                    CPU %     MEM USAGE / LIMIT     MEM %     NET I/O       BLOCK I/O         PIDS
Dec 23 23:46:01 ae1807f986dd   base_aic_janusgraph_1   0.29%     715.9MiB / 15.66GiB   4.46%     7.55kB / 0B   0B / 233kB        22
Dec 23 23:46:01 175a7162e018   portainer               0.00%     16.8MiB / 15.66GiB    0.10%     10.1kB / 0B   58.3MB / 4.77MB   7
Dec 23 23:46:05 CONTAINER ID   NAME                    CPU %     MEM USAGE / LIMIT     MEM %     NET I/O       BLOCK I/O         PIDS
Dec 23 23:46:05 ae1807f986dd   base_aic_janusgraph_1   0.10%     715.9MiB / 15.66GiB   4.46%     7.55kB / 0B   0B / 233kB        22
Dec 23 23:46:05 175a7162e018   portainer               0.00%     16.8MiB / 15.66GiB    0.10%     10.1kB / 0B   58.3MB / 4.77MB   7
Dec 23 23:46:09 CONTAINER ID   NAME                    CPU %     MEM USAGE / LIMIT     MEM %     NET I/O       BLOCK I/O         PIDS
Dec 23 23:46:09 ae1807f986dd   base_aic_janusgraph_1   0.10%     715.9MiB / 15.66GiB   4.46%     7.62kB / 0B   0B / 233kB        22
Dec 23 23:46:09 175a7162e018   portainer               0.02%     16.8MiB / 15.66GiB    0.10%     10.1kB / 0B   58.3MB / 4.77MB   7
Dec 23 23:46:12 CONTAINER ID   NAME                    CPU %     MEM USAGE / LIMIT     MEM %     NET I/O       BLOCK I/O         PIDS
Dec 23 23:46:12 ae1807f986dd   base_aic_janusgraph_1   0.22%     715.9MiB / 15.66GiB   4.46%     7.71kB / 0B   0B / 233kB        22
Dec 23 23:46:12 175a7162e018   portainer               0.00%     16.8MiB / 15.66GiB    0.10%     10.1kB / 0B   58.3MB / 4.77MB   7
Dec 23 23:46:16 CONTAINER ID   NAME                    CPU %     MEM USAGE / LIMIT     MEM %     NET I/O       BLOCK I/O         PIDS
Dec 23 23:46:16 ae1807f986dd   base_aic_janusgraph_1   0.12%     715.9MiB / 15.66GiB   4.46%     7.92kB / 0B   0B / 233kB        22
Dec 23 23:46:16 175a7162e018   portainer               0.00%     16.8MiB / 15.66GiB    0.10%     10.1kB / 0B   58.3MB / 4.77MB   7
Dec 23 23:46:19 CONTAINER ID   NAME                    CPU %     MEM USAGE / LIMIT     MEM %     NET I/O       BLOCK I/O         PIDS
Dec 23 23:46:19 ae1807f986dd   base_aic_janusgraph_1   0.11%     715.9MiB / 15.66GiB   4.46%     7.92kB / 0B   0B / 233kB        22
Dec 23 23:46:19 175a7162e018   portainer               1.53%     16.8MiB / 15.66GiB    0.10%     10.1kB / 0B   58.3MB / 4.77MB   7
Dec 23 23:46:23 CONTAINER ID   NAME                    CPU %     MEM USAGE / LIMIT     MEM %     NET I/O       BLOCK I/O         PIDS
Dec 23 23:46:23 ae1807f986dd   base_aic_janusgraph_1   0.12%     715.9MiB / 15.66GiB   4.46%     7.92kB / 0B   0B / 233kB        22
Dec 23 23:46:23 175a7162e018   portainer               0.00%     16.8MiB / 15.66GiB    0.10%     10.1kB / 0B   58.3MB / 4.77MB   7
Dec 23 23:46:27 CONTAINER ID   NAME                    CPU %     MEM USAGE / LIMIT     MEM %     NET I/O       BLOCK I/O         PIDS
Dec 23 23:46:27 ae1807f986dd   base_aic_janusgraph_1   0.19%     715.9MiB / 15.66GiB   4.46%     7.92kB / 0B   0B / 233kB        22
Dec 23 23:46:27 175a7162e018   portainer               0.00%     16.3MiB / 15.66GiB    0.10%     10.1kB / 0B   58.3MB / 4.77MB   7
Dec 23 23:46:30 CONTAINER ID   NAME                    CPU %     MEM USAGE / LIMIT     MEM %     NET I/O       BLOCK I/O         PIDS
Dec 23 23:46:30 ae1807f986dd   base_aic_janusgraph_1   0.10%     715.9MiB / 15.66GiB   4.46%     7.92kB / 0B   0B / 233kB        22
Dec 23 23:46:30 175a7162e018   portainer               0.00%     16.3MiB / 15.66GiB    0.10%     10.1kB / 0B   58.3MB / 4.77MB   7
Dec 23 23:46:34 CONTAINER ID   NAME                    CPU %     MEM USAGE / LIMIT     MEM %     NET I/O       BLOCK I/O         PIDS
Dec 23 23:46:34 ae1807f986dd   base_aic_janusgraph_1   0.10%     715.9MiB / 15.66GiB   4.46%     7.92kB / 0B   0B / 233kB        22
Dec 23 23:46:34 175a7162e018   portainer               0.02%     16.3MiB / 15.66GiB    0.10%     10.1kB / 0B   58.3MB / 4.77MB   7
Dec 23 23:46:37 CONTAINER ID   NAME                    CPU %     MEM USAGE / LIMIT     MEM %     NET I/O       BLOCK I/O         PIDS
Dec 23 23:46:37 ae1807f986dd   base_aic_janusgraph_1   0.10%     715.9MiB / 15.66GiB   4.46%     7.92kB / 0B   0B / 233kB        22
Dec 23 23:46:37 175a7162e018   portainer               0.00%     16.3MiB / 15.66GiB    0.10%     10.1kB / 0B   58.3MB / 4.77MB   7
Dec 23 23:46:41 CONTAINER ID   NAME                    CPU %     MEM USAGE / LIMIT     MEM %     NET I/O       BLOCK I/O         PIDS
Dec 23 23:46:41 ae1807f986dd   base_aic_janusgraph_1   0.11%     715.9MiB / 15.66GiB   4.46%     7.92kB / 0B   0B / 233kB        22
Dec 23 23:46:41 175a7162e018   portainer               0.00%     16.3MiB / 15.66GiB    0.10%     10.1kB / 0B   58.3MB / 4.77MB   7
Dec 23 23:46:45 CONTAINER ID   NAME                    CPU %     MEM USAGE / LIMIT     MEM %     NET I/O       BLOCK I/O         PIDS
Dec 23 23:46:45 ae1807f986dd   base_aic_janusgraph_1   0.12%     715.9MiB / 15.66GiB   4.46%     7.92kB / 0B   0B / 233kB        22
Dec 23 23:46:45 175a7162e018   portainer               0.11%     16.31MiB / 15.66GiB   0.10%     10.1kB / 0B   58.3MB / 4.77MB   7
Dec 23 23:46:48 CONTAINER ID   NAME                    CPU %     MEM USAGE / LIMIT     MEM %     NET I/O       BLOCK I/O         PIDS
Dec 23 23:46:48 ae1807f986dd   base_aic_janusgraph_1   0.11%     715.9MiB / 15.66GiB   4.46%     7.92kB / 0B   0B / 233kB        22
Dec 23 23:46:48 175a7162e018   portainer               0.00%     16.31MiB / 15.66GiB   0.10%     10.1kB / 0B   58.3MB / 4.77MB   7
Dec 23 23:46:52 CONTAINER ID   NAME                    CPU %     MEM USAGE / LIMIT     MEM %     NET I/O       BLOCK I/O         PIDS
Dec 23 23:46:52 ae1807f986dd   base_aic_janusgraph_1   0.19%     715.9MiB / 15.66GiB   4.46%     7.92kB / 0B   0B / 233kB        22
Dec 23 23:46:52 175a7162e018   portainer               0.00%     16.31MiB / 15.66GiB   0.10%     10.1kB / 0B   58.3MB / 4.77MB   7
Dec 23 23:46:55 CONTAINER ID   NAME                    CPU %     MEM USAGE / LIMIT     MEM %     NET I/O       BLOCK I/O         PIDS
Dec 23 23:46:55 ae1807f986dd   base_aic_janusgraph_1   0.10%     715.9MiB / 15.66GiB   4.46%     7.92kB / 0B   0B / 233kB        22
Dec 23 23:46:55 175a7162e018   portainer               0.00%     16.31MiB / 15.66GiB   0.10%     10.1kB / 0B   58.3MB / 4.77MB   7
Dec 23 23:46:59 CONTAINER ID   NAME                    CPU %     MEM USAGE / LIMIT     MEM %     NET I/O       BLOCK I/O         PIDS
Dec 23 23:46:59 ae1807f986dd   base_aic_janusgraph_1   0.10%     715.9MiB / 15.66GiB   4.46%     7.92kB / 0B   0B / 233kB        22
Dec 23 23:46:59 175a7162e018   portainer               0.01%     16.31MiB / 15.66GiB   0.10%     10.1kB / 0B   58.3MB / 4.77MB   7
Dec 23 23:47:03 CONTAINER ID   NAME                    CPU %     MEM USAGE / LIMIT     MEM %     NET I/O       BLOCK I/O         PIDS
Dec 23 23:47:03 ae1807f986dd   base_aic_janusgraph_1   0.10%     715.9MiB / 15.66GiB   4.46%     7.92kB / 0B   0B / 233kB        22
Dec 23 23:47:03 175a7162e018   portainer               0.00%     16.31MiB / 15.66GiB   0.10%     10.1kB / 0B   58.3MB / 4.77MB   7
Dec 23 23:47:06 CONTAINER ID   NAME                    CPU %     MEM USAGE / LIMIT     MEM %     NET I/O       BLOCK I/O         PIDS
Dec 23 23:47:06 ae1807f986dd   base_aic_janusgraph_1   0.10%     715.9MiB / 15.66GiB   4.46%     7.99kB / 0B   0B / 233kB        22
Dec 23 23:47:06 175a7162e018   portainer               0.00%     16.31MiB / 15.66GiB   0.10%     10.1kB / 0B   58.3MB / 4.77MB   7
Dec 23 23:47:10 CONTAINER ID   NAME                    CPU %     MEM USAGE / LIMIT     MEM %     NET I/O       BLOCK I/O         PIDS
Dec 23 23:47:10 ae1807f986dd   base_aic_janusgraph_1   0.10%     715.9MiB / 15.66GiB   4.46%     7.99kB / 0B   0B / 233kB        22
Dec 23 23:47:10 175a7162e018   portainer               0.00%     16.31MiB / 15.66GiB   0.10%     10.1kB / 0B   58.3MB / 4.77MB   7
Dec 23 23:47:13 CONTAINER ID   NAME                    CPU %     MEM USAGE / LIMIT     MEM %     NET I/O       BLOCK I/O         PIDS
Dec 23 23:47:13 ae1807f986dd   base_aic_janusgraph_1   0.10%     715.9MiB / 15.66GiB   4.46%     7.99kB / 0B   0B / 233kB        22
Dec 23 23:47:13 175a7162e018   portainer               0.00%     16.31MiB / 15.66GiB   0.10%     10.1kB / 0B   58.3MB / 4.77MB   7
Dec 23 23:47:17 CONTAINER ID   NAME                    CPU %     MEM USAGE / LIMIT     MEM %     NET I/O       BLOCK I/O         PIDS
Dec 23 23:47:17 ae1807f986dd   base_aic_janusgraph_1   0.18%     715.9MiB / 15.66GiB   4.46%     8.08kB / 0B   0B / 233kB        22
Dec 23 23:47:17 175a7162e018   portainer               0.00%     16.31MiB / 15.66GiB   0.10%     10.1kB / 0B   58.3MB / 4.77MB   7
Dec 23 23:47:20 CONTAINER ID   NAME                    CPU %     MEM USAGE / LIMIT     MEM %     NET I/O       BLOCK I/O         PIDS
Dec 23 23:47:20 ae1807f986dd   base_aic_janusgraph_1   0.10%     715.9MiB / 15.66GiB   4.46%     8.29kB / 0B   0B / 233kB        22
Dec 23 23:47:20 175a7162e018   portainer               0.00%     16.31MiB / 15.66GiB   0.10%     10.1kB / 0B   58.3MB / 4.77MB   7
Dec 23 23:47:24 CONTAINER ID   NAME                    CPU %     MEM USAGE / LIMIT     MEM %     NET I/O       BLOCK I/O         PIDS
Dec 23 23:47:24 ae1807f986dd   base_aic_janusgraph_1   0.11%     715.9MiB / 15.66GiB   4.46%     8.29kB / 0B   0B / 233kB        22
Dec 23 23:47:24 175a7162e018   portainer               0.00%     16.31MiB / 15.66GiB   0.10%     10.1kB / 0B   58.3MB / 4.77MB   7
Dec 23 23:47:28 CONTAINER ID   NAME                    CPU %     MEM USAGE / LIMIT     MEM %     NET I/O       BLOCK I/O         PIDS
Dec 23 23:47:28 ae1807f986dd   base_aic_janusgraph_1   0.12%     715.9MiB / 15.66GiB   4.46%     8.29kB / 0B   0B / 233kB        22
Dec 23 23:47:28 175a7162e018   portainer               0.00%     16.31MiB / 15.66GiB   0.10%     10.1kB / 0B   58.3MB / 4.77MB   7
Dec 23 23:47:31 CONTAINER ID   NAME                    CPU %     MEM USAGE / LIMIT     MEM %     NET I/O       BLOCK I/O         PIDS
Dec 23 23:47:31 ae1807f986dd   base_aic_janusgraph_1   0.09%     715.9MiB / 15.66GiB   4.46%     8.29kB / 0B   0B / 233kB        22
Dec 23 23:47:31 175a7162e018   portainer               0.00%     16.31MiB / 15.66GiB   0.10%     10.1kB / 0B   58.3MB / 4.77MB   7
Dec 23 23:47:35 CONTAINER ID   NAME                    CPU %     MEM USAGE / LIMIT     MEM %     NET I/O       BLOCK I/O         PIDS
Dec 23 23:47:35 ae1807f986dd   base_aic_janusgraph_1   0.11%     715.9MiB / 15.66GiB   4.46%     8.29kB / 0B   0B / 233kB        22
Dec 23 23:47:35 175a7162e018   portainer               0.00%     16.31MiB / 15.66GiB   0.10%     10.1kB / 0B   58.3MB / 4.77MB   7
Dec 23 23:47:38 CONTAINER ID   NAME                    CPU %     MEM USAGE / LIMIT     MEM %     NET I/O       BLOCK I/O         PIDS
Dec 23 23:47:38 ae1807f986dd   base_aic_janusgraph_1   0.09%     715.9MiB / 15.66GiB   4.46%     8.29kB / 0B   0B / 233kB        22
Dec 23 23:47:38 175a7162e018   portainer               0.02%     16.31MiB / 15.66GiB   0.10%     10.1kB / 0B   58.3MB / 4.77MB   7
Dec 23 23:47:42 CONTAINER ID   NAME                    CPU %     MEM USAGE / LIMIT     MEM %     NET I/O       BLOCK I/O         PIDS
Dec 23 23:47:42 ae1807f986dd   base_aic_janusgraph_1   0.19%     715.9MiB / 15.66GiB   4.46%     8.29kB / 0B   0B / 233kB        22
Dec 23 23:47:42 175a7162e018   portainer               0.00%     16.31MiB / 15.66GiB   0.10%     10.1kB / 0B   58.3MB / 4.77MB   7
Dec 23 23:47:46 CONTAINER ID   NAME                    CPU %     MEM USAGE / LIMIT     MEM %     NET I/O       BLOCK I/O         PIDS
Dec 23 23:47:46 ae1807f986dd   base_aic_janusgraph_1   0.10%     715.9MiB / 15.66GiB   4.46%     8.29kB / 0B   0B / 233kB        22
Dec 23 23:47:46 175a7162e018   portainer               0.00%     16.31MiB / 15.66GiB   0.10%     10.1kB / 0B   58.3MB / 4.77MB   7
Dec 23 23:47:49 CONTAINER ID   NAME                    CPU %     MEM USAGE / LIMIT     MEM %     NET I/O       BLOCK I/O         PIDS
Dec 23 23:47:49 ae1807f986dd   base_aic_janusgraph_1   0.10%     715.9MiB / 15.66GiB   4.46%     8.29kB / 0B   0B / 233kB        22
Dec 23 23:47:49 175a7162e018   portainer               0.00%     16.31MiB / 15.66GiB   0.10%     10.1kB / 0B   58.3MB / 4.77MB   7
Dec 23 23:47:53 CONTAINER ID   NAME                    CPU %     MEM USAGE / LIMIT     MEM %     NET I/O       BLOCK I/O         PIDS
Dec 23 23:47:53 ae1807f986dd   base_aic_janusgraph_1   0.24%     715.9MiB / 15.66GiB   4.46%     8.29kB / 0B   0B / 233kB        22
Dec 23 23:47:53 175a7162e018   portainer               0.09%     16.31MiB / 15.66GiB   0.10%     10.1kB / 0B   58.3MB / 4.77MB   7
Dec 23 23:47:56 CONTAINER ID   NAME                    CPU %     MEM USAGE / LIMIT     MEM %     NET I/O       BLOCK I/O         PIDS
Dec 23 23:47:56 ae1807f986dd   base_aic_janusgraph_1   0.10%     715.9MiB / 15.66GiB   4.46%     8.29kB / 0B   0B / 233kB        22
Dec 23 23:47:56 175a7162e018   portainer               0.00%     16.31MiB / 15.66GiB   0.10%     10.1kB / 0B   58.3MB / 4.77MB   7
Dec 23 23:48:00 CONTAINER ID   NAME                    CPU %     MEM USAGE / LIMIT     MEM %     NET I/O       BLOCK I/O         PIDS
Dec 23 23:48:00 ae1807f986dd   base_aic_janusgraph_1   0.10%     715.9MiB / 15.66GiB   4.46%     8.29kB / 0B   0B / 233kB        22
Dec 23 23:48:00 175a7162e018   portainer               0.00%     16.31MiB / 15.66GiB   0.10%     10.1kB / 0B   58.3MB / 4.77MB   7
Dec 23 23:48:04 CONTAINER ID   NAME                    CPU %     MEM USAGE / LIMIT     MEM %     NET I/O       BLOCK I/O         PIDS
Dec 23 23:48:04 ae1807f986dd   base_aic_janusgraph_1   0.11%     715.9MiB / 15.66GiB   4.46%     8.29kB / 0B   0B / 233kB        22
Dec 23 23:48:04 175a7162e018   portainer               0.08%     16.31MiB / 15.66GiB   0.10%     10.1kB / 0B   58.3MB / 4.77MB   7
Dec 23 23:48:07 CONTAINER ID   NAME                    CPU %     MEM USAGE / LIMIT     MEM %     NET I/O       BLOCK I/O         PIDS
Dec 23 23:48:07 ae1807f986dd   base_aic_janusgraph_1   0.16%     715.9MiB / 15.66GiB   4.46%     8.29kB / 0B   0B / 233kB        22
Dec 23 23:48:07 175a7162e018   portainer               0.00%     16.31MiB / 15.66GiB   0.10%     10.1kB / 0B   58.3MB / 4.77MB   7
Dec 23 23:48:11 CONTAINER ID   NAME                    CPU %     MEM USAGE / LIMIT     MEM %     NET I/O       BLOCK I/O         PIDS
Dec 23 23:48:11 ae1807f986dd   base_aic_janusgraph_1   0.10%     715.9MiB / 15.66GiB   4.46%     8.29kB / 0B   0B / 233kB        22
Dec 23 23:48:11 175a7162e018   portainer               0.00%     16.31MiB / 15.66GiB   0.10%     10.1kB / 0B   58.3MB / 4.77MB   7
Dec 23 23:48:14 CONTAINER ID   NAME                    CPU %     MEM USAGE / LIMIT     MEM %     NET I/O       BLOCK I/O         PIDS
Dec 23 23:48:14 ae1807f986dd   base_aic_janusgraph_1   0.10%     715.9MiB / 15.66GiB   4.46%     8.29kB / 0B   0B / 233kB        22
Dec 23 23:48:14 175a7162e018   portainer               0.00%     16.31MiB / 15.66GiB   0.10%     10.1kB / 0B   58.3MB / 4.77MB   7
Dec 23 23:48:18 CONTAINER ID   NAME                    CPU %     MEM USAGE / LIMIT     MEM %     NET I/O       BLOCK I/O         PIDS
Dec 23 23:48:18 ae1807f986dd   base_aic_janusgraph_1   0.10%     715.9MiB / 15.66GiB   4.46%     8.29kB / 0B   0B / 233kB        22
Dec 23 23:48:18 175a7162e018   portainer               0.00%     16.31MiB / 15.66GiB   0.10%     10.1kB / 0B   58.3MB / 4.77MB   7
Dec 23 23:48:22 CONTAINER ID   NAME                    CPU %     MEM USAGE / LIMIT     MEM %     NET I/O       BLOCK I/O         PIDS
Dec 23 23:48:22 ae1807f986dd   base_aic_janusgraph_1   0.19%     716.1MiB / 15.66GiB   4.46%     8.29kB / 0B   0B / 233kB        22
Dec 23 23:48:22 175a7162e018   portainer               0.00%     16.31MiB / 15.66GiB   0.10%     10.1kB / 0B   58.3MB / 4.77MB   7
Dec 23 23:48:25 CONTAINER ID   NAME                    CPU %     MEM USAGE / LIMIT     MEM %     NET I/O       BLOCK I/O         PIDS
Dec 23 23:48:25 ae1807f986dd   base_aic_janusgraph_1   0.10%     716.1MiB / 15.66GiB   4.46%     8.29kB / 0B   0B / 233kB        22
Dec 23 23:48:25 175a7162e018   portainer               0.00%     16.31MiB / 15.66GiB   0.10%     10.1kB / 0B   58.3MB / 4.77MB   7
Dec 23 23:48:29 CONTAINER ID   NAME                    CPU %     MEM USAGE / LIMIT     MEM %     NET I/O       BLOCK I/O         PIDS
Dec 23 23:48:29 ae1807f986dd   base_aic_janusgraph_1   0.09%     716.1MiB / 15.66GiB   4.46%     8.29kB / 0B   0B / 233kB        22
Dec 23 23:48:29 175a7162e018   portainer               0.02%     16.31MiB / 15.66GiB   0.10%     10.1kB / 0B   58.3MB / 4.77MB   7
Dec 23 23:48:31 CONTAINER ID   NAME                    CPU %     MEM USAGE / LIMIT     MEM %     NET I/O       BLOCK I/O         PIDS
Dec 23 23:48:31 ae1807f986dd   base_aic_janusgraph_1   0.18%     716.1MiB / 15.66GiB   4.46%     8.29kB / 0B   0B / 233kB        22
Dec 23 23:48:31 175a7162e018   portainer               0.00%     16.31MiB / 15.66GiB   0.10%     10.1kB / 0B   58.3MB / 4.77MB   7
Dec 23 23:48:35 CONTAINER ID   NAME                    CPU %     MEM USAGE / LIMIT     MEM %     NET I/O       BLOCK I/O         PIDS
Dec 23 23:48:35 ae1807f986dd   base_aic_janusgraph_1   0.11%     716.1MiB / 15.66GiB   4.46%     8.29kB / 0B   0B / 233kB        22
Dec 23 23:48:35 175a7162e018   portainer               0.00%     16.72MiB / 15.66GiB   0.10%     10.1kB / 0B   58.3MB / 4.92MB   7
Dec 23 23:48:39 CONTAINER ID   NAME                    CPU %     MEM USAGE / LIMIT     MEM %     NET I/O       BLOCK I/O         PIDS
Dec 23 23:48:39 ae1807f986dd   base_aic_janusgraph_1   0.11%     716.1MiB / 15.66GiB   4.46%     8.29kB / 0B   0B / 233kB        22
Dec 23 23:48:39 175a7162e018   portainer               0.01%     16.72MiB / 15.66GiB   0.10%     10.1kB / 0B   58.3MB / 4.92MB   7
Dec 23 23:48:42 CONTAINER ID   NAME                    CPU %     MEM USAGE / LIMIT     MEM %     NET I/O       BLOCK I/O         PIDS
Dec 23 23:48:42 ae1807f986dd   base_aic_janusgraph_1   0.25%     716.1MiB / 15.66GiB   4.46%     8.29kB / 0B   0B / 233kB        22
Dec 23 23:48:42 175a7162e018   portainer               0.00%     16.72MiB / 15.66GiB   0.10%     10.1kB / 0B   58.3MB / 4.92MB   7
Dec 23 23:48:46 CONTAINER ID   NAME                    CPU %     MEM USAGE / LIMIT     MEM %     NET I/O       BLOCK I/O         PIDS
Dec 23 23:48:46 ae1807f986dd   base_aic_janusgraph_1   0.10%     716.1MiB / 15.66GiB   4.46%     8.29kB / 0B   0B / 233kB        22
Dec 23 23:48:46 175a7162e018   portainer               0.00%     16.72MiB / 15.66GiB   0.10%     10.1kB / 0B   58.3MB / 4.92MB   7
Dec 23 23:48:49 CONTAINER ID   NAME                    CPU %     MEM USAGE / LIMIT     MEM %     NET I/O       BLOCK I/O         PIDS
Dec 23 23:48:49 ae1807f986dd   base_aic_janusgraph_1   0.09%     716.1MiB / 15.66GiB   4.46%     8.29kB / 0B   0B / 233kB        22
Dec 23 23:48:49 175a7162e018   portainer               0.00%     16.72MiB / 15.66GiB   0.10%     10.1kB / 0B   58.3MB / 4.92MB   7
Dec 23 23:48:53 CONTAINER ID   NAME                    CPU %     MEM USAGE / LIMIT     MEM %     NET I/O       BLOCK I/O         PIDS
Dec 23 23:48:53 ae1807f986dd   base_aic_janusgraph_1   0.10%     716.1MiB / 15.66GiB   4.46%     8.29kB / 0B   0B / 233kB        22
Dec 23 23:48:53 175a7162e018   portainer               0.00%     16.72MiB / 15.66GiB   0.10%     10.1kB / 0B   58.3MB / 4.92MB   7
Dec 23 23:48:57 CONTAINER ID   NAME                    CPU %     MEM USAGE / LIMIT     MEM %     NET I/O       BLOCK I/O         PIDS
Dec 23 23:48:57 ae1807f986dd   base_aic_janusgraph_1   0.12%     716.1MiB / 15.66GiB   4.46%     8.29kB / 0B   0B / 233kB        22
Dec 23 23:48:57 175a7162e018   portainer               0.00%     16.72MiB / 15.66GiB   0.10%     10.1kB / 0B   58.3MB / 4.92MB   7
Dec 23 23:49:00 CONTAINER ID   NAME                    CPU %     MEM USAGE / LIMIT     MEM %     NET I/O       BLOCK I/O         PIDS
Dec 23 23:49:00 ae1807f986dd   base_aic_janusgraph_1   0.10%     716.1MiB / 15.66GiB   4.46%     8.29kB / 0B   0B / 233kB        22
Dec 23 23:49:00 175a7162e018   portainer               0.00%     16.72MiB / 15.66GiB   0.10%     10.1kB / 0B   58.3MB / 4.92MB   7
Dec 23 23:49:04 CONTAINER ID   NAME                    CPU %     MEM USAGE / LIMIT     MEM %     NET I/O       BLOCK I/O         PIDS
Dec 23 23:49:04 ae1807f986dd   base_aic_janusgraph_1   0.10%     716.1MiB / 15.66GiB   4.46%     8.36kB / 0B   0B / 233kB        22
Dec 23 23:49:04 175a7162e018   portainer               0.02%     16.72MiB / 15.66GiB   0.10%     10.1kB / 0B   58.3MB / 4.92MB   7
Dec 23 23:49:07 CONTAINER ID   NAME                    CPU %     MEM USAGE / LIMIT     MEM %     NET I/O       BLOCK I/O         PIDS
Dec 23 23:49:07 ae1807f986dd   base_aic_janusgraph_1   0.10%     716.1MiB / 15.66GiB   4.46%     8.36kB / 0B   0B / 233kB        22
Dec 23 23:49:07 175a7162e018   portainer               0.00%     16.72MiB / 15.66GiB   0.10%     10.1kB / 0B   58.3MB / 4.92MB   7
Dec 23 23:49:11 CONTAINER ID   NAME                    CPU %     MEM USAGE / LIMIT     MEM %     NET I/O       BLOCK I/O         PIDS
Dec 23 23:49:11 ae1807f986dd   base_aic_janusgraph_1   0.10%     716.1MiB / 15.66GiB   4.46%     8.36kB / 0B   0B / 233kB        22
Dec 23 23:49:11 175a7162e018   portainer               0.00%     16.72MiB / 15.66GiB   0.10%     10.1kB / 0B   58.3MB / 4.92MB   7
Dec 23 23:49:15 CONTAINER ID   NAME                    CPU %     MEM USAGE / LIMIT     MEM %     NET I/O       BLOCK I/O         PIDS
Dec 23 23:49:15 ae1807f986dd   base_aic_janusgraph_1   0.10%     716.1MiB / 15.66GiB   4.46%     8.36kB / 0B   0B / 233kB        22
Dec 23 23:49:15 175a7162e018   portainer               0.09%     16.73MiB / 15.66GiB   0.10%     10.1kB / 0B   58.3MB / 4.92MB   7
Dec 23 23:49:18 CONTAINER ID   NAME                    CPU %     MEM USAGE / LIMIT     MEM %     NET I/O       BLOCK I/O         PIDS
Dec 23 23:49:18 ae1807f986dd   base_aic_janusgraph_1   0.24%     716.1MiB / 15.66GiB   4.46%     8.36kB / 0B   0B / 233kB        22
Dec 23 23:49:18 175a7162e018   portainer               0.02%     16.73MiB / 15.66GiB   0.10%     10.1kB / 0B   58.3MB / 4.92MB   7
Dec 23 23:49:22 CONTAINER ID   NAME                    CPU %     MEM USAGE / LIMIT     MEM %     NET I/O       BLOCK I/O         PIDS
Dec 23 23:49:22 ae1807f986dd   base_aic_janusgraph_1   0.51%     716.1MiB / 15.66GiB   4.46%     8.36kB / 0B   0B / 233kB        22
Dec 23 23:49:22 175a7162e018   portainer               0.00%     16.73MiB / 15.66GiB   0.10%     10.1kB / 0B   58.3MB / 4.92MB   7
Dec 23 23:49:25 CONTAINER ID   NAME                    CPU %     MEM USAGE / LIMIT     MEM %     NET I/O       BLOCK I/O         PIDS
Dec 23 23:49:25 ae1807f986dd   base_aic_janusgraph_1   0.10%     716.1MiB / 15.66GiB   4.46%     8.45kB / 0B   0B / 233kB        22
Dec 23 23:49:25 175a7162e018   portainer               0.00%     16.73MiB / 15.66GiB   0.10%     10.1kB / 0B   58.3MB / 4.92MB   7
Dec 23 23:49:29 CONTAINER ID   NAME                    CPU %     MEM USAGE / LIMIT     MEM %     NET I/O       BLOCK I/O         PIDS
Dec 23 23:49:29 ae1807f986dd   base_aic_janusgraph_1   0.09%     706.5MiB / 15.66GiB   4.40%     8.66kB / 0B   0B / 233kB        22
Dec 23 23:49:29 175a7162e018   portainer               0.02%     16.73MiB / 15.66GiB   0.10%     10.1kB / 0B   58.3MB / 4.92MB   7
Dec 23 23:49:33 CONTAINER ID   NAME                    CPU %     MEM USAGE / LIMIT     MEM %     NET I/O       BLOCK I/O         PIDS
Dec 23 23:49:33 ae1807f986dd   base_aic_janusgraph_1   0.10%     706.5MiB / 15.66GiB   4.40%     8.66kB / 0B   0B / 233kB        22
Dec 23 23:49:33 175a7162e018   portainer               0.00%     16.73MiB / 15.66GiB   0.10%     10.1kB / 0B   58.3MB / 4.92MB   7
Dec 23 23:49:36 CONTAINER ID   NAME                    CPU %     MEM USAGE / LIMIT     MEM %     NET I/O       BLOCK I/O         PIDS
Dec 23 23:49:36 ae1807f986dd   base_aic_janusgraph_1   0.11%     706.5MiB / 15.66GiB   4.40%     8.66kB / 0B   0B / 233kB        22
Dec 23 23:49:36 175a7162e018   portainer               0.00%     16.74MiB / 15.66GiB   0.10%     10.1kB / 0B   58.3MB / 4.92MB   7
Dec 23 23:49:40 CONTAINER ID   NAME                    CPU %     MEM USAGE / LIMIT     MEM %     NET I/O       BLOCK I/O         PIDS
Dec 23 23:49:40 ae1807f986dd   base_aic_janusgraph_1   0.11%     706.5MiB / 15.66GiB   4.40%     8.66kB / 0B   0B / 233kB        22
Dec 23 23:49:40 175a7162e018   portainer               0.00%     16.74MiB / 15.66GiB   0.10%     10.1kB / 0B   58.3MB / 4.92MB   7
Dec 23 23:49:43 CONTAINER ID   NAME                    CPU %     MEM USAGE / LIMIT     MEM %     NET I/O       BLOCK I/O         PIDS
Dec 23 23:49:43 ae1807f986dd   base_aic_janusgraph_1   0.10%     706.5MiB / 15.66GiB   4.40%     8.66kB / 0B   0B / 233kB        22
Dec 23 23:49:43 175a7162e018   portainer               0.00%     16.74MiB / 15.66GiB   0.10%     10.1kB / 0B   58.3MB / 4.92MB   7
Dec 23 23:49:47 CONTAINER ID   NAME                    CPU %     MEM USAGE / LIMIT     MEM %     NET I/O       BLOCK I/O         PIDS
Dec 23 23:49:47 ae1807f986dd   base_aic_janusgraph_1   0.18%     706.5MiB / 15.66GiB   4.40%     8.66kB / 0B   0B / 233kB        22
Dec 23 23:49:47 175a7162e018   portainer               0.00%     16.75MiB / 15.66GiB   0.10%     10.1kB / 0B   58.3MB / 4.92MB   7
Dec 23 23:49:50 CONTAINER ID   NAME                    CPU %     MEM USAGE / LIMIT     MEM %     NET I/O       BLOCK I/O         PIDS
Dec 23 23:49:50 ae1807f986dd   base_aic_janusgraph_1   0.11%     706.5MiB / 15.66GiB   4.40%     8.66kB / 0B   0B / 233kB        22
Dec 23 23:49:50 175a7162e018   portainer               0.00%     16.75MiB / 15.66GiB   0.10%     10.1kB / 0B   58.3MB / 4.92MB   7
Dec 23 23:49:54 CONTAINER ID   NAME                    CPU %     MEM USAGE / LIMIT     MEM %     NET I/O       BLOCK I/O         PIDS
Dec 23 23:49:54 ae1807f986dd   base_aic_janusgraph_1   0.11%     706.5MiB / 15.66GiB   4.40%     8.66kB / 0B   0B / 233kB        22
Dec 23 23:49:54 175a7162e018   portainer               0.10%     16.75MiB / 15.66GiB   0.10%     10.1kB / 0B   58.3MB / 4.92MB   7
Dec 23 23:49:58 CONTAINER ID   NAME                    CPU %     MEM USAGE / LIMIT     MEM %     NET I/O       BLOCK I/O         PIDS
Dec 23 23:49:58 ae1807f986dd   base_aic_janusgraph_1   0.11%     706.5MiB / 15.66GiB   4.40%     8.66kB / 0B   0B / 233kB        22
Dec 23 23:49:58 175a7162e018   portainer               0.00%     16.75MiB / 15.66GiB   0.10%     10.1kB / 0B   58.3MB / 4.92MB   7
Dec 23 23:50:01 CONTAINER ID   NAME                    CPU %     MEM USAGE / LIMIT     MEM %     NET I/O       BLOCK I/O         PIDS
Dec 23 23:50:01 ae1807f986dd   base_aic_janusgraph_1   0.11%     706.5MiB / 15.66GiB   4.40%     8.66kB / 0B   0B / 233kB        22
Dec 23 23:50:01 175a7162e018   portainer               0.00%     16.75MiB / 15.66GiB   0.10%     10.1kB / 0B   58.3MB / 4.92MB   7
Dec 23 23:50:05 CONTAINER ID   NAME                    CPU %     MEM USAGE / LIMIT     MEM %     NET I/O       BLOCK I/O         PIDS
Dec 23 23:50:05 ae1807f986dd   base_aic_janusgraph_1   0.12%     706.5MiB / 15.66GiB   4.40%     8.66kB / 0B   0B / 233kB        22
Dec 23 23:50:05 175a7162e018   portainer               0.00%     16.75MiB / 15.66GiB   0.10%     10.1kB / 0B   58.3MB / 4.92MB   7
Dec 23 23:50:08 CONTAINER ID   NAME                    CPU %     MEM USAGE / LIMIT     MEM %     NET I/O       BLOCK I/O         PIDS
Dec 23 23:50:08 ae1807f986dd   base_aic_janusgraph_1   0.10%     706.5MiB / 15.66GiB   4.40%     8.66kB / 0B   0B / 233kB        22
Dec 23 23:50:08 175a7162e018   portainer               0.02%     16.75MiB / 15.66GiB   0.10%     10.1kB / 0B   58.3MB / 4.92MB   7
Dec 23 23:50:11 CONTAINER ID   NAME                    CPU %     MEM USAGE / LIMIT     MEM %     NET I/O       BLOCK I/O         PIDS
Dec 23 23:50:11 ae1807f986dd   base_aic_janusgraph_1   0.11%     706.5MiB / 15.66GiB   4.40%     8.66kB / 0B   0B / 233kB        22
Dec 23 23:50:11 175a7162e018   portainer               0.00%     16.75MiB / 15.66GiB   0.10%     10.1kB / 0B   58.3MB / 4.92MB   7
Dec 23 23:50:15 CONTAINER ID   NAME                    CPU %     MEM USAGE / LIMIT     MEM %     NET I/O       BLOCK I/O         PIDS
Dec 23 23:50:15 ae1807f986dd   base_aic_janusgraph_1   0.10%     706.5MiB / 15.66GiB   4.40%     8.66kB / 0B   0B / 233kB        22
Dec 23 23:50:15 175a7162e018   portainer               0.05%     16.75MiB / 15.66GiB   0.10%     10.1kB / 0B   58.3MB / 4.92MB   7
Dec 23 23:50:18 CONTAINER ID   NAME                    CPU %     MEM USAGE / LIMIT     MEM %     NET I/O       BLOCK I/O         PIDS
Dec 23 23:50:18 ae1807f986dd   base_aic_janusgraph_1   0.12%     706.5MiB / 15.66GiB   4.40%     8.66kB / 0B   0B / 233kB        22
Dec 23 23:50:18 175a7162e018   portainer               0.00%     16.75MiB / 15.66GiB   0.10%     10.1kB / 0B   58.3MB / 4.92MB   7
Dec 23 23:50:22 CONTAINER ID   NAME                    CPU %     MEM USAGE / LIMIT     MEM %     NET I/O       BLOCK I/O         PIDS
Dec 23 23:50:22 ae1807f986dd   base_aic_janusgraph_1   0.10%     706.5MiB / 15.66GiB   4.40%     8.66kB / 0B   0B / 233kB        22
Dec 23 23:50:22 175a7162e018   portainer               0.00%     16.75MiB / 15.66GiB   0.10%     10.1kB / 0B   58.3MB / 4.92MB   7
Dec 23 23:50:25 CONTAINER ID   NAME                    CPU %     MEM USAGE / LIMIT     MEM %     NET I/O       BLOCK I/O         PIDS
Dec 23 23:50:25 ae1807f986dd   base_aic_janusgraph_1   0.09%     706.5MiB / 15.66GiB   4.40%     8.66kB / 0B   0B / 233kB        22
Dec 23 23:50:25 175a7162e018   portainer               0.00%     16.81MiB / 15.66GiB   0.10%     10.1kB / 0B   58.3MB / 4.92MB   7
Dec 23 23:50:29 CONTAINER ID   NAME                    CPU %     MEM USAGE / LIMIT     MEM %     NET I/O       BLOCK I/O         PIDS
Dec 23 23:50:29 ae1807f986dd   base_aic_janusgraph_1   0.10%     706.5MiB / 15.66GiB   4.40%     8.66kB / 0B   0B / 233kB        22
Dec 23 23:50:29 175a7162e018   portainer               0.03%     16.81MiB / 15.66GiB   0.10%     10.1kB / 0B   58.3MB / 4.92MB   7
Dec 23 23:50:33 CONTAINER ID   NAME                    CPU %     MEM USAGE / LIMIT     MEM %     NET I/O       BLOCK I/O         PIDS
Dec 23 23:50:33 ae1807f986dd   base_aic_janusgraph_1   0.11%     706.5MiB / 15.66GiB   4.40%     8.66kB / 0B   0B / 233kB        22
Dec 23 23:50:33 175a7162e018   portainer               0.00%     16.81MiB / 15.66GiB   0.10%     10.1kB / 0B   58.3MB / 4.92MB   7
Dec 23 23:50:36 CONTAINER ID   NAME                    CPU %     MEM USAGE / LIMIT     MEM %     NET I/O       BLOCK I/O         PIDS
Dec 23 23:50:36 ae1807f986dd   base_aic_janusgraph_1   0.09%     706.5MiB / 15.66GiB   4.40%     8.66kB / 0B   0B / 233kB        22
Dec 23 23:50:36 175a7162e018   portainer               0.00%     16.81MiB / 15.66GiB   0.10%     10.1kB / 0B   58.3MB / 4.92MB   7
Dec 23 23:50:40 CONTAINER ID   NAME                    CPU %     MEM USAGE / LIMIT     MEM %     NET I/O       BLOCK I/O         PIDS
Dec 23 23:50:40 ae1807f986dd   base_aic_janusgraph_1   0.09%     706.5MiB / 15.66GiB   4.40%     8.66kB / 0B   0B / 233kB        22
Dec 23 23:50:40 175a7162e018   portainer               0.00%     16.81MiB / 15.66GiB   0.10%     10.1kB / 0B   58.3MB / 4.92MB   7
Dec 23 23:50:43 CONTAINER ID   NAME                    CPU %     MEM USAGE / LIMIT     MEM %     NET I/O       BLOCK I/O         PIDS
Dec 23 23:50:43 ae1807f986dd   base_aic_janusgraph_1   0.21%     706.5MiB / 15.66GiB   4.40%     8.66kB / 0B   0B / 233kB        22
Dec 23 23:50:43 175a7162e018   portainer               0.11%     16.81MiB / 15.66GiB   0.10%     10.1kB / 0B   58.3MB / 4.92MB   7
Dec 23 23:50:47 CONTAINER ID   NAME                    CPU %     MEM USAGE / LIMIT     MEM %     NET I/O       BLOCK I/O         PIDS
Dec 23 23:50:47 ae1807f986dd   base_aic_janusgraph_1   0.31%     706.5MiB / 15.66GiB   4.40%     8.66kB / 0B   0B / 233kB        22
Dec 23 23:50:47 175a7162e018   portainer               0.00%     16.81MiB / 15.66GiB   0.10%     10.1kB / 0B   58.3MB / 4.92MB   7
Dec 23 23:50:51 CONTAINER ID   NAME                    CPU %     MEM USAGE / LIMIT     MEM %     NET I/O       BLOCK I/O         PIDS
Dec 23 23:50:51 ae1807f986dd   base_aic_janusgraph_1   0.09%     706.5MiB / 15.66GiB   4.40%     8.66kB / 0B   0B / 233kB        22
Dec 23 23:50:51 175a7162e018   portainer               0.00%     16.81MiB / 15.66GiB   0.10%     10.1kB / 0B   58.3MB / 4.92MB   7
Dec 23 23:50:54 CONTAINER ID   NAME                    CPU %     MEM USAGE / LIMIT     MEM %     NET I/O       BLOCK I/O         PIDS
Dec 23 23:50:54 ae1807f986dd   base_aic_janusgraph_1   0.11%     706.5MiB / 15.66GiB   4.40%     8.66kB / 0B   0B / 233kB        22
Dec 23 23:50:54 175a7162e018   portainer               0.00%     16.81MiB / 15.66GiB   0.10%     10.1kB / 0B   58.3MB / 4.92MB   7
Dec 23 23:50:58 CONTAINER ID   NAME                    CPU %     MEM USAGE / LIMIT     MEM %     NET I/O       BLOCK I/O         PIDS
Dec 23 23:50:58 ae1807f986dd   base_aic_janusgraph_1   0.12%     706.5MiB / 15.66GiB   4.40%     8.66kB / 0B   0B / 233kB        22
Dec 23 23:50:58 175a7162e018   portainer               0.00%     16.81MiB / 15.66GiB   0.10%     10.1kB / 0B   58.3MB / 4.92MB   7
Dec 23 23:51:01 CONTAINER ID   NAME                    CPU %     MEM USAGE / LIMIT     MEM %     NET I/O       BLOCK I/O         PIDS
Dec 23 23:51:01 ae1807f986dd   base_aic_janusgraph_1   0.11%     706.5MiB / 15.66GiB   4.40%     8.66kB / 0B   0B / 233kB        22
Dec 23 23:51:01 175a7162e018   portainer               0.00%     16.81MiB / 15.66GiB   0.10%     10.1kB / 0B   58.3MB / 4.92MB   7
Dec 23 23:51:05 CONTAINER ID   NAME                    CPU %     MEM USAGE / LIMIT     MEM %     NET I/O       BLOCK I/O         PIDS
Dec 23 23:51:05 ae1807f986dd   base_aic_janusgraph_1   0.11%     706.5MiB / 15.66GiB   4.40%     8.66kB / 0B   0B / 233kB        22
Dec 23 23:51:05 175a7162e018   portainer               0.00%     16.81MiB / 15.66GiB   0.10%     10.1kB / 0B   58.3MB / 4.92MB   7
Dec 23 23:51:09 CONTAINER ID   NAME                    CPU %     MEM USAGE / LIMIT     MEM %     NET I/O       BLOCK I/O         PIDS
Dec 23 23:51:09 ae1807f986dd   base_aic_janusgraph_1   0.09%     706.5MiB / 15.66GiB   4.40%     8.66kB / 0B   0B / 233kB        22
Dec 23 23:51:09 175a7162e018   portainer               0.00%     16.81MiB / 15.66GiB   0.10%     10.1kB / 0B   58.3MB / 4.92MB   7
Dec 23 23:51:12 CONTAINER ID   NAME                    CPU %     MEM USAGE / LIMIT     MEM %     NET I/O       BLOCK I/O         PIDS
Dec 23 23:51:12 ae1807f986dd   base_aic_janusgraph_1   0.16%     706.5MiB / 15.66GiB   4.40%     8.66kB / 0B   0B / 233kB        22
Dec 23 23:51:12 175a7162e018   portainer               0.00%     16.81MiB / 15.66GiB   0.10%     10.1kB / 0B   58.3MB / 4.92MB   7
Dec 23 23:51:16 CONTAINER ID   NAME                    CPU %     MEM USAGE / LIMIT     MEM %     NET I/O       BLOCK I/O         PIDS
Dec 23 23:51:16 ae1807f986dd   base_aic_janusgraph_1   0.12%     706.5MiB / 15.66GiB   4.40%     8.66kB / 0B   0B / 233kB        22
Dec 23 23:51:16 175a7162e018   portainer               0.00%     16.81MiB / 15.66GiB   0.10%     10.1kB / 0B   58.3MB / 4.92MB   7
Dec 23 23:51:19 CONTAINER ID   NAME                    CPU %     MEM USAGE / LIMIT     MEM %     NET I/O       BLOCK I/O         PIDS
Dec 23 23:51:19 ae1807f986dd   base_aic_janusgraph_1   0.11%     706.5MiB / 15.66GiB   4.40%     8.66kB / 0B   0B / 233kB        22
Dec 23 23:51:19 175a7162e018   portainer               0.00%     16.81MiB / 15.66GiB   0.10%     10.1kB / 0B   58.3MB / 4.92MB   7
Dec 23 23:51:23 CONTAINER ID   NAME                    CPU %     MEM USAGE / LIMIT     MEM %     NET I/O       BLOCK I/O         PIDS
Dec 23 23:51:23 ae1807f986dd   base_aic_janusgraph_1   0.10%     706.5MiB / 15.66GiB   4.40%     8.66kB / 0B   0B / 233kB        22
Dec 23 23:51:23 175a7162e018   portainer               0.00%     16.81MiB / 15.66GiB   0.10%     10.1kB / 0B   58.3MB / 4.92MB   7
Dec 23 23:51:26 CONTAINER ID   NAME                    CPU %     MEM USAGE / LIMIT     MEM %     NET I/O       BLOCK I/O         PIDS
Dec 23 23:51:26 ae1807f986dd   base_aic_janusgraph_1   0.18%     706.5MiB / 15.66GiB   4.40%     8.66kB / 0B   0B / 233kB        22
Dec 23 23:51:26 175a7162e018   portainer               0.00%     16.81MiB / 15.66GiB   0.10%     10.1kB / 0B   58.3MB / 4.92MB   7
Dec 23 23:51:30 CONTAINER ID   NAME                    CPU %     MEM USAGE / LIMIT     MEM %     NET I/O       BLOCK I/O         PIDS
Dec 23 23:51:30 ae1807f986dd   base_aic_janusgraph_1   0.11%     706.5MiB / 15.66GiB   4.40%     8.66kB / 0B   0B / 233kB        22
Dec 23 23:51:30 175a7162e018   portainer               0.00%     16.81MiB / 15.66GiB   0.10%     10.1kB / 0B   58.3MB / 4.92MB   7
Dec 23 23:51:33 CONTAINER ID   NAME                    CPU %     MEM USAGE / LIMIT     MEM %     NET I/O       BLOCK I/O         PIDS
Dec 23 23:51:33 ae1807f986dd   base_aic_janusgraph_1   0.10%     706.5MiB / 15.66GiB   4.40%     8.66kB / 0B   0B / 233kB        22
Dec 23 23:51:33 175a7162e018   portainer               0.02%     16.81MiB / 15.66GiB   0.10%     10.1kB / 0B   58.3MB / 4.92MB   7
Dec 23 23:51:36 CONTAINER ID   NAME                    CPU %     MEM USAGE / LIMIT     MEM %     NET I/O       BLOCK I/O         PIDS
Dec 23 23:51:36 ae1807f986dd   base_aic_janusgraph_1   0.11%     706.5MiB / 15.66GiB   4.40%     8.66kB / 0B   0B / 233kB        22
Dec 23 23:51:36 175a7162e018   portainer               0.00%     16.82MiB / 15.66GiB   0.10%     10.1kB / 0B   58.3MB / 4.92MB   7
Dec 23 23:51:40 CONTAINER ID   NAME                    CPU %     MEM USAGE / LIMIT     MEM %     NET I/O       BLOCK I/O         PIDS
Dec 23 23:51:40 ae1807f986dd   base_aic_janusgraph_1   0.09%     706.5MiB / 15.66GiB   4.40%     8.66kB / 0B   0B / 233kB        22
Dec 23 23:51:40 175a7162e018   portainer               0.00%     16.82MiB / 15.66GiB   0.10%     10.1kB / 0B   58.3MB / 4.92MB   7
Dec 23 23:51:43 CONTAINER ID   NAME                    CPU %     MEM USAGE / LIMIT     MEM %     NET I/O       BLOCK I/O         PIDS
Dec 23 23:51:43 ae1807f986dd   base_aic_janusgraph_1   0.09%     706.5MiB / 15.66GiB   4.40%     8.66kB / 0B   0B / 233kB        22
Dec 23 23:51:43 175a7162e018   portainer               0.00%     16.82MiB / 15.66GiB   0.10%     10.1kB / 0B   58.3MB / 4.92MB   7
Dec 23 23:51:47 CONTAINER ID   NAME                    CPU %     MEM USAGE / LIMIT     MEM %     NET I/O       BLOCK I/O         PIDS
Dec 23 23:51:47 ae1807f986dd   base_aic_janusgraph_1   0.42%     706.5MiB / 15.66GiB   4.40%     8.66kB / 0B   0B / 233kB        22
Dec 23 23:51:47 175a7162e018   portainer               0.00%     16.82MiB / 15.66GiB   0.10%     10.1kB / 0B   58.3MB / 4.92MB   7
Dec 23 23:51:51 CONTAINER ID   NAME                    CPU %     MEM USAGE / LIMIT     MEM %     NET I/O       BLOCK I/O         PIDS
Dec 23 23:51:51 ae1807f986dd   base_aic_janusgraph_1   0.10%     706.5MiB / 15.66GiB   4.40%     8.66kB / 0B   0B / 233kB        22
Dec 23 23:51:51 175a7162e018   portainer               0.00%     16.82MiB / 15.66GiB   0.10%     10.1kB / 0B   58.3MB / 4.92MB   7
Dec 23 23:51:54 CONTAINER ID   NAME                    CPU %     MEM USAGE / LIMIT     MEM %     NET I/O       BLOCK I/O         PIDS
Dec 23 23:51:54 ae1807f986dd   base_aic_janusgraph_1   0.11%     706.5MiB / 15.66GiB   4.40%     8.66kB / 0B   0B / 233kB        22
Dec 23 23:51:54 175a7162e018   portainer               0.11%     16.82MiB / 15.66GiB   0.10%     10.1kB / 0B   58.3MB / 4.92MB   7
Dec 23 23:51:58 CONTAINER ID   NAME                    CPU %     MEM USAGE / LIMIT     MEM %     NET I/O       BLOCK I/O         PIDS
Dec 23 23:51:58 ae1807f986dd   base_aic_janusgraph_1   0.11%     706.5MiB / 15.66GiB   4.40%     8.66kB / 0B   0B / 233kB        22
Dec 23 23:51:58 175a7162e018   portainer               0.00%     16.82MiB / 15.66GiB   0.10%     10.1kB / 0B   58.3MB / 4.92MB   7
Dec 23 23:52:01 CONTAINER ID   NAME                    CPU %     MEM USAGE / LIMIT     MEM %     NET I/O       BLOCK I/O         PIDS
Dec 23 23:52:01 ae1807f986dd   base_aic_janusgraph_1   0.18%     706.5MiB / 15.66GiB   4.40%     8.66kB / 0B   0B / 233kB        22
Dec 23 23:52:01 175a7162e018   portainer               0.00%     16.82MiB / 15.66GiB   0.10%     10.1kB / 0B   58.3MB / 4.92MB   7
Dec 23 23:52:05 CONTAINER ID   NAME                    CPU %     MEM USAGE / LIMIT     MEM %     NET I/O       BLOCK I/O         PIDS
Dec 23 23:52:05 ae1807f986dd   base_aic_janusgraph_1   0.11%     706.5MiB / 15.66GiB   4.40%     8.66kB / 0B   0B / 233kB        22
Dec 23 23:52:05 175a7162e018   portainer               0.00%     16.82MiB / 15.66GiB   0.10%     10.1kB / 0B   58.3MB / 4.92MB   7
Dec 23 23:52:09 CONTAINER ID   NAME                    CPU %     MEM USAGE / LIMIT     MEM %     NET I/O       BLOCK I/O         PIDS
Dec 23 23:52:09 ae1807f986dd   base_aic_janusgraph_1   0.11%     706.5MiB / 15.66GiB   4.40%     8.66kB / 0B   0B / 233kB        22
Dec 23 23:52:09 175a7162e018   portainer               0.02%     16.82MiB / 15.66GiB   0.10%     10.1kB / 0B   58.3MB / 4.92MB   7
Dec 23 23:52:12 CONTAINER ID   NAME                    CPU %     MEM USAGE / LIMIT     MEM %     NET I/O       BLOCK I/O         PIDS
Dec 23 23:52:12 ae1807f986dd   base_aic_janusgraph_1   0.13%     706.5MiB / 15.66GiB   4.40%     8.66kB / 0B   0B / 233kB        22
Dec 23 23:52:12 175a7162e018   portainer               0.00%     16.82MiB / 15.66GiB   0.10%     10.1kB / 0B   58.3MB / 4.92MB   7
