Dec 24 00:06:53 CONTAINER ID   NAME        CPU %     MEM USAGE / LIMIT     MEM %     NET I/O       BLOCK I/O         PIDS
Dec 24 00:06:53 175a7162e018   portainer   1.15%     16.31MiB / 15.66GiB   0.10%     10.2kB / 0B   58.3MB / 5.37MB   7
Dec 24 00:06:53                --          0.00%     0B / 0B               0.00%     0B / 0B       0B / 0B           0
Dec 24 00:06:57 CONTAINER ID   NAME                    CPU %     MEM USAGE / LIMIT     MEM %     NET I/O       BLOCK I/O         PIDS
Dec 24 00:06:57 381479ea9018   base_aic_janusgraph_1   261.63%   681.8MiB / 15.66GiB   4.25%     4.85kB / 0B   0B / 233kB        21
Dec 24 00:06:57 175a7162e018   portainer               0.00%     16.31MiB / 15.66GiB   0.10%     10.2kB / 0B   58.3MB / 5.37MB   7
Dec 24 00:06:59 CONTAINER ID   NAME                    CPU %     MEM USAGE / LIMIT     MEM %     NET I/O       BLOCK I/O         PIDS
Dec 24 00:06:59 381479ea9018   base_aic_janusgraph_1   308.77%   720MiB / 15.66GiB     4.49%     6.22kB / 0B   0B / 233kB        22
Dec 24 00:06:59 175a7162e018   portainer               0.00%     16.31MiB / 15.66GiB   0.10%     10.2kB / 0B   58.3MB / 5.37MB   7
Dec 24 00:07:03 CONTAINER ID   NAME                    CPU %     MEM USAGE / LIMIT     MEM %     NET I/O       BLOCK I/O         PIDS
Dec 24 00:07:03 381479ea9018   base_aic_janusgraph_1   220.88%   758.1MiB / 15.66GiB   4.73%     6.61kB / 0B   0B / 233kB        23
Dec 24 00:07:03 175a7162e018   portainer               0.11%     16.31MiB / 15.66GiB   0.10%     10.2kB / 0B   58.3MB / 5.37MB   7
Dec 24 00:07:07 CONTAINER ID   NAME                    CPU %     MEM USAGE / LIMIT     MEM %     NET I/O       BLOCK I/O         PIDS
Dec 24 00:07:07 381479ea9018   base_aic_janusgraph_1   287.17%   601MiB / 15.66GiB     3.75%     6.72kB / 0B   0B / 332kB        21
Dec 24 00:07:07 175a7162e018   portainer               0.00%     16.31MiB / 15.66GiB   0.10%     10.2kB / 0B   58.3MB / 5.37MB   7
Dec 24 00:07:10 CONTAINER ID   NAME                    CPU %     MEM USAGE / LIMIT     MEM %     NET I/O       BLOCK I/O         PIDS
Dec 24 00:07:10 381479ea9018   base_aic_janusgraph_1   0.40%     727.3MiB / 15.66GiB   4.53%     6.98kB / 0B   0B / 332kB        22
Dec 24 00:07:10 175a7162e018   portainer               0.00%     16.31MiB / 15.66GiB   0.10%     10.2kB / 0B   58.3MB / 5.37MB   7
Dec 24 00:07:14 CONTAINER ID   NAME                    CPU %     MEM USAGE / LIMIT     MEM %     NET I/O       BLOCK I/O         PIDS
Dec 24 00:07:14 381479ea9018   base_aic_janusgraph_1   0.25%     723.5MiB / 15.66GiB   4.51%     7.09kB / 0B   0B / 332kB        22
Dec 24 00:07:14 175a7162e018   portainer               0.13%     16.31MiB / 15.66GiB   0.10%     10.2kB / 0B   58.3MB / 5.37MB   7
Dec 24 00:07:17 CONTAINER ID   NAME                    CPU %     MEM USAGE / LIMIT     MEM %     NET I/O       BLOCK I/O         PIDS
Dec 24 00:07:18 381479ea9018   base_aic_janusgraph_1   0.10%     723.5MiB / 15.66GiB   4.51%     7.09kB / 0B   0B / 332kB        22
Dec 24 00:07:18 175a7162e018   portainer               0.00%     16.31MiB / 15.66GiB   0.10%     10.2kB / 0B   58.3MB / 5.37MB   7
Dec 24 00:07:21 CONTAINER ID   NAME                    CPU %     MEM USAGE / LIMIT     MEM %     NET I/O       BLOCK I/O         PIDS
Dec 24 00:07:21 381479ea9018   base_aic_janusgraph_1   0.18%     723.5MiB / 15.66GiB   4.51%     7.09kB / 0B   0B / 332kB        22
Dec 24 00:07:21 175a7162e018   portainer               0.00%     16.31MiB / 15.66GiB   0.10%     10.2kB / 0B   58.3MB / 5.37MB   7
Dec 24 00:07:25 CONTAINER ID   NAME                    CPU %     MEM USAGE / LIMIT     MEM %     NET I/O       BLOCK I/O         PIDS
Dec 24 00:07:25 381479ea9018   base_aic_janusgraph_1   0.10%     723.5MiB / 15.66GiB   4.51%     7.25kB / 0B   0B / 332kB        22
Dec 24 00:07:25 175a7162e018   portainer               0.10%     16.31MiB / 15.66GiB   0.10%     10.2kB / 0B   58.3MB / 5.37MB   7
Dec 24 00:07:28 CONTAINER ID   NAME                    CPU %     MEM USAGE / LIMIT     MEM %     NET I/O       BLOCK I/O         PIDS
Dec 24 00:07:28 381479ea9018   base_aic_janusgraph_1   0.08%     723.6MiB / 15.66GiB   4.51%     7.46kB / 0B   0B / 332kB        22
Dec 24 00:07:28 175a7162e018   portainer               0.02%     16.31MiB / 15.66GiB   0.10%     10.2kB / 0B   58.3MB / 5.37MB   7
Dec 24 00:07:32 CONTAINER ID   NAME                    CPU %     MEM USAGE / LIMIT     MEM %     NET I/O       BLOCK I/O         PIDS
Dec 24 00:07:32 381479ea9018   base_aic_janusgraph_1   0.10%     723.6MiB / 15.66GiB   4.51%     7.46kB / 0B   0B / 332kB        22
Dec 24 00:07:32 175a7162e018   portainer               0.00%     16.31MiB / 15.66GiB   0.10%     10.2kB / 0B   58.3MB / 5.37MB   7
Dec 24 00:07:35 CONTAINER ID   NAME                    CPU %     MEM USAGE / LIMIT     MEM %     NET I/O       BLOCK I/O         PIDS
Dec 24 00:07:35 381479ea9018   base_aic_janusgraph_1   0.12%     723.6MiB / 15.66GiB   4.51%     7.46kB / 0B   0B / 332kB        22
Dec 24 00:07:35 175a7162e018   portainer               0.00%     16.32MiB / 15.66GiB   0.10%     10.2kB / 0B   58.3MB / 5.37MB   7
Dec 24 00:07:39 CONTAINER ID   NAME                    CPU %     MEM USAGE / LIMIT     MEM %     NET I/O       BLOCK I/O         PIDS
Dec 24 00:07:39 381479ea9018   base_aic_janusgraph_1   0.11%     723.6MiB / 15.66GiB   4.51%     7.46kB / 0B   0B / 332kB        22
Dec 24 00:07:39 175a7162e018   portainer               0.00%     16.32MiB / 15.66GiB   0.10%     10.2kB / 0B   58.3MB / 5.37MB   7
Dec 24 00:07:43 CONTAINER ID   NAME                    CPU %     MEM USAGE / LIMIT     MEM %     NET I/O       BLOCK I/O         PIDS
Dec 24 00:07:43 381479ea9018   base_aic_janusgraph_1   0.10%     723.6MiB / 15.66GiB   4.51%     7.46kB / 0B   0B / 332kB        22
Dec 24 00:07:43 175a7162e018   portainer               0.00%     16.32MiB / 15.66GiB   0.10%     10.2kB / 0B   58.3MB / 5.37MB   7
Dec 24 00:07:46 CONTAINER ID   NAME                    CPU %     MEM USAGE / LIMIT     MEM %     NET I/O       BLOCK I/O         PIDS
Dec 24 00:07:46 381479ea9018   base_aic_janusgraph_1   0.10%     723.6MiB / 15.66GiB   4.51%     7.46kB / 0B   0B / 332kB        22
Dec 24 00:07:46 175a7162e018   portainer               0.00%     16.32MiB / 15.66GiB   0.10%     10.2kB / 0B   58.3MB / 5.37MB   7
Dec 24 00:07:50 CONTAINER ID   NAME                    CPU %     MEM USAGE / LIMIT     MEM %     NET I/O       BLOCK I/O         PIDS
Dec 24 00:07:50 381479ea9018   base_aic_janusgraph_1   0.10%     723.6MiB / 15.66GiB   4.51%     7.46kB / 0B   0B / 332kB        22
Dec 24 00:07:50 175a7162e018   portainer               0.00%     16.32MiB / 15.66GiB   0.10%     10.2kB / 0B   58.3MB / 5.37MB   7
Dec 24 00:07:53 CONTAINER ID   NAME                    CPU %     MEM USAGE / LIMIT     MEM %     NET I/O       BLOCK I/O         PIDS
Dec 24 00:07:53 381479ea9018   base_aic_janusgraph_1   0.10%     723.6MiB / 15.66GiB   4.51%     7.46kB / 0B   0B / 332kB        22
Dec 24 00:07:53 175a7162e018   portainer               0.13%     16.32MiB / 15.66GiB   0.10%     10.2kB / 0B   58.3MB / 5.37MB   7
Dec 24 00:07:57 CONTAINER ID   NAME                    CPU %     MEM USAGE / LIMIT     MEM %     NET I/O       BLOCK I/O         PIDS
Dec 24 00:07:57 381479ea9018   base_aic_janusgraph_1   0.17%     723.6MiB / 15.66GiB   4.51%     7.62kB / 0B   0B / 332kB        22
Dec 24 00:07:57 175a7162e018   portainer               0.00%     16.32MiB / 15.66GiB   0.10%     10.2kB / 0B   58.3MB / 5.37MB   7
Dec 24 00:08:01 CONTAINER ID   NAME                    CPU %     MEM USAGE / LIMIT     MEM %     NET I/O       BLOCK I/O         PIDS
Dec 24 00:08:01 381479ea9018   base_aic_janusgraph_1   0.11%     723.6MiB / 15.66GiB   4.51%     7.83kB / 0B   0B / 332kB        22
Dec 24 00:08:01 175a7162e018   portainer               0.00%     16.32MiB / 15.66GiB   0.10%     10.2kB / 0B   58.3MB / 5.37MB   7
Dec 24 00:08:04 CONTAINER ID   NAME                    CPU %     MEM USAGE / LIMIT     MEM %     NET I/O       BLOCK I/O         PIDS
Dec 24 00:08:04 381479ea9018   base_aic_janusgraph_1   0.11%     723.6MiB / 15.66GiB   4.51%     7.83kB / 0B   0B / 332kB        22
Dec 24 00:08:04 175a7162e018   portainer               0.10%     16.32MiB / 15.66GiB   0.10%     10.2kB / 0B   58.3MB / 5.37MB   7
Dec 24 00:08:08 CONTAINER ID   NAME                    CPU %     MEM USAGE / LIMIT     MEM %     NET I/O       BLOCK I/O         PIDS
Dec 24 00:08:08 381479ea9018   base_aic_janusgraph_1   0.10%     723.6MiB / 15.66GiB   4.51%     7.83kB / 0B   0B / 332kB        22
Dec 24 00:08:08 175a7162e018   portainer               0.00%     16.32MiB / 15.66GiB   0.10%     10.2kB / 0B   58.3MB / 5.37MB   7
Dec 24 00:08:11 CONTAINER ID   NAME                    CPU %     MEM USAGE / LIMIT     MEM %     NET I/O       BLOCK I/O         PIDS
Dec 24 00:08:11 381479ea9018   base_aic_janusgraph_1   0.18%     723.6MiB / 15.66GiB   4.51%     7.83kB / 0B   0B / 332kB        22
Dec 24 00:08:11 175a7162e018   portainer               0.00%     16.32MiB / 15.66GiB   0.10%     10.2kB / 0B   58.3MB / 5.37MB   7
Dec 24 00:08:15 CONTAINER ID   NAME                    CPU %     MEM USAGE / LIMIT     MEM %     NET I/O       BLOCK I/O         PIDS
Dec 24 00:08:15 381479ea9018   base_aic_janusgraph_1   0.10%     723.6MiB / 15.66GiB   4.51%     7.83kB / 0B   0B / 332kB        22
Dec 24 00:08:15 175a7162e018   portainer               0.00%     16.32MiB / 15.66GiB   0.10%     10.2kB / 0B   58.3MB / 5.37MB   7
Dec 24 00:08:19 CONTAINER ID   NAME                    CPU %     MEM USAGE / LIMIT     MEM %     NET I/O       BLOCK I/O         PIDS
Dec 24 00:08:19 381479ea9018   base_aic_janusgraph_1   0.10%     723.6MiB / 15.66GiB   4.51%     7.83kB / 0B   0B / 332kB        22
Dec 24 00:08:19 175a7162e018   portainer               0.00%     16.32MiB / 15.66GiB   0.10%     10.2kB / 0B   58.3MB / 5.37MB   7
Dec 24 00:08:22 CONTAINER ID   NAME                    CPU %     MEM USAGE / LIMIT     MEM %     NET I/O       BLOCK I/O         PIDS
Dec 24 00:08:22 381479ea9018   base_aic_janusgraph_1   0.10%     723.6MiB / 15.66GiB   4.51%     7.83kB / 0B   0B / 332kB        22
Dec 24 00:08:22 175a7162e018   portainer               0.00%     16.32MiB / 15.66GiB   0.10%     10.2kB / 0B   58.3MB / 5.37MB   7
Dec 24 00:08:26 CONTAINER ID   NAME                    CPU %     MEM USAGE / LIMIT     MEM %     NET I/O       BLOCK I/O         PIDS
Dec 24 00:08:26 381479ea9018   base_aic_janusgraph_1   0.16%     723.6MiB / 15.66GiB   4.51%     7.83kB / 0B   0B / 332kB        22
Dec 24 00:08:26 175a7162e018   portainer               0.00%     16.32MiB / 15.66GiB   0.10%     10.2kB / 0B   58.3MB / 5.37MB   7
Dec 24 00:08:29 CONTAINER ID   NAME                    CPU %     MEM USAGE / LIMIT     MEM %     NET I/O       BLOCK I/O         PIDS
Dec 24 00:08:29 381479ea9018   base_aic_janusgraph_1   0.10%     723.6MiB / 15.66GiB   4.51%     7.83kB / 0B   0B / 332kB        22
Dec 24 00:08:29 175a7162e018   portainer               0.02%     16.32MiB / 15.66GiB   0.10%     10.2kB / 0B   58.3MB / 5.37MB   7
Dec 24 00:08:33 CONTAINER ID   NAME                    CPU %     MEM USAGE / LIMIT     MEM %     NET I/O       BLOCK I/O         PIDS
Dec 24 00:08:33 381479ea9018   base_aic_janusgraph_1   0.10%     723.6MiB / 15.66GiB   4.51%     7.83kB / 0B   0B / 332kB        22
Dec 24 00:08:33 175a7162e018   portainer               1.56%     16.78MiB / 15.66GiB   0.10%     10.2kB / 0B   58.3MB / 5.52MB   7
Dec 24 00:08:37 CONTAINER ID   NAME                    CPU %     MEM USAGE / LIMIT     MEM %     NET I/O       BLOCK I/O         PIDS
Dec 24 00:08:37 381479ea9018   base_aic_janusgraph_1   0.18%     723.6MiB / 15.66GiB   4.51%     7.83kB / 0B   0B / 332kB        22
Dec 24 00:08:37 175a7162e018   portainer               0.00%     16.78MiB / 15.66GiB   0.10%     10.2kB / 0B   58.3MB / 5.52MB   7
Dec 24 00:08:40 CONTAINER ID   NAME                    CPU %     MEM USAGE / LIMIT     MEM %     NET I/O       BLOCK I/O         PIDS
Dec 24 00:08:40 381479ea9018   base_aic_janusgraph_1   0.09%     723.6MiB / 15.66GiB   4.51%     7.83kB / 0B   0B / 332kB        22
Dec 24 00:08:40 175a7162e018   portainer               0.00%     16.78MiB / 15.66GiB   0.10%     10.2kB / 0B   58.3MB / 5.52MB   7
Dec 24 00:08:44 CONTAINER ID   NAME                    CPU %     MEM USAGE / LIMIT     MEM %     NET I/O       BLOCK I/O         PIDS
Dec 24 00:08:44 381479ea9018   base_aic_janusgraph_1   0.10%     723.6MiB / 15.66GiB   4.51%     7.83kB / 0B   0B / 332kB        22
Dec 24 00:08:44 175a7162e018   portainer               0.10%     16.78MiB / 15.66GiB   0.10%     10.2kB / 0B   58.3MB / 5.52MB   7
Dec 24 00:08:47 CONTAINER ID   NAME                    CPU %     MEM USAGE / LIMIT     MEM %     NET I/O       BLOCK I/O         PIDS
Dec 24 00:08:47 381479ea9018   base_aic_janusgraph_1   0.10%     723.6MiB / 15.66GiB   4.51%     7.83kB / 0B   0B / 332kB        22
Dec 24 00:08:47 175a7162e018   portainer               0.00%     16.78MiB / 15.66GiB   0.10%     10.2kB / 0B   58.3MB / 5.52MB   7
Dec 24 00:08:51 CONTAINER ID   NAME                    CPU %     MEM USAGE / LIMIT     MEM %     NET I/O       BLOCK I/O         PIDS
Dec 24 00:08:51 381479ea9018   base_aic_janusgraph_1   0.28%     723.6MiB / 15.66GiB   4.51%     7.83kB / 0B   0B / 332kB        22
Dec 24 00:08:51 175a7162e018   portainer               0.00%     16.78MiB / 15.66GiB   0.10%     10.2kB / 0B   58.3MB / 5.52MB   7
Dec 24 00:08:55 CONTAINER ID   NAME                    CPU %     MEM USAGE / LIMIT     MEM %     NET I/O       BLOCK I/O         PIDS
Dec 24 00:08:55 381479ea9018   base_aic_janusgraph_1   0.11%     723.6MiB / 15.66GiB   4.51%     7.83kB / 0B   0B / 332kB        22
Dec 24 00:08:55 175a7162e018   portainer               0.11%     16.81MiB / 15.66GiB   0.10%     10.2kB / 0B   58.3MB / 5.52MB   7
Dec 24 00:08:58 CONTAINER ID   NAME                    CPU %     MEM USAGE / LIMIT     MEM %     NET I/O       BLOCK I/O         PIDS
Dec 24 00:08:58 381479ea9018   base_aic_janusgraph_1   0.10%     723.6MiB / 15.66GiB   4.51%     7.9kB / 0B    0B / 332kB        22
Dec 24 00:08:58 175a7162e018   portainer               0.00%     16.81MiB / 15.66GiB   0.10%     10.2kB / 0B   58.3MB / 5.52MB   7
Dec 24 00:09:02 CONTAINER ID   NAME                    CPU %     MEM USAGE / LIMIT     MEM %     NET I/O       BLOCK I/O         PIDS
Dec 24 00:09:02 381479ea9018   base_aic_janusgraph_1   0.19%     723.6MiB / 15.66GiB   4.51%     7.99kB / 0B   0B / 332kB        22
Dec 24 00:09:02 175a7162e018   portainer               0.00%     16.81MiB / 15.66GiB   0.10%     10.2kB / 0B   58.3MB / 5.52MB   7
Dec 24 00:09:05 CONTAINER ID   NAME                    CPU %     MEM USAGE / LIMIT     MEM %     NET I/O       BLOCK I/O         PIDS
Dec 24 00:09:05 381479ea9018   base_aic_janusgraph_1   0.15%     723.6MiB / 15.66GiB   4.51%     8.2kB / 0B    0B / 332kB        22
Dec 24 00:09:05 175a7162e018   portainer               0.00%     16.81MiB / 15.66GiB   0.10%     10.2kB / 0B   58.3MB / 5.52MB   7
Dec 24 00:09:09 CONTAINER ID   NAME                    CPU %     MEM USAGE / LIMIT     MEM %     NET I/O       BLOCK I/O         PIDS
Dec 24 00:09:09 381479ea9018   base_aic_janusgraph_1   0.10%     723.6MiB / 15.66GiB   4.51%     8.2kB / 0B    0B / 332kB        22
Dec 24 00:09:09 175a7162e018   portainer               0.02%     16.81MiB / 15.66GiB   0.10%     10.2kB / 0B   58.3MB / 5.52MB   7
Dec 24 00:09:13 CONTAINER ID   NAME                    CPU %     MEM USAGE / LIMIT     MEM %     NET I/O       BLOCK I/O         PIDS
Dec 24 00:09:13 381479ea9018   base_aic_janusgraph_1   0.11%     723.6MiB / 15.66GiB   4.51%     8.2kB / 0B    0B / 332kB        22
Dec 24 00:09:13 175a7162e018   portainer               0.00%     16.81MiB / 15.66GiB   0.10%     10.2kB / 0B   58.3MB / 5.52MB   7
Dec 24 00:09:16 CONTAINER ID   NAME                    CPU %     MEM USAGE / LIMIT     MEM %     NET I/O       BLOCK I/O         PIDS
Dec 24 00:09:16 381479ea9018   base_aic_janusgraph_1   0.18%     723.6MiB / 15.66GiB   4.51%     8.2kB / 0B    0B / 332kB        22
Dec 24 00:09:16 175a7162e018   portainer               0.00%     16.82MiB / 15.66GiB   0.10%     10.2kB / 0B   58.3MB / 5.52MB   7
Dec 24 00:09:20 CONTAINER ID   NAME                    CPU %     MEM USAGE / LIMIT     MEM %     NET I/O       BLOCK I/O         PIDS
Dec 24 00:09:20 381479ea9018   base_aic_janusgraph_1   0.09%     723.6MiB / 15.66GiB   4.51%     8.2kB / 0B    0B / 332kB        22
Dec 24 00:09:20 175a7162e018   portainer               0.00%     16.82MiB / 15.66GiB   0.10%     10.2kB / 0B   58.3MB / 5.52MB   7
Dec 24 00:09:23 CONTAINER ID   NAME                    CPU %     MEM USAGE / LIMIT     MEM %     NET I/O       BLOCK I/O         PIDS
Dec 24 00:09:23 381479ea9018   base_aic_janusgraph_1   0.10%     723.6MiB / 15.66GiB   4.51%     8.2kB / 0B    0B / 332kB        22
Dec 24 00:09:23 175a7162e018   portainer               0.00%     16.82MiB / 15.66GiB   0.10%     10.2kB / 0B   58.3MB / 5.52MB   7
Dec 24 00:09:27 CONTAINER ID   NAME                    CPU %     MEM USAGE / LIMIT     MEM %     NET I/O       BLOCK I/O         PIDS
Dec 24 00:09:27 381479ea9018   base_aic_janusgraph_1   0.14%     723.6MiB / 15.66GiB   4.51%     8.2kB / 0B    0B / 332kB        22
Dec 24 00:09:27 175a7162e018   portainer               0.00%     16.82MiB / 15.66GiB   0.10%     10.2kB / 0B   58.3MB / 5.52MB   7
Dec 24 00:09:31 CONTAINER ID   NAME                    CPU %     MEM USAGE / LIMIT     MEM %     NET I/O       BLOCK I/O         PIDS
Dec 24 00:09:31 381479ea9018   base_aic_janusgraph_1   0.19%     723.6MiB / 15.66GiB   4.51%     8.2kB / 0B    0B / 332kB        22
Dec 24 00:09:31 175a7162e018   portainer               0.00%     16.82MiB / 15.66GiB   0.10%     10.2kB / 0B   58.3MB / 5.52MB   7
Dec 24 00:09:34 CONTAINER ID   NAME                    CPU %     MEM USAGE / LIMIT     MEM %     NET I/O       BLOCK I/O         PIDS
Dec 24 00:09:34 381479ea9018   base_aic_janusgraph_1   0.11%     723.6MiB / 15.66GiB   4.51%     8.2kB / 0B    0B / 332kB        22
Dec 24 00:09:34 175a7162e018   portainer               0.11%     16.82MiB / 15.66GiB   0.10%     10.2kB / 0B   58.3MB / 5.52MB   7
Dec 24 00:09:38 CONTAINER ID   NAME                    CPU %     MEM USAGE / LIMIT     MEM %     NET I/O       BLOCK I/O         PIDS
Dec 24 00:09:38 381479ea9018   base_aic_janusgraph_1   0.09%     723.6MiB / 15.66GiB   4.51%     8.2kB / 0B    0B / 332kB        22
Dec 24 00:09:38 175a7162e018   portainer               0.00%     16.82MiB / 15.66GiB   0.10%     10.2kB / 0B   58.3MB / 5.52MB   7
Dec 24 00:09:41 CONTAINER ID   NAME                    CPU %     MEM USAGE / LIMIT     MEM %     NET I/O       BLOCK I/O         PIDS
Dec 24 00:09:41 381479ea9018   base_aic_janusgraph_1   0.10%     723.6MiB / 15.66GiB   4.51%     8.2kB / 0B    0B / 332kB        22
Dec 24 00:09:41 175a7162e018   portainer               0.00%     16.82MiB / 15.66GiB   0.10%     10.2kB / 0B   58.3MB / 5.52MB   7
Dec 24 00:09:45 CONTAINER ID   NAME                    CPU %     MEM USAGE / LIMIT     MEM %     NET I/O       BLOCK I/O         PIDS
Dec 24 00:09:45 381479ea9018   base_aic_janusgraph_1   0.11%     723.6MiB / 15.66GiB   4.51%     8.2kB / 0B    0B / 332kB        22
Dec 24 00:09:45 175a7162e018   portainer               0.00%     16.82MiB / 15.66GiB   0.10%     10.2kB / 0B   58.3MB / 5.52MB   7
Dec 24 00:09:49 CONTAINER ID   NAME                    CPU %     MEM USAGE / LIMIT     MEM %     NET I/O       BLOCK I/O         PIDS
Dec 24 00:09:49 381479ea9018   base_aic_janusgraph_1   0.10%     723.6MiB / 15.66GiB   4.51%     8.2kB / 0B    0B / 332kB        22
Dec 24 00:09:49 175a7162e018   portainer               0.00%     16.82MiB / 15.66GiB   0.10%     10.2kB / 0B   58.3MB / 5.52MB   7
Dec 24 00:09:52 CONTAINER ID   NAME                    CPU %     MEM USAGE / LIMIT     MEM %     NET I/O       BLOCK I/O         PIDS
Dec 24 00:09:52 381479ea9018   base_aic_janusgraph_1   0.18%     723.6MiB / 15.66GiB   4.51%     8.2kB / 0B    0B / 332kB        22
Dec 24 00:09:52 175a7162e018   portainer               0.00%     16.82MiB / 15.66GiB   0.10%     10.2kB / 0B   58.3MB / 5.52MB   7
Dec 24 00:09:56 CONTAINER ID   NAME                    CPU %     MEM USAGE / LIMIT     MEM %     NET I/O       BLOCK I/O         PIDS
Dec 24 00:09:56 381479ea9018   base_aic_janusgraph_1   0.18%     723.6MiB / 15.66GiB   4.51%     8.2kB / 0B    0B / 332kB        22
Dec 24 00:09:56 175a7162e018   portainer               0.00%     16.82MiB / 15.66GiB   0.10%     10.2kB / 0B   58.3MB / 5.52MB   7
Dec 24 00:09:59 CONTAINER ID   NAME                    CPU %     MEM USAGE / LIMIT     MEM %     NET I/O       BLOCK I/O         PIDS
Dec 24 00:09:59 381479ea9018   base_aic_janusgraph_1   0.10%     723.6MiB / 15.66GiB   4.51%     8.2kB / 0B    0B / 332kB        22
Dec 24 00:09:59 175a7162e018   portainer               0.02%     16.82MiB / 15.66GiB   0.10%     10.2kB / 0B   58.3MB / 5.52MB   7
Dec 24 00:10:03 CONTAINER ID   NAME                    CPU %     MEM USAGE / LIMIT     MEM %     NET I/O       BLOCK I/O         PIDS
Dec 24 00:10:03 381479ea9018   base_aic_janusgraph_1   0.11%     723.6MiB / 15.66GiB   4.51%     8.2kB / 0B    0B / 332kB        22
Dec 24 00:10:03 175a7162e018   portainer               0.00%     16.82MiB / 15.66GiB   0.10%     10.2kB / 0B   58.3MB / 5.52MB   7
Dec 24 00:10:06 CONTAINER ID   NAME                    CPU %     MEM USAGE / LIMIT     MEM %     NET I/O       BLOCK I/O         PIDS
Dec 24 00:10:06 381479ea9018   base_aic_janusgraph_1   0.17%     723.8MiB / 15.66GiB   4.51%     8.2kB / 0B    0B / 332kB        22
Dec 24 00:10:06 175a7162e018   portainer               0.00%     16.82MiB / 15.66GiB   0.10%     10.2kB / 0B   58.3MB / 5.52MB   7
Dec 24 00:10:10 CONTAINER ID   NAME                    CPU %     MEM USAGE / LIMIT     MEM %     NET I/O       BLOCK I/O         PIDS
Dec 24 00:10:10 381479ea9018   base_aic_janusgraph_1   0.29%     714.9MiB / 15.66GiB   4.46%     8.2kB / 0B    0B / 332kB        22
Dec 24 00:10:10 175a7162e018   portainer               0.00%     16.82MiB / 15.66GiB   0.10%     10.2kB / 0B   58.3MB / 5.52MB   7
Dec 24 00:10:13 CONTAINER ID   NAME                    CPU %     MEM USAGE / LIMIT     MEM %     NET I/O       BLOCK I/O         PIDS
Dec 24 00:10:13 381479ea9018   base_aic_janusgraph_1   0.10%     714.9MiB / 15.66GiB   4.46%     8.2kB / 0B    0B / 332kB        22
Dec 24 00:10:13 175a7162e018   portainer               0.02%     16.82MiB / 15.66GiB   0.10%     10.2kB / 0B   58.3MB / 5.52MB   7
Dec 24 00:10:16 CONTAINER ID   NAME                    CPU %     MEM USAGE / LIMIT     MEM %     NET I/O       BLOCK I/O         PIDS
Dec 24 00:10:16 381479ea9018   base_aic_janusgraph_1   0.39%     714.9MiB / 15.66GiB   4.46%     8.2kB / 0B    0B / 332kB        22
Dec 24 00:10:16 175a7162e018   portainer               0.00%     16.82MiB / 15.66GiB   0.10%     10.2kB / 0B   58.3MB / 5.52MB   7
Dec 24 00:10:20 CONTAINER ID   NAME                    CPU %     MEM USAGE / LIMIT     MEM %     NET I/O       BLOCK I/O         PIDS
Dec 24 00:10:20 381479ea9018   base_aic_janusgraph_1   0.11%     714.9MiB / 15.66GiB   4.46%     8.2kB / 0B    0B / 332kB        22
Dec 24 00:10:20 175a7162e018   portainer               0.00%     16.82MiB / 15.66GiB   0.10%     10.2kB / 0B   58.3MB / 5.52MB   7
Dec 24 00:10:23 CONTAINER ID   NAME                    CPU %     MEM USAGE / LIMIT     MEM %     NET I/O       BLOCK I/O         PIDS
Dec 24 00:10:23 381479ea9018   base_aic_janusgraph_1   0.10%     714.9MiB / 15.66GiB   4.46%     8.2kB / 0B    0B / 332kB        22
Dec 24 00:10:23 175a7162e018   portainer               0.13%     16.83MiB / 15.66GiB   0.10%     10.2kB / 0B   58.3MB / 5.52MB   7
Dec 24 00:10:27 CONTAINER ID   NAME                    CPU %     MEM USAGE / LIMIT     MEM %     NET I/O       BLOCK I/O         PIDS
Dec 24 00:10:27 381479ea9018   base_aic_janusgraph_1   0.28%     714.9MiB / 15.66GiB   4.46%     8.2kB / 0B    0B / 332kB        22
Dec 24 00:10:27 175a7162e018   portainer               0.00%     16.83MiB / 15.66GiB   0.10%     10.2kB / 0B   58.3MB / 5.52MB   7
Dec 24 00:10:31 CONTAINER ID   NAME                    CPU %     MEM USAGE / LIMIT     MEM %     NET I/O       BLOCK I/O         PIDS
Dec 24 00:10:31 381479ea9018   base_aic_janusgraph_1   0.37%     714.9MiB / 15.66GiB   4.46%     8.2kB / 0B    0B / 332kB        22
Dec 24 00:10:31 175a7162e018   portainer               0.00%     16.83MiB / 15.66GiB   0.10%     10.2kB / 0B   58.3MB / 5.52MB   7
Dec 24 00:10:34 CONTAINER ID   NAME                    CPU %     MEM USAGE / LIMIT     MEM %     NET I/O       BLOCK I/O         PIDS
Dec 24 00:10:34 381479ea9018   base_aic_janusgraph_1   0.10%     714.9MiB / 15.66GiB   4.46%     8.2kB / 0B    0B / 332kB        22
Dec 24 00:10:34 175a7162e018   portainer               0.11%     16.84MiB / 15.66GiB   0.10%     10.2kB / 0B   58.3MB / 5.52MB   7
Dec 24 00:10:38 CONTAINER ID   NAME                    CPU %     MEM USAGE / LIMIT     MEM %     NET I/O       BLOCK I/O         PIDS
Dec 24 00:10:38 381479ea9018   base_aic_janusgraph_1   0.11%     714.9MiB / 15.66GiB   4.46%     8.2kB / 0B    0B / 332kB        22
Dec 24 00:10:38 175a7162e018   portainer               0.02%     16.84MiB / 15.66GiB   0.10%     10.2kB / 0B   58.3MB / 5.52MB   7
Dec 24 00:10:41 CONTAINER ID   NAME                    CPU %     MEM USAGE / LIMIT     MEM %     NET I/O       BLOCK I/O         PIDS
Dec 24 00:10:41 381479ea9018   base_aic_janusgraph_1   0.10%     714.9MiB / 15.66GiB   4.46%     8.2kB / 0B    0B / 332kB        22
Dec 24 00:10:41 175a7162e018   portainer               0.00%     16.84MiB / 15.66GiB   0.10%     10.2kB / 0B   58.3MB / 5.52MB   7
Dec 24 00:10:45 CONTAINER ID   NAME                    CPU %     MEM USAGE / LIMIT     MEM %     NET I/O       BLOCK I/O         PIDS
Dec 24 00:10:45 381479ea9018   base_aic_janusgraph_1   0.11%     714.9MiB / 15.66GiB   4.46%     8.2kB / 0B    0B / 332kB        22
Dec 24 00:10:45 175a7162e018   portainer               0.00%     16.84MiB / 15.66GiB   0.10%     10.2kB / 0B   58.3MB / 5.52MB   7
Dec 24 00:10:49 CONTAINER ID   NAME                    CPU %     MEM USAGE / LIMIT     MEM %     NET I/O       BLOCK I/O         PIDS
Dec 24 00:10:49 381479ea9018   base_aic_janusgraph_1   0.10%     714.9MiB / 15.66GiB   4.46%     8.2kB / 0B    0B / 332kB        22
Dec 24 00:10:49 175a7162e018   portainer               0.00%     16.84MiB / 15.66GiB   0.10%     10.2kB / 0B   58.3MB / 5.52MB   7
Dec 24 00:10:52 CONTAINER ID   NAME                    CPU %     MEM USAGE / LIMIT     MEM %     NET I/O       BLOCK I/O         PIDS
Dec 24 00:10:52 381479ea9018   base_aic_janusgraph_1   0.10%     714.9MiB / 15.66GiB   4.46%     8.2kB / 0B    0B / 332kB        22
Dec 24 00:10:52 175a7162e018   portainer               0.00%     16.84MiB / 15.66GiB   0.10%     10.2kB / 0B   58.3MB / 5.52MB   7
Dec 24 00:10:56 CONTAINER ID   NAME                    CPU %     MEM USAGE / LIMIT     MEM %     NET I/O       BLOCK I/O         PIDS
Dec 24 00:10:56 381479ea9018   base_aic_janusgraph_1   0.17%     714.9MiB / 15.66GiB   4.46%     8.2kB / 0B    0B / 332kB        22
Dec 24 00:10:56 175a7162e018   portainer               0.00%     16.84MiB / 15.66GiB   0.10%     10.2kB / 0B   58.3MB / 5.52MB   7
Dec 24 00:10:59 CONTAINER ID   NAME                    CPU %     MEM USAGE / LIMIT     MEM %     NET I/O       BLOCK I/O         PIDS
Dec 24 00:10:59 381479ea9018   base_aic_janusgraph_1   0.10%     714.9MiB / 15.66GiB   4.46%     8.2kB / 0B    0B / 332kB        22
Dec 24 00:10:59 175a7162e018   portainer               1.88%     16.34MiB / 15.66GiB   0.10%     10.2kB / 0B   58.3MB / 5.52MB   7
Dec 24 00:11:03 CONTAINER ID   NAME                    CPU %     MEM USAGE / LIMIT     MEM %     NET I/O       BLOCK I/O         PIDS
Dec 24 00:11:03 381479ea9018   base_aic_janusgraph_1   0.10%     714.9MiB / 15.66GiB   4.46%     8.27kB / 0B   0B / 332kB        22
Dec 24 00:11:03 175a7162e018   portainer               0.00%     16.34MiB / 15.66GiB   0.10%     10.2kB / 0B   58.3MB / 5.52MB   7
Dec 24 00:11:07 CONTAINER ID   NAME                    CPU %     MEM USAGE / LIMIT     MEM %     NET I/O       BLOCK I/O         PIDS
Dec 24 00:11:07 381479ea9018   base_aic_janusgraph_1   0.11%     714.9MiB / 15.66GiB   4.46%     8.27kB / 0B   0B / 332kB        22
Dec 24 00:11:07 175a7162e018   portainer               0.00%     16.34MiB / 15.66GiB   0.10%     10.2kB / 0B   58.3MB / 5.52MB   7
Dec 24 00:11:10 CONTAINER ID   NAME                    CPU %     MEM USAGE / LIMIT     MEM %     NET I/O       BLOCK I/O         PIDS
Dec 24 00:11:10 381479ea9018   base_aic_janusgraph_1   0.10%     714.9MiB / 15.66GiB   4.46%     8.36kB / 0B   0B / 332kB        22
Dec 24 00:11:10 175a7162e018   portainer               0.00%     16.34MiB / 15.66GiB   0.10%     10.2kB / 0B   58.3MB / 5.52MB   7
Dec 24 00:11:14 CONTAINER ID   NAME                    CPU %     MEM USAGE / LIMIT     MEM %     NET I/O       BLOCK I/O         PIDS
Dec 24 00:11:14 381479ea9018   base_aic_janusgraph_1   0.11%     714.9MiB / 15.66GiB   4.46%     8.57kB / 0B   0B / 332kB        22
Dec 24 00:11:14 175a7162e018   portainer               0.08%     16.34MiB / 15.66GiB   0.10%     10.2kB / 0B   58.3MB / 5.52MB   7
Dec 24 00:11:17 CONTAINER ID   NAME                    CPU %     MEM USAGE / LIMIT     MEM %     NET I/O       BLOCK I/O         PIDS
Dec 24 00:11:17 381479ea9018   base_aic_janusgraph_1   0.10%     714.9MiB / 15.66GiB   4.46%     8.57kB / 0B   0B / 332kB        22
Dec 24 00:11:17 175a7162e018   portainer               0.00%     16.34MiB / 15.66GiB   0.10%     10.2kB / 0B   58.3MB / 5.52MB   7
Dec 24 00:11:21 CONTAINER ID   NAME                    CPU %     MEM USAGE / LIMIT     MEM %     NET I/O       BLOCK I/O         PIDS
Dec 24 00:11:21 381479ea9018   base_aic_janusgraph_1   0.13%     714.9MiB / 15.66GiB   4.46%     8.57kB / 0B   0B / 332kB        22
Dec 24 00:11:21 175a7162e018   portainer               0.00%     16.34MiB / 15.66GiB   0.10%     10.2kB / 0B   58.3MB / 5.52MB   7
Dec 24 00:11:25 CONTAINER ID   NAME                    CPU %     MEM USAGE / LIMIT     MEM %     NET I/O       BLOCK I/O         PIDS
Dec 24 00:11:25 381479ea9018   base_aic_janusgraph_1   0.10%     714.9MiB / 15.66GiB   4.46%     8.57kB / 0B   0B / 332kB        22
Dec 24 00:11:25 175a7162e018   portainer               0.09%     16.34MiB / 15.66GiB   0.10%     10.2kB / 0B   58.3MB / 5.52MB   7
Dec 24 00:11:28 CONTAINER ID   NAME                    CPU %     MEM USAGE / LIMIT     MEM %     NET I/O       BLOCK I/O         PIDS
Dec 24 00:11:28 381479ea9018   base_aic_janusgraph_1   0.11%     714.9MiB / 15.66GiB   4.46%     8.57kB / 0B   0B / 332kB        22
Dec 24 00:11:28 175a7162e018   portainer               0.00%     16.34MiB / 15.66GiB   0.10%     10.2kB / 0B   58.3MB / 5.52MB   7
Dec 24 00:11:32 CONTAINER ID   NAME                    CPU %     MEM USAGE / LIMIT     MEM %     NET I/O       BLOCK I/O         PIDS
Dec 24 00:11:32 381479ea9018   base_aic_janusgraph_1   0.10%     714.9MiB / 15.66GiB   4.46%     8.57kB / 0B   0B / 332kB        22
Dec 24 00:11:32 175a7162e018   portainer               0.00%     16.34MiB / 15.66GiB   0.10%     10.2kB / 0B   58.3MB / 5.52MB   7
Dec 24 00:11:35 CONTAINER ID   NAME                    CPU %     MEM USAGE / LIMIT     MEM %     NET I/O       BLOCK I/O         PIDS
Dec 24 00:11:35 381479ea9018   base_aic_janusgraph_1   0.19%     714.9MiB / 15.66GiB   4.46%     8.57kB / 0B   0B / 332kB        22
Dec 24 00:11:35 175a7162e018   portainer               0.00%     16.35MiB / 15.66GiB   0.10%     10.2kB / 0B   58.3MB / 5.52MB   7
Dec 24 00:11:39 CONTAINER ID   NAME                    CPU %     MEM USAGE / LIMIT     MEM %     NET I/O       BLOCK I/O         PIDS
Dec 24 00:11:39 381479ea9018   base_aic_janusgraph_1   0.10%     714.9MiB / 15.66GiB   4.46%     8.57kB / 0B   0B / 332kB        22
Dec 24 00:11:39 175a7162e018   portainer               0.02%     16.35MiB / 15.66GiB   0.10%     10.2kB / 0B   58.3MB / 5.52MB   7
Dec 24 00:11:42 CONTAINER ID   NAME                    CPU %     MEM USAGE / LIMIT     MEM %     NET I/O       BLOCK I/O         PIDS
Dec 24 00:11:42 381479ea9018   base_aic_janusgraph_1   0.09%     714.9MiB / 15.66GiB   4.46%     8.57kB / 0B   0B / 332kB        22
Dec 24 00:11:42 175a7162e018   portainer               0.00%     16.35MiB / 15.66GiB   0.10%     10.2kB / 0B   58.3MB / 5.52MB   7
Dec 24 00:11:46 CONTAINER ID   NAME                    CPU %     MEM USAGE / LIMIT     MEM %     NET I/O       BLOCK I/O         PIDS
Dec 24 00:11:46 381479ea9018   base_aic_janusgraph_1   0.11%     714.9MiB / 15.66GiB   4.46%     8.57kB / 0B   0B / 332kB        22
Dec 24 00:11:46 175a7162e018   portainer               0.00%     16.36MiB / 15.66GiB   0.10%     10.2kB / 0B   58.3MB / 5.52MB   7
Dec 24 00:11:50 CONTAINER ID   NAME                    CPU %     MEM USAGE / LIMIT     MEM %     NET I/O       BLOCK I/O         PIDS
Dec 24 00:11:50 381479ea9018   base_aic_janusgraph_1   0.11%     714.9MiB / 15.66GiB   4.46%     8.57kB / 0B   0B / 332kB        22
Dec 24 00:11:50 175a7162e018   portainer               0.00%     16.36MiB / 15.66GiB   0.10%     10.2kB / 0B   58.3MB / 5.52MB   7
Dec 24 00:11:53 CONTAINER ID   NAME                    CPU %     MEM USAGE / LIMIT     MEM %     NET I/O       BLOCK I/O         PIDS
Dec 24 00:11:53 381479ea9018   base_aic_janusgraph_1   0.09%     714.9MiB / 15.66GiB   4.46%     8.57kB / 0B   0B / 332kB        22
Dec 24 00:11:53 175a7162e018   portainer               0.00%     16.36MiB / 15.66GiB   0.10%     10.2kB / 0B   58.3MB / 5.52MB   7
Dec 24 00:11:57 CONTAINER ID   NAME                    CPU %     MEM USAGE / LIMIT     MEM %     NET I/O       BLOCK I/O         PIDS
Dec 24 00:11:57 381479ea9018   base_aic_janusgraph_1   0.10%     714.9MiB / 15.66GiB   4.46%     8.57kB / 0B   0B / 332kB        22
Dec 24 00:11:57 175a7162e018   portainer               0.00%     16.36MiB / 15.66GiB   0.10%     10.2kB / 0B   58.3MB / 5.52MB   7
Dec 24 00:12:00 CONTAINER ID   NAME                    CPU %     MEM USAGE / LIMIT     MEM %     NET I/O       BLOCK I/O         PIDS
Dec 24 00:12:00 381479ea9018   base_aic_janusgraph_1   0.28%     715MiB / 15.66GiB     4.46%     8.57kB / 0B   0B / 332kB        22
Dec 24 00:12:00 175a7162e018   portainer               0.00%     16.36MiB / 15.66GiB   0.10%     10.2kB / 0B   58.3MB / 5.52MB   7
Dec 24 00:12:04 CONTAINER ID   NAME                    CPU %     MEM USAGE / LIMIT     MEM %     NET I/O       BLOCK I/O         PIDS
Dec 24 00:12:04 381479ea9018   base_aic_janusgraph_1   0.10%     714.9MiB / 15.66GiB   4.46%     8.57kB / 0B   0B / 332kB        22
Dec 24 00:12:04 175a7162e018   portainer               0.12%     16.36MiB / 15.66GiB   0.10%     10.2kB / 0B   58.3MB / 5.52MB   7
Dec 24 00:12:08 CONTAINER ID   NAME                    CPU %     MEM USAGE / LIMIT     MEM %     NET I/O       BLOCK I/O         PIDS
Dec 24 00:12:08 381479ea9018   base_aic_janusgraph_1   0.10%     714.9MiB / 15.66GiB   4.46%     8.57kB / 0B   0B / 332kB        22
Dec 24 00:12:08 175a7162e018   portainer               0.03%     16.36MiB / 15.66GiB   0.10%     10.2kB / 0B   58.3MB / 5.52MB   7
Dec 24 00:12:11 CONTAINER ID   NAME                    CPU %     MEM USAGE / LIMIT     MEM %     NET I/O       BLOCK I/O         PIDS
Dec 24 00:12:11 381479ea9018   base_aic_janusgraph_1   0.10%     714.9MiB / 15.66GiB   4.46%     8.57kB / 0B   0B / 332kB        22
Dec 24 00:12:11 175a7162e018   portainer               0.00%     16.36MiB / 15.66GiB   0.10%     10.2kB / 0B   58.3MB / 5.52MB   7
Dec 24 00:12:14 CONTAINER ID   NAME                    CPU %     MEM USAGE / LIMIT     MEM %     NET I/O       BLOCK I/O         PIDS
Dec 24 00:12:14 381479ea9018   base_aic_janusgraph_1   0.09%     714.9MiB / 15.66GiB   4.46%     8.57kB / 0B   0B / 332kB        22
Dec 24 00:12:14 175a7162e018   portainer               0.00%     16.37MiB / 15.66GiB   0.10%     10.2kB / 0B   58.3MB / 5.52MB   7
Dec 24 00:12:17 CONTAINER ID   NAME                    CPU %     MEM USAGE / LIMIT     MEM %     NET I/O       BLOCK I/O         PIDS
Dec 24 00:12:17 381479ea9018   base_aic_janusgraph_1   0.11%     714.9MiB / 15.66GiB   4.46%     8.57kB / 0B   0B / 332kB        22
Dec 24 00:12:17 175a7162e018   portainer               0.00%     16.37MiB / 15.66GiB   0.10%     10.2kB / 0B   58.3MB / 5.52MB   7
Dec 24 00:12:21 CONTAINER ID   NAME                    CPU %     MEM USAGE / LIMIT     MEM %     NET I/O       BLOCK I/O         PIDS
Dec 24 00:12:21 381479ea9018   base_aic_janusgraph_1   0.28%     714.9MiB / 15.66GiB   4.46%     8.57kB / 0B   0B / 332kB        22
Dec 24 00:12:21 175a7162e018   portainer               0.00%     16.37MiB / 15.66GiB   0.10%     10.2kB / 0B   58.3MB / 5.52MB   7
Dec 24 00:12:25 CONTAINER ID   NAME                    CPU %     MEM USAGE / LIMIT     MEM %     NET I/O       BLOCK I/O         PIDS
Dec 24 00:12:25 381479ea9018   base_aic_janusgraph_1   0.11%     714.9MiB / 15.66GiB   4.46%     8.57kB / 0B   0B / 332kB        22
Dec 24 00:12:25 175a7162e018   portainer               0.07%     16.37MiB / 15.66GiB   0.10%     10.2kB / 0B   58.3MB / 5.52MB   7
Dec 24 00:12:28 CONTAINER ID   NAME                    CPU %     MEM USAGE / LIMIT     MEM %     NET I/O       BLOCK I/O         PIDS
Dec 24 00:12:28 381479ea9018   base_aic_janusgraph_1   0.10%     714.9MiB / 15.66GiB   4.46%     8.57kB / 0B   0B / 332kB        22
Dec 24 00:12:28 175a7162e018   portainer               0.02%     16.37MiB / 15.66GiB   0.10%     10.2kB / 0B   58.3MB / 5.52MB   7
Dec 24 00:12:32 CONTAINER ID   NAME                    CPU %     MEM USAGE / LIMIT     MEM %     NET I/O       BLOCK I/O         PIDS
Dec 24 00:12:32 381479ea9018   base_aic_janusgraph_1   0.11%     714.9MiB / 15.66GiB   4.46%     8.57kB / 0B   0B / 332kB        22
Dec 24 00:12:32 175a7162e018   portainer               0.00%     16.37MiB / 15.66GiB   0.10%     10.2kB / 0B   58.3MB / 5.52MB   7
Dec 24 00:12:35 CONTAINER ID   NAME                    CPU %     MEM USAGE / LIMIT     MEM %     NET I/O       BLOCK I/O         PIDS
Dec 24 00:12:35 381479ea9018   base_aic_janusgraph_1   0.09%     714.9MiB / 15.66GiB   4.46%     8.57kB / 0B   0B / 332kB        22
Dec 24 00:12:35 175a7162e018   portainer               0.00%     16.37MiB / 15.66GiB   0.10%     10.2kB / 0B   58.3MB / 5.52MB   7
Dec 24 00:12:39 CONTAINER ID   NAME                    CPU %     MEM USAGE / LIMIT     MEM %     NET I/O       BLOCK I/O         PIDS
Dec 24 00:12:39 381479ea9018   base_aic_janusgraph_1   0.11%     714.9MiB / 15.66GiB   4.46%     8.57kB / 0B   0B / 332kB        22
Dec 24 00:12:39 175a7162e018   portainer               0.02%     16.37MiB / 15.66GiB   0.10%     10.2kB / 0B   58.3MB / 5.52MB   7
Dec 24 00:12:43 CONTAINER ID   NAME                    CPU %     MEM USAGE / LIMIT     MEM %     NET I/O       BLOCK I/O         PIDS
Dec 24 00:12:43 381479ea9018   base_aic_janusgraph_1   0.09%     714.9MiB / 15.66GiB   4.46%     8.57kB / 0B   0B / 332kB        22
Dec 24 00:12:43 175a7162e018   portainer               0.00%     16.37MiB / 15.66GiB   0.10%     10.2kB / 0B   58.3MB / 5.52MB   7
Dec 24 00:12:46 CONTAINER ID   NAME                    CPU %     MEM USAGE / LIMIT     MEM %     NET I/O       BLOCK I/O         PIDS
Dec 24 00:12:46 381479ea9018   base_aic_janusgraph_1   0.19%     714.9MiB / 15.66GiB   4.46%     8.57kB / 0B   0B / 332kB        22
Dec 24 00:12:46 175a7162e018   portainer               0.00%     16.37MiB / 15.66GiB   0.10%     10.2kB / 0B   58.3MB / 5.52MB   7
Dec 24 00:12:50 CONTAINER ID   NAME                    CPU %     MEM USAGE / LIMIT     MEM %     NET I/O       BLOCK I/O         PIDS
Dec 24 00:12:50 381479ea9018   base_aic_janusgraph_1   0.10%     714.9MiB / 15.66GiB   4.46%     8.57kB / 0B   0B / 332kB        22
Dec 24 00:12:50 175a7162e018   portainer               0.00%     16.37MiB / 15.66GiB   0.10%     10.2kB / 0B   58.3MB / 5.52MB   7
Dec 24 00:12:53 CONTAINER ID   NAME                    CPU %     MEM USAGE / LIMIT     MEM %     NET I/O       BLOCK I/O         PIDS
Dec 24 00:12:53 381479ea9018   base_aic_janusgraph_1   0.09%     714.9MiB / 15.66GiB   4.46%     8.57kB / 0B   0B / 332kB        22
Dec 24 00:12:53 175a7162e018   portainer               0.00%     16.37MiB / 15.66GiB   0.10%     10.2kB / 0B   58.3MB / 5.52MB   7
Dec 24 00:12:57 CONTAINER ID   NAME                    CPU %     MEM USAGE / LIMIT     MEM %     NET I/O       BLOCK I/O         PIDS
Dec 24 00:12:57 381479ea9018   base_aic_janusgraph_1   0.10%     714.9MiB / 15.66GiB   4.46%     8.57kB / 0B   0B / 332kB        22
Dec 24 00:12:57 175a7162e018   portainer               0.00%     16.37MiB / 15.66GiB   0.10%     10.2kB / 0B   58.3MB / 5.52MB   7
Dec 24 00:13:01 CONTAINER ID   NAME                    CPU %     MEM USAGE / LIMIT     MEM %     NET I/O       BLOCK I/O         PIDS
Dec 24 00:13:01 381479ea9018   base_aic_janusgraph_1   0.11%     714.9MiB / 15.66GiB   4.46%     8.57kB / 0B   0B / 332kB        22
Dec 24 00:13:01 175a7162e018   portainer               0.00%     16.37MiB / 15.66GiB   0.10%     10.2kB / 0B   58.3MB / 5.52MB   7
Dec 24 00:13:04 CONTAINER ID   NAME                    CPU %     MEM USAGE / LIMIT     MEM %     NET I/O       BLOCK I/O         PIDS
Dec 24 00:13:04 381479ea9018   base_aic_janusgraph_1   0.10%     714.9MiB / 15.66GiB   4.46%     8.57kB / 0B   0B / 332kB        22
Dec 24 00:13:04 175a7162e018   portainer               0.11%     16.37MiB / 15.66GiB   0.10%     10.2kB / 0B   58.3MB / 5.52MB   7
Dec 24 00:13:08 CONTAINER ID   NAME                    CPU %     MEM USAGE / LIMIT     MEM %     NET I/O       BLOCK I/O         PIDS
Dec 24 00:13:08 381479ea9018   base_aic_janusgraph_1   0.10%     715MiB / 15.66GiB     4.46%     8.57kB / 0B   0B / 332kB        22
Dec 24 00:13:08 175a7162e018   portainer               0.02%     16.37MiB / 15.66GiB   0.10%     10.2kB / 0B   58.3MB / 5.52MB   7
Dec 24 00:13:11 CONTAINER ID   NAME                    CPU %     MEM USAGE / LIMIT     MEM %     NET I/O       BLOCK I/O         PIDS
Dec 24 00:13:11 381479ea9018   base_aic_janusgraph_1   0.11%     715MiB / 15.66GiB     4.46%     8.57kB / 0B   0B / 332kB        22
Dec 24 00:13:11 175a7162e018   portainer               0.00%     16.37MiB / 15.66GiB   0.10%     10.2kB / 0B   58.3MB / 5.52MB   7
Dec 24 00:13:15 CONTAINER ID   NAME                    CPU %     MEM USAGE / LIMIT     MEM %     NET I/O       BLOCK I/O         PIDS
Dec 24 00:13:15 381479ea9018   base_aic_janusgraph_1   0.12%     715MiB / 15.66GiB     4.46%     8.57kB / 0B   0B / 332kB        22
Dec 24 00:13:15 175a7162e018   portainer               0.00%     16.37MiB / 15.66GiB   0.10%     10.2kB / 0B   58.3MB / 5.52MB   7
Dec 24 00:13:19 CONTAINER ID   NAME                    CPU %     MEM USAGE / LIMIT     MEM %     NET I/O       BLOCK I/O         PIDS
Dec 24 00:13:19 381479ea9018   base_aic_janusgraph_1   0.10%     715MiB / 15.66GiB     4.46%     8.57kB / 0B   0B / 332kB        22
Dec 24 00:13:19 175a7162e018   portainer               0.02%     16.37MiB / 15.66GiB   0.10%     10.2kB / 0B   58.3MB / 5.52MB   7
Dec 24 00:13:22 CONTAINER ID   NAME                    CPU %     MEM USAGE / LIMIT     MEM %     NET I/O       BLOCK I/O         PIDS
Dec 24 00:13:22 381479ea9018   base_aic_janusgraph_1   0.11%     715MiB / 15.66GiB     4.46%     8.57kB / 0B   0B / 332kB        22
Dec 24 00:13:22 175a7162e018   portainer               0.00%     16.37MiB / 15.66GiB   0.10%     10.2kB / 0B   58.3MB / 5.52MB   7
Dec 24 00:13:26 CONTAINER ID   NAME                    CPU %     MEM USAGE / LIMIT     MEM %     NET I/O       BLOCK I/O         PIDS
Dec 24 00:13:26 381479ea9018   base_aic_janusgraph_1   0.34%     715MiB / 15.66GiB     4.46%     8.57kB / 0B   0B / 332kB        22
Dec 24 00:13:26 175a7162e018   portainer               0.00%     16.37MiB / 15.66GiB   0.10%     10.2kB / 0B   58.3MB / 5.52MB   7
Dec 24 00:13:29 CONTAINER ID   NAME                    CPU %     MEM USAGE / LIMIT     MEM %     NET I/O       BLOCK I/O         PIDS
Dec 24 00:13:29 381479ea9018   base_aic_janusgraph_1   0.11%     715MiB / 15.66GiB     4.46%     8.57kB / 0B   0B / 332kB        22
Dec 24 00:13:29 175a7162e018   portainer               0.02%     16.37MiB / 15.66GiB   0.10%     10.2kB / 0B   58.3MB / 5.52MB   7
Dec 24 00:13:33 CONTAINER ID   NAME                    CPU %     MEM USAGE / LIMIT     MEM %     NET I/O       BLOCK I/O         PIDS
Dec 24 00:13:33 381479ea9018   base_aic_janusgraph_1   0.10%     715MiB / 15.66GiB     4.46%     8.57kB / 0B   0B / 332kB        22
Dec 24 00:13:33 175a7162e018   portainer               0.00%     16.37MiB / 15.66GiB   0.10%     10.2kB / 0B   58.3MB / 5.52MB   7
Dec 24 00:13:37 CONTAINER ID   NAME                    CPU %     MEM USAGE / LIMIT     MEM %     NET I/O       BLOCK I/O         PIDS
Dec 24 00:13:37 381479ea9018   base_aic_janusgraph_1   0.10%     715MiB / 15.66GiB     4.46%     8.57kB / 0B   0B / 332kB        22
Dec 24 00:13:37 175a7162e018   portainer               0.00%     16.78MiB / 15.66GiB   0.10%     10.2kB / 0B   58.3MB / 5.67MB   7
Dec 24 00:13:40 CONTAINER ID   NAME                    CPU %     MEM USAGE / LIMIT     MEM %     NET I/O       BLOCK I/O         PIDS
Dec 24 00:13:40 381479ea9018   base_aic_janusgraph_1   0.10%     715MiB / 15.66GiB     4.46%     8.57kB / 0B   0B / 332kB        22
Dec 24 00:13:40 175a7162e018   portainer               0.00%     16.78MiB / 15.66GiB   0.10%     10.2kB / 0B   58.3MB / 5.67MB   7
Dec 24 00:13:44 CONTAINER ID   NAME                    CPU %     MEM USAGE / LIMIT     MEM %     NET I/O       BLOCK I/O         PIDS
Dec 24 00:13:44 381479ea9018   base_aic_janusgraph_1   0.11%     715MiB / 15.66GiB     4.46%     8.57kB / 0B   0B / 332kB        22
Dec 24 00:13:44 175a7162e018   portainer               0.10%     16.79MiB / 15.66GiB   0.10%     10.2kB / 0B   58.3MB / 5.67MB   7
Dec 24 00:13:47 CONTAINER ID   NAME                    CPU %     MEM USAGE / LIMIT     MEM %     NET I/O       BLOCK I/O         PIDS
Dec 24 00:13:47 381479ea9018   base_aic_janusgraph_1   0.11%     715MiB / 15.66GiB     4.46%     8.57kB / 0B   0B / 332kB        22
Dec 24 00:13:47 175a7162e018   portainer               0.00%     16.79MiB / 15.66GiB   0.10%     10.2kB / 0B   58.3MB / 5.67MB   7
Dec 24 00:13:51 CONTAINER ID   NAME                    CPU %     MEM USAGE / LIMIT     MEM %     NET I/O       BLOCK I/O         PIDS
Dec 24 00:13:51 381479ea9018   base_aic_janusgraph_1   0.11%     715MiB / 15.66GiB     4.46%     8.57kB / 0B   0B / 332kB        22
Dec 24 00:13:51 175a7162e018   portainer               0.00%     16.79MiB / 15.66GiB   0.10%     10.2kB / 0B   58.3MB / 5.67MB   7
Dec 24 00:13:54 CONTAINER ID   NAME                    CPU %     MEM USAGE / LIMIT     MEM %     NET I/O       BLOCK I/O         PIDS
Dec 24 00:13:54 381479ea9018   base_aic_janusgraph_1   0.10%     715MiB / 15.66GiB     4.46%     8.57kB / 0B   0B / 332kB        22
Dec 24 00:13:54 175a7162e018   portainer               0.11%     16.79MiB / 15.66GiB   0.10%     10.2kB / 0B   58.3MB / 5.67MB   7
