Feb 11 18:39:40 CONTAINER ID   NAME      CPU %     MEM USAGE / LIMIT   MEM %     NET I/O   BLOCK I/O   PIDS
Feb 11 18:39:43 CONTAINER ID   NAME                          CPU %     MEM USAGE / LIMIT     MEM %     NET I/O        BLOCK I/O     PIDS
Feb 11 18:39:43 5d09a107cad5   janus-inmemory_repoSystem_1   186.18%   75.89MiB / 15.07GiB   0.49%     7.58kB / 96B   0B / 0B       30
Feb 11 18:39:43 b10d5a4fc1e6   janus-inmemory_janusgraph_1   159.11%   79.12MiB / 15.07GiB   0.51%     4.32kB / 0B    0B / 20.5kB   18
Feb 11 18:39:47 CONTAINER ID   NAME                          CPU %     MEM USAGE / LIMIT     MEM %     NET I/O         BLOCK I/O     PIDS
Feb 11 18:39:47 5d09a107cad5   janus-inmemory_repoSystem_1   183.60%   154.8MiB / 15.07GiB   1.00%     11.5kB / 138B   0B / 1.76MB   37
Feb 11 18:39:47 b10d5a4fc1e6   janus-inmemory_janusgraph_1   214.70%   611.6MiB / 15.07GiB   3.96%     10.4kB / 0B     0B / 77.8kB   21
Feb 11 18:39:51 CONTAINER ID   NAME                          CPU %     MEM USAGE / LIMIT     MEM %     NET I/O         BLOCK I/O     PIDS
Feb 11 18:39:51 5d09a107cad5   janus-inmemory_repoSystem_1   0.18%     158.7MiB / 15.07GiB   1.03%     12.4kB / 138B   0B / 1.76MB   38
Feb 11 18:39:51 b10d5a4fc1e6   janus-inmemory_janusgraph_1   322.81%   695.4MiB / 15.07GiB   4.51%     12.1kB / 0B     0B / 77.8kB   22
Feb 11 18:39:54 CONTAINER ID   NAME                          CPU %     MEM USAGE / LIMIT     MEM %     NET I/O         BLOCK I/O     PIDS
Feb 11 18:39:54 5d09a107cad5   janus-inmemory_repoSystem_1   0.38%     154.6MiB / 15.07GiB   1.00%     12.4kB / 138B   0B / 1.76MB   33
Feb 11 18:39:54 b10d5a4fc1e6   janus-inmemory_janusgraph_1   4.71%     775.6MiB / 15.07GiB   5.03%     12.3kB / 0B     0B / 77.8kB   23
Feb 11 18:39:58 CONTAINER ID   NAME                          CPU %     MEM USAGE / LIMIT     MEM %     NET I/O         BLOCK I/O     PIDS
Feb 11 18:39:58 5d09a107cad5   janus-inmemory_repoSystem_1   0.17%     154.5MiB / 15.07GiB   1.00%     13.2kB / 138B   0B / 1.76MB   33
Feb 11 18:39:58 b10d5a4fc1e6   janus-inmemory_janusgraph_1   218.38%   297.5MiB / 15.07GiB   1.93%     12.8kB / 0B     0B / 111kB    21
Feb 11 18:40:02 CONTAINER ID   NAME                          CPU %     MEM USAGE / LIMIT     MEM %     NET I/O       BLOCK I/O     PIDS
Feb 11 18:40:02 5d09a107cad5   janus-inmemory_repoSystem_1   0.16%     154.5MiB / 15.07GiB   1.00%     14kB / 138B   0B / 1.76MB   33
Feb 11 18:40:02 b10d5a4fc1e6   janus-inmemory_janusgraph_1   61.50%    721.8MiB / 15.07GiB   4.68%     15kB / 0B     0B / 111kB    22
Feb 11 18:40:05 CONTAINER ID   NAME                          CPU %     MEM USAGE / LIMIT     MEM %     NET I/O           BLOCK I/O     PIDS
Feb 11 18:40:05 5d09a107cad5   janus-inmemory_repoSystem_1   1.75%     178.4MiB / 15.07GiB   1.16%     34.9kB / 16.8kB   0B / 1.76MB   43
Feb 11 18:40:05 b10d5a4fc1e6   janus-inmemory_janusgraph_1   46.29%    731.9MiB / 15.07GiB   4.74%     19.3kB / 2.59kB   0B / 111kB    45
Feb 11 18:40:09 CONTAINER ID   NAME                          CPU %     MEM USAGE / LIMIT     MEM %     NET I/O           BLOCK I/O     PIDS
Feb 11 18:40:09 5d09a107cad5   janus-inmemory_repoSystem_1   2.04%     174.2MiB / 15.07GiB   1.13%     41.1kB / 20.3kB   0B / 1.76MB   43
Feb 11 18:40:09 b10d5a4fc1e6   janus-inmemory_janusgraph_1   146.47%   731.2MiB / 15.07GiB   4.74%     138kB / 61.5kB    0B / 111kB    55
Feb 11 18:40:12 CONTAINER ID   NAME                          CPU %     MEM USAGE / LIMIT     MEM %     NET I/O           BLOCK I/O     PIDS
Feb 11 18:40:12 5d09a107cad5   janus-inmemory_repoSystem_1   4.46%     174.4MiB / 15.07GiB   1.13%     46.2kB / 23.5kB   0B / 1.76MB   43
Feb 11 18:40:12 b10d5a4fc1e6   janus-inmemory_janusgraph_1   222.97%   737.9MiB / 15.07GiB   4.78%     505kB / 240kB     0B / 111kB    55
Feb 11 18:40:16 CONTAINER ID   NAME                          CPU %     MEM USAGE / LIMIT     MEM %     NET I/O          BLOCK I/O     PIDS
Feb 11 18:40:16 5d09a107cad5   janus-inmemory_repoSystem_1   4.31%     175.7MiB / 15.07GiB   1.14%     51.8kB / 27kB    0B / 1.88MB   43
Feb 11 18:40:16 b10d5a4fc1e6   janus-inmemory_janusgraph_1   192.35%   749.8MiB / 15.07GiB   4.86%     1.11MB / 539kB   0B / 111kB    55
Feb 11 18:40:20 CONTAINER ID   NAME                          CPU %     MEM USAGE / LIMIT   MEM %     NET I/O           BLOCK I/O     PIDS
Feb 11 18:40:20 5d09a107cad5   janus-inmemory_repoSystem_1   10.16%    176MiB / 15.07GiB   1.14%     59.6kB / 32.7kB   0B / 1.88MB   43
Feb 11 18:40:20 b10d5a4fc1e6   janus-inmemory_janusgraph_1   234.94%   763MiB / 15.07GiB   4.94%     1.56MB / 763kB    0B / 111kB    55
Feb 11 18:40:23 CONTAINER ID   NAME                          CPU %     MEM USAGE / LIMIT     MEM %     NET I/O           BLOCK I/O     PIDS
Feb 11 18:40:23 5d09a107cad5   janus-inmemory_repoSystem_1   13.52%    176.7MiB / 15.07GiB   1.15%     67.9kB / 39.9kB   0B / 1.88MB   43
Feb 11 18:40:23 b10d5a4fc1e6   janus-inmemory_janusgraph_1   124.52%   764.1MiB / 15.07GiB   4.95%     2.32MB / 1.15MB   0B / 111kB    55
Feb 11 18:40:27 CONTAINER ID   NAME                          CPU %     MEM USAGE / LIMIT     MEM %     NET I/O           BLOCK I/O     PIDS
Feb 11 18:40:27 5d09a107cad5   janus-inmemory_repoSystem_1   5.07%     176.7MiB / 15.07GiB   1.15%     74.2kB / 45.9kB   0B / 1.88MB   43
Feb 11 18:40:27 b10d5a4fc1e6   janus-inmemory_janusgraph_1   198.75%   764.7MiB / 15.07GiB   4.96%     3.6MB / 1.79MB    0B / 111kB    55
Feb 11 18:40:31 CONTAINER ID   NAME                          CPU %     MEM USAGE / LIMIT     MEM %     NET I/O           BLOCK I/O     PIDS
Feb 11 18:40:31 5d09a107cad5   janus-inmemory_repoSystem_1   1.95%     177.1MiB / 15.07GiB   1.15%     82.4kB / 52.1kB   0B / 1.88MB   43
Feb 11 18:40:31 b10d5a4fc1e6   janus-inmemory_janusgraph_1   91.15%    841.1MiB / 15.07GiB   5.45%     4.62MB / 2.29MB   0B / 111kB    55
Feb 11 18:40:33 CONTAINER ID   NAME                          CPU %     MEM USAGE / LIMIT     MEM %     NET I/O           BLOCK I/O     PIDS
Feb 11 18:40:33 5d09a107cad5   janus-inmemory_repoSystem_1   1.44%     177.2MiB / 15.07GiB   1.15%     86.2kB / 54.1kB   0B / 1.88MB   43
Feb 11 18:40:33 b10d5a4fc1e6   janus-inmemory_janusgraph_1   67.33%    860.6MiB / 15.07GiB   5.58%     6.55MB / 3.25MB   0B / 111kB    55
Feb 11 18:40:37 CONTAINER ID   NAME                          CPU %     MEM USAGE / LIMIT     MEM %     NET I/O           BLOCK I/O     PIDS
Feb 11 18:40:37 5d09a107cad5   janus-inmemory_repoSystem_1   0.16%     177.2MiB / 15.07GiB   1.15%     86.5kB / 54.3kB   0B / 1.88MB   43
Feb 11 18:40:37 b10d5a4fc1e6   janus-inmemory_janusgraph_1   69.57%    870.3MiB / 15.07GiB   5.64%     8.58MB / 4.26MB   0B / 111kB    55
Feb 11 18:40:40 CONTAINER ID   NAME                          CPU %     MEM USAGE / LIMIT     MEM %     NET I/O           BLOCK I/O     PIDS
Feb 11 18:40:40 5d09a107cad5   janus-inmemory_repoSystem_1   0.39%     177.2MiB / 15.07GiB   1.15%     86.5kB / 54.3kB   0B / 1.88MB   43
Feb 11 18:40:40 b10d5a4fc1e6   janus-inmemory_janusgraph_1   45.43%    870.2MiB / 15.07GiB   5.64%     10MB / 4.98MB     0B / 111kB    55
Feb 11 18:40:44 CONTAINER ID   NAME                          CPU %     MEM USAGE / LIMIT     MEM %     NET I/O           BLOCK I/O     PIDS
Feb 11 18:40:44 5d09a107cad5   janus-inmemory_repoSystem_1   0.39%     177.2MiB / 15.07GiB   1.15%     87.1kB / 54.5kB   0B / 1.88MB   43
Feb 11 18:40:44 b10d5a4fc1e6   janus-inmemory_janusgraph_1   2.39%     870.2MiB / 15.07GiB   5.64%     10MB / 4.98MB     0B / 111kB    55
