elapsedWallClockMillis,totalMemoryBytes
19,6382832
1134,11078872
2154,11254032
3213,11323008
4288,11334048
5357,11334944
6427,11336216
7491,11341824
8512,11344216
9567,11348336
10640,11351840
11724,11358368
12749,11373000
13814,11379736
14890,11380824
15959,11393312
17024,11403256
18115,11412448
19192,11422360
20269,11432408
21292,11442312
22345,11452232
23381,11467112
24458,11460664
25549,11469984
26629,11478856
27715,11488832
28783,11500216
29841,11508608
30897,11516984
31975,11525648
32676,11495240
