
Batch, Params, start (ms), end (ms), diff (ms), V/ms, ms/V
1, EXP 1,  1613075447759, 1613075453212, 5453, 0.183385, 5, 
2, EXP 1,  1613075453226, 1613075455709, 2483, 0.402739, 2, 
3, EXP 1,  1613075455720, 1613075457286, 1566, 0.638570, 1, 
4, EXP 1,  1613075457297, 1613075458393, 1096, 0.912409, 1, 
5, EXP 1,  1613075458404, 1613075459574, 1170, 0.854701, 1, 
6, EXP 1,  1613075459585, 1613075460770, 1185, 0.843882, 1, 
7, EXP 1,  1613075460781, 1613075461715, 934, 1.070664, 0, 
8, EXP 1,  1613075461728, 1613075462514, 786, 1.272265, 0, 
9, EXP 1,  1613075462525, 1613075463358, 833, 1.200480, 0, 
10, EXP 1,  1613075463369, 1613075464230, 861, 1.161440, 0, 
Total runtime, 16,sec
