
Batch, Params, start (ms), end (ms), diff (ms), V/ms, ms/V
1, EXP 1,  1613075499816, 1613075505175, 5359, 0.186602, 5, 
2, EXP 1,  1613075505189, 1613075507531, 2342, 0.426985, 2, 
3, EXP 1,  1613075507542, 1613075508966, 1424, 0.702247, 1, 
4, EXP 1,  1613075508977, 1613075510320, 1343, 0.744602, 1, 
5, EXP 1,  1613075510332, 1613075511540, 1208, 0.827815, 1, 
6, EXP 1,  1613075511552, 1613075512742, 1190, 0.840336, 1, 
7, EXP 1,  1613075512754, 1613075513646, 892, 1.121076, 0, 
8, EXP 1,  1613075513657, 1613075514468, 811, 1.233046, 0, 
9, EXP 1,  1613075514483, 1613075515272, 789, 1.267427, 0, 
10, EXP 1,  1613075515283, 1613075516024, 741, 1.349528, 0, 
Total runtime, 16,sec
