elapsedWallClockMillis,totalMemoryBytes
15,1842384
1121,8199472
2156,10865120
3181,11007936
4203,11021664
5223,11037392
6248,11140824
7276,11135272
8297,11110200
9324,11100672
10352,11101664
11376,11189512
12406,11162568
13442,11162416
14472,11163136
15498,11239024
16548,11268176
17572,11226984
18604,11226344
19635,11226296
20657,11347376
21682,11296792
22710,11289552
23741,11289312
24768,11288936
25799,11377200
26829,11351384
27859,11350600
28886,11352168
29916,11350488
30945,11443800
31970,11417304
33003,11417136
34033,11417096
35066,11417856
36096,11480392
37125,11469464
38158,11474224
39188,11473376
40213,11558216
41249,11518352
42279,11517400
43311,11520312
44338,11521808
45369,11610272
46398,11574496
47432,11578696
48466,11578352
49501,11578752
50530,11637816
51562,11632832
52594,11633696
53623,11643080
54658,11638440
55687,11681688
56719,11686744
57747,11683504
58778,11690608
59803,11799104
60834,11739952
61865,11743928
62900,11743304
63929,11743008
64960,11858352
65986,11808688
67014,11812168
68045,11813632
69076,11813760
70106,11855184
71140,11858864
72172,11860456
73205,11857760
74234,11863008
75261,11920176
76295,11920736
77328,11925240
78363,11926064
79390,12015848
80422,11977120
81452,11981816
82485,11981528
83516,11982944
84543,12049112
85581,12024320
86618,12025704
87651,12026016
88679,12025280
89711,12098344
90746,12087312
91783,12089872
92816,12090992
93846,12094856
94877,12141856
95913,12142160
96945,12143408
97983,12144008
99014,12245144
100042,12211664
101079,12212440
102115,12220152
103146,12223200
104177,12428288
105224,12478008
106263,12477648
106915,11998712
