Feb 12 02:53:28 CONTAINER ID   NAME      CPU %     MEM USAGE / LIMIT   MEM %     NET I/O   BLOCK I/O   PIDS
Feb 12 02:53:31 CONTAINER ID   NAME                  CPU %     MEM USAGE / LIMIT     MEM %     NET I/O       BLOCK I/O   PIDS
Feb 12 02:53:31 69dbd9676df4   noprov_repoSystem_1   301.46%   89.07MiB / 15.07GiB   0.58%     4.56kB / 0B   0B / 0B     30
Feb 12 02:53:34 CONTAINER ID   NAME                  CPU %     MEM USAGE / LIMIT     MEM %     NET I/O       BLOCK I/O     PIDS
Feb 12 02:53:34 69dbd9676df4   noprov_repoSystem_1   158.94%   166.9MiB / 15.07GiB   1.08%     10.7kB / 0B   0B / 1.76MB   38
Feb 12 02:53:36 CONTAINER ID   NAME                  CPU %     MEM USAGE / LIMIT     MEM %     NET I/O       BLOCK I/O     PIDS
Feb 12 02:53:36 69dbd9676df4   noprov_repoSystem_1   0.35%     158.1MiB / 15.07GiB   1.02%     12.9kB / 0B   0B / 1.76MB   38
Feb 12 02:53:39 CONTAINER ID   NAME                  CPU %     MEM USAGE / LIMIT   MEM %     NET I/O       BLOCK I/O     PIDS
Feb 12 02:53:39 69dbd9676df4   noprov_repoSystem_1   0.37%     158MiB / 15.07GiB   1.02%     13.4kB / 0B   0B / 1.76MB   37
Feb 12 02:53:41 CONTAINER ID   NAME                  CPU %     MEM USAGE / LIMIT     MEM %     NET I/O       BLOCK I/O     PIDS
Feb 12 02:53:41 69dbd9676df4   noprov_repoSystem_1   1.16%     157.7MiB / 15.07GiB   1.02%     13.4kB / 0B   0B / 1.76MB   33
Feb 12 02:53:44 CONTAINER ID   NAME                  CPU %     MEM USAGE / LIMIT     MEM %     NET I/O       BLOCK I/O     PIDS
Feb 12 02:53:44 69dbd9676df4   noprov_repoSystem_1   0.42%     157.7MiB / 15.07GiB   1.02%     13.7kB / 0B   0B / 1.76MB   33
Feb 12 02:53:47 CONTAINER ID   NAME                  CPU %     MEM USAGE / LIMIT     MEM %     NET I/O       BLOCK I/O     PIDS
Feb 12 02:53:47 69dbd9676df4   noprov_repoSystem_1   0.27%     157.7MiB / 15.07GiB   1.02%     14.1kB / 0B   0B / 1.76MB   33
Feb 12 02:53:49 CONTAINER ID   NAME                  CPU %     MEM USAGE / LIMIT     MEM %     NET I/O         BLOCK I/O     PIDS
Feb 12 02:53:49 69dbd9676df4   noprov_repoSystem_1   8.18%     158.9MiB / 15.07GiB   1.03%     14.6kB / 323B   0B / 1.76MB   34
Feb 12 02:53:52 CONTAINER ID   NAME                  CPU %     MEM USAGE / LIMIT     MEM %     NET I/O           BLOCK I/O     PIDS
Feb 12 02:53:52 69dbd9676df4   noprov_repoSystem_1   17.49%    176.7MiB / 15.07GiB   1.15%     32.5kB / 16.3kB   0B / 1.76MB   43
Feb 12 02:53:54 CONTAINER ID   NAME                  CPU %     MEM USAGE / LIMIT     MEM %     NET I/O           BLOCK I/O     PIDS
Feb 12 02:53:54 69dbd9676df4   noprov_repoSystem_1   1.69%     176.9MiB / 15.07GiB   1.15%     37.7kB / 19.6kB   0B / 1.76MB   43
Feb 12 02:53:57 CONTAINER ID   NAME                  CPU %     MEM USAGE / LIMIT     MEM %     NET I/O           BLOCK I/O     PIDS
Feb 12 02:53:57 69dbd9676df4   noprov_repoSystem_1   5.81%     168.5MiB / 15.07GiB   1.09%     40.6kB / 20.9kB   0B / 1.76MB   43
Feb 12 02:54:00 CONTAINER ID   NAME                  CPU %     MEM USAGE / LIMIT     MEM %     NET I/O           BLOCK I/O     PIDS
Feb 12 02:54:00 69dbd9676df4   noprov_repoSystem_1   1.58%     168.5MiB / 15.07GiB   1.09%     45.8kB / 24.4kB   0B / 1.76MB   43
Feb 12 02:54:02 CONTAINER ID   NAME                  CPU %     MEM USAGE / LIMIT     MEM %     NET I/O           BLOCK I/O     PIDS
Feb 12 02:54:02 69dbd9676df4   noprov_repoSystem_1   12.79%    169.6MiB / 15.07GiB   1.10%     52.2kB / 27.2kB   0B / 1.88MB   43
Feb 12 02:54:05 CONTAINER ID   NAME                  CPU %     MEM USAGE / LIMIT   MEM %     NET I/O           BLOCK I/O     PIDS
Feb 12 02:54:05 69dbd9676df4   noprov_repoSystem_1   3.06%     170MiB / 15.07GiB   1.10%     57.1kB / 29.9kB   0B / 1.88MB   43
Feb 12 02:54:08 CONTAINER ID   NAME                  CPU %     MEM USAGE / LIMIT     MEM %     NET I/O           BLOCK I/O     PIDS
Feb 12 02:54:08 69dbd9676df4   noprov_repoSystem_1   6.82%     170.2MiB / 15.07GiB   1.10%     62.5kB / 34.6kB   0B / 1.88MB   43
Feb 12 02:54:10 CONTAINER ID   NAME                  CPU %     MEM USAGE / LIMIT     MEM %     NET I/O           BLOCK I/O     PIDS
Feb 12 02:54:10 69dbd9676df4   noprov_repoSystem_1   1.83%     170.3MiB / 15.07GiB   1.10%     66.6kB / 37.7kB   0B / 1.88MB   43
Feb 12 02:54:13 CONTAINER ID   NAME                  CPU %     MEM USAGE / LIMIT     MEM %     NET I/O           BLOCK I/O     PIDS
Feb 12 02:54:13 69dbd9676df4   noprov_repoSystem_1   3.52%     170.7MiB / 15.07GiB   1.11%     75.4kB / 46.1kB   0B / 1.88MB   43
Feb 12 02:54:15 CONTAINER ID   NAME                  CPU %     MEM USAGE / LIMIT   MEM %     NET I/O           BLOCK I/O     PIDS
Feb 12 02:54:15 69dbd9676df4   noprov_repoSystem_1   5.81%     171MiB / 15.07GiB   1.11%     80.4kB / 50.6kB   0B / 1.88MB   43
Feb 12 02:54:18 CONTAINER ID   NAME                  CPU %     MEM USAGE / LIMIT   MEM %     NET I/O           BLOCK I/O     PIDS
Feb 12 02:54:18 69dbd9676df4   noprov_repoSystem_1   1.80%     171MiB / 15.07GiB   1.11%     85.1kB / 53.4kB   0B / 1.88MB   43
Feb 12 02:54:21 CONTAINER ID   NAME                  CPU %     MEM USAGE / LIMIT     MEM %     NET I/O           BLOCK I/O     PIDS
Feb 12 02:54:21 69dbd9676df4   noprov_repoSystem_1   3.86%     171.1MiB / 15.07GiB   1.11%     88.2kB / 55.3kB   0B / 1.88MB   43
Feb 12 02:54:23 CONTAINER ID   NAME                  CPU %     MEM USAGE / LIMIT     MEM %     NET I/O           BLOCK I/O     PIDS
Feb 12 02:54:23 69dbd9676df4   noprov_repoSystem_1   5.44%     171.4MiB / 15.07GiB   1.11%     92.4kB / 57.3kB   0B / 1.88MB   43
Feb 12 02:54:26 CONTAINER ID   NAME                  CPU %     MEM USAGE / LIMIT     MEM %     NET I/O           BLOCK I/O     PIDS
Feb 12 02:54:26 69dbd9676df4   noprov_repoSystem_1   3.97%     171.5MiB / 15.07GiB   1.11%     95.3kB / 58.6kB   0B / 1.88MB   43
Feb 12 02:54:28 CONTAINER ID   NAME                  CPU %     MEM USAGE / LIMIT     MEM %     NET I/O          BLOCK I/O     PIDS
Feb 12 02:54:28 69dbd9676df4   noprov_repoSystem_1   1.42%     171.5MiB / 15.07GiB   1.11%     100kB / 62.3kB   0B / 1.88MB   43
Feb 12 02:54:31 CONTAINER ID   NAME                  CPU %     MEM USAGE / LIMIT     MEM %     NET I/O          BLOCK I/O     PIDS
Feb 12 02:54:31 69dbd9676df4   noprov_repoSystem_1   2.27%     171.7MiB / 15.07GiB   1.11%     104kB / 64.7kB   0B / 1.88MB   43
Feb 12 02:54:34 CONTAINER ID   NAME                  CPU %     MEM USAGE / LIMIT     MEM %     NET I/O          BLOCK I/O     PIDS
Feb 12 02:54:34 69dbd9676df4   noprov_repoSystem_1   3.57%     171.8MiB / 15.07GiB   1.11%     110kB / 68.9kB   0B / 1.88MB   43
Feb 12 02:54:36 CONTAINER ID   NAME                  CPU %     MEM USAGE / LIMIT     MEM %     NET I/O        BLOCK I/O     PIDS
Feb 12 02:54:36 69dbd9676df4   noprov_repoSystem_1   2.83%     171.8MiB / 15.07GiB   1.11%     114kB / 71kB   0B / 1.88MB   43
Feb 12 02:54:39 CONTAINER ID   NAME                  CPU %     MEM USAGE / LIMIT     MEM %     NET I/O          BLOCK I/O     PIDS
Feb 12 02:54:39 69dbd9676df4   noprov_repoSystem_1   1.35%     171.9MiB / 15.07GiB   1.11%     118kB / 72.9kB   0B / 1.88MB   43
Feb 12 02:54:41 CONTAINER ID   NAME                  CPU %     MEM USAGE / LIMIT   MEM %     NET I/O          BLOCK I/O     PIDS
Feb 12 02:54:41 69dbd9676df4   noprov_repoSystem_1   13.79%    172MiB / 15.07GiB   1.11%     124kB / 78.1kB   0B / 1.88MB   43
Feb 12 02:54:44 CONTAINER ID   NAME                  CPU %     MEM USAGE / LIMIT     MEM %     NET I/O          BLOCK I/O     PIDS
Feb 12 02:54:44 69dbd9676df4   noprov_repoSystem_1   5.20%     172.3MiB / 15.07GiB   1.12%     130kB / 84.4kB   0B / 1.88MB   43
Feb 12 02:54:47 CONTAINER ID   NAME                  CPU %     MEM USAGE / LIMIT     MEM %     NET I/O          BLOCK I/O     PIDS
Feb 12 02:54:47 69dbd9676df4   noprov_repoSystem_1   6.63%     172.3MiB / 15.07GiB   1.12%     137kB / 90.4kB   0B / 1.88MB   43
Feb 12 02:54:49 CONTAINER ID   NAME                  CPU %     MEM USAGE / LIMIT     MEM %     NET I/O          BLOCK I/O     PIDS
Feb 12 02:54:49 69dbd9676df4   noprov_repoSystem_1   1.98%     172.4MiB / 15.07GiB   1.12%     141kB / 93.6kB   0B / 1.88MB   43
Feb 12 02:54:52 CONTAINER ID   NAME                  CPU %     MEM USAGE / LIMIT     MEM %     NET I/O          BLOCK I/O     PIDS
Feb 12 02:54:52 69dbd9676df4   noprov_repoSystem_1   2.22%     172.5MiB / 15.07GiB   1.12%     145kB / 95.8kB   0B / 1.88MB   43
Feb 12 02:54:54 CONTAINER ID   NAME                  CPU %     MEM USAGE / LIMIT     MEM %     NET I/O          BLOCK I/O     PIDS
Feb 12 02:54:54 69dbd9676df4   noprov_repoSystem_1   0.98%     172.4MiB / 15.07GiB   1.12%     149kB / 97.5kB   0B / 1.88MB   43
Feb 12 02:54:57 CONTAINER ID   NAME                  CPU %     MEM USAGE / LIMIT     MEM %     NET I/O          BLOCK I/O     PIDS
Feb 12 02:54:57 69dbd9676df4   noprov_repoSystem_1   0.72%     172.4MiB / 15.07GiB   1.12%     152kB / 98.8kB   0B / 1.88MB   43
Feb 12 02:54:59 CONTAINER ID   NAME                  CPU %     MEM USAGE / LIMIT     MEM %     NET I/O         BLOCK I/O     PIDS
Feb 12 02:54:59 69dbd9676df4   noprov_repoSystem_1   7.39%     172.9MiB / 15.07GiB   1.12%     158kB / 104kB   0B / 1.88MB   43
Feb 12 02:55:02 CONTAINER ID   NAME                  CPU %     MEM USAGE / LIMIT     MEM %     NET I/O         BLOCK I/O     PIDS
Feb 12 02:55:02 69dbd9676df4   noprov_repoSystem_1   1.48%     172.6MiB / 15.07GiB   1.12%     162kB / 106kB   0B / 1.88MB   43
Feb 12 02:55:05 CONTAINER ID   NAME                  CPU %     MEM USAGE / LIMIT     MEM %     NET I/O         BLOCK I/O     PIDS
Feb 12 02:55:05 69dbd9676df4   noprov_repoSystem_1   13.30%    172.9MiB / 15.07GiB   1.12%     170kB / 114kB   0B / 1.88MB   43
Feb 12 02:55:07 CONTAINER ID   NAME                  CPU %     MEM USAGE / LIMIT     MEM %     NET I/O         BLOCK I/O     PIDS
Feb 12 02:55:07 69dbd9676df4   noprov_repoSystem_1   6.20%     172.9MiB / 15.07GiB   1.12%     177kB / 120kB   0B / 1.88MB   43
Feb 12 02:55:10 CONTAINER ID   NAME                  CPU %     MEM USAGE / LIMIT   MEM %     NET I/O         BLOCK I/O     PIDS
Feb 12 02:55:10 69dbd9676df4   noprov_repoSystem_1   0.89%     173MiB / 15.07GiB   1.12%     182kB / 123kB   0B / 1.88MB   43
Feb 12 02:55:12 CONTAINER ID   NAME                  CPU %     MEM USAGE / LIMIT     MEM %     NET I/O         BLOCK I/O     PIDS
Feb 12 02:55:12 69dbd9676df4   noprov_repoSystem_1   4.33%     173.1MiB / 15.07GiB   1.12%     186kB / 126kB   0B / 1.88MB   43
Feb 12 02:55:15 CONTAINER ID   NAME                  CPU %     MEM USAGE / LIMIT     MEM %     NET I/O         BLOCK I/O     PIDS
Feb 12 02:55:15 69dbd9676df4   noprov_repoSystem_1   1.64%     173.2MiB / 15.07GiB   1.12%     190kB / 128kB   0B / 1.88MB   43
Feb 12 02:55:18 CONTAINER ID   NAME                  CPU %     MEM USAGE / LIMIT     MEM %     NET I/O         BLOCK I/O     PIDS
Feb 12 02:55:18 69dbd9676df4   noprov_repoSystem_1   0.89%     173.1MiB / 15.07GiB   1.12%     193kB / 129kB   0B / 1.88MB   43
Feb 12 02:55:20 CONTAINER ID   NAME                  CPU %     MEM USAGE / LIMIT     MEM %     NET I/O         BLOCK I/O     PIDS
Feb 12 02:55:20 69dbd9676df4   noprov_repoSystem_1   9.91%     173.4MiB / 15.07GiB   1.12%     198kB / 133kB   0B / 1.88MB   43
Feb 12 02:55:23 CONTAINER ID   NAME                  CPU %     MEM USAGE / LIMIT     MEM %     NET I/O         BLOCK I/O     PIDS
Feb 12 02:55:23 69dbd9676df4   noprov_repoSystem_1   3.42%     173.2MiB / 15.07GiB   1.12%     205kB / 139kB   0B / 1.88MB   43
Feb 12 02:55:25 CONTAINER ID   NAME                  CPU %     MEM USAGE / LIMIT     MEM %     NET I/O         BLOCK I/O     PIDS
Feb 12 02:55:25 69dbd9676df4   noprov_repoSystem_1   7.59%     173.5MiB / 15.07GiB   1.12%     213kB / 147kB   0B / 1.88MB   43
Feb 12 02:55:28 CONTAINER ID   NAME                  CPU %     MEM USAGE / LIMIT     MEM %     NET I/O         BLOCK I/O     PIDS
Feb 12 02:55:28 69dbd9676df4   noprov_repoSystem_1   9.71%     173.7MiB / 15.07GiB   1.13%     220kB / 153kB   0B / 1.88MB   43
Feb 12 02:55:31 CONTAINER ID   NAME                  CPU %     MEM USAGE / LIMIT     MEM %     NET I/O         BLOCK I/O     PIDS
Feb 12 02:55:31 69dbd9676df4   noprov_repoSystem_1   8.95%     173.6MiB / 15.07GiB   1.13%     228kB / 161kB   0B / 1.88MB   43
Feb 12 02:55:33 CONTAINER ID   NAME                  CPU %     MEM USAGE / LIMIT     MEM %     NET I/O         BLOCK I/O     PIDS
Feb 12 02:55:33 69dbd9676df4   noprov_repoSystem_1   4.17%     173.6MiB / 15.07GiB   1.12%     236kB / 169kB   0B / 1.88MB   43
Feb 12 02:55:36 CONTAINER ID   NAME                  CPU %     MEM USAGE / LIMIT     MEM %     NET I/O         BLOCK I/O     PIDS
Feb 12 02:55:36 69dbd9676df4   noprov_repoSystem_1   3.43%     173.7MiB / 15.07GiB   1.13%     242kB / 173kB   0B / 1.88MB   43
Feb 12 02:55:39 CONTAINER ID   NAME                  CPU %     MEM USAGE / LIMIT     MEM %     NET I/O         BLOCK I/O     PIDS
Feb 12 02:55:39 69dbd9676df4   noprov_repoSystem_1   2.33%     173.7MiB / 15.07GiB   1.13%     248kB / 179kB   0B / 1.88MB   43
Feb 12 02:55:41 CONTAINER ID   NAME                  CPU %     MEM USAGE / LIMIT     MEM %     NET I/O         BLOCK I/O     PIDS
Feb 12 02:55:41 69dbd9676df4   noprov_repoSystem_1   1.37%     173.8MiB / 15.07GiB   1.13%     255kB / 185kB   0B / 1.88MB   43
Feb 12 02:55:44 CONTAINER ID   NAME                  CPU %     MEM USAGE / LIMIT     MEM %     NET I/O         BLOCK I/O     PIDS
Feb 12 02:55:44 69dbd9676df4   noprov_repoSystem_1   1.40%     173.7MiB / 15.07GiB   1.13%     259kB / 187kB   0B / 1.88MB   43
Feb 12 02:55:46 CONTAINER ID   NAME                  CPU %     MEM USAGE / LIMIT     MEM %     NET I/O         BLOCK I/O     PIDS
Feb 12 02:55:46 69dbd9676df4   noprov_repoSystem_1   1.47%     173.7MiB / 15.07GiB   1.13%     264kB / 192kB   0B / 1.88MB   43
Feb 12 02:55:49 CONTAINER ID   NAME                  CPU %     MEM USAGE / LIMIT     MEM %     NET I/O         BLOCK I/O     PIDS
Feb 12 02:55:49 69dbd9676df4   noprov_repoSystem_1   4.53%     174.1MiB / 15.07GiB   1.13%     273kB / 199kB   0B / 1.88MB   43
Feb 12 02:55:52 CONTAINER ID   NAME                  CPU %     MEM USAGE / LIMIT   MEM %     NET I/O         BLOCK I/O     PIDS
Feb 12 02:55:52 69dbd9676df4   noprov_repoSystem_1   1.86%     174MiB / 15.07GiB   1.13%     278kB / 203kB   0B / 1.88MB   43
Feb 12 02:55:54 CONTAINER ID   NAME                  CPU %     MEM USAGE / LIMIT   MEM %     NET I/O         BLOCK I/O     PIDS
Feb 12 02:55:54 69dbd9676df4   noprov_repoSystem_1   1.47%     174MiB / 15.07GiB   1.13%     286kB / 211kB   0B / 1.88MB   43
Feb 12 02:55:57 CONTAINER ID   NAME                  CPU %     MEM USAGE / LIMIT     MEM %     NET I/O         BLOCK I/O     PIDS
Feb 12 02:55:57 69dbd9676df4   noprov_repoSystem_1   3.54%     174.1MiB / 15.07GiB   1.13%     290kB / 214kB   0B / 1.88MB   43
Feb 12 02:55:59 CONTAINER ID   NAME                  CPU %     MEM USAGE / LIMIT     MEM %     NET I/O         BLOCK I/O     PIDS
Feb 12 02:55:59 69dbd9676df4   noprov_repoSystem_1   2.96%     174.2MiB / 15.07GiB   1.13%     297kB / 221kB   0B / 1.88MB   43
Feb 12 02:56:02 CONTAINER ID   NAME                  CPU %     MEM USAGE / LIMIT   MEM %     NET I/O         BLOCK I/O     PIDS
Feb 12 02:56:02 69dbd9676df4   noprov_repoSystem_1   1.38%     174MiB / 15.07GiB   1.13%     303kB / 225kB   0B / 1.88MB   43
Feb 12 02:56:05 CONTAINER ID   NAME                  CPU %     MEM USAGE / LIMIT     MEM %     NET I/O         BLOCK I/O     PIDS
Feb 12 02:56:05 69dbd9676df4   noprov_repoSystem_1   2.35%     174.1MiB / 15.07GiB   1.13%     310kB / 232kB   0B / 1.88MB   43
Feb 12 02:56:07 CONTAINER ID   NAME                  CPU %     MEM USAGE / LIMIT     MEM %     NET I/O         BLOCK I/O     PIDS
Feb 12 02:56:07 69dbd9676df4   noprov_repoSystem_1   1.21%     174.1MiB / 15.07GiB   1.13%     316kB / 236kB   0B / 1.88MB   43
Feb 12 02:56:10 CONTAINER ID   NAME                  CPU %     MEM USAGE / LIMIT     MEM %     NET I/O         BLOCK I/O     PIDS
Feb 12 02:56:10 69dbd9676df4   noprov_repoSystem_1   1.01%     174.1MiB / 15.07GiB   1.13%     320kB / 239kB   0B / 1.88MB   43
Feb 12 02:56:12 CONTAINER ID   NAME                  CPU %     MEM USAGE / LIMIT     MEM %     NET I/O         BLOCK I/O     PIDS
Feb 12 02:56:12 69dbd9676df4   noprov_repoSystem_1   0.77%     174.1MiB / 15.07GiB   1.13%     324kB / 240kB   0B / 1.88MB   43
Feb 12 02:56:15 CONTAINER ID   NAME                  CPU %     MEM USAGE / LIMIT     MEM %     NET I/O         BLOCK I/O     PIDS
Feb 12 02:56:15 69dbd9676df4   noprov_repoSystem_1   1.74%     174.2MiB / 15.07GiB   1.13%     327kB / 243kB   0B / 1.88MB   43
Feb 12 02:56:18 CONTAINER ID   NAME                  CPU %     MEM USAGE / LIMIT     MEM %     NET I/O         BLOCK I/O     PIDS
Feb 12 02:56:18 69dbd9676df4   noprov_repoSystem_1   1.78%     174.1MiB / 15.07GiB   1.13%     332kB / 246kB   0B / 1.88MB   43
Feb 12 02:56:20 CONTAINER ID   NAME                  CPU %     MEM USAGE / LIMIT     MEM %     NET I/O         BLOCK I/O     PIDS
Feb 12 02:56:20 69dbd9676df4   noprov_repoSystem_1   5.70%     174.1MiB / 15.07GiB   1.13%     337kB / 250kB   0B / 1.88MB   43
Feb 12 02:56:23 CONTAINER ID   NAME                  CPU %     MEM USAGE / LIMIT     MEM %     NET I/O         BLOCK I/O     PIDS
Feb 12 02:56:23 69dbd9676df4   noprov_repoSystem_1   2.85%     174.2MiB / 15.07GiB   1.13%     339kB / 251kB   0B / 1.88MB   43
