Feb 12 02:56:33 CONTAINER ID   NAME      CPU %     MEM USAGE / LIMIT   MEM %     NET I/O   BLOCK I/O   PIDS
Feb 12 02:56:36 CONTAINER ID   NAME                  CPU %     MEM USAGE / LIMIT     MEM %     NET I/O       BLOCK I/O   PIDS
Feb 12 02:56:36 060c81b0eff1   noprov_repoSystem_1   293.29%   93.76MiB / 15.07GiB   0.61%     4.79kB / 0B   0B / 0B     32
Feb 12 02:56:39 CONTAINER ID   NAME                  CPU %     MEM USAGE / LIMIT   MEM %     NET I/O       BLOCK I/O     PIDS
Feb 12 02:56:39 060c81b0eff1   noprov_repoSystem_1   117.69%   174MiB / 15.07GiB   1.13%     10.6kB / 0B   0B / 1.76MB   38
Feb 12 02:56:41 CONTAINER ID   NAME                  CPU %     MEM USAGE / LIMIT     MEM %     NET I/O       BLOCK I/O     PIDS
Feb 12 02:56:41 060c81b0eff1   noprov_repoSystem_1   0.33%     157.9MiB / 15.07GiB   1.02%     12.8kB / 0B   0B / 1.76MB   38
Feb 12 02:56:44 CONTAINER ID   NAME                  CPU %     MEM USAGE / LIMIT     MEM %     NET I/O       BLOCK I/O     PIDS
Feb 12 02:56:44 060c81b0eff1   noprov_repoSystem_1   0.39%     157.9MiB / 15.07GiB   1.02%     13.3kB / 0B   0B / 1.76MB   37
Feb 12 02:56:46 CONTAINER ID   NAME                  CPU %     MEM USAGE / LIMIT     MEM %     NET I/O       BLOCK I/O     PIDS
Feb 12 02:56:46 060c81b0eff1   noprov_repoSystem_1   0.90%     157.5MiB / 15.07GiB   1.02%     13.3kB / 0B   0B / 1.76MB   33
Feb 12 02:56:49 CONTAINER ID   NAME                  CPU %     MEM USAGE / LIMIT     MEM %     NET I/O       BLOCK I/O     PIDS
Feb 12 02:56:49 060c81b0eff1   noprov_repoSystem_1   0.44%     157.5MiB / 15.07GiB   1.02%     13.6kB / 0B   0B / 1.76MB   33
Feb 12 02:56:51 CONTAINER ID   NAME                  CPU %     MEM USAGE / LIMIT     MEM %     NET I/O     BLOCK I/O     PIDS
Feb 12 02:56:51 060c81b0eff1   noprov_repoSystem_1   0.33%     157.5MiB / 15.07GiB   1.02%     14kB / 0B   0B / 1.76MB   33
Feb 12 02:56:54 CONTAINER ID   NAME                  CPU %     MEM USAGE / LIMIT     MEM %     NET I/O         BLOCK I/O     PIDS
Feb 12 02:56:54 060c81b0eff1   noprov_repoSystem_1   9.22%     158.9MiB / 15.07GiB   1.03%     14.5kB / 323B   0B / 1.76MB   34
Feb 12 02:56:57 CONTAINER ID   NAME                  CPU %     MEM USAGE / LIMIT     MEM %     NET I/O           BLOCK I/O     PIDS
Feb 12 02:56:57 060c81b0eff1   noprov_repoSystem_1   9.02%     173.8MiB / 15.07GiB   1.13%     32.2kB / 16.4kB   0B / 1.76MB   43
Feb 12 02:56:59 CONTAINER ID   NAME                  CPU %     MEM USAGE / LIMIT   MEM %     NET I/O           BLOCK I/O     PIDS
Feb 12 02:56:59 060c81b0eff1   noprov_repoSystem_1   3.18%     174MiB / 15.07GiB   1.13%     37.4kB / 19.7kB   0B / 1.76MB   43
Feb 12 02:57:02 CONTAINER ID   NAME                  CPU %     MEM USAGE / LIMIT   MEM %     NET I/O         BLOCK I/O     PIDS
Feb 12 02:57:02 060c81b0eff1   noprov_repoSystem_1   4.27%     174MiB / 15.07GiB   1.13%     40.2kB / 21kB   0B / 1.76MB   43
Feb 12 02:57:05 CONTAINER ID   NAME                  CPU %     MEM USAGE / LIMIT     MEM %     NET I/O           BLOCK I/O     PIDS
Feb 12 02:57:05 060c81b0eff1   noprov_repoSystem_1   3.73%     174.2MiB / 15.07GiB   1.13%     45.8kB / 24.5kB   0B / 1.76MB   43
Feb 12 02:57:07 CONTAINER ID   NAME                  CPU %     MEM USAGE / LIMIT     MEM %     NET I/O           BLOCK I/O     PIDS
Feb 12 02:57:07 060c81b0eff1   noprov_repoSystem_1   6.10%     170.5MiB / 15.07GiB   1.10%     50.1kB / 27.2kB   0B / 1.88MB   43
Feb 12 02:57:10 CONTAINER ID   NAME                  CPU %     MEM USAGE / LIMIT     MEM %     NET I/O         BLOCK I/O     PIDS
Feb 12 02:57:10 060c81b0eff1   noprov_repoSystem_1   5.18%     170.6MiB / 15.07GiB   1.11%     55kB / 30.6kB   0B / 1.88MB   43
Feb 12 02:57:12 CONTAINER ID   NAME                  CPU %     MEM USAGE / LIMIT     MEM %     NET I/O           BLOCK I/O     PIDS
Feb 12 02:57:12 060c81b0eff1   noprov_repoSystem_1   8.26%     170.9MiB / 15.07GiB   1.11%     59.3kB / 34.4kB   0B / 1.88MB   43
Feb 12 02:57:15 CONTAINER ID   NAME                  CPU %     MEM USAGE / LIMIT     MEM %     NET I/O         BLOCK I/O     PIDS
Feb 12 02:57:15 060c81b0eff1   noprov_repoSystem_1   8.68%     171.5MiB / 15.07GiB   1.11%     65.4kB / 40kB   0B / 1.88MB   43
Feb 12 02:57:18 CONTAINER ID   NAME                  CPU %     MEM USAGE / LIMIT     MEM %     NET I/O           BLOCK I/O     PIDS
Feb 12 02:57:18 060c81b0eff1   noprov_repoSystem_1   8.10%     171.5MiB / 15.07GiB   1.11%     73.1kB / 47.8kB   0B / 1.88MB   43
Feb 12 02:57:20 CONTAINER ID   NAME                  CPU %     MEM USAGE / LIMIT     MEM %     NET I/O         BLOCK I/O     PIDS
Feb 12 02:57:20 060c81b0eff1   noprov_repoSystem_1   10.08%    171.9MiB / 15.07GiB   1.11%     81kB / 55.5kB   0B / 1.88MB   43
Feb 12 02:57:23 CONTAINER ID   NAME                  CPU %     MEM USAGE / LIMIT     MEM %     NET I/O           BLOCK I/O     PIDS
Feb 12 02:57:23 060c81b0eff1   noprov_repoSystem_1   1.63%     171.9MiB / 15.07GiB   1.11%     86.6kB / 59.9kB   0B / 1.88MB   43
Feb 12 02:57:25 CONTAINER ID   NAME                  CPU %     MEM USAGE / LIMIT     MEM %     NET I/O           BLOCK I/O     PIDS
Feb 12 02:57:25 060c81b0eff1   noprov_repoSystem_1   3.38%     172.1MiB / 15.07GiB   1.12%     90.2kB / 62.2kB   0B / 1.88MB   43
Feb 12 02:57:28 CONTAINER ID   NAME                  CPU %     MEM USAGE / LIMIT     MEM %     NET I/O         BLOCK I/O     PIDS
Feb 12 02:57:28 060c81b0eff1   noprov_repoSystem_1   6.34%     172.3MiB / 15.07GiB   1.12%     94kB / 64.1kB   0B / 1.88MB   43
Feb 12 02:57:31 CONTAINER ID   NAME                  CPU %     MEM USAGE / LIMIT     MEM %     NET I/O         BLOCK I/O     PIDS
Feb 12 02:57:31 060c81b0eff1   noprov_repoSystem_1   1.68%     172.3MiB / 15.07GiB   1.12%     97kB / 65.4kB   0B / 1.88MB   43
Feb 12 02:57:33 CONTAINER ID   NAME                  CPU %     MEM USAGE / LIMIT     MEM %     NET I/O          BLOCK I/O     PIDS
Feb 12 02:57:33 060c81b0eff1   noprov_repoSystem_1   4.21%     172.3MiB / 15.07GiB   1.12%     102kB / 67.4kB   0B / 1.88MB   43
Feb 12 02:57:36 CONTAINER ID   NAME                  CPU %     MEM USAGE / LIMIT     MEM %     NET I/O        BLOCK I/O     PIDS
Feb 12 02:57:36 060c81b0eff1   noprov_repoSystem_1   6.62%     172.6MiB / 15.07GiB   1.12%     106kB / 71kB   0B / 1.88MB   43
Feb 12 02:57:38 CONTAINER ID   NAME                  CPU %     MEM USAGE / LIMIT     MEM %     NET I/O          BLOCK I/O     PIDS
Feb 12 02:57:38 060c81b0eff1   noprov_repoSystem_1   5.71%     172.7MiB / 15.07GiB   1.12%     110kB / 73.6kB   0B / 1.88MB   43
Feb 12 02:57:41 CONTAINER ID   NAME                  CPU %     MEM USAGE / LIMIT     MEM %     NET I/O          BLOCK I/O     PIDS
Feb 12 02:57:41 060c81b0eff1   noprov_repoSystem_1   6.86%     172.8MiB / 15.07GiB   1.12%     115kB / 76.7kB   0B / 1.88MB   43
Feb 12 02:57:44 CONTAINER ID   NAME                  CPU %     MEM USAGE / LIMIT     MEM %     NET I/O          BLOCK I/O     PIDS
Feb 12 02:57:44 060c81b0eff1   noprov_repoSystem_1   5.30%     172.9MiB / 15.07GiB   1.12%     120kB / 80.4kB   0B / 1.88MB   43
Feb 12 02:57:46 CONTAINER ID   NAME                  CPU %     MEM USAGE / LIMIT   MEM %     NET I/O          BLOCK I/O     PIDS
Feb 12 02:57:46 060c81b0eff1   noprov_repoSystem_1   4.71%     173MiB / 15.07GiB   1.12%     123kB / 82.3kB   0B / 1.88MB   43
Feb 12 02:57:49 CONTAINER ID   NAME                  CPU %     MEM USAGE / LIMIT   MEM %     NET I/O          BLOCK I/O     PIDS
Feb 12 02:57:49 060c81b0eff1   noprov_repoSystem_1   5.84%     173MiB / 15.07GiB   1.12%     128kB / 85.8kB   0B / 1.88MB   43
Feb 12 02:57:51 CONTAINER ID   NAME                  CPU %     MEM USAGE / LIMIT     MEM %     NET I/O          BLOCK I/O     PIDS
Feb 12 02:57:51 060c81b0eff1   noprov_repoSystem_1   17.99%    173.2MiB / 15.07GiB   1.12%     136kB / 92.9kB   0B / 1.88MB   43
Feb 12 02:57:54 CONTAINER ID   NAME                  CPU %     MEM USAGE / LIMIT     MEM %     NET I/O          BLOCK I/O     PIDS
Feb 12 02:57:54 060c81b0eff1   noprov_repoSystem_1   5.44%     173.4MiB / 15.07GiB   1.12%     142kB / 99.1kB   0B / 1.88MB   43
Feb 12 02:57:57 CONTAINER ID   NAME                  CPU %     MEM USAGE / LIMIT     MEM %     NET I/O         BLOCK I/O     PIDS
Feb 12 02:57:57 060c81b0eff1   noprov_repoSystem_1   1.23%     173.3MiB / 15.07GiB   1.12%     148kB / 103kB   0B / 1.88MB   43
Feb 12 02:57:59 CONTAINER ID   NAME                  CPU %     MEM USAGE / LIMIT     MEM %     NET I/O         BLOCK I/O     PIDS
Feb 12 02:57:59 060c81b0eff1   noprov_repoSystem_1   1.37%     173.3MiB / 15.07GiB   1.12%     152kB / 105kB   0B / 1.88MB   43
Feb 12 02:58:02 CONTAINER ID   NAME                  CPU %     MEM USAGE / LIMIT     MEM %     NET I/O         BLOCK I/O     PIDS
Feb 12 02:58:02 060c81b0eff1   noprov_repoSystem_1   1.43%     173.3MiB / 15.07GiB   1.12%     157kB / 107kB   0B / 1.88MB   43
Feb 12 02:58:04 CONTAINER ID   NAME                  CPU %     MEM USAGE / LIMIT     MEM %     NET I/O         BLOCK I/O     PIDS
Feb 12 02:58:04 060c81b0eff1   noprov_repoSystem_1   1.02%     173.5MiB / 15.07GiB   1.12%     161kB / 108kB   0B / 1.88MB   43
Feb 12 02:58:07 CONTAINER ID   NAME                  CPU %     MEM USAGE / LIMIT     MEM %     NET I/O         BLOCK I/O     PIDS
Feb 12 02:58:07 060c81b0eff1   noprov_repoSystem_1   6.07%     173.6MiB / 15.07GiB   1.13%     165kB / 111kB   0B / 1.88MB   43
Feb 12 02:58:10 CONTAINER ID   NAME                  CPU %     MEM USAGE / LIMIT     MEM %     NET I/O         BLOCK I/O     PIDS
Feb 12 02:58:10 060c81b0eff1   noprov_repoSystem_1   3.64%     173.6MiB / 15.07GiB   1.12%     170kB / 115kB   0B / 1.88MB   43
Feb 12 02:58:12 CONTAINER ID   NAME                  CPU %     MEM USAGE / LIMIT     MEM %     NET I/O         BLOCK I/O     PIDS
Feb 12 02:58:12 060c81b0eff1   noprov_repoSystem_1   2.56%     173.7MiB / 15.07GiB   1.13%     176kB / 120kB   0B / 1.88MB   43
Feb 12 02:58:15 CONTAINER ID   NAME                  CPU %     MEM USAGE / LIMIT     MEM %     NET I/O         BLOCK I/O     PIDS
Feb 12 02:58:15 060c81b0eff1   noprov_repoSystem_1   1.60%     173.6MiB / 15.07GiB   1.12%     179kB / 122kB   0B / 1.88MB   43
Feb 12 02:58:17 CONTAINER ID   NAME                  CPU %     MEM USAGE / LIMIT     MEM %     NET I/O         BLOCK I/O     PIDS
Feb 12 02:58:17 060c81b0eff1   noprov_repoSystem_1   4.95%     173.7MiB / 15.07GiB   1.13%     184kB / 124kB   0B / 1.88MB   43
Feb 12 02:58:20 CONTAINER ID   NAME                  CPU %     MEM USAGE / LIMIT     MEM %     NET I/O         BLOCK I/O     PIDS
Feb 12 02:58:20 060c81b0eff1   noprov_repoSystem_1   3.43%     173.8MiB / 15.07GiB   1.13%     187kB / 126kB   0B / 1.88MB   43
Feb 12 02:58:23 CONTAINER ID   NAME                  CPU %     MEM USAGE / LIMIT     MEM %     NET I/O         BLOCK I/O     PIDS
Feb 12 02:58:23 060c81b0eff1   noprov_repoSystem_1   1.66%     173.9MiB / 15.07GiB   1.13%     195kB / 133kB   0B / 1.88MB   43
Feb 12 02:58:25 CONTAINER ID   NAME                  CPU %     MEM USAGE / LIMIT     MEM %     NET I/O         BLOCK I/O     PIDS
Feb 12 02:58:25 060c81b0eff1   noprov_repoSystem_1   2.22%     173.8MiB / 15.07GiB   1.13%     201kB / 139kB   0B / 1.88MB   43
Feb 12 02:58:28 CONTAINER ID   NAME                  CPU %     MEM USAGE / LIMIT   MEM %     NET I/O         BLOCK I/O     PIDS
Feb 12 02:58:28 060c81b0eff1   noprov_repoSystem_1   2.07%     174MiB / 15.07GiB   1.13%     207kB / 145kB   0B / 1.88MB   43
Feb 12 02:58:30 CONTAINER ID   NAME                  CPU %     MEM USAGE / LIMIT     MEM %     NET I/O         BLOCK I/O     PIDS
Feb 12 02:58:30 060c81b0eff1   noprov_repoSystem_1   7.98%     174.1MiB / 15.07GiB   1.13%     213kB / 149kB   0B / 1.88MB   43
Feb 12 02:58:33 CONTAINER ID   NAME                  CPU %     MEM USAGE / LIMIT     MEM %     NET I/O         BLOCK I/O     PIDS
Feb 12 02:58:33 060c81b0eff1   noprov_repoSystem_1   5.72%     174.3MiB / 15.07GiB   1.13%     221kB / 156kB   0B / 1.88MB   43
Feb 12 02:58:36 CONTAINER ID   NAME                  CPU %     MEM USAGE / LIMIT     MEM %     NET I/O         BLOCK I/O     PIDS
Feb 12 02:58:36 060c81b0eff1   noprov_repoSystem_1   8.05%     174.4MiB / 15.07GiB   1.13%     228kB / 163kB   0B / 1.88MB   43
Feb 12 02:58:38 CONTAINER ID   NAME                  CPU %     MEM USAGE / LIMIT     MEM %     NET I/O         BLOCK I/O     PIDS
Feb 12 02:58:38 060c81b0eff1   noprov_repoSystem_1   1.47%     174.2MiB / 15.07GiB   1.13%     235kB / 169kB   0B / 1.88MB   43
Feb 12 02:58:41 CONTAINER ID   NAME                  CPU %     MEM USAGE / LIMIT     MEM %     NET I/O         BLOCK I/O     PIDS
Feb 12 02:58:41 060c81b0eff1   noprov_repoSystem_1   3.53%     174.5MiB / 15.07GiB   1.13%     244kB / 179kB   0B / 1.88MB   43
Feb 12 02:58:43 CONTAINER ID   NAME                  CPU %     MEM USAGE / LIMIT     MEM %     NET I/O         BLOCK I/O     PIDS
Feb 12 02:58:43 060c81b0eff1   noprov_repoSystem_1   1.31%     174.4MiB / 15.07GiB   1.13%     251kB / 184kB   0B / 1.88MB   43
Feb 12 02:58:46 CONTAINER ID   NAME                  CPU %     MEM USAGE / LIMIT     MEM %     NET I/O         BLOCK I/O     PIDS
Feb 12 02:58:46 060c81b0eff1   noprov_repoSystem_1   1.28%     174.4MiB / 15.07GiB   1.13%     257kB / 189kB   0B / 1.88MB   43
Feb 12 02:58:49 CONTAINER ID   NAME                  CPU %     MEM USAGE / LIMIT     MEM %     NET I/O         BLOCK I/O     PIDS
Feb 12 02:58:49 060c81b0eff1   noprov_repoSystem_1   1.26%     174.5MiB / 15.07GiB   1.13%     261kB / 191kB   0B / 1.88MB   43
Feb 12 02:58:51 CONTAINER ID   NAME                  CPU %     MEM USAGE / LIMIT     MEM %     NET I/O         BLOCK I/O     PIDS
Feb 12 02:58:51 060c81b0eff1   noprov_repoSystem_1   0.91%     174.4MiB / 15.07GiB   1.13%     265kB / 194kB   0B / 1.88MB   43
Feb 12 02:58:54 CONTAINER ID   NAME                  CPU %     MEM USAGE / LIMIT     MEM %     NET I/O         BLOCK I/O     PIDS
Feb 12 02:58:54 060c81b0eff1   noprov_repoSystem_1   0.92%     174.4MiB / 15.07GiB   1.13%     268kB / 195kB   0B / 1.88MB   43
Feb 12 02:58:56 CONTAINER ID   NAME                  CPU %     MEM USAGE / LIMIT     MEM %     NET I/O         BLOCK I/O     PIDS
Feb 12 02:58:56 060c81b0eff1   noprov_repoSystem_1   1.85%     174.5MiB / 15.07GiB   1.13%     274kB / 200kB   0B / 1.88MB   43
Feb 12 02:58:59 CONTAINER ID   NAME                  CPU %     MEM USAGE / LIMIT     MEM %     NET I/O         BLOCK I/O     PIDS
Feb 12 02:58:59 060c81b0eff1   noprov_repoSystem_1   5.26%     174.6MiB / 15.07GiB   1.13%     279kB / 205kB   0B / 1.88MB   43
Feb 12 02:59:02 CONTAINER ID   NAME                  CPU %     MEM USAGE / LIMIT     MEM %     NET I/O         BLOCK I/O     PIDS
Feb 12 02:59:02 060c81b0eff1   noprov_repoSystem_1   2.92%     174.6MiB / 15.07GiB   1.13%     287kB / 212kB   0B / 1.88MB   43
Feb 12 02:59:04 CONTAINER ID   NAME                  CPU %     MEM USAGE / LIMIT     MEM %     NET I/O         BLOCK I/O     PIDS
Feb 12 02:59:04 060c81b0eff1   noprov_repoSystem_1   2.46%     174.6MiB / 15.07GiB   1.13%     294kB / 217kB   0B / 1.88MB   43
Feb 12 02:59:07 CONTAINER ID   NAME                  CPU %     MEM USAGE / LIMIT     MEM %     NET I/O         BLOCK I/O     PIDS
Feb 12 02:59:07 060c81b0eff1   noprov_repoSystem_1   2.37%     174.6MiB / 15.07GiB   1.13%     302kB / 225kB   0B / 1.88MB   43
Feb 12 02:59:09 CONTAINER ID   NAME                  CPU %     MEM USAGE / LIMIT     MEM %     NET I/O         BLOCK I/O     PIDS
Feb 12 02:59:09 060c81b0eff1   noprov_repoSystem_1   3.18%     174.7MiB / 15.07GiB   1.13%     308kB / 231kB   0B / 1.88MB   43
Feb 12 02:59:12 CONTAINER ID   NAME                  CPU %     MEM USAGE / LIMIT     MEM %     NET I/O         BLOCK I/O     PIDS
Feb 12 02:59:12 060c81b0eff1   noprov_repoSystem_1   0.87%     174.6MiB / 15.07GiB   1.13%     314kB / 235kB   0B / 1.88MB   43
Feb 12 02:59:15 CONTAINER ID   NAME                  CPU %     MEM USAGE / LIMIT     MEM %     NET I/O         BLOCK I/O     PIDS
Feb 12 02:59:15 060c81b0eff1   noprov_repoSystem_1   2.04%     174.6MiB / 15.07GiB   1.13%     318kB / 239kB   0B / 1.88MB   43
Feb 12 02:59:17 CONTAINER ID   NAME                  CPU %     MEM USAGE / LIMIT     MEM %     NET I/O         BLOCK I/O     PIDS
Feb 12 02:59:17 060c81b0eff1   noprov_repoSystem_1   4.51%     174.7MiB / 15.07GiB   1.13%     326kB / 246kB   0B / 1.88MB   43
Feb 12 02:59:20 CONTAINER ID   NAME                  CPU %     MEM USAGE / LIMIT     MEM %     NET I/O         BLOCK I/O     PIDS
Feb 12 02:59:20 060c81b0eff1   noprov_repoSystem_1   2.09%     174.7MiB / 15.07GiB   1.13%     333kB / 252kB   0B / 1.88MB   43
Feb 12 02:59:23 CONTAINER ID   NAME                  CPU %     MEM USAGE / LIMIT     MEM %     NET I/O         BLOCK I/O     PIDS
Feb 12 02:59:23 060c81b0eff1   noprov_repoSystem_1   0.65%     174.7MiB / 15.07GiB   1.13%     337kB / 255kB   0B / 1.88MB   43
Feb 12 02:59:25 CONTAINER ID   NAME                  CPU %     MEM USAGE / LIMIT     MEM %     NET I/O         BLOCK I/O     PIDS
Feb 12 02:59:25 060c81b0eff1   noprov_repoSystem_1   0.87%     174.7MiB / 15.07GiB   1.13%     341kB / 256kB   0B / 1.88MB   43
Feb 12 02:59:28 CONTAINER ID   NAME                  CPU %     MEM USAGE / LIMIT     MEM %     NET I/O         BLOCK I/O     PIDS
Feb 12 02:59:28 060c81b0eff1   noprov_repoSystem_1   4.33%     174.8MiB / 15.07GiB   1.13%     342kB / 257kB   0B / 1.88MB   43
