elapsedWallClockMillis,totalMemoryBytes
10,1218904
1106,1615144
2120,1615856
3134,1616440
4145,1615792
5154,1609768
6167,1611336
7181,1611192
8196,1612248
9206,1612648
10221,1609848
11236,1609240
12247,1610008
13260,1611448
14273,1612760
15286,1611432
16297,1613064
17311,1614080
18323,1613952
19341,1614520
20356,1610632
21367,1613576
22381,1613672
23396,1613928
24412,1614392
25425,1612864
26439,1614848
27454,1614528
28466,1614464
29477,1614352
30491,1611976
31505,1613464
32519,1611048
33531,1613072
34542,1611032
35556,1613312
36567,1612800
37582,1613728
38596,1613096
39608,1611160
40628,1611600
41640,1612256
42657,1613376
43666,1614840
44676,1612184
45688,1612640
46699,1611760
47714,1612568
48730,1613920
49742,1611864
50757,1612840
51776,1613312
52791,1612936
53803,1613224
54818,1610904
55827,1613928
56842,1613504
57861,1616016
58876,1614392
59890,1612608
60907,1613008
61919,1613824
62931,1613408
63942,1612200
64953,1614744
65971,1613080
66982,1614632
67993,1615608
69004,1609984
70013,1614120
71022,1613568
72032,1610968
73050,1614528
74063,1610752
75081,1614128
76094,1613792
77106,1615080
78118,1613736
79129,1612544
80146,1615128
81157,1614128
82169,1615016
83181,1611272
84197,1613912
85212,1613360
86224,1613056
87236,1613392
88254,1612184
89270,1613400
90279,1613840
91293,1613856
92304,1613720
93313,1611944
94324,1613528
95340,1614200
96351,1614240
97365,1615392
98380,1611768
99393,1612664
100405,1615088
101423,1616928
102436,1616808
103446,1615400
104461,1616608
105474,1616824
106488,1617112
107503,1616488
108516,1617904
109525,1617168
110538,1618592
111554,1619432
112568,1621264
113581,1615640
114592,1617168
115607,1617160
116629,1618304
117643,1617344
118657,1617064
119668,1616160
120681,1618904
121695,1617896
122710,1618232
123726,1617384
124739,1618848
125757,1618456
126771,1616880
127788,1614776
128803,1615528
129820,1617736
130835,1616728
131855,1616528
132867,1616752
133879,1616696
134892,1617368
135907,1619640
136929,1619640
137941,1616400
138958,1616648
139974,1616808
140996,1616104
142010,1616592
143028,1616088
144044,1616008
145064,1617152
146082,1618240
147093,1618920
148105,1617752
149121,1617744
150131,1616280
151140,1617688
152151,1614384
153163,1615568
154176,1618416
155199,1618968
156212,1617880
157224,1615512
158243,1617768
159257,1616528
160270,1618264
161281,1617416
162292,1617552
163307,1616936
164323,1619560
165335,1620240
166351,1621224
167362,1615720
168379,1618184
169395,1618448
170409,1617376
171424,1619080
172435,1618080
173449,1618080
174465,1619432
175488,1619192
176500,1617888
177515,1615400
178531,1615608
179546,1617928
180559,1619392
181573,1613808
182586,1617304
183603,1615840
184619,1616952
185645,1618016
186657,1615688
187667,1618136
188682,1616696
189697,1616512
190711,1616160
191727,1616504
192738,1616616
193752,1616720
194767,1619120
195779,1617232
196801,1615360
197816,1618984
198828,1616208
199843,1618856
200851,1619600
201866,1616680
202879,1616288
203891,1616232
204910,1616376
205925,1617104
206945,1617792
207957,1615360
208970,1617144
209982,1617672
210994,1613472
212005,1616720
213018,1615800
214033,1617344
215047,1618048
216057,1614920
217071,1617136
218088,1618568
219099,1617752
220114,1618528
221132,1617064
222148,1617280
223158,1618128
224176,1617696
225188,1617640
226201,1615400
227214,1618552
228227,1617856
229242,1618224
230256,1618936
231266,1615600
232283,1618696
233298,1618504
234308,1618008
235319,1618136
236333,1616752
237346,1616824
238359,1618648
239374,1618352
240387,1618104
241401,1618944
242421,1618832
243434,1617328
244457,1618848
245470,1615320
246488,1618728
247499,1619192
248509,1618176
249523,1616944
250540,1615928
251553,1616464
252565,1618800
253589,1617944
254604,1617952
255618,1616664
256637,1617768
257650,1617456
258663,1616872
259680,1616368
260694,1616312
261715,1617832
262727,1616512
263744,1616792
264755,1618440
265770,1615536
266785,1617920
267797,1618344
268815,1618080
269829,1613712
270842,1618392
271866,1617608
272879,1617520
273891,1619688
274911,1613968
275926,1618840
276940,1615016
277955,1617208
278967,1618640
279986,1616624
280999,1618144
282021,1619088
283035,1617056
284055,1616560
285071,1615824
286092,1617456
287107,1617232
288121,1617720
289139,1617720
290154,1617224
291163,1618568
292185,1618440
293198,1618824
294219,1619392
295233,1617360
296258,1615880
297269,1617816
298282,1618864
299295,1615360
300312,1617112
301323,1619560
302337,1617600
303354,1620280
304365,1615712
305381,1617952
306390,1616392
307408,1618624
308422,1618032
309435,1615816
310447,1615832
311462,1618240
312475,1618488
313488,1616888
314503,1616912
315516,1615320
316527,1617912
317540,1618720
318554,1617768
319572,1614600
320587,1616848
321609,1617760
322623,1619696
323644,1616728
324659,1614824
325669,1617472
326686,1617816
327699,1617312
328721,1613896
329738,1618936
330754,1618712
331771,1618760
332784,1617864
333799,1614504
334819,1617440
335834,1615952
336849,1616840
337863,1618080
338875,1617392
339892,1617176
340904,1613264
341920,1618832
342934,1618464
343948,1616864
344963,1616536
345975,1618336
346989,1619200
348002,1617544
349016,1616680
350034,1617624
351048,1618416
352066,1618136
353079,1620448
354094,1615088
355109,1616056
356123,1615608
357134,1618224
358152,1614408
359160,1616816
360171,1618736
361184,1618224
362199,1617088
363212,1615448
364227,1614184
365247,1618160
366259,1616848
367276,1617072
368292,1615592
369307,1616512
370321,1616016
371335,1617032
372346,1617736
373359,1616392
374376,1617528
375392,1617536
376405,1617904
377416,1617632
378428,1616632
379452,1617640
380466,1617816
381479,1620280
382493,1618888
383502,1617008
384517,1617072
385529,1618392
386544,1617304
387562,1615384
388576,1618536
389587,1616664
390601,1618760
391613,1619200
392627,1616352
393639,1617352
394659,1614744
395667,1617000
396678,1619016
397695,1617408
398714,1618272
399727,1617528
400747,1615792
401763,1618520
402777,1613272
403801,1619064
404815,1618400
405827,1618064
406843,1617912
407858,1617176
408869,1618304
409881,1619304
410894,1617896
411908,1620096
412923,1615936
413935,1618520
414950,1616656
415964,1618048
416981,1614040
417995,1617176
419010,1618088
420023,1618264
421037,1619480
421820,1610168
