elapsedWallClockMillis,totalMemoryBytes
9,1218856
1099,1614848
2113,1616192
3127,1616312
4140,1615944
5158,1608528
6176,1611216
7191,1611248
8203,1612016
9215,1612344
10229,1609432
11245,1610312
12259,1612808
13276,1611488
14290,1611976
15305,1612232
16319,1612368
17333,1614344
18353,1614336
19367,1614144
20381,1611168
21407,1613168
22422,1612656
23437,1613936
24449,1614928
25461,1613504
26476,1614800
27486,1614376
28498,1614616
29513,1614888
30526,1612056
31536,1614096
32552,1611080
33565,1612984
34578,1609128
35593,1614192
36606,1613872
37618,1613736
38631,1614616
39653,1611520
40662,1612408
41672,1613544
42686,1612608
43700,1613224
44710,1612952
45720,1613936
46732,1612992
47744,1612992
48758,1613232
49769,1612344
50782,1613160
51794,1614152
52808,1612968
53823,1614912
54837,1611264
55849,1614512
56865,1614376
57876,1614912
58895,1615096
59906,1613440
60926,1611664
61940,1613248
62967,1613544
63984,1612712
65000,1613544
66020,1613512
67032,1614968
68046,1614696
69057,1611080
70069,1613288
71083,1613880
72093,1613544
73106,1612640
74118,1612584
75137,1612400
76149,1613656
77164,1614112
78184,1613496
79200,1613672
80211,1613712
81223,1614264
82235,1613400
83257,1614920
84272,1611424
85288,1615472
86301,1615216
87312,1613520
88326,1612856
89341,1613720
90353,1614672
91368,1614424
92384,1615432
93400,1612848
94413,1614536
95435,1615568
96447,1615704
97466,1615688
98479,1611400
99490,1613944
100504,1614976
101514,1614344
102527,1614552
103543,1614224
104553,1615600
105563,1617864
106574,1615288
107586,1617416
108598,1613336
109611,1617536
110628,1617400
111640,1620032
112654,1619704
113667,1617152
114681,1617008
115693,1617496
116708,1617808
117720,1618360
118734,1617368
119756,1616984
120772,1618016
121789,1618696
122802,1615640
123814,1617808
124829,1618432
125845,1617592
126860,1619968
127870,1614304
128894,1614208
129909,1616960
130929,1616632
131944,1616648
132964,1616024
133981,1616256
134995,1618728
136014,1617776
137026,1618000
138040,1616072
139052,1618336
140074,1616248
141088,1617136
142106,1617216
143117,1615816
144131,1617064
145145,1616480
146161,1616696
147178,1615944
148193,1616888
149208,1614160
150226,1618216
151237,1617240
152250,1614800
153263,1615048
154276,1617000
155293,1615808
156308,1617256
157317,1616536
158329,1616168
159343,1617856
160359,1618008
161373,1617672
162395,1617632
163412,1617120
164421,1618336
165444,1616280
166457,1617744
167475,1615296
168489,1617592
169502,1617600
170517,1617392
171532,1618520
172551,1617672
173562,1618424
174585,1619176
175597,1618120
176605,1618376
177617,1615624
178630,1616192
179645,1619208
180660,1618288
181674,1616000
182685,1618752
183697,1616872
184712,1615064
185720,1620016
186736,1616808
187751,1616352
188765,1618088
189779,1618792
190790,1617768
191810,1614680
192826,1617480
193842,1617688
194859,1619528
195872,1616224
196880,1617192
197902,1616824
198910,1617800
199921,1615560
200941,1618536
201956,1615408
202980,1617944
203994,1618296
205016,1616784
206033,1616536
207046,1617392
208061,1617064
209069,1618152
210080,1616992
211092,1614920
212116,1618424
213133,1618088
214143,1618520
215156,1615712
216165,1613688
217175,1618136
218188,1616840
219200,1617120
220215,1616376
221237,1616432
222252,1617176
223272,1617928
224287,1618776
225300,1617768
226312,1617008
227328,1617480
228343,1618176
229368,1616640
230380,1618512
231395,1617368
232408,1617624
233421,1618888
234439,1615776
235452,1619136
236465,1618384
237489,1616760
238505,1617144
239521,1615960
240537,1615640
241549,1618336
242562,1619064
243575,1617576
244589,1619336
245603,1615072
246616,1617808
247630,1618136
248641,1616696
249653,1617744
250676,1617000
251691,1617104
252706,1616640
253723,1619112
254737,1617736
255763,1617048
256773,1618352
257788,1617656
258802,1618096
259819,1616456
260843,1616592
261857,1616536
262875,1618512
263886,1619408
264907,1618168
265917,1615648
266932,1618736
267945,1618136
268960,1618088
269975,1615032
270993,1617656
272013,1617544
273027,1617840
274040,1618736
275052,1616008
276064,1617536
277072,1618240
278095,1617776
279111,1618616
280123,1616936
281138,1618800
282158,1618872
283167,1619240
284181,1616584
285191,1618832
286207,1618896
287221,1618056
288231,1618016
289241,1617336
290254,1615432
291267,1616424
292281,1618352
293293,1618744
294306,1619264
295320,1615000
296332,1617584
297343,1616520
298355,1616856
299368,1615112
300391,1618264
301407,1619728
302436,1618048
303449,1617408
304467,1615848
305483,1617872
306505,1618456
307520,1618088
308530,1618072
309540,1616656
310553,1617496
311563,1618856
312584,1617560
313597,1618392
314607,1616672
315626,1616864
316641,1617664
317654,1618896
318670,1619768
319684,1616776
320695,1617128
321713,1617528
322727,1619336
323739,1615368
324753,1616328
325768,1616256
326779,1617336
327798,1617832
328809,1615856
329823,1617064
330834,1617488
331849,1619176
332859,1618864
333873,1615792
334885,1616416
335903,1616528
336919,1617328
337938,1617184
338952,1616144
339980,1617808
340996,1618344
342016,1619952
343034,1620024
344048,1616496
345061,1617520
346075,1617856
347088,1616192
348104,1618400
349115,1617880
350132,1618816
351145,1619496
352159,1618336
353178,1612296
354193,1616072
355208,1618008
356223,1617312
357240,1619224
358252,1616496
359277,1618264
360292,1617072
361306,1618296
362321,1619408
363336,1615600
364347,1617552
365359,1618264
366372,1617936
367386,1619384
368401,1617200
369415,1616736
370438,1619112
371451,1616848
372474,1620000
373489,1618216
374499,1615000
375508,1620096
376523,1618200
377537,1619208
378550,1616184
379564,1617528
380577,1617496
381592,1618392
382602,1613280
383625,1616424
384639,1617448
385653,1619056
386667,1617808
387682,1615008
388693,1617808
389708,1619336
390718,1617960
391732,1618264
392746,1616152
393761,1617840
394773,1617288
395785,1618896
396797,1618336
397812,1617448
398827,1617888
399846,1617976
400858,1616912
401868,1618160
402881,1615800
403899,1616448
404914,1617208
405932,1617528
406945,1618152
407960,1618264
408976,1616624
409989,1619008
411006,1617704
412017,1614536
413036,1617600
414046,1617912
415057,1617608
416069,1618976
417080,1615840
418098,1617712
419112,1616720
420127,1618424
421148,1618120
421814,1610168
