elapsedWallClockMillis,totalMemoryBytes
13,4007512
1204,9833480
2244,10264080
3313,10359656
4387,10364552
5478,10368776
6550,10365728
7642,10371112
8670,10382392
9744,10372888
10768,10379056
11861,10384480
12897,10397544
13964,10407072
15065,10417000
16157,10426376
17241,10436104
18321,10445632
19409,10455104
20486,10465440
21518,10483648
22596,10474888
23668,10484400
24751,10493040
25808,10501856
26888,10511040
27998,10521280
29086,10531496
30185,10539992
31280,10550528
32238,10606168
