elapsedWallClockMillis,totalMemoryBytes
25,6370032
1176,10962784
2204,11251256
3269,11323544
4336,11334392
5412,11335352
6468,11336624
7523,11340400
8547,11342656
9600,11350248
10671,11351512
11747,11353448
12826,11356704
13862,11371848
14934,11363656
16030,11364752
17135,11368736
18191,11376616
19265,11385024
20335,11388456
21391,11404328
22478,11421400
23563,11427792
24640,11437312
25715,11440488
26799,11443352
27882,11449024
28959,11450728
30037,11453128
31099,11453384
32136,11454248
32536,11374016
