elapsedWallClockMillis,totalMemoryBytes
19,6415840
1159,11078784
2196,11272256
3242,11322496
4291,11333216
5338,11334104
6400,11335728
7465,11337632
8482,11343552
9505,11358272
10537,11353728
11616,11350264
12689,11355096
13772,11359304
14840,11363360
15904,11364728
16978,11368488
18049,11378792
19118,11386856
20193,11396368
21245,11405248
22329,11416816
23439,11426232
24460,11439040
25530,11439200
26596,11440024
27652,11444560
28745,11444928
29820,11450768
30904,11451952
31974,11454800
32525,11374648
