elapsedWallClockMillis,totalMemoryBytes
9,6396000
1143,11055048
2159,11233800
3206,11323440
4268,11334040
5338,11334768
6403,11336648
7465,11340616
8490,11343608
9508,11358296
10558,11352728
11641,11353320
12714,11355024
13790,11360056
14843,11364024
15894,11365520
16949,11368816
18048,11377360
19128,11384768
20149,11388272
21207,11402608
22262,11416664
23336,11426560
24414,11435360
25494,11439408
26576,11441968
27648,11447728
28725,11449304
29802,11451864
30877,11451784
31954,11453752
32662,11373176
