file,elapsedWallMillis,peakMemoryBytes
janus-inmemory/java/memory-1613068504527.csv,40160,18639792
janus-inmemory/java/memory-1613068577671.csv,40996,18737280
janus-inmemory/java/memory-1613068651845.csv,40491,18765664
janus-inmemory/java/memory-1613068725433.csv,42174,18747552
janus-inmemory/java/memory-1613068801053.csv,40230,18663336
janus-inmemory/java/memory-1613068875132.csv,40819,18711808
janus-inmemory/java/memory-1613068950024.csv,41060,18702984
janus-inmemory/java/memory-1613069025196.csv,40943,18744352
janus-inmemory/java/memory-1613069099212.csv,41508,18766824
janus-inmemory/java/memory-1613069173885.csv,40272,18691176
