file,elapsedWallMillis,peakMemoryBytes
cdo/java/memory-1613066493814.csv,32856,18501248
cdo/java/memory-1613066560509.csv,32947,18476208
cdo/java/memory-1613066626680.csv,33612,18622296
cdo/java/memory-1613066693625.csv,33422,18401560
cdo/java/memory-1613066760209.csv,33376,19951624
cdo/java/memory-1613066826952.csv,32974,18647784
cdo/java/memory-1613066893149.csv,33710,20429664
cdo/java/memory-1613066960209.csv,33077,18555920
cdo/java/memory-1613067026497.csv,33433,20142088
cdo/java/memory-1613067093292.csv,33674,20170256
