file,elapsedWallMillis,peakMemoryBytes
cdo/java/memory-1610905349958.csv,34119,18890152
cdo/java/memory-1610905417622.csv,33488,18919872
cdo/java/memory-1610905487285.csv,33870,18858648
cdo/java/memory-1610905556606.csv,33373,18875032
cdo/java/memory-1610905626586.csv,33358,18916872
cdo/java/memory-1610905697056.csv,33884,20852248
cdo/java/memory-1610905767083.csv,33432,18925848
cdo/java/memory-1610905836766.csv,34046,18955328
cdo/java/memory-1610905907540.csv,33728,20350600
cdo/java/memory-1610905983653.csv,33625,18866920
