THREAD-3 MAPELoopTime = 234ms : null : Commit:Thread-3 ChangeSetData[newObjects=0, changedObjects=1, detachedObjects=0] : Commit:Thread-3 ChangeSetData[newObjects=0, changedObjects=1, detachedObjects=0] : Commit:Thread-3 ChangeSetData[newObjects=0, changedObjects=1, detachedObjects=0] : Commit:Thread-3 ChangeSetData[newObjects=0, changedObjects=2, detachedObjects=0]
THREAD-3 MAPELoopTime = 134ms : null : Commit:Thread-3 ChangeSetData[newObjects=0, changedObjects=0, detachedObjects=0] : Commit:Thread-3 ChangeSetData[newObjects=0, changedObjects=0, detachedObjects=0] : Commit:Thread-3 ChangeSetData[newObjects=0, changedObjects=0, detachedObjects=0] : Commit:Thread-3 ChangeSetData[newObjects=0, changedObjects=2, detachedObjects=0]
THREAD-3 MAPELoopTime = 189ms : null : Commit:Thread-3 ChangeSetData[newObjects=0, changedObjects=0, detachedObjects=0] : Commit:Thread-3 ChangeSetData[newObjects=0, changedObjects=0, detachedObjects=0] : Commit:Thread-3 ChangeSetData[newObjects=0, changedObjects=0, detachedObjects=0] : Commit:Thread-3 ChangeSetData[newObjects=0, changedObjects=0, detachedObjects=0]
THREAD-3 MAPELoopTime = 191ms : null : Commit:Thread-3 ChangeSetData[newObjects=0, changedObjects=0, detachedObjects=0] : Commit:Thread-3 ChangeSetData[newObjects=0, changedObjects=0, detachedObjects=0] : Commit:Thread-3 ChangeSetData[newObjects=0, changedObjects=0, detachedObjects=0] : Commit:Thread-3 ChangeSetData[newObjects=0, changedObjects=0, detachedObjects=0]
THREAD-3 MAPELoopTime = 75ms : null : Commit:Thread-3 ChangeSetData[newObjects=0, changedObjects=0, detachedObjects=0] : Commit:Thread-3 ChangeSetData[newObjects=0, changedObjects=0, detachedObjects=0] : Commit:Thread-3 ChangeSetData[newObjects=0, changedObjects=0, detachedObjects=0] : Commit:Thread-3 ChangeSetData[newObjects=0, changedObjects=0, detachedObjects=0]
THREAD-3 MAPELoopTime = 190ms : null : Commit:Thread-3 ChangeSetData[newObjects=0, changedObjects=0, detachedObjects=0] : Commit:Thread-3 ChangeSetData[newObjects=0, changedObjects=0, detachedObjects=0] : Commit:Thread-3 ChangeSetData[newObjects=0, changedObjects=0, detachedObjects=0] : Commit:Thread-3 ChangeSetData[newObjects=0, changedObjects=0, detachedObjects=0]
THREAD-3 MAPELoopTime = 18ms : null : Commit:Thread-3 ChangeSetData[newObjects=0, changedObjects=1, detachedObjects=0] : Commit:Thread-3 ChangeSetData[newObjects=0, changedObjects=1, detachedObjects=0] : Commit:Thread-3 ChangeSetData[newObjects=0, changedObjects=0, detachedObjects=0] : Commit:Thread-3 ChangeSetData[newObjects=0, changedObjects=0, detachedObjects=0]
THREAD-3 MAPELoopTime = 123ms : null : Commit:Thread-3 ChangeSetData[newObjects=0, changedObjects=0, detachedObjects=0] : Commit:Thread-3 ChangeSetData[newObjects=0, changedObjects=1, detachedObjects=0] : Commit:Thread-3 ChangeSetData[newObjects=0, changedObjects=1, detachedObjects=0] : Commit:Thread-3 ChangeSetData[newObjects=0, changedObjects=0, detachedObjects=0]
THREAD-3 MAPELoopTime = 244ms : null : Commit:Thread-3 ChangeSetData[newObjects=0, changedObjects=1, detachedObjects=0] : Commit:Thread-3 ChangeSetData[newObjects=0, changedObjects=1, detachedObjects=0] : Commit:Thread-3 ChangeSetData[newObjects=0, changedObjects=1, detachedObjects=0] : Commit:Thread-3 ChangeSetData[newObjects=0, changedObjects=2, detachedObjects=0]
THREAD-3 MAPELoopTime = 207ms : null : Commit:Thread-3 ChangeSetData[newObjects=0, changedObjects=0, detachedObjects=0] : Commit:Thread-3 ChangeSetData[newObjects=0, changedObjects=1, detachedObjects=0] : Commit:Thread-3 ChangeSetData[newObjects=0, changedObjects=0, detachedObjects=0] : Commit:Thread-3 ChangeSetData[newObjects=0, changedObjects=2, detachedObjects=0]
THREAD-3 MAPELoopTime = 204ms : null : Commit:Thread-3 ChangeSetData[newObjects=0, changedObjects=2, detachedObjects=0] : Commit:Thread-3 ChangeSetData[newObjects=0, changedObjects=0, detachedObjects=0] : Commit:Thread-3 ChangeSetData[newObjects=0, changedObjects=0, detachedObjects=0] : Commit:Thread-3 ChangeSetData[newObjects=0, changedObjects=2, detachedObjects=0]
THREAD-3 MAPELoopTime = 200ms : null : Commit:Thread-3 ChangeSetData[newObjects=0, changedObjects=3, detachedObjects=0] : Commit:Thread-3 ChangeSetData[newObjects=0, changedObjects=0, detachedObjects=0] : Commit:Thread-3 ChangeSetData[newObjects=0, changedObjects=0, detachedObjects=0] : Commit:Thread-3 ChangeSetData[newObjects=0, changedObjects=2, detachedObjects=0]
THREAD-3 MAPELoopTime = 181ms : null : Commit:Thread-3 ChangeSetData[newObjects=0, changedObjects=2, detachedObjects=0] : Commit:Thread-3 ChangeSetData[newObjects=0, changedObjects=0, detachedObjects=0] : Commit:Thread-3 ChangeSetData[newObjects=0, changedObjects=0, detachedObjects=0] : Commit:Thread-3 ChangeSetData[newObjects=0, changedObjects=0, detachedObjects=0]
THREAD-3 MAPELoopTime = 68ms : null : Commit:Thread-3 ChangeSetData[newObjects=0, changedObjects=3, detachedObjects=0] : Commit:Thread-3 ChangeSetData[newObjects=0, changedObjects=0, detachedObjects=0] : Commit:Thread-3 ChangeSetData[newObjects=0, changedObjects=0, detachedObjects=0] : Commit:Thread-3 ChangeSetData[newObjects=0, changedObjects=0, detachedObjects=0]
THREAD-3 MAPELoopTime = 186ms : null : Commit:Thread-3 ChangeSetData[newObjects=0, changedObjects=4, detachedObjects=0] : Commit:Thread-3 ChangeSetData[newObjects=0, changedObjects=0, detachedObjects=0] : Commit:Thread-3 ChangeSetData[newObjects=0, changedObjects=0, detachedObjects=0] : Commit:Thread-3 ChangeSetData[newObjects=0, changedObjects=0, detachedObjects=0]
THREAD-3 MAPELoopTime = 243ms : null : Commit:Thread-3 ChangeSetData[newObjects=0, changedObjects=5, detachedObjects=0] : Commit:Thread-3 ChangeSetData[newObjects=0, changedObjects=0, detachedObjects=0] : Commit:Thread-3 ChangeSetData[newObjects=0, changedObjects=0, detachedObjects=0] : Commit:Thread-3 ChangeSetData[newObjects=0, changedObjects=0, detachedObjects=0]
THREAD-3 MAPELoopTime = 164ms : null : Commit:Thread-3 ChangeSetData[newObjects=0, changedObjects=4, detachedObjects=0] : Commit:Thread-3 ChangeSetData[newObjects=0, changedObjects=0, detachedObjects=0] : Commit:Thread-3 ChangeSetData[newObjects=0, changedObjects=0, detachedObjects=0] : Commit:Thread-3 ChangeSetData[newObjects=0, changedObjects=0, detachedObjects=0]
THREAD-3 MAPELoopTime = 72ms : null : Commit:Thread-3 ChangeSetData[newObjects=0, changedObjects=3, detachedObjects=0] : Commit:Thread-3 ChangeSetData[newObjects=0, changedObjects=1, detachedObjects=0] : Commit:Thread-3 ChangeSetData[newObjects=0, changedObjects=0, detachedObjects=0] : Commit:Thread-3 ChangeSetData[newObjects=0, changedObjects=0, detachedObjects=0]
THREAD-3 MAPELoopTime = 215ms : null : Commit:Thread-3 ChangeSetData[newObjects=0, changedObjects=4, detachedObjects=0] : Commit:Thread-3 ChangeSetData[newObjects=0, changedObjects=0, detachedObjects=0] : Commit:Thread-3 ChangeSetData[newObjects=0, changedObjects=0, detachedObjects=0] : Commit:Thread-3 ChangeSetData[newObjects=0, changedObjects=0, detachedObjects=0]
THREAD-3 MAPELoopTime = 25ms : null : Commit:Thread-3 ChangeSetData[newObjects=0, changedObjects=2, detachedObjects=0] : Commit:Thread-3 ChangeSetData[newObjects=0, changedObjects=0, detachedObjects=0] : Commit:Thread-3 ChangeSetData[newObjects=0, changedObjects=0, detachedObjects=0] : Commit:Thread-3 ChangeSetData[newObjects=0, changedObjects=0, detachedObjects=0]
THREAD-3 MAPELoopTime = 33ms : null : Commit:Thread-3 ChangeSetData[newObjects=0, changedObjects=3, detachedObjects=0] : Commit:Thread-3 ChangeSetData[newObjects=0, changedObjects=0, detachedObjects=0] : Commit:Thread-3 ChangeSetData[newObjects=0, changedObjects=0, detachedObjects=0] : Commit:Thread-3 ChangeSetData[newObjects=0, changedObjects=0, detachedObjects=0]
THREAD-3 MAPELoopTime = 220ms : null : Commit:Thread-3 ChangeSetData[newObjects=0, changedObjects=4, detachedObjects=0] : Commit:Thread-3 ChangeSetData[newObjects=0, changedObjects=1, detachedObjects=0] : Commit:Thread-3 ChangeSetData[newObjects=0, changedObjects=0, detachedObjects=0] : Commit:Thread-3 ChangeSetData[newObjects=0, changedObjects=0, detachedObjects=0]
THREAD-3 MAPELoopTime = 204ms : null : Commit:Thread-3 ChangeSetData[newObjects=0, changedObjects=3, detachedObjects=0] : Commit:Thread-3 ChangeSetData[newObjects=0, changedObjects=1, detachedObjects=0] : Commit:Thread-3 ChangeSetData[newObjects=0, changedObjects=0, detachedObjects=0] : Commit:Thread-3 ChangeSetData[newObjects=0, changedObjects=0, detachedObjects=0]
THREAD-3 MAPELoopTime = 201ms : null : Commit:Thread-3 ChangeSetData[newObjects=0, changedObjects=4, detachedObjects=0] : Commit:Thread-3 ChangeSetData[newObjects=0, changedObjects=0, detachedObjects=0] : Commit:Thread-3 ChangeSetData[newObjects=0, changedObjects=0, detachedObjects=0] : Commit:Thread-3 ChangeSetData[newObjects=0, changedObjects=0, detachedObjects=0]
THREAD-3 MAPELoopTime = 205ms : null : Commit:Thread-3 ChangeSetData[newObjects=0, changedObjects=4, detachedObjects=0] : Commit:Thread-3 ChangeSetData[newObjects=0, changedObjects=1, detachedObjects=0] : Commit:Thread-3 ChangeSetData[newObjects=0, changedObjects=0, detachedObjects=0] : Commit:Thread-3 ChangeSetData[newObjects=0, changedObjects=0, detachedObjects=0]
THREAD-3 MAPELoopTime = 199ms : null : Commit:Thread-3 ChangeSetData[newObjects=0, changedObjects=4, detachedObjects=0] : Commit:Thread-3 ChangeSetData[newObjects=0, changedObjects=0, detachedObjects=0] : Commit:Thread-3 ChangeSetData[newObjects=0, changedObjects=0, detachedObjects=0] : Commit:Thread-3 ChangeSetData[newObjects=0, changedObjects=0, detachedObjects=0]
