Dec 23 22:01:39 CONTAINER ID   NAME        CPU %     MEM USAGE / LIMIT     MEM %     NET I/O       BLOCK I/O         PIDS
Dec 23 22:01:39 175a7162e018   portainer   0.00%     16.11MiB / 15.66GiB   0.10%     9.05kB / 0B   58.1MB / 1.64MB   6
Dec 23 22:01:39                --          0.00%     0B / 0B               0.00%     0B / 0B       0B / 0B           0
Dec 23 22:01:43 CONTAINER ID   NAME                    CPU %     MEM USAGE / LIMIT     MEM %     NET I/O       BLOCK I/O         PIDS
Dec 23 22:01:43 52c55a0d1158   prov_aic_janusgraph_1   233.89%   666.6MiB / 15.66GiB   4.16%     5.05kB / 0B   0B / 233kB        21
Dec 23 22:01:43 175a7162e018   portainer               0.00%     16.11MiB / 15.66GiB   0.10%     9.05kB / 0B   58.1MB / 1.64MB   6
Dec 23 22:01:46 CONTAINER ID   NAME                    CPU %     MEM USAGE / LIMIT     MEM %     NET I/O       BLOCK I/O         PIDS
Dec 23 22:01:46 52c55a0d1158   prov_aic_janusgraph_1   316.12%   725.6MiB / 15.66GiB   4.52%     6.41kB / 0B   0B / 233kB        22
Dec 23 22:01:46 175a7162e018   portainer               0.00%     16.11MiB / 15.66GiB   0.10%     9.05kB / 0B   58.1MB / 1.64MB   6
Dec 23 22:01:50 CONTAINER ID   NAME                    CPU %     MEM USAGE / LIMIT     MEM %     NET I/O       BLOCK I/O         PIDS
Dec 23 22:01:50 52c55a0d1158   prov_aic_janusgraph_1   143.65%   110.3MiB / 15.66GiB   0.69%     6.71kB / 0B   0B / 332kB        16
Dec 23 22:01:50 175a7162e018   portainer               0.00%     16.11MiB / 15.66GiB   0.10%     9.05kB / 0B   58.1MB / 1.64MB   6
Dec 23 22:01:54 CONTAINER ID   NAME                    CPU %     MEM USAGE / LIMIT     MEM %     NET I/O       BLOCK I/O         PIDS
Dec 23 22:01:54 52c55a0d1158   prov_aic_janusgraph_1   181.20%   708.2MiB / 15.66GiB   4.42%     6.79kB / 0B   0B / 332kB        21
Dec 23 22:01:54 175a7162e018   portainer               0.02%     16.11MiB / 15.66GiB   0.10%     9.05kB / 0B   58.1MB / 1.64MB   6
Dec 23 22:01:57 CONTAINER ID   NAME                    CPU %     MEM USAGE / LIMIT     MEM %     NET I/O       BLOCK I/O         PIDS
Dec 23 22:01:57 52c55a0d1158   prov_aic_janusgraph_1   0.09%     725.2MiB / 15.66GiB   4.52%     7.09kB / 0B   0B / 332kB        22
Dec 23 22:01:57 175a7162e018   portainer               0.00%     16.11MiB / 15.66GiB   0.10%     9.05kB / 0B   58.1MB / 1.64MB   6
Dec 23 22:02:01 CONTAINER ID   NAME                    CPU %     MEM USAGE / LIMIT     MEM %     NET I/O       BLOCK I/O         PIDS
Dec 23 22:02:01 52c55a0d1158   prov_aic_janusgraph_1   0.36%     714.8MiB / 15.66GiB   4.46%     7.09kB / 0B   0B / 332kB        22
Dec 23 22:02:01 175a7162e018   portainer               0.00%     16.11MiB / 15.66GiB   0.10%     9.05kB / 0B   58.1MB / 1.64MB   6
Dec 23 22:02:04 CONTAINER ID   NAME                    CPU %     MEM USAGE / LIMIT     MEM %     NET I/O       BLOCK I/O         PIDS
Dec 23 22:02:04 52c55a0d1158   prov_aic_janusgraph_1   0.09%     714.8MiB / 15.66GiB   4.46%     7.09kB / 0B   0B / 332kB        22
Dec 23 22:02:04 175a7162e018   portainer               0.10%     16.11MiB / 15.66GiB   0.10%     9.05kB / 0B   58.1MB / 1.64MB   6
Dec 23 22:02:08 CONTAINER ID   NAME                    CPU %     MEM USAGE / LIMIT     MEM %     NET I/O       BLOCK I/O         PIDS
Dec 23 22:02:08 52c55a0d1158   prov_aic_janusgraph_1   0.10%     714.8MiB / 15.66GiB   4.46%     7.16kB / 0B   0B / 332kB        22
Dec 23 22:02:08 175a7162e018   portainer               0.00%     16.11MiB / 15.66GiB   0.10%     9.05kB / 0B   58.1MB / 1.64MB   6
Dec 23 22:02:12 CONTAINER ID   NAME                    CPU %     MEM USAGE / LIMIT     MEM %     NET I/O       BLOCK I/O         PIDS
Dec 23 22:02:12 52c55a0d1158   prov_aic_janusgraph_1   0.10%     714.8MiB / 15.66GiB   4.46%     7.24kB / 0B   0B / 332kB        22
Dec 23 22:02:12 175a7162e018   portainer               0.00%     16.11MiB / 15.66GiB   0.10%     9.05kB / 0B   58.1MB / 1.64MB   6
Dec 23 22:02:15 CONTAINER ID   NAME                    CPU %     MEM USAGE / LIMIT     MEM %     NET I/O       BLOCK I/O         PIDS
Dec 23 22:02:15 52c55a0d1158   prov_aic_janusgraph_1   0.10%     714.8MiB / 15.66GiB   4.46%     7.46kB / 0B   0B / 332kB        22
Dec 23 22:02:15 175a7162e018   portainer               0.00%     16.11MiB / 15.66GiB   0.10%     9.05kB / 0B   58.1MB / 1.64MB   6
Dec 23 22:02:19 CONTAINER ID   NAME                    CPU %     MEM USAGE / LIMIT     MEM %     NET I/O       BLOCK I/O         PIDS
Dec 23 22:02:19 52c55a0d1158   prov_aic_janusgraph_1   0.09%     714.8MiB / 15.66GiB   4.46%     7.46kB / 0B   0B / 332kB        22
Dec 23 22:02:19 175a7162e018   portainer               0.00%     16.11MiB / 15.66GiB   0.10%     9.05kB / 0B   58.1MB / 1.64MB   6
Dec 23 22:02:22 CONTAINER ID   NAME                    CPU %     MEM USAGE / LIMIT     MEM %     NET I/O           BLOCK I/O         PIDS
Dec 23 22:02:22 52c55a0d1158   prov_aic_janusgraph_1   37.40%    730.8MiB / 15.66GiB   4.56%     12.8kB / 3.41kB   0B / 332kB        47
Dec 23 22:02:22 175a7162e018   portainer               0.00%     16.11MiB / 15.66GiB   0.10%     9.05kB / 0B       58.1MB / 1.64MB   6
Dec 23 22:02:26 CONTAINER ID   NAME                    CPU %     MEM USAGE / LIMIT     MEM %     NET I/O          BLOCK I/O         PIDS
Dec 23 22:02:26 52c55a0d1158   prov_aic_janusgraph_1   113.46%   744.6MiB / 15.66GiB   4.64%     187kB / 85.9kB   0B / 332kB        49
Dec 23 22:02:26 175a7162e018   portainer               0.00%     16.11MiB / 15.66GiB   0.10%     9.05kB / 0B      58.1MB / 1.64MB   6
Dec 23 22:02:30 CONTAINER ID   NAME                    CPU %     MEM USAGE / LIMIT     MEM %     NET I/O         BLOCK I/O         PIDS
Dec 23 22:02:30 52c55a0d1158   prov_aic_janusgraph_1   124.10%   751.2MiB / 15.66GiB   4.68%     360kB / 168kB   0B / 332kB        49
Dec 23 22:02:30 175a7162e018   portainer               0.00%     16.11MiB / 15.66GiB   0.10%     9.05kB / 0B     58.1MB / 1.64MB   6
Dec 23 22:02:33 CONTAINER ID   NAME                    CPU %     MEM USAGE / LIMIT     MEM %     NET I/O         BLOCK I/O         PIDS
Dec 23 22:02:33 52c55a0d1158   prov_aic_janusgraph_1   0.09%     752MiB / 15.66GiB     4.69%     493kB / 230kB   0B / 332kB        49
Dec 23 22:02:33 175a7162e018   portainer               0.00%     16.11MiB / 15.66GiB   0.10%     9.05kB / 0B     58.1MB / 1.64MB   6
Dec 23 22:02:37 CONTAINER ID   NAME                    CPU %     MEM USAGE / LIMIT     MEM %     NET I/O         BLOCK I/O         PIDS
Dec 23 22:02:37 52c55a0d1158   prov_aic_janusgraph_1   217.03%   760.6MiB / 15.66GiB   4.74%     733kB / 345kB   0B / 332kB        49
Dec 23 22:02:37 175a7162e018   portainer               0.00%     16.11MiB / 15.66GiB   0.10%     9.05kB / 0B     58.1MB / 1.64MB   6
Dec 23 22:02:40 CONTAINER ID   NAME                    CPU %     MEM USAGE / LIMIT     MEM %     NET I/O         BLOCK I/O         PIDS
Dec 23 22:02:40 52c55a0d1158   prov_aic_janusgraph_1   87.85%    762.2MiB / 15.66GiB   4.75%     803kB / 379kB   0B / 332kB        49
Dec 23 22:02:40 175a7162e018   portainer               0.00%     16.11MiB / 15.66GiB   0.10%     9.14kB / 0B     58.1MB / 1.64MB   6
Dec 23 22:02:44 CONTAINER ID   NAME                    CPU %     MEM USAGE / LIMIT     MEM %     NET I/O          BLOCK I/O         PIDS
Dec 23 22:02:44 52c55a0d1158   prov_aic_janusgraph_1   34.43%    762.7MiB / 15.66GiB   4.76%     1.01MB / 479kB   0B / 332kB        49
Dec 23 22:02:44 175a7162e018   portainer               0.12%     16.11MiB / 15.66GiB   0.10%     9.35kB / 0B      58.1MB / 1.64MB   6
Dec 23 22:02:48 CONTAINER ID   NAME                    CPU %     MEM USAGE / LIMIT     MEM %     NET I/O          BLOCK I/O         PIDS
Dec 23 22:02:48 52c55a0d1158   prov_aic_janusgraph_1   0.10%     763.9MiB / 15.66GiB   4.76%     1.18MB / 557kB   0B / 332kB        49
Dec 23 22:02:48 175a7162e018   portainer               0.00%     16.11MiB / 15.66GiB   0.10%     9.35kB / 0B      58.1MB / 1.64MB   6
Dec 23 22:02:51 CONTAINER ID   NAME                    CPU %     MEM USAGE / LIMIT     MEM %     NET I/O          BLOCK I/O         PIDS
Dec 23 22:02:51 52c55a0d1158   prov_aic_janusgraph_1   71.07%    759.4MiB / 15.66GiB   4.73%     1.39MB / 660kB   0B / 332kB        49
Dec 23 22:02:51 175a7162e018   portainer               0.00%     16.11MiB / 15.66GiB   0.10%     9.35kB / 0B      58.1MB / 1.64MB   6
Dec 23 22:02:55 CONTAINER ID   NAME                    CPU %     MEM USAGE / LIMIT     MEM %     NET I/O          BLOCK I/O         PIDS
Dec 23 22:02:55 52c55a0d1158   prov_aic_janusgraph_1   98.47%    761.5MiB / 15.66GiB   4.75%     1.59MB / 751kB   0B / 332kB        49
Dec 23 22:02:55 175a7162e018   portainer               0.00%     16.11MiB / 15.66GiB   0.10%     9.35kB / 0B      58.1MB / 1.64MB   6
Dec 23 22:02:58 CONTAINER ID   NAME                    CPU %     MEM USAGE / LIMIT     MEM %     NET I/O         BLOCK I/O         PIDS
Dec 23 22:02:58 52c55a0d1158   prov_aic_janusgraph_1   0.31%     761.5MiB / 15.66GiB   4.75%     1.6MB / 757kB   0B / 332kB        49
Dec 23 22:02:58 175a7162e018   portainer               0.00%     16.11MiB / 15.66GiB   0.10%     9.35kB / 0B     58.1MB / 1.64MB   6
Dec 23 22:03:02 CONTAINER ID   NAME                    CPU %     MEM USAGE / LIMIT     MEM %     NET I/O          BLOCK I/O         PIDS
Dec 23 22:03:02 52c55a0d1158   prov_aic_janusgraph_1   1.84%     761.7MiB / 15.66GiB   4.75%     1.78MB / 842kB   0B / 332kB        49
Dec 23 22:03:02 175a7162e018   portainer               0.00%     16.11MiB / 15.66GiB   0.10%     9.35kB / 0B      58.1MB / 1.64MB   6
Dec 23 22:03:06 CONTAINER ID   NAME                    CPU %     MEM USAGE / LIMIT     MEM %     NET I/O          BLOCK I/O         PIDS
Dec 23 22:03:06 52c55a0d1158   prov_aic_janusgraph_1   3.34%     762.1MiB / 15.66GiB   4.75%     1.98MB / 939kB   0B / 332kB        49
Dec 23 22:03:06 175a7162e018   portainer               0.00%     16.11MiB / 15.66GiB   0.10%     9.35kB / 0B      58.1MB / 1.64MB   6
Dec 23 22:03:09 CONTAINER ID   NAME                    CPU %     MEM USAGE / LIMIT     MEM %     NET I/O       BLOCK I/O         PIDS
Dec 23 22:03:09 52c55a0d1158   prov_aic_janusgraph_1   0.09%     762.1MiB / 15.66GiB   4.75%     2MB / 945kB   0B / 332kB        49
Dec 23 22:03:09 175a7162e018   portainer               0.00%     16.11MiB / 15.66GiB   0.10%     9.35kB / 0B   58.1MB / 1.64MB   6
Dec 23 22:03:13 CONTAINER ID   NAME                    CPU %     MEM USAGE / LIMIT     MEM %     NET I/O           BLOCK I/O         PIDS
Dec 23 22:03:13 52c55a0d1158   prov_aic_janusgraph_1   2.87%     762.3MiB / 15.66GiB   4.75%     2.21MB / 1.05MB   0B / 332kB        49
Dec 23 22:03:13 175a7162e018   portainer               0.00%     16.11MiB / 15.66GiB   0.10%     9.35kB / 0B       58.1MB / 1.64MB   6
Dec 23 22:03:16 CONTAINER ID   NAME                    CPU %     MEM USAGE / LIMIT     MEM %     NET I/O          BLOCK I/O         PIDS
Dec 23 22:03:16 52c55a0d1158   prov_aic_janusgraph_1   0.13%     762.3MiB / 15.66GiB   4.75%     2.4MB / 1.14MB   0B / 332kB        49
Dec 23 22:03:16 175a7162e018   portainer               0.00%     16.11MiB / 15.66GiB   0.10%     9.35kB / 0B      58.1MB / 1.64MB   6
Dec 23 22:03:20 CONTAINER ID   NAME                    CPU %     MEM USAGE / LIMIT     MEM %     NET I/O           BLOCK I/O         PIDS
Dec 23 22:03:20 52c55a0d1158   prov_aic_janusgraph_1   88.47%    762.3MiB / 15.66GiB   4.75%     2.61MB / 1.24MB   0B / 332kB        49
Dec 23 22:03:20 175a7162e018   portainer               0.00%     16.11MiB / 15.66GiB   0.10%     9.35kB / 0B       58.1MB / 1.64MB   6
Dec 23 22:03:24 CONTAINER ID   NAME                    CPU %     MEM USAGE / LIMIT     MEM %     NET I/O           BLOCK I/O         PIDS
Dec 23 22:03:24 52c55a0d1158   prov_aic_janusgraph_1   33.79%    762.3MiB / 15.66GiB   4.75%     2.78MB / 1.32MB   0B / 332kB        49
Dec 23 22:03:24 175a7162e018   portainer               0.02%     16.11MiB / 15.66GiB   0.10%     9.35kB / 0B       58.1MB / 1.64MB   6
Dec 23 22:03:27 CONTAINER ID   NAME                    CPU %     MEM USAGE / LIMIT     MEM %     NET I/O           BLOCK I/O         PIDS
Dec 23 22:03:27 52c55a0d1158   prov_aic_janusgraph_1   0.11%     762.3MiB / 15.66GiB   4.75%     2.87MB / 1.36MB   0B / 332kB        49
Dec 23 22:03:27 175a7162e018   portainer               0.00%     16.11MiB / 15.66GiB   0.10%     9.35kB / 0B       58.1MB / 1.64MB   6
Dec 23 22:03:31 CONTAINER ID   NAME                    CPU %     MEM USAGE / LIMIT     MEM %     NET I/O           BLOCK I/O         PIDS
Dec 23 22:03:31 52c55a0d1158   prov_aic_janusgraph_1   0.13%     762.4MiB / 15.66GiB   4.75%     3.04MB / 1.44MB   0B / 332kB        49
Dec 23 22:03:31 175a7162e018   portainer               0.00%     16.11MiB / 15.66GiB   0.10%     9.35kB / 0B       58.1MB / 1.64MB   6
Dec 23 22:03:33 CONTAINER ID   NAME                    CPU %     MEM USAGE / LIMIT     MEM %     NET I/O           BLOCK I/O         PIDS
Dec 23 22:03:33 52c55a0d1158   prov_aic_janusgraph_1   35.08%    762.4MiB / 15.66GiB   4.75%     3.23MB / 1.53MB   0B / 332kB        49
Dec 23 22:03:33 175a7162e018   portainer               2.67%     16.61MiB / 15.66GiB   0.10%     9.35kB / 0B       58.1MB / 1.79MB   6
Dec 23 22:03:37 CONTAINER ID   NAME                    CPU %     MEM USAGE / LIMIT     MEM %     NET I/O           BLOCK I/O         PIDS
Dec 23 22:03:37 52c55a0d1158   prov_aic_janusgraph_1   0.14%     762.5MiB / 15.66GiB   4.75%     3.28MB / 1.56MB   0B / 332kB        49
Dec 23 22:03:37 175a7162e018   portainer               0.00%     16.61MiB / 15.66GiB   0.10%     9.35kB / 0B       58.1MB / 1.79MB   6
Dec 23 22:03:41 CONTAINER ID   NAME                    CPU %     MEM USAGE / LIMIT     MEM %     NET I/O          BLOCK I/O         PIDS
Dec 23 22:03:41 52c55a0d1158   prov_aic_janusgraph_1   2.62%     762.5MiB / 15.66GiB   4.75%     3.5MB / 1.66MB   0B / 332kB        49
Dec 23 22:03:41 175a7162e018   portainer               0.00%     16.61MiB / 15.66GiB   0.10%     9.35kB / 0B      58.1MB / 1.79MB   6
Dec 23 22:03:44 CONTAINER ID   NAME                    CPU %     MEM USAGE / LIMIT     MEM %     NET I/O           BLOCK I/O         PIDS
Dec 23 22:03:44 52c55a0d1158   prov_aic_janusgraph_1   9.32%     762.5MiB / 15.66GiB   4.75%     3.67MB / 1.74MB   0B / 332kB        49
Dec 23 22:03:44 175a7162e018   portainer               0.06%     16.62MiB / 15.66GiB   0.10%     9.35kB / 0B       58.1MB / 1.79MB   6
Dec 23 22:03:48 CONTAINER ID   NAME                    CPU %     MEM USAGE / LIMIT     MEM %     NET I/O           BLOCK I/O         PIDS
Dec 23 22:03:48 52c55a0d1158   prov_aic_janusgraph_1   0.35%     762.5MiB / 15.66GiB   4.75%     3.67MB / 1.74MB   0B / 332kB        49
Dec 23 22:03:48 175a7162e018   portainer               0.02%     16.62MiB / 15.66GiB   0.10%     9.35kB / 0B       58.1MB / 1.79MB   6
Dec 23 22:03:51 CONTAINER ID   NAME                    CPU %     MEM USAGE / LIMIT     MEM %     NET I/O           BLOCK I/O         PIDS
Dec 23 22:03:51 52c55a0d1158   prov_aic_janusgraph_1   0.35%     762.6MiB / 15.66GiB   4.75%     3.91MB / 1.86MB   0B / 332kB        49
Dec 23 22:03:51 175a7162e018   portainer               0.00%     16.62MiB / 15.66GiB   0.10%     9.35kB / 0B       58.1MB / 1.79MB   6
Dec 23 22:03:55 CONTAINER ID   NAME                    CPU %     MEM USAGE / LIMIT     MEM %     NET I/O           BLOCK I/O         PIDS
Dec 23 22:03:55 52c55a0d1158   prov_aic_janusgraph_1   0.27%     762.6MiB / 15.66GiB   4.75%     4.09MB / 1.94MB   0B / 332kB        49
Dec 23 22:03:55 175a7162e018   portainer               0.00%     16.62MiB / 15.66GiB   0.10%     9.35kB / 0B       58.1MB / 1.79MB   6
Dec 23 22:03:59 CONTAINER ID   NAME                    CPU %     MEM USAGE / LIMIT     MEM %     NET I/O           BLOCK I/O         PIDS
Dec 23 22:03:59 52c55a0d1158   prov_aic_janusgraph_1   8.72%     772.6MiB / 15.66GiB   4.82%     4.12MB / 1.95MB   0B / 332kB        49
Dec 23 22:03:59 175a7162e018   portainer               0.00%     16.62MiB / 15.66GiB   0.10%     9.35kB / 0B       58.1MB / 1.79MB   6
Dec 23 22:04:02 CONTAINER ID   NAME                    CPU %     MEM USAGE / LIMIT     MEM %     NET I/O           BLOCK I/O         PIDS
Dec 23 22:04:02 52c55a0d1158   prov_aic_janusgraph_1   0.14%     772.6MiB / 15.66GiB   4.82%     4.37MB / 2.07MB   0B / 332kB        49
Dec 23 22:04:02 175a7162e018   portainer               0.00%     16.62MiB / 15.66GiB   0.10%     9.35kB / 0B       58.1MB / 1.79MB   6
Dec 23 22:04:06 CONTAINER ID   NAME                    CPU %     MEM USAGE / LIMIT     MEM %     NET I/O           BLOCK I/O         PIDS
Dec 23 22:04:06 52c55a0d1158   prov_aic_janusgraph_1   0.37%     772.6MiB / 15.66GiB   4.82%     4.72MB / 2.24MB   0B / 332kB        49
Dec 23 22:04:06 175a7162e018   portainer               0.00%     16.62MiB / 15.66GiB   0.10%     9.35kB / 0B       58.1MB / 1.79MB   6
