Dec 23 22:14:52 CONTAINER ID   NAME        CPU %     MEM USAGE / LIMIT     MEM %     NET I/O       BLOCK I/O         PIDS
Dec 23 22:14:52 175a7162e018   portainer   0.00%     16.61MiB / 15.66GiB   0.10%     9.42kB / 0B   58.1MB / 2.09MB   7
Dec 23 22:14:52                --          0.00%     0B / 0B               0.00%     0B / 0B       0B / 0B           0
Dec 23 22:14:56 CONTAINER ID   NAME                    CPU %     MEM USAGE / LIMIT     MEM %     NET I/O       BLOCK I/O         PIDS
Dec 23 22:14:56 ab9885281d05   prov_aic_janusgraph_1   321.82%   508.3MiB / 15.66GiB   3.17%     3.77kB / 0B   0B / 233kB        21
Dec 23 22:14:56 175a7162e018   portainer               0.00%     16.61MiB / 15.66GiB   0.10%     9.42kB / 0B   58.1MB / 2.09MB   7
Dec 23 22:14:59 CONTAINER ID   NAME                    CPU %     MEM USAGE / LIMIT     MEM %     NET I/O       BLOCK I/O         PIDS
Dec 23 22:14:59 ab9885281d05   prov_aic_janusgraph_1   251.47%   741.6MiB / 15.66GiB   4.62%     6.5kB / 0B    0B / 233kB        23
Dec 23 22:14:59 175a7162e018   portainer               0.02%     16.61MiB / 15.66GiB   0.10%     9.42kB / 0B   58.1MB / 2.09MB   7
Dec 23 22:15:03 CONTAINER ID   NAME                    CPU %     MEM USAGE / LIMIT     MEM %     NET I/O       BLOCK I/O         PIDS
Dec 23 22:15:03 ab9885281d05   prov_aic_janusgraph_1   136.54%   99.49MiB / 15.66GiB   0.62%     6.72kB / 0B   0B / 332kB        16
Dec 23 22:15:03 175a7162e018   portainer               0.00%     16.61MiB / 15.66GiB   0.10%     9.42kB / 0B   58.1MB / 2.09MB   7
Dec 23 22:15:07 CONTAINER ID   NAME                    CPU %     MEM USAGE / LIMIT     MEM %     NET I/O       BLOCK I/O         PIDS
Dec 23 22:15:07 ab9885281d05   prov_aic_janusgraph_1   298.80%   582.5MiB / 15.66GiB   3.63%     6.72kB / 0B   0B / 332kB        21
Dec 23 22:15:07 175a7162e018   portainer               0.00%     16.61MiB / 15.66GiB   0.10%     9.42kB / 0B   58.1MB / 2.09MB   7
Dec 23 22:15:10 CONTAINER ID   NAME                    CPU %     MEM USAGE / LIMIT     MEM %     NET I/O       BLOCK I/O         PIDS
Dec 23 22:15:10 ab9885281d05   prov_aic_janusgraph_1   0.35%     725.1MiB / 15.66GiB   4.52%     7.09kB / 0B   0B / 332kB        22
Dec 23 22:15:10 175a7162e018   portainer               0.00%     16.61MiB / 15.66GiB   0.10%     9.42kB / 0B   58.1MB / 2.09MB   7
Dec 23 22:15:14 CONTAINER ID   NAME                    CPU %     MEM USAGE / LIMIT     MEM %     NET I/O       BLOCK I/O         PIDS
Dec 23 22:15:14 ab9885281d05   prov_aic_janusgraph_1   0.27%     720.4MiB / 15.66GiB   4.49%     7.09kB / 0B   0B / 332kB        22
Dec 23 22:15:14 175a7162e018   portainer               0.10%     16.61MiB / 15.66GiB   0.10%     9.42kB / 0B   58.1MB / 2.09MB   7
Dec 23 22:15:17 CONTAINER ID   NAME                    CPU %     MEM USAGE / LIMIT     MEM %     NET I/O       BLOCK I/O         PIDS
Dec 23 22:15:17 ab9885281d05   prov_aic_janusgraph_1   0.10%     720.4MiB / 15.66GiB   4.49%     7.09kB / 0B   0B / 332kB        22
Dec 23 22:15:17 175a7162e018   portainer               0.00%     16.61MiB / 15.66GiB   0.10%     9.42kB / 0B   58.1MB / 2.09MB   7
Dec 23 22:15:21 CONTAINER ID   NAME                    CPU %     MEM USAGE / LIMIT     MEM %     NET I/O       BLOCK I/O         PIDS
Dec 23 22:15:21 ab9885281d05   prov_aic_janusgraph_1   0.10%     720.4MiB / 15.66GiB   4.49%     7.09kB / 0B   0B / 332kB        22
Dec 23 22:15:21 175a7162e018   portainer               0.00%     16.61MiB / 15.66GiB   0.10%     9.42kB / 0B   58.1MB / 2.09MB   7
Dec 23 22:15:25 CONTAINER ID   NAME                    CPU %     MEM USAGE / LIMIT     MEM %     NET I/O       BLOCK I/O         PIDS
Dec 23 22:15:25 ab9885281d05   prov_aic_janusgraph_1   0.36%     720.4MiB / 15.66GiB   4.49%     7.25kB / 0B   0B / 332kB        22
Dec 23 22:15:25 175a7162e018   portainer               0.09%     16.61MiB / 15.66GiB   0.10%     9.42kB / 0B   58.1MB / 2.09MB   7
Dec 23 22:15:28 CONTAINER ID   NAME                    CPU %     MEM USAGE / LIMIT     MEM %     NET I/O       BLOCK I/O         PIDS
Dec 23 22:15:28 ab9885281d05   prov_aic_janusgraph_1   0.09%     720.4MiB / 15.66GiB   4.49%     7.46kB / 0B   0B / 332kB        22
Dec 23 22:15:28 175a7162e018   portainer               0.02%     16.61MiB / 15.66GiB   0.10%     9.42kB / 0B   58.1MB / 2.09MB   7
Dec 23 22:15:32 CONTAINER ID   NAME                    CPU %     MEM USAGE / LIMIT     MEM %     NET I/O       BLOCK I/O         PIDS
Dec 23 22:15:32 ab9885281d05   prov_aic_janusgraph_1   0.08%     720.4MiB / 15.66GiB   4.49%     7.46kB / 0B   0B / 332kB        22
Dec 23 22:15:32 175a7162e018   portainer               0.00%     16.61MiB / 15.66GiB   0.10%     9.42kB / 0B   58.1MB / 2.09MB   7
Dec 23 22:15:35 CONTAINER ID   NAME                    CPU %     MEM USAGE / LIMIT     MEM %     NET I/O           BLOCK I/O         PIDS
Dec 23 22:15:35 ab9885281d05   prov_aic_janusgraph_1   36.71%    735.3MiB / 15.66GiB   4.58%     12.7kB / 3.36kB   0B / 332kB        45
Dec 23 22:15:35 175a7162e018   portainer               0.00%     16.61MiB / 15.66GiB   0.10%     9.42kB / 0B       58.1MB / 2.09MB   7
Dec 23 22:15:39 CONTAINER ID   NAME                    CPU %     MEM USAGE / LIMIT     MEM %     NET I/O          BLOCK I/O         PIDS
Dec 23 22:15:39 ab9885281d05   prov_aic_janusgraph_1   104.58%   735.9MiB / 15.66GiB   4.59%     186kB / 85.6kB   0B / 332kB        55
Dec 23 22:15:39 175a7162e018   portainer               0.01%     16.61MiB / 15.66GiB   0.10%     9.42kB / 0B      58.1MB / 2.09MB   7
Dec 23 22:15:43 CONTAINER ID   NAME                    CPU %     MEM USAGE / LIMIT     MEM %     NET I/O         BLOCK I/O         PIDS
Dec 23 22:15:43 ab9885281d05   prov_aic_janusgraph_1   130.71%   750.5MiB / 15.66GiB   4.68%     370kB / 173kB   0B / 332kB        55
Dec 23 22:15:43 175a7162e018   portainer               0.00%     16.61MiB / 15.66GiB   0.10%     9.42kB / 0B     58.1MB / 2.09MB   7
Dec 23 22:15:45 CONTAINER ID   NAME                    CPU %     MEM USAGE / LIMIT     MEM %     NET I/O         BLOCK I/O         PIDS
Dec 23 22:15:45 ab9885281d05   prov_aic_janusgraph_1   0.12%     747.3MiB / 15.66GiB   4.66%     493kB / 232kB   0B / 332kB        55
Dec 23 22:15:45 175a7162e018   portainer               0.00%     16.61MiB / 15.66GiB   0.10%     9.42kB / 0B     58.1MB / 2.09MB   7
Dec 23 22:15:49 CONTAINER ID   NAME                    CPU %     MEM USAGE / LIMIT     MEM %     NET I/O         BLOCK I/O         PIDS
Dec 23 22:15:49 ab9885281d05   prov_aic_janusgraph_1   175.19%   749.4MiB / 15.66GiB   4.67%     733kB / 347kB   0B / 332kB        55
Dec 23 22:15:49 175a7162e018   portainer               0.01%     16.61MiB / 15.66GiB   0.10%     9.42kB / 0B     58.1MB / 2.09MB   7
Dec 23 22:15:52 CONTAINER ID   NAME                    CPU %     MEM USAGE / LIMIT     MEM %     NET I/O         BLOCK I/O         PIDS
Dec 23 22:15:52 ab9885281d05   prov_aic_janusgraph_1   86.94%    749.6MiB / 15.66GiB   4.67%     818kB / 388kB   0B / 332kB        55
Dec 23 22:15:52 175a7162e018   portainer               0.00%     16.61MiB / 15.66GiB   0.10%     9.42kB / 0B     58.1MB / 2.09MB   7
Dec 23 22:15:56 CONTAINER ID   NAME                    CPU %     MEM USAGE / LIMIT     MEM %     NET I/O         BLOCK I/O         PIDS
Dec 23 22:15:56 ab9885281d05   prov_aic_janusgraph_1   0.10%     751.4MiB / 15.66GiB   4.69%     973kB / 463kB   0B / 332kB        55
Dec 23 22:15:56 175a7162e018   portainer               0.00%     16.17MiB / 15.66GiB   0.10%     9.42kB / 0B     58.1MB / 2.09MB   7
Dec 23 22:16:00 CONTAINER ID   NAME                    CPU %     MEM USAGE / LIMIT     MEM %     NET I/O          BLOCK I/O         PIDS
Dec 23 22:16:00 ab9885281d05   prov_aic_janusgraph_1   28.69%    751.7MiB / 15.66GiB   4.69%     1.18MB / 561kB   0B / 332kB        55
Dec 23 22:16:00 175a7162e018   portainer               0.00%     16.17MiB / 15.66GiB   0.10%     9.42kB / 0B      58.1MB / 2.09MB   7
Dec 23 22:16:03 CONTAINER ID   NAME                    CPU %     MEM USAGE / LIMIT     MEM %     NET I/O         BLOCK I/O         PIDS
Dec 23 22:16:03 ab9885281d05   prov_aic_janusgraph_1   28.47%    751.9MiB / 15.66GiB   4.69%     1.4MB / 664kB   0B / 332kB        55
Dec 23 22:16:03 175a7162e018   portainer               0.00%     16.17MiB / 15.66GiB   0.10%     9.42kB / 0B     58.1MB / 2.09MB   7
Dec 23 22:16:07 CONTAINER ID   NAME                    CPU %     MEM USAGE / LIMIT     MEM %     NET I/O          BLOCK I/O         PIDS
Dec 23 22:16:07 ab9885281d05   prov_aic_janusgraph_1   33.03%    752MiB / 15.66GiB     4.69%     1.48MB / 703kB   0B / 332kB        55
Dec 23 22:16:07 175a7162e018   portainer               0.00%     16.17MiB / 15.66GiB   0.10%     9.42kB / 0B      58.1MB / 2.09MB   7
Dec 23 22:16:10 CONTAINER ID   NAME                    CPU %     MEM USAGE / LIMIT     MEM %     NET I/O         BLOCK I/O         PIDS
Dec 23 22:16:10 ab9885281d05   prov_aic_janusgraph_1   1.65%     752.3MiB / 15.66GiB   4.69%     1.6MB / 762kB   0B / 332kB        55
Dec 23 22:16:10 175a7162e018   portainer               0.00%     16.17MiB / 15.66GiB   0.10%     9.42kB / 0B     58.1MB / 2.09MB   7
Dec 23 22:16:14 CONTAINER ID   NAME                    CPU %     MEM USAGE / LIMIT     MEM %     NET I/O          BLOCK I/O         PIDS
Dec 23 22:16:14 ab9885281d05   prov_aic_janusgraph_1   122.46%   752.7MiB / 15.66GiB   4.69%     1.78MB / 848kB   0B / 332kB        55
Dec 23 22:16:14 175a7162e018   portainer               0.00%     16.17MiB / 15.66GiB   0.10%     9.42kB / 0B      58.1MB / 2.09MB   7
Dec 23 22:16:18 CONTAINER ID   NAME                    CPU %     MEM USAGE / LIMIT     MEM %     NET I/O          BLOCK I/O         PIDS
Dec 23 22:16:18 ab9885281d05   prov_aic_janusgraph_1   36.09%    752.7MiB / 15.66GiB   4.69%     1.86MB / 886kB   0B / 332kB        55
Dec 23 22:16:18 175a7162e018   portainer               0.02%     16.17MiB / 15.66GiB   0.10%     9.42kB / 0B      58.1MB / 2.09MB   7
Dec 23 22:16:21 CONTAINER ID   NAME                    CPU %     MEM USAGE / LIMIT     MEM %     NET I/O          BLOCK I/O         PIDS
Dec 23 22:16:21 ab9885281d05   prov_aic_janusgraph_1   3.05%     752.7MiB / 15.66GiB   4.69%     2.01MB / 957kB   0B / 332kB        55
Dec 23 22:16:21 175a7162e018   portainer               0.00%     16.17MiB / 15.66GiB   0.10%     9.42kB / 0B      58.1MB / 2.09MB   7
Dec 23 22:16:25 CONTAINER ID   NAME                    CPU %     MEM USAGE / LIMIT     MEM %     NET I/O          BLOCK I/O         PIDS
Dec 23 22:16:25 ab9885281d05   prov_aic_janusgraph_1   0.14%     752.9MiB / 15.66GiB   4.69%     2.2MB / 1.05MB   0B / 332kB        55
Dec 23 22:16:25 175a7162e018   portainer               0.00%     16.17MiB / 15.66GiB   0.10%     9.42kB / 0B      58.1MB / 2.09MB   7
Dec 23 22:16:29 CONTAINER ID   NAME                    CPU %     MEM USAGE / LIMIT     MEM %     NET I/O           BLOCK I/O         PIDS
Dec 23 22:16:29 ab9885281d05   prov_aic_janusgraph_1   1.46%     752.9MiB / 15.66GiB   4.69%     2.41MB / 1.15MB   0B / 332kB        55
Dec 23 22:16:29 175a7162e018   portainer               0.00%     16.17MiB / 15.66GiB   0.10%     9.42kB / 0B       58.1MB / 2.09MB   7
Dec 23 22:16:32 CONTAINER ID   NAME                    CPU %     MEM USAGE / LIMIT     MEM %     NET I/O           BLOCK I/O         PIDS
Dec 23 22:16:32 ab9885281d05   prov_aic_janusgraph_1   56.84%    753MiB / 15.66GiB     4.69%     2.62MB / 1.25MB   0B / 332kB        55
Dec 23 22:16:32 175a7162e018   portainer               0.00%     16.17MiB / 15.66GiB   0.10%     9.42kB / 0B       58.1MB / 2.09MB   7
Dec 23 22:16:36 CONTAINER ID   NAME                    CPU %     MEM USAGE / LIMIT     MEM %     NET I/O           BLOCK I/O         PIDS
Dec 23 22:16:36 ab9885281d05   prov_aic_janusgraph_1   0.50%     753MiB / 15.66GiB     4.69%     2.63MB / 1.25MB   0B / 332kB        55
Dec 23 22:16:36 175a7162e018   portainer               0.00%     16.18MiB / 15.66GiB   0.10%     9.42kB / 0B       58.1MB / 2.09MB   7
Dec 23 22:16:39 CONTAINER ID   NAME                    CPU %     MEM USAGE / LIMIT     MEM %     NET I/O           BLOCK I/O         PIDS
Dec 23 22:16:39 ab9885281d05   prov_aic_janusgraph_1   0.34%     753MiB / 15.66GiB     4.70%     2.87MB / 1.37MB   0B / 332kB        55
Dec 23 22:16:39 175a7162e018   portainer               0.02%     16.18MiB / 15.66GiB   0.10%     9.42kB / 0B       58.1MB / 2.09MB   7
Dec 23 22:16:43 CONTAINER ID   NAME                    CPU %     MEM USAGE / LIMIT     MEM %     NET I/O           BLOCK I/O         PIDS
Dec 23 22:16:43 ab9885281d05   prov_aic_janusgraph_1   1.14%     753.1MiB / 15.66GiB   4.70%     3.04MB / 1.45MB   0B / 332kB        55
Dec 23 22:16:43 175a7162e018   portainer               0.00%     16.18MiB / 15.66GiB   0.10%     9.42kB / 0B       58.1MB / 2.09MB   7
Dec 23 22:16:47 CONTAINER ID   NAME                    CPU %     MEM USAGE / LIMIT     MEM %     NET I/O           BLOCK I/O         PIDS
Dec 23 22:16:47 ab9885281d05   prov_aic_janusgraph_1   38.80%    753.1MiB / 15.66GiB   4.70%     3.26MB / 1.55MB   0B / 332kB        55
Dec 23 22:16:47 175a7162e018   portainer               0.00%     16.18MiB / 15.66GiB   0.10%     9.42kB / 0B       58.1MB / 2.09MB   7
Dec 23 22:16:50 CONTAINER ID   NAME                    CPU %     MEM USAGE / LIMIT     MEM %     NET I/O           BLOCK I/O         PIDS
Dec 23 22:16:50 ab9885281d05   prov_aic_janusgraph_1   45.23%    755.5MiB / 15.66GiB   4.71%     3.28MB / 1.57MB   0B / 332kB        55
Dec 23 22:16:50 175a7162e018   portainer               0.00%     16.18MiB / 15.66GiB   0.10%     9.42kB / 0B       58.1MB / 2.09MB   7
Dec 23 22:16:54 CONTAINER ID   NAME                    CPU %     MEM USAGE / LIMIT     MEM %     NET I/O          BLOCK I/O         PIDS
Dec 23 22:16:54 ab9885281d05   prov_aic_janusgraph_1   0.15%     755.5MiB / 15.66GiB   4.71%     3.5MB / 1.67MB   0B / 332kB        55
Dec 23 22:16:54 175a7162e018   portainer               0.02%     16.18MiB / 15.66GiB   0.10%     9.42kB / 0B      58.1MB / 2.09MB   7
Dec 23 22:16:57 CONTAINER ID   NAME                    CPU %     MEM USAGE / LIMIT     MEM %     NET I/O           BLOCK I/O         PIDS
Dec 23 22:16:57 ab9885281d05   prov_aic_janusgraph_1   42.14%    755.5MiB / 15.66GiB   4.71%     3.66MB / 1.75MB   0B / 332kB        55
Dec 23 22:16:57 175a7162e018   portainer               0.00%     16.18MiB / 15.66GiB   0.10%     9.42kB / 0B       58.1MB / 2.09MB   7
Dec 23 22:17:01 CONTAINER ID   NAME                    CPU %     MEM USAGE / LIMIT     MEM %     NET I/O           BLOCK I/O         PIDS
Dec 23 22:17:01 ab9885281d05   prov_aic_janusgraph_1   24.07%    755.5MiB / 15.66GiB   4.71%     3.83MB / 1.83MB   0B / 332kB        55
Dec 23 22:17:01 175a7162e018   portainer               0.00%     16.18MiB / 15.66GiB   0.10%     9.42kB / 0B       58.1MB / 2.09MB   7
Dec 23 22:17:05 CONTAINER ID   NAME                    CPU %     MEM USAGE / LIMIT     MEM %     NET I/O           BLOCK I/O         PIDS
Dec 23 22:17:05 ab9885281d05   prov_aic_janusgraph_1   0.12%     755.5MiB / 15.66GiB   4.71%     3.91MB / 1.87MB   0B / 332kB        55
Dec 23 22:17:05 175a7162e018   portainer               0.09%     16.18MiB / 15.66GiB   0.10%     9.42kB / 0B       58.1MB / 2.09MB   7
Dec 23 22:17:08 CONTAINER ID   NAME                    CPU %     MEM USAGE / LIMIT     MEM %     NET I/O           BLOCK I/O         PIDS
Dec 23 22:17:08 ab9885281d05   prov_aic_janusgraph_1   0.32%     765.5MiB / 15.66GiB   4.77%     4.09MB / 1.95MB   0B / 332kB        55
Dec 23 22:17:08 175a7162e018   portainer               0.00%     16.18MiB / 15.66GiB   0.10%     9.42kB / 0B       58.1MB / 2.09MB   7
Dec 23 22:17:12 CONTAINER ID   NAME                    CPU %     MEM USAGE / LIMIT     MEM %     NET I/O           BLOCK I/O         PIDS
Dec 23 22:17:12 ab9885281d05   prov_aic_janusgraph_1   22.52%    765.5MiB / 15.66GiB   4.77%     4.35MB / 2.08MB   0B / 332kB        55
Dec 23 22:17:12 175a7162e018   portainer               0.00%     16.18MiB / 15.66GiB   0.10%     9.42kB / 0B       58.1MB / 2.09MB   7
Dec 23 22:17:15 CONTAINER ID   NAME                    CPU %     MEM USAGE / LIMIT     MEM %     NET I/O           BLOCK I/O         PIDS
Dec 23 22:17:15 ab9885281d05   prov_aic_janusgraph_1   6.26%     765.5MiB / 15.66GiB   4.77%     4.39MB / 2.09MB   0B / 332kB        55
Dec 23 22:17:15 175a7162e018   portainer               0.00%     16.18MiB / 15.66GiB   0.10%     9.42kB / 0B       58.1MB / 2.09MB   7
Dec 23 22:17:19 CONTAINER ID   NAME                    CPU %     MEM USAGE / LIMIT     MEM %     NET I/O           BLOCK I/O         PIDS
Dec 23 22:17:19 ab9885281d05   prov_aic_janusgraph_1   0.10%     765.6MiB / 15.66GiB   4.77%     4.72MB / 2.26MB   0B / 332kB        55
Dec 23 22:17:19 175a7162e018   portainer               0.02%     16.18MiB / 15.66GiB   0.10%     9.42kB / 0B       58.1MB / 2.09MB   7
