
Batch, Params, start (ms), end (ms), diff (ms), V/ms, ms/V
1, EXP 1,  1613082630509, 1613082635951, 5442, 0.183756, 5, 
2, EXP 1,  1613082635965, 1613082638327, 2362, 0.423370, 2, 
3, EXP 1,  1613082638339, 1613082639680, 1341, 0.745712, 1, 
4, EXP 1,  1613082639691, 1613082641266, 1575, 0.634921, 1, 
5, EXP 1,  1613082641277, 1613082642353, 1076, 0.929368, 1, 
6, EXP 1,  1613082642364, 1613082643654, 1290, 0.775194, 1, 
7, EXP 1,  1613082643665, 1613082644584, 919, 1.088139, 0, 
8, EXP 1,  1613082644595, 1613082645399, 804, 1.243781, 0, 
9, EXP 1,  1613082645410, 1613082646258, 848, 1.179245, 0, 
10, EXP 1,  1613082646269, 1613082647045, 776, 1.288660, 0, 
Total runtime, 16,sec
