
Batch, Params, start (ms), end (ms), diff (ms), V/ms, ms/V
1, EXP 1,  1613082414578, 1613082420560, 5982, 0.167168, 5, 
2, EXP 1,  1613082420574, 1613082423219, 2645, 0.378072, 2, 
3, EXP 1,  1613082423230, 1613082425016, 1786, 0.559910, 1, 
4, EXP 1,  1613082425027, 1613082426497, 1470, 0.680272, 1, 
5, EXP 1,  1613082426508, 1613082427796, 1288, 0.776398, 1, 
6, EXP 1,  1613082427809, 1613082429120, 1311, 0.762776, 1, 
7, EXP 1,  1613082429131, 1613082430189, 1058, 0.945180, 1, 
8, EXP 1,  1613082430200, 1613082431204, 1004, 0.996016, 1, 
9, EXP 1,  1613082431215, 1613082432024, 809, 1.236094, 0, 
10, EXP 1,  1613082432036, 1613082432808, 772, 1.295337, 0, 
Total runtime, 18,sec
