file,machine,peakMemory_MiB,peakNetIO_kB
prov_AIC/docker/docker-stats-10.txt,portainer,17.08,11.6
prov_AIC/docker/docker-stats-10.txt,prov_aic_janusgraph_1,885.6,17900.0
prov_AIC/docker/docker-stats-1.txt,portainer,17.12,11.3
prov_AIC/docker/docker-stats-1.txt,prov_aic_janusgraph_1,878.7,17800.0
prov_AIC/docker/docker-stats-2.txt,portainer,17.09,11.3
prov_AIC/docker/docker-stats-2.txt,prov_aic_janusgraph_1,882.6,17900.0
prov_AIC/docker/docker-stats-3.txt,portainer,17.11,11.6
prov_AIC/docker/docker-stats-3.txt,prov_aic_janusgraph_1,896.5,17800.0
prov_AIC/docker/docker-stats-4.txt,portainer,17.07,11.6
prov_AIC/docker/docker-stats-4.txt,prov_aic_janusgraph_1,889.4,17800.0
prov_AIC/docker/docker-stats-5.txt,portainer,16.98,11.6
prov_AIC/docker/docker-stats-5.txt,prov_aic_janusgraph_1,885.7,17800.0
prov_AIC/docker/docker-stats-6.txt,portainer,17.05,11.6
prov_AIC/docker/docker-stats-6.txt,prov_aic_janusgraph_1,892.1,17800.0
prov_AIC/docker/docker-stats-7.txt,portainer,17.05,11.6
prov_AIC/docker/docker-stats-7.txt,prov_aic_janusgraph_1,879.8,17900.0
prov_AIC/docker/docker-stats-8.txt,portainer,17.12,11.6
prov_AIC/docker/docker-stats-8.txt,prov_aic_janusgraph_1,887.8,17800.0
prov_AIC/docker/docker-stats-9.txt,portainer,17.2,11.6
prov_AIC/docker/docker-stats-9.txt,prov_aic_janusgraph_1,878.2,17800.0
