DATE Container,Name,ID,CPUPerc,MemUsage/MemUsage,NetIO/NetIO,BlockIO/BlockIO,MemPerc,PIDs
Feb 11 22:33:38 ,1978b89d7961,janusgraph-memory,1978b89d7961,275.36%,342.8MiB / 15.66GiB,4.8kB / 96B,0B / 77.8kB,2.14%,21
Feb 11 22:33:41 ,1978b89d7961,janusgraph-memory,1978b89d7961,256.46%,696.9MiB / 15.66GiB,6.71kB / 96B,0B / 77.8kB,4.35%,21
Feb 11 22:33:44 ,1978b89d7961,janusgraph-memory,1978b89d7961,284.90%,759.6MiB / 15.66GiB,7.78kB / 138B,0B / 77.8kB,4.74%,24
Feb 11 22:33:47 ,1978b89d7961,janusgraph-memory,1978b89d7961,28.82%,29.79MiB / 15.66GiB,7.99kB / 138B,0B / 111kB,0.19%,16
Feb 11 22:33:50 ,1978b89d7961,janusgraph-memory,1978b89d7961,267.31%,498.3MiB / 15.66GiB,8.06kB / 138B,0B / 111kB,3.11%,21
Feb 11 22:33:53 ,1978b89d7961,janusgraph-memory,1978b89d7961,186.39%,716.9MiB / 15.66GiB,8.65kB / 138B,0B / 111kB,4.47%,22
Feb 11 22:33:56 ,1978b89d7961,janusgraph-memory,1978b89d7961,0.10%,716.8MiB / 15.66GiB,8.65kB / 138B,0B / 111kB,4.47%,22
Feb 11 22:33:59 ,1978b89d7961,janusgraph-memory,1978b89d7961,0.16%,712.2MiB / 15.66GiB,8.65kB / 138B,0B / 111kB,4.44%,22
Feb 11 22:34:02 ,1978b89d7961,janusgraph-memory,1978b89d7961,0.11%,712.2MiB / 15.66GiB,8.65kB / 138B,0B / 111kB,4.44%,22
Feb 11 22:34:05 ,1978b89d7961,janusgraph-memory,1978b89d7961,0.11%,712.2MiB / 15.66GiB,8.72kB / 138B,0B / 111kB,4.44%,22
Feb 11 22:34:08 ,1978b89d7961,janusgraph-memory,1978b89d7961,134.59%,727.6MiB / 15.66GiB,22.9kB / 7.6kB,0B / 111kB,4.54%,50
Feb 11 22:34:11 ,1978b89d7961,janusgraph-memory,1978b89d7961,180.41%,737.5MiB / 15.66GiB,214kB / 112kB,0B / 111kB,4.60%,50
Feb 11 22:34:14 ,1978b89d7961,janusgraph-memory,1978b89d7961,246.90%,744.8MiB / 15.66GiB,475kB / 254kB,0B / 111kB,4.64%,50
Feb 11 22:34:17 ,1978b89d7961,janusgraph-memory,1978b89d7961,188.84%,748.5MiB / 15.66GiB,937kB / 509kB,0B / 111kB,4.67%,50
Feb 11 22:34:20 ,1978b89d7961,janusgraph-memory,1978b89d7961,127.59%,747.4MiB / 15.66GiB,1.54MB / 843kB,0B / 111kB,4.66%,50
Feb 11 22:34:23 ,1978b89d7961,janusgraph-memory,1978b89d7961,68.92%,747.8MiB / 15.66GiB,2.4MB / 1.31MB,0B / 111kB,4.66%,50
Feb 11 22:34:26 ,1978b89d7961,janusgraph-memory,1978b89d7961,0.10%,747.9MiB / 15.66GiB,2.66MB / 1.46MB,0B / 111kB,4.66%,50
Feb 11 22:34:29 ,1978b89d7961,janusgraph-memory,1978b89d7961,0.16%,747.9MiB / 15.66GiB,2.66MB / 1.46MB,0B / 111kB,4.66%,50
Feb 11 22:34:32 ,1978b89d7961,janusgraph-memory,1978b89d7961,0.12%,747.9MiB / 15.66GiB,2.66MB / 1.46MB,0B / 111kB,4.66%,50
Feb 11 22:34:35 ,1978b89d7961,janusgraph-memory,1978b89d7961,0.10%,747.9MiB / 15.66GiB,2.66MB / 1.46MB,0B / 111kB,4.66%,50
Feb 11 22:34:38 ,1978b89d7961,janusgraph-memory,1978b89d7961,6.28%,747.9MiB / 15.66GiB,2.66MB / 1.46MB,0B / 111kB,4.66%,50
Feb 11 22:34:41 ,1978b89d7961,janusgraph-memory,1978b89d7961,2.50%,747.9MiB / 15.66GiB,2.66MB / 1.46MB,0B / 111kB,4.66%,50
Feb 11 22:34:44 ,1978b89d7961,janusgraph-memory,1978b89d7961,4.00%,747.9MiB / 15.66GiB,2.66MB / 1.46MB,0B / 111kB,4.66%,50
